Column	Row	x	y	Diameter	Intensity	Area	Trimmed	FeatureMedian	FeatureVariance	BackgroundMedian	Circularity	Perimeter	redMean	greenMean	blueMean	redMeanBack	greenMeanBack	blueMeanBack	redMedian	greenMedian	blueMedian	redMedianBack	greenMedianBack	blueMedianBack	Barcode	Filename
1	1	61	63	121	0.0064501993498112219	0.2464802696807456	0.0068432167369674004	9.6625772966325513e-05	0.00024529289086745802	-1.7813189354251239e-06	0.20423549418345177	0.031661048317800249	81.139715741485659	106.00026816840976	109.1989809600429	70.37850877192983	94.698771929824559	98.743508771929825	80.0	105.0	109.0	70.0	95.0	99.0	RhTFIso05r01_CHX_25	RhTFIso05r01_CHX_25
2	1	175	61	121	0.012569947389710578	0.24562099279529381	0.012755335223639109	0.00019390900532194154	0.0005393060030376974	-9.0628934409897834e-07	0.060575434440147527	0.058034238878974152	88.488159311087188	112.05059203444564	110.90635091496233	71.135985279943924	95.18075878384299	96.452554104968016	88.0	112.0	111.0	71.0	95.0	97.0	RhTFIso05r01_CHX_25	RhTFIso05r01_CHX_25
3	1	304	61	121	0.0099491998206185633	0.23385550928680018	0.010208882763510599	0.00015733172827150346	0.00043215084866378607	-1.0052254530868173e-06	0.065799721813159337	0.054332738449335713	86.321650650084791	109.159977388355	108.36461277557942	70.700025882149944	93.986886377361742	95.848848244327499	86.0	108.0	108.0	71.0	94.0	96.0	RhTFIso05r01_CHX_25	RhTFIso05r01_CHX_25
4	1	421	64	121	0.0089561840646363924	0.23517747372595676	0.0092666330929291434	0.00013669012035258393	0.00039047550180721367	-1.3673936345074977e-06	0.062029806626086724	0.056117390442197101	84.673693086003368	108.2433951658235	107.15626756604834	70.414052372310081	93.604096448016591	95.289862587503237	83.0	107.0	107.0	70.0	94.0	96.0	RhTFIso05r01_CHX_25	RhTFIso05r01_CHX_25
5	1	547	61	121	0.0085624518757430081	0.23134377685240268	0.0089378657790576705	0.00013382643971943998	0.00039465573782631192	-1.9164876059261954e-06	0.055277475354241365	0.058959613986383767	84.347714285714289	107.97142857142858	106.64285714285714	70.521197007481291	93.545446728007562	94.692664889500392	83.0	107.0	106.0	71.0	93.0	95.0	RhTFIso05r01_CHX_25	RhTFIso05r01_CHX_25
6	1	666	62	121	0.005661386432799247	0.21614118580210193	0.0060545099793015908	9.6643544854152697e-05	0.00031321678024987247	-1.5492806325099824e-06	0.1089985886029414	0.040584308282107212	82.5480122324159	105.3302752293578	104.96727828746177	70.14410995868117	93.252129184585542	93.850661944514712	82.0	104.0	105.0	70.0	93.0	94.0	RhTFIso05r01_CHX_25	RhTFIso05r01_CHX_25
7	1	795	66	121	0.0060707689066119208	0.22209002577830655	0.0065001605742429592	9.5919214173067086e-05	0.00033989501449216381	-2.0707008731140412e-06	0.088685161235553076	0.045607773150902239	83.377083333333331	105.55952380952381	103.89107142857142	70.264933299345742	93.442858356699801	92.915710765570566	82.0	104.0	103.0	70.0	93.0	93.0	RhTFIso05r01_CHX_25	RhTFIso05r01_CHX_25
8	1	917	63	121	0.0056200616438153977	0.20464009518143961	0.0061301150292588334	8.3898326065565894e-05	0.0011107275547857965	-1.4179459982312057e-06	0.063620533980769362	0.051688809571022537	83.094315245478043	105.89890180878552	103.23998708010336	69.937338984459402	92.577744535859722	91.21183412282889	81.0	104.0	102.0	70.0	92.0	91.0	RhTFIso05r01_CHX_25	RhTFIso05r01_CHX_25
9	1	1039	61	121	0.0033499520947781838	0.1577103575913808	0.0039547738399588871	8.2275177826785938e-05	0.00026111533622253367	-1.57617049945547e-06	0.081646026767149688	0.040055522506444577	81.408214585079634	104.28876781223805	101.46479463537301	68.543278662795259	91.296084124617437	90.156556540845955	80.0	103.0	100.0	68.0	91.0	90.0	RhTFIso05r01_CHX_25	RhTFIso05r01_CHX_25
10	1	1162	61	121	0.0015824597730636652	0.080309339678762637	0.0022524051652732572	9.6242556186417171e-05	0.00027426918963994822	-2.8306609878463146e-06	0.062312581558805813	0.032718619869125519	81.873251028806578	103.93086419753087	101.33744855967078	68.734799482535578	90.868405922092862	89.758085381630011	81.0	103.0	100.0	68.0	90.0	89.0	RhTFIso05r01_CHX_25	RhTFIso05r01_CHX_25
11	1	1277	61	121	0.0033526363789034039	0.14839050829532685	0.0040873915935885439	9.1532590964070692e-05	0.00030328613925490486	-2.8648778743932646e-06	0.059427541712366506	0.045541674928944412	82.924276169265028	104.51714922048998	101.29933184855234	67.640561937286563	89.968643278484947	88.847485253027017	82.0	103.0	101.0	67.0	89.0	88.0	RhTFIso05r01_CHX_25	RhTFIso05r01_CHX_25
12	1	1406	61	121	0.0025055902816409573	0.11182427613749822	0.0033214868970189442	0.00010206363392602124	0.00031306066924066385	-2.3139590272770991e-06	0.033669219741663772	0.054557124518613609	81.621173469387756	104.63329081632654	101.58035714285714	65.735827846475033	88.788260799743057	88.196723944114339	80.0	103.0	101.0	65.0	88.0	88.0	RhTFIso05r01_CHX_25	RhTFIso05r01_CHX_25
1	2	61	173	121	0.00086668678109747509	0.04084870116993853	0.0010979762099457477	6.8677442456897597e-05	0.00051728019684539584	-6.9325669754615089e-07	0.1847951704859957	0.013550135501355014	80.982200647249186	105.07281553398059	106.18446601941747	70.28626559162015	95.02735855557853	97.113224450416922	79.0	103.0	105.0	70.0	95.0	97.0	RhTFIso05r01_CHX_25	RhTFIso05r01_CHX_25
2	2	178	180	121	0.012500647968799385	0.23398770573071584	0.012831358620483301	0.000197697836304478	0.00053280886512930583	-1.1722114164952111e-06	0.040736202902709615	0.069072641945931657	88.883050847457625	112.4454802259887	108.93079096045197	70.095521615324884	94.068168090430575	94.967123996893605	88.0	112.0	108.0	70.0	94.0	95.0	RhTFIso05r01_CHX_25	RhTFIso05r01_CHX_25
3	2	299	176	121	0.011834554327004795	0.23438429506246283	0.012141446594500347	0.00018103186507682	0.00051618586102060405	-1.3765344395396883e-06	0.03571430877287339	0.073831713926895373	87.854483925549914	111.86181613085166	108.61449520586577	70.358801692135032	93.823707157040488	94.826901493568158	87.0	111.0	107.0	70.0	94.0	95.0	RhTFIso05r01_CHX_25	RhTFIso05r01_CHX_25
4	2	423	184	121	0.00037568408953282044	0.013219644391565867	0.00050232278816790218	0.00014055912014712319	0.000251091658513474	-2.5476331019328067e-07	0.10878090905781833	0.010046929737590058	82.674999999999997	106.38500000000001	104.70999999999999	70.43566213410142	93.644383414830202	94.577533659320778	82.0	106.0	104.0	70.0	94.0	95.0	RhTFIso05r01_CHX_25	RhTFIso05r01_CHX_25
5	2	542	182	121	0.014210752323444436	0.24443122480005289	0.014424912752349705	0.00021199617267238051	0.00056193044016456081	-1.0142217190858227e-06	0.037784499908446602	0.073302928151232738	89.877501352082206	112.87128177393186	109.79772850189292	70.545971481060278	93.83098591549296	93.814364447554894	89.0	112.0	109.0	71.0	94.0	94.0	RhTFIso05r01_CHX_25	RhTFIso05r01_CHX_25
6	2	677	175	121	0.010926051595822231	0.2384162866018904	0.011264205358423349	0.00016582700243459938	0.00038784206439543246	-1.746365459003975e-06	0.03959026884967555	0.07072509749487739	86.807596340449123	109.97116717493762	106.48988078735792	69.98715500781114	93.290834924492273	92.830758548863045	86.0	109.0	106.0	70.0	93.0	93.0	RhTFIso05r01_CHX_25	RhTFIso05r01_CHX_25
7	2	795	178	121	0.011422405352501988	0.23233525018177012	0.011709402553329029	0.00017746163525269673	0.00054149627790777441	-1.2918777867138846e-06	0.035149889832873905	0.074096106814726684	87.430725462304409	110.57866287339972	107.5325746799431	70.312726020320298	93.573187532288614	91.894868262441875	86.0	109.0	107.0	70.0	93.0	92.0	RhTFIso05r01_CHX_25	RhTFIso05r01_CHX_25
8	2	917	182	121	0.046728839579554662	0.27556348734219049	0.047008521177071133	0.00071801327535006272	0.0030675041914539989	-9.7071231771226744e-07	0.0055986433839687617	0.20219446096899993	119.60733988966179	142.37299112497001	129.58359318781481	69.733120437956202	92.352098540145988	90.136770072992704	123.0	146.0	131.0	70.0	92.0	90.0	RhTFIso05r01_CHX_25	RhTFIso05r01_CHX_25
9	2	1039	180	121	0.0063257297293221266	0.21283627470421046	0.0068387485560564383	0.00010729252278418076	0.00034426592900188601	-1.5878970876211371e-06	0.044553305878092524	0.062991605525811359	82.817080745341613	106.09409937888199	102.40683229813665	68.376521958182892	91.375682257116466	89.422705516836004	82.0	105.0	101.0	68.0	91.0	89.0	RhTFIso05r01_CHX_25	RhTFIso05r01_CHX_25
10	2	1160	182	121	0.0078620685665485648	0.22632031198360764	0.0083985114138734399	0.00012078009507293762	0.00052317446625538885	-2.769571634725169e-06	0.039552596898619022	0.068940445502016001	84.85280373831776	107.29410046728972	103.52774532710281	68.412900469884661	90.787612131567712	89.008885091841094	84.0	106.0	102.0	69.0	91.0	89.0	RhTFIso05r01_CHX_25	RhTFIso05r01_CHX_25
11	2	1279	177	121	0.0039713560010934679	0.16630312644589862	0.0046225314212525286	9.2886730888325859e-05	0.00029007934042352487	-2.3025316137804936e-06	0.046005678453013829	0.05479542600304052	82.223370429252782	104.57154213036566	100.98926868044515	67.521128993895189	89.888606992785228	88.924918734638865	81.0	103.0	100.0	67.0	89.0	89.0	RhTFIso05r01_CHX_25	RhTFIso05r01_CHX_25
12	2	1406	182	121	0.010561877266911247	0.24418770503494508	0.011150519531860083	0.00016072655002857442	0.00061629463039116069	-2.6129498933661957e-06	0.022110328995550318	0.099486521181001278	85.890771028037378	108.97079439252336	105.27453271028037	65.279864125306659	88.390545385921868	87.224570673712023	85.0	108.0	104.0	65.0	88.0	87.0	RhTFIso05r01_CHX_25	RhTFIso05r01_CHX_25
1	3	61	303	121	0.012895318203732126	0.31614779562429773	0.013467877380883741	0.00014739251942698072	0.00051030328840726761	-2.8968755590819451e-06	0.01969356926813778	0.11547359376032784	84.787581016098684	109.86661091365252	108.17520384695797	71.393292093562735	95.443649719698428	96.694181326116379	84.0	109.0	108.0	71.0	95.0	97.0	RhTFIso05r01_CHX_25	RhTFIso05r01_CHX_25
2	3	183	299	121	0.016103147717363018	0.3129750809703219	0.0166480759679925	0.0002014683704852219	0.00064546751993004687	-2.6405081919197149e-06	0.01571245965291828	0.12862713992993588	89.117634635691658	112.10369588173178	108.3558606124604	71.932845872618813	95.527900711949201	94.923898402924763	89.0	112.0	108.0	72.0	95.0	95.0	RhTFIso05r01_CHX_25	RhTFIso05r01_CHX_25
3	3	306	303	121	0.013415411095722821	0.25870844074294402	0.013800816192189442	0.00019473918332774527	0.00050948698390173132	-1.7167378618409017e-06	0.030980583638575081	0.083283759666864965	88.347981604496681	112.41083290751149	108.43484925907001	71.288185465893889	94.506821221578249	93.94373606776638	88.0	112.0	108.0	71.0	95.0	94.0	RhTFIso05r01_CHX_25	RhTFIso05r01_CHX_25
4	3	424	303	121	0.020587499353194896	0.24654636790270343	0.020833330368134811	0.00032214455657474556	0.00083814899575124257	-5.6696053988574112e-07	0.019162192486132885	0.10337761914204507	96.059785522788204	119.82734584450402	114.35522788203754	71.211334327572601	93.685060092990611	93.222124747784889	96.0	119.0	114.0	71.0	94.0	93.0	RhTFIso05r01_CHX_25	RhTFIso05r01_CHX_25
5	3	556	303	121	0.0096848158305390952	0.23716042038469165	0.010053562617638446	0.00015655709168083717	0.00027922660085324025	-1.7533680317110907e-06	0.061390427060722674	0.056646176217859737	85.899665551839462	108.67642140468227	105.63433667781494	69.659648210726971	93.004332380209689	93.513387054847939	86.0	108.0	105.0	70.0	93.0	94.0	RhTFIso05r01_CHX_25	RhTFIso05r01_CHX_25
6	3	677	299	121	0.0095331289855094103	0.23530967016987242	0.0099030017123216182	0.00014631332908298305	0.00045459960279112634	-1.617177335137037e-06	0.039001464975636141	0.070791195716835217	84.988764044943821	109.0688202247191	105.87359550561797	69.668337799291209	93.354049615351371	92.80231653556919	84.0	108.0	105.0	69.0	93.0	93.0	RhTFIso05r01_CHX_25	RhTFIso05r01_CHX_25
7	3	795	303	121	0.0086265252972434637	0.23213695551589661	0.0091456868366088517	0.00013729907077339703	0.00044188869324916899	-2.7877458088949709e-06	0.037837014401259784	0.07138607971445568	84.813496583143504	108.19191343963554	104.53843963553531	68.69234742188172	92.068864594990103	91.610828957562191	84.0	107.0	104.0	69.0	92.0	92.0	RhTFIso05r01_CHX_25	RhTFIso05r01_CHX_25
8	3	913	299	121	0.0075554600794328231	0.22949302663758345	0.0080232970808699761	0.00012523445347399322	0.00027762808100614096	-1.960541714735649e-06	0.063948371000965953	0.054597131337167031	84.290898617511516	106.62327188940093	102.98876728110599	69.208372651625638	91.878442137771302	90.610963369649141	84.0	106.0	102.0	69.0	92.0	90.0	RhTFIso05r01_CHX_25	RhTFIso05r01_CHX_25
9	3	1039	296	121	0.0091429889766657217	0.23193866085002313	0.0095897204232700262	0.00013950208623820148	0.0005261287858994441	-1.2729948829097011e-06	0.036442474781641601	0.072708044153612261	85.590766600170994	108.0282131661442	103.94186377885437	68.633304647160074	91.524698795180726	89.551807228915663	84.0	107.0	103.0	69.0	91.0	89.0	RhTFIso05r01_CHX_25	RhTFIso05r01_CHX_25
10	3	1161	297	121	0.0092983792324462296	0.23286403595743274	0.0098868010278605929	0.00014322507059887576	0.00061834006389135737	-2.6602710859442878e-06	0.028063590101517408	0.08301936677903364	85.605166051660518	108.39227930740846	103.97587283565143	68.232035154230573	90.915819403756672	89.256419093572291	84.0	107.0	103.0	68.0	91.0	89.0	RhTFIso05r01_CHX_25	RhTFIso05r01_CHX_25
11	3	1284	303	121	0.0053076563607356757	0.19227972767532553	0.0059653939459801755	9.912161560478514e-05	0.00039759350007810502	-2.3421285675443995e-06	0.035067281618020432	0.067486284618943751	83.431075971124102	105.65589549673427	101.83602612581643	66.70990180032733	89.367594108019645	88.800981996726676	82.0	104.0	101.0	66.0	89.0	89.0	RhTFIso05r01_CHX_25	RhTFIso05r01_CHX_25
12	3	1406	296	121	0.0062827645375307202	0.20738838967337042	0.0069763164223826191	0.00010854340560404374	0.00043442008862165741	-2.6107806558485685e-06	0.035752132816522189	0.072100984167736415	82.997592847317748	106.20013755158185	102.00825309491059	65.439715673924781	88.901565592945829	87.818247255713516	82.0	105.0	101.0	65.0	88.0	88.0	RhTFIso05r01_CHX_25	RhTFIso05r01_CHX_25
1	4	67	425	121	0.0137912464076874	0.32414568048119508	0.014360962427313334	0.00016032356885949047	0.00052981045128062964	-3.0228584975963802e-06	0.021075025304475695	0.11302795954788816	86.128262642740623	109.79955138662316	107.80995106035888	71.567432762836191	95.23149144254279	96.033740831295844	85.0	109.0	107.0	71.0	95.0	96.0	RhTFIso05r01_CHX_25	RhTFIso05r01_CHX_25
2	4	179	422	121	0.015406831377760785	0.31905611739044221	0.015906791446750397	0.00018995213551014869	0.00062279695680523292	-2.3886287674829635e-06	0.020361303624181364	0.11408553109921343	88.233685518955866	111.40397762585457	108.1205717837166	72.25626092020967	95.830227140361089	94.809163269268097	88.0	111.0	108.0	72.0	96.0	95.0	RhTFIso05r01_CHX_25	RhTFIso05r01_CHX_25
3	4	300	421	121	0.014426615586298873	0.26842487937074494	0.014759535187766869	0.00020121016615319817	0.00052430969533828731	-1.2972073537790183e-06	0.024105540116395697	0.096172912948641678	89.851268160551584	112.30731346958878	108.74390544200936	71.570383086375131	94.676725695699318	93.76075171666065	89.0	111.0	108.0	72.0	95.0	93.0	RhTFIso05r01_CHX_25	RhTFIso05r01_CHX_25
4	4	428	425	121	0.0116929065062684	0.2365655363870712	0.011995081332926868	0.00017722661486693092	0.00052267525822345283	-1.0519645157684024e-06	0.039209618861742061	0.070791195716835217	87.461302039675886	111.0148086057558	107.77926795194189	70.609523809523807	93.570216450216449	93.644415584415583	86.0	110.0	107.0	71.0	94.0	94.0	RhTFIso05r01_CHX_25	RhTFIso05r01_CHX_25
5	4	550	427	121	0.0077967970006574553	0.23643333994315552	0.0081736075071538131	0.0001272162402488721	0.00019925902513988369	-2.3999490279904892e-06	0.095796063056236891	0.045277282041113094	83.60357841766843	106.87168017892088	104.24405926754264	69.088729224376735	92.87248961218836	93.85517659279779	83.0	106.0	104.0	69.0	93.0	94.0	RhTFIso05r01_CHX_25	RhTFIso05r01_CHX_25
6	4	667	425	121	0.018965429318632338	0.24390243902439024	0.019279894949814365	0.00029859053994959794	0.00098493655461261587	-1.3331893293308034e-06	0.015894998727227071	0.11289576310397251	94.772628726287266	117.93712737127372	113.18428184281842	69.413322842905842	92.949296267156214	93.213130518401954	94.0	117.0	112.0	69.0	93.0	93.0	RhTFIso05r01_CHX_25	RhTFIso05r01_CHX_25
7	4	790	427	121	0.0075920307856553789	0.23081499107674003	0.0080827386661035654	0.00011255422114580582	0.00046635575720501131	-2.3113142212231847e-06	0.036464548782119986	0.072509749487738778	82.906071019473075	107.12084765177549	103.85681557846506	68.893787058520232	92.528486723382315	92.2933745810776	81.0	106.0	103.0	69.0	92.0	92.0	RhTFIso05r01_CHX_25	RhTFIso05r01_CHX_25
8	4	912	420	121	0.0086036476698251024	0.23101328574261351	0.0090354041406810401	0.00013466442271611168	0.00039410354172008419	-2.0766235505131116e-06	0.038576978167716429	0.070526802829003893	84.584549356223178	107.77539341917024	104.51473533619456	68.742221076156099	92.297576070139243	91.439745573319584	84.0	107.0	103.0	69.0	92.0	91.0	RhTFIso05r01_CHX_25	RhTFIso05r01_CHX_25
9	4	1037	427	121	0.0080743103263285921	0.23220305373785446	0.0085294962904710128	0.00011731148436223714	0.00078635528672029017	-2.2771569810128276e-06	0.046154101865001164	0.064644061074757092	84.285510959294044	107.6151437517791	104.14261315115286	69.235967630853992	91.870781680440771	90.597710055096414	83.0	106.0	103.0	69.0	92.0	90.0	RhTFIso05r01_CHX_25	RhTFIso05r01_CHX_25
10	4	1162	427	121	0.0066398373143792379	0.21660387335580672	0.0069959441696796848	0.00010459581591236718	0.00039683895885307582	-1.3203569603369923e-06	0.04167863974921461	0.065701632626082362	83.098565761367098	106.10009154714677	102.79646017699115	69.230256496793785	92.185960175497812	89.993840701991232	82.0	105.0	102.0	69.0	92.0	90.0	RhTFIso05r01_CHX_25	RhTFIso05r01_CHX_25
11	4	1284	425	121	0.0066378266593557396	0.21369555158966225	0.007345098175243937	0.00011082428456730114	0.00050577350926370981	-2.6100701290827282e-06	0.027979598282552441	0.079648357459184346	83.154964429322604	106.68357562635323	102.09619548407052	66.446620712844648	89.51832548755884	88.702420981842636	82.0	105.0	101.0	66.0	89.0	88.0	RhTFIso05r01_CHX_25	RhTFIso05r01_CHX_25
12	4	1406	423	121	0.0051889050819199228	0.20275281700185424	0.0059083613431825978	9.6094739160136234e-05	0.00035746305646916797	-3.2879267104362864e-06	0.036673504963330932	0.070389388104407355	81.7425255012311	105.13119943721421	101.47203658107632	65.754718668932824	89.602558368369259	88.535468288755709	81.0	104.0	100.0	65.0	89.0	88.0	RhTFIso05r01_CHX_25	RhTFIso05r01_CHX_25
1	5	61	541	121	0.035523824251634133	0.31343776852402672	0.035949868911223669	0.00047885460142522377	0.0012849383015533001	-1.3282537134249083e-06	0.027352605304240569	0.097560975609756101	121.34816533108393	126.22079291438212	109.37621256853649	72.331664580725914	94.680080870318662	93.788389332819875	125.0	128.0	110.0	72.0	95.0	94.0	RhTFIso05r01_CHX_25	RhTFIso05r01_CHX_25
2	5	183	539	121	0.01811852831770331	0.3187917245026109	0.018418545333121782	0.0002101899991149186	0.0010011814103410665	-7.4475418108376719e-07	0.021576405591594336	0.11078062000132197	90.088534107402026	114.05390835579514	109.48206510470662	72.626140112555788	95.864059771007177	94.656704832136626	89.0	114.0	109.0	73.0	96.0	94.0	RhTFIso05r01_CHX_25	RhTFIso05r01_CHX_25
3	5	300	546	121	0.014376405740532987	0.26022869984797409	0.014665633947934346	0.00020543291955130497	0.0004780457114550203	-1.2494510771625354e-06	0.032861406926556751	0.081102518342256597	88.955803911607816	112.61544323088646	108.56591313182626	71.25491422444604	94.483202287348107	93.616958541815578	88.0	112.0	108.0	71.0	94.0	93.0	RhTFIso05r01_CHX_25	RhTFIso05r01_CHX_25
4	5	421	539	121	0.011913932021211375	0.24026703681670963	0.012164197927120568	0.00017647090267856731	0.00049958324106270122	-5.9141841258796363e-07	0.037342554652737163	0.073104633485359241	86.703713892709771	111.36918844566712	107.86685006877579	70.724551940142689	93.89220462850183	94.214720723855919	85.0	110.0	107.0	71.0	94.0	94.0	RhTFIso05r01_CHX_25	RhTFIso05r01_CHX_25
5	5	553	544	121	0.011763467600748768	0.23801969727014344	0.01205609444019288	0.00016785075635135149	0.00092682176706932525	-1.3627673263165211e-06	0.038087282705418217	0.072047061934033971	87.482921410719243	111.19772285476256	107.75728964176618	69.788861901457324	93.793979875086748	94.20133587786259	86.0	109.0	106.0	70.0	94.0	94.0	RhTFIso05r01_CHX_25	RhTFIso05r01_CHX_25
6	5	670	545	121	0.010223321970558608	0.2487276092273118	0.010489405497530836	0.00015031383919259317	0.00040577341790827966	-1.2842698647171911e-06	0.043385347967067389	0.069006543723973829	84.926388519798039	108.96173266011161	106.09593409513685	70.339609361252855	94.274238958296678	93.435949322540907	84.0	108.0	105.0	70.0	94.0	93.0	RhTFIso05r01_CHX_25	RhTFIso05r01_CHX_25
7	5	788	546	121	0.012150183108916518	0.24350584969264327	0.012444848547554673	0.00018367864395202728	0.00059325170992818345	-1.2182457310416711e-06	0.028567529086674284	0.084143036552316738	86.34961997828448	111.40282301845819	107.43186753528774	69.285364788117079	93.259239842726075	92.571690694626469	85.0	110.0	106.0	69.0	93.0	92.0	RhTFIso05r01_CHX_25	RhTFIso05r01_CHX_25
8	5	917	540	121	0.0097008745510546186	0.2406636261484566	0.010086316126657969	0.00014215936888544456	0.0004697666857079553	-2.3401062817471822e-06	0.035832215057468676	0.074690990812347147	85.017852238396046	109.12441636912936	105.33397418291678	69.107851671309191	92.709435933147631	91.31780988857939	84.0	108.0	104.0	69.0	93.0	91.0	RhTFIso05r01_CHX_25	RhTFIso05r01_CHX_25
9	5	1042	537	121	0.010435481936248912	0.24059752792649877	0.010790184491582883	0.00015727103073488925	0.00051673065777713503	-1.1806698929598709e-06	0.038999077522482849	0.071584374380329163	85.71098901098901	109.05549450549451	105.66675824175825	68.189485594916874	91.807206893550358	90.217947602054139	84.0	108.0	105.0	68.0	92.0	90.0	RhTFIso05r01_CHX_25	RhTFIso05r01_CHX_25
10	5	1155	546	121	0.012639254443544723	0.24614977857095643	0.013010892964038585	0.00017655962746075457	0.00081595930386570386	-1.0179247887658154e-06	0.028121605773615506	0.085266706325599836	88.044307196562841	110.77846401718583	106.54296455424274	67.867777290661991	90.99956159579132	89.336694432266555	86.0	109.0	105.0	68.0	91.0	89.0	RhTFIso05r01_CHX_25	RhTFIso05r01_CHX_25
11	5	1284	538	121	0.0081054749425959333	0.22572542798598719	0.0086243815397962411	0.00012653835800292124	0.00055294816765888237	-2.361486700634452e-06	0.031403029684029166	0.077268821468702495	83.861493411420199	107.55080527086383	103.63308931185945	66.270360252689088	89.97353593990097	88.758920949291451	82.0	106.0	102.0	66.0	90.0	89.0	RhTFIso05r01_CHX_25	RhTFIso05r01_CHX_25
12	5	1406	546	121	0.0093116567416550444	0.23784053630009985	0.0099846616161027406	0.00012380349910805932	0.0015059445517656253	-2.8333214883444646e-06	0.02774609931727743	0.08764798174297532	85.598500749625188	108.87016491754123	104.54482758620689	65.024422195190425	88.888930476279597	87.737250865537575	83.0	106.0	102.0	64.0	88.0	88.0	RhTFIso05r01_CHX_25	RhTFIso05r01_CHX_25
1	6	61	668	121	0.011514990229461801	0.26366580738978124	0.011774899433304929	0.0001577780942780656	0.00045410286375384797	-8.6370626096257558e-07	0.053829367103201416	0.063784784189305305	86.418149912258713	110.63223865630484	109.52343945851091	71.400628366247759	95.549371633752244	95.682046678635544	86.0	110.0	109.0	71.0	96.0	96.0	RhTFIso05r01_CHX_25	RhTFIso05r01_CHX_25
2	6	174	667	121	0.014971755327280319	0.26274043228237159	0.015225690992894432	0.00021289843797781642	0.00055017878300352369	-1.1439066066767183e-06	0.031413535946055497	0.083349857888822793	88.856603773584908	113.37081761006289	109.36427672955975	71.756410256410263	95.401380670611445	94.569750762058447	88.0	113.0	109.0	72.0	95.0	94.0	RhTFIso05r01_CHX_25	RhTFIso05r01_CHX_25
3	6	305	661	121	0.014390324188055432	0.2458192874611673	0.01461724611832191	0.00020982708624970483	0.00078744375198474149	-4.153760460917458e-07	0.029624891168760496	0.08301936677903364	89.197902662005916	113.00161333691852	109.22855606345792	70.674671340929009	94.591849255039435	93.892725679228747	88.0	111.0	108.0	71.0	95.0	94.0	RhTFIso05r01_CHX_25	RhTFIso05r01_CHX_25
4	6	428	666	121	0.013263453500840069	0.24919029678101659	0.0135357039445274	0.00019547013629770538	0.00051728798020934897	-9.3384127824062499e-07	0.032735573933090574	0.079516161015268691	88.124137931034483	111.92599469496021	108.15994694960212	70.253279337969886	94.236640549344131	94.274407958447043	87.0	111.0	107.0	70.0	94.0	95.0	RhTFIso05r01_CHX_25	RhTFIso05r01_CHX_25
5	6	549	669	121	0.011411493022293636	0.24654636790270343	0.011668076644572117	0.00016194814357753899	0.00050832408933276861	-1.1824616834630129e-06	0.036130273379957396	0.07528587480996761	86.248793565683641	110.96514745308311	107.91796246648794	69.961663303798574	94.225019738573565	94.686726905868937	85.0	109.0	107.0	70.0	94.0	95.0	RhTFIso05r01_CHX_25	RhTFIso05r01_CHX_25
6	6	667	675	121	0.013387439995488604	0.25718818163791396	0.013696489529185828	0.00018197957452389504	0.00059721701590503709	-1.1491261247344363e-06	0.026828942694360241	0.089232599643069607	87.518889745566696	111.90850681058853	108.29966589565664	69.824256985228686	93.8842320697633	94.022779854066556	86.0	110.0	107.0	70.0	94.0	94.0	RhTFIso05r01_CHX_25	RhTFIso05r01_CHX_25
7	6	787	671	121	0.018374813634029	0.25672549408420914	0.018603309275019835	0.00026797689071218962	0.00082689826817990586	-9.8785324971328796e-07	0.023735084521440367	0.09478485028752727	92.684860968074148	117.28604531410916	112.30046343975283	69.583992885726985	93.713294797687865	92.184615384615384	92.0	116.0	112.0	69.0	94.0	92.0	RhTFIso05r01_CHX_25	RhTFIso05r01_CHX_25
8	6	917	667	121	0.0104064233809522	0.25051226122017317	0.010793494547495272	0.00014392353836255997	0.00074300605285974376	-1.6827002086660971e-06	0.033073989325292548	0.079317866349395208	85.051715039577843	109.04696569920844	105.33430079155673	69.056177793456214	92.595202398800595	91.444748214128225	83.0	107.0	104.0	69.0	92.0	91.0	RhTFIso05r01_CHX_25	RhTFIso05r01_CHX_25
9	6	1039	664	121	0.0094550656155803613	0.24059752792649877	0.0098732076869521637	0.00013989097649634951	0.00053382892124785282	-1.7021258304424659e-06	0.038288726677264524	0.072245356599907468	84.486263736263737	108.70521978021978	105.07087912087913	67.01766907476717	91.003655670641479	90.230046131081906	83.0	107.0	104.0	67.0	91.0	90.0	RhTFIso05r01_CHX_25	RhTFIso05r01_CHX_25
10	6	1162	668	121	0.0077959840152956551	0.22592372265186067	0.0084698208682884146	0.00012486163322936842	0.00053718400219539384	-3.0424631255429948e-06	0.034673013903221382	0.073567321039064049	83.59449970743124	107.38150965476888	103.49180807489761	66.411493467679961	89.975578515925193	89.107761933225177	82.0	106.0	102.0	66.0	90.0	89.0	RhTFIso05r01_CHX_25	RhTFIso05r01_CHX_25
11	6	1284	667	121	0.0097120363428549079	0.2406636261484566	0.01027914098913483	0.00014032373660801808	0.00061742758734228194	-3.0603271397682763e-06	0.027156960338936605	0.085795492101262472	85.221642405932442	109.16149409502884	104.37489700631694	66.05074860724234	89.56389275766017	88.741556406685234	83.0	108.0	103.0	66.0	89.0	89.0	RhTFIso05r01_CHX_25	RhTFIso05r01_CHX_25
12	6	1406	671	121	0.010241183447326552	0.25809442304949365	0.010741406114952449	0.0001409778774297638	0.00055560614641396368	-2.2431719160422502e-06	0.036977313458266166	0.079090001426330048	85.021000276319427	107.86874827300359	103.1530809615916	64.679803902720366	88.45679131019898	87.950687301739876	84.0	106.0	102.0	64.0	88.0	88.0	RhTFIso05r01_CHX_25	RhTFIso05r01_CHX_25
1	7	61	788	121	0.0076040614969455425	0.25784916385749224	0.0080357421942058999	0.00011828220505128364	0.00061617126857537764	-1.3143205104097845e-06	0.072905133501807148	0.054200542005420058	85.159189951294536	110.10279415534478	108.27018713150474	71.502226576416106	95.575792661204133	96.945938724617022	84.0	109.0	108.0	72.0	96.0	97.0	RhTFIso05r01_CHX_25	RhTFIso05r01_CHX_25
2	7	183	788	121	0.015907066012534977	0.34086853063652589	0.016255846056666058	0.00018458889343550311	0.00063179997554289121	-1.7917700294814912e-06	0.033734986047992944	0.091612135633551459	86.6616249757611	111.19177816560016	107.37812681791739	72.248395507420781	96.234556758924995	94.552246289610906	86.0	111.0	107.0	72.0	96.0	94.0	RhTFIso05r01_CHX_25	RhTFIso05r01_CHX_25
3	7	306	788	121	0.013816806629755271	0.27080441536122679	0.014051761722029021	0.00019656038745336795	0.00041820993936065562	-1.0380491936014905e-06	0.044057965657787253	0.071452177936413508	88.588479375152545	112.42226019038321	108.03612399316573	71.089013778100067	94.975344452501815	94.255710659898483	88.0	112.0	108.0	71.0	95.0	94.0	RhTFIso05r01_CHX_25	RhTFIso05r01_CHX_25
4	7	423	789	121	0.012835047311788301	0.24998347544451055	0.013021293466661314	0.00018353854096367529	0.00054504026151892002	4.4208519519242993e-08	0.035319570201773474	0.076673937471082032	87.821787414066634	111.44632469592808	107.91538868323639	70.723274874416148	94.408301753767518	93.959813166475726	86.0	110.0	107.0	71.0	94.0	94.0	RhTFIso05r01_CHX_25	RhTFIso05r01_CHX_25
5	7	541	786	121	0.012180449003539807	0.25084275232996234	0.012503261475480454	0.00017625175713332941	0.00055021047246274664	-1.1907189046980164e-06	0.034600745047793813	0.077599312578491633	86.524901185770744	111.41791831357048	108.15599472990777	70.100229398270685	94.371007587788952	94.345332627492496	86.0	110.0	107.0	70.0	94.0	95.0	RhTFIso05r01_CHX_25	RhTFIso05r01_CHX_25
6	7	667	788	121	0.013393312140538844	0.25011567188842621	0.013669695023964923	0.00018550625450557045	0.00057075239078472305	-8.9125367976352656e-07	0.031328498168914913	0.081433009452045735	87.406976744186053	111.57003171247358	107.90909090909091	70.005024239753197	94.055707360070514	93.833494931687966	86.0	110.0	106.0	70.0	94.0	94.0	RhTFIso05r01_CHX_25	RhTFIso05r01_CHX_25
7	7	795	796	121	0.01239876016546149	0.26207945006279332	0.012720831675996809	0.00015571914259142905	0.0010169757742363858	-1.0211179677171681e-06	0.029987980582811845	0.085200608103642009	86.722320302648171	110.756368221942	106.86027742749054	69.284575420996063	93.722680042995336	92.063238982443565	85.0	109.0	105.0	69.0	94.0	92.0	RhTFIso05r01_CHX_25	RhTFIso05r01_CHX_25
8	7	910	784	121	0.013446110415214861	0.25434595809372729	0.013750867873680741	0.00013426293571529196	0.0029876745110750521	-6.58900356900497e-07	0.017590406467328817	0.10959085200608104	88.554313929313935	112.2289501039501	107.54158004158005	69.011523801081466	93.028100345714037	90.509352007800729	84.0	107.0	103.0	69.0	93.0	90.0	RhTFIso05r01_CHX_25	RhTFIso05r01_CHX_25
9	7	1040	781	121	0.0090540230682807175	0.23947385815321567	0.0094851347485941078	0.00013299633361615274	0.00051726165338843654	-1.6163530965350457e-06	0.032096278156579665	0.078722982351774731	84.803753795197352	108.13221087496549	104.62213635109026	67.358595515383271	91.625065183382588	90.091952025030423	84.0	107.0	103.0	67.0	92.0	90.0	RhTFIso05r01_CHX_25	RhTFIso05r01_CHX_25
10	7	1162	783	121	0.0095039116261910091	0.23735871505056513	0.010079780326193029	0.00013907954351796394	0.00061096100178129813	-2.1493463158755274e-06	0.031812789086469111	0.078722982351774731	84.208298524087994	108.57170704539125	104.11111111111111	64.876841740336275	89.570462818512738	88.717542035014731	83.0	107.0	103.0	65.0	89.0	89.0	RhTFIso05r01_CHX_25	RhTFIso05r01_CHX_25
11	7	1277	794	121	0.0087211286665214854	0.23028620530107741	0.0093426205257721284	0.00013285079878617759	0.00062881869483957342	-2.176781598365391e-06	0.028200182942029167	0.08235838455945535	84.706371986222734	107.66791044776119	103.68369690011481	65.964877629884072	89.943580936024048	88.342722198368392	83.0	106.0	103.0	66.0	90.0	88.0	RhTFIso05r01_CHX_25	RhTFIso05r01_CHX_25
12	7	1414	792	121	1.9057704384346075e-05	0.0	0.0			4.5225003268266806e-07	0.0	0.0025310630464795212				63.275885872066269	87.51211842307103	87.594646418162299				63.0	87.0	88.0	RhTFIso05r01_CHX_25	RhTFIso05r01_CHX_25
1	8	61	903	121	0.012570695053266207	0.27100271002710025	0.012890017598352189	0.00016340552238431268	0.0011985310417399471	-1.3230572777539625e-06	0.037509260095394681	0.077467116134575978	87.866341463414628	113.10536585365854	110.24146341463414	71.096926285247989	95.716656088493977	96.276271647474843	86.0	111.0	109.0	71.0	96.0	96.0	RhTFIso05r01_CHX_25	RhTFIso05r01_CHX_25
2	8	179	901	121	0.015428364364661941	0.26353361094586558	0.015590091740099364	0.00021524965697057078	0.00055492547446636328	-5.0708457355961575e-07	0.037298316316131938	0.076607839249124204	89.095560571858542	114.32279909706546	110.00125407574617	71.541733979536886	95.746544605995339	94.634266738467062	88.0	113.0	109.0	71.0	96.0	94.0	RhTFIso05r01_CHX_25	RhTFIso05r01_CHX_25
3	8	298	903	121	0.013411069899123195	0.25593231542071521	0.0136670652979383	0.00018207616653283099	0.00056935898786050787	-2.0823371890605125e-06	0.032005090491872744	0.081499107674003562	88.205320247933884	112.55397727272727	108.47469008264463	71.041751798880696	94.953095851470195	93.887803144709963	87.0	111.0	107.0	71.0	95.0	94.0	RhTFIso05r01_CHX_25	RhTFIso05r01_CHX_25
4	8	419	906	121	0.016564039642337807	0.25593231542071521	0.016725252070693742	0.00023595895616061627	0.00063215867029983079	-5.9389575625793985e-07	0.028396572251923841	0.086522572542798604	90.528925619834709	114.74586776859505	110.36027892561984	70.767700097716983	94.509993781646969	94.284356400461931	90.0	113.0	109.0	71.0	94.0	94.0	RhTFIso05r01_CHX_25	RhTFIso05r01_CHX_25
5	8	553	903	121	0.013915744541369027	0.26716901315354619	0.014186806970532595	0.00018921569382253291	0.0005179048796176061	-1.3624128272916031e-06	0.030381493797131065	0.085465000991473333	87.801088570014841	111.74294903513112	108.39782285997032	70.28943808063498	94.333453594299627	94.365202489402009	87.0	111.0	107.0	70.0	94.0	95.0	RhTFIso05r01_CHX_25	RhTFIso05r01_CHX_25
6	8	669	901	121	0.013424457539983494	0.2534866812082755	0.01372184392330889	0.00018626228776118665	0.00060591371620472055	-1.1054337681728796e-06	0.03291580582341877	0.079978848568973498	87.230769230769226	112.31629726205998	108.40026075619296	69.679829998229152	94.191340534797234	93.417478307065693	86.0	111.0	107.0	70.0	94.0	93.0	RhTFIso05r01_CHX_25	RhTFIso05r01_CHX_25
7	8	795	913	121	0.013107377926708245	0.25652719941833563	0.013404604945148071	0.00018111713335679217	0.00058973136439508271	-2.0791731887019342e-06	0.032079482489400339	0.081499107674003562	87.224684359701115	111.66967276475135	107.6477711929915	69.012980085348502	93.599395448079662	91.743154338549076	86.0	110.0	106.0	69.0	94.0	91.0	RhTFIso05r01_CHX_25	RhTFIso05r01_CHX_25
8	8	912	910	121	0.0096524283196484824	0.24846321633948046	0.010136398454829249	0.00013996599356107427	0.00048228567210846523	-2.2430790434860005e-06	0.037059052030631472	0.074624892590389319	84.120244745943069	108.4437350359138	104.5706304868316	68.745734388742306	93.169393139841688	90.937994722955139	83.0	107.0	103.0	69.0	93.0	91.0	RhTFIso05r01_CHX_25	RhTFIso05r01_CHX_25
9	8	1037	910	121	0.014410689269229931	0.25527133320113687	0.014875951832016275	0.00019461914236448946	0.00084699145862836441	-1.4561046534511458e-06	0.020950424571313735	0.10060149381981624	89.196530295183848	112.38322112894873	107.96374935266701	67.233602556137399	91.85630602644892	89.900949676045087	87.0	110.0	106.0	67.0	92.0	90.0	RhTFIso05r01_CHX_25	RhTFIso05r01_CHX_25
10	8	1154	910	121	0.007154280700790462	0.23028620530107741	0.00766543835025195	0.00010872611605793643	0.00043483330610115845	-2.7590009192804617e-06	0.034654160931050892	0.074294401480600167	82.478473019517793	106.59443168771527	102.90929965556832	66.145126663804206	90.453756977243458	88.670502361528548	81.0	105.0	102.0	66.0	90.0	88.0	RhTFIso05r01_CHX_25	RhTFIso05r01_CHX_25
11	8	1284	910	121	0.010827634878243154	0.25361887765219115	0.011474335645161239	0.00015037595004144125	0.00062960947881498738	-2.3622513071982323e-06	0.027299311955331206	0.087844536981955185	85.739379723742502	109.49674224654679	103.4917904612979	66.688009210060216	91.074920297555792	88.796758767268869	84.0	108.0	102.0	67.0	91.0	89.0	RhTFIso05r01_CHX_25	RhTFIso05r01_CHX_25
12	8	1402	905	121	-3.5186480685253427e-05	0.0	0.0			8.9451134074034684e-08	0.0	0.0026181617748380873				63.356552294336502	88.027490698635802	87.218134215240454				63.0	88.0	87.0	RhTFIso05r01_CHX_25	RhTFIso05r01_CHX_25
