A01	0	0.0096784956074716585	Growth
A02	0	0.010910575371661216	Growth
A03	0	0.0059359612305929935	Growth
A04	0	0.0070683179465116496	Growth
A05	0	0.011195738373549317	Growth
A06	3	0.027848090001427454	Growth
A07	0	0.0071853375412214513	Growth
A08	0	0.0082897438822223737	Growth
A09	4	0.017081011799871568	Growth
A10	0	0.0079850879724956622	Growth
A11	0	0.0082101032354949741	Growth
A12	0	0.011651972657165466	Growth
B01	0	0.015554755952102112	Growth
B02	0	0.013849676087617833	Growth
B03	0	0.012336028067416327	Growth
B04	0	0.0094585838080366042	Growth
B05	0	0.02107414093302673	Growth
B06	0	0.013853800797943539	Growth
B07	0	0.012717494409688432	Growth
B08	0	0.012483116582350058	Growth
B09	0	0.0096758146889705746	Growth
B10	0	0.012331473009051049	Growth
B11	0	0.012361530429387254	Growth
B12	0	0.015242992433457933	Growth
C01	NA	2.2860758986867843e-05	Growth
C02	0	0.023518896567454869	Growth
C03	0	0.016797608481042149	Growth
C04	0	0.013132696070471964	Growth
C05	0	0.012144507957458521	Growth
C06	0	0.020035560393428711	Growth
C07	0	0.0070408677848380116	Growth
C08	0	0.013335917127765773	Growth
C09	0	0.012961192389003427	Growth
C10	0	0.011656611836500587	Growth
C11	0	0.012687188752384847	Growth
C12	0	0.012358361347452452	Growth
D01	0	0.018587359983337881	Growth
D02	0	0.011635688227566549	Growth
D03	0	0.018152238939189446	Growth
D04	0	0.015509878674796376	Growth
D05	0	0.012835492615088602	Growth
D06	0	0.014082281583457241	Growth
D07	0	0.012866292117901076	Growth
D08	0	0.010710338251287598	Growth
D09	0	0.012819164149873321	Growth
D10	1	0.019491087735407513	Growth
D11	0	0.01177058852307802	Growth
D12	0	0.012782774169808638	Growth
E01	0	0.023427915402858324	Growth
E02	0	0.01321697524955133	Growth
E03	0	0.01593277958470396	Growth
E04	0	0.015596103546290558	Growth
E05	0	0.013781951226508363	Growth
E06	0	0.014659795364706903	Growth
E07	0	0.011892493118332429	Growth
E08	0	0.019483114615329832	Growth
E09	0	0.011191214394968516	Growth
E10	0	0.011944631770442478	Growth
E11	0	0.020611758823108204	Growth
E12	0	0.012547871149046584	Growth
F01	0	0.017287653871759876	Growth
F02	0	0.016586619026735992	Growth
F03	0	0.014818881219816947	Growth
F04	0	0.015832401371510024	Growth
F05	0	0.018780630890729701	Growth
F06	0	0.013013112220532511	Growth
F07	0	0.011970750714520915	Growth
F08	0	0.020655580350802345	Growth
F09	0	0.01825487978708561	Growth
F10	0	0.011747981953996529	Growth
F11	0	0.012621148938912263	Growth
F12	0	0.014405237922599302	Growth
G01	0	0.019254706159068956	Growth
G02	0	0.017034727252721441	Growth
G03	0	0.013959388278205748	Growth
G04	0	0.015979299347209066	Growth
G05	0	0.0187174091588104	Growth
G06	0	0.01415384926368372	Growth
G07	0	0.014318128083067698	Growth
G08	0	0.014539743113932068	Growth
G09	0	0.011630769063564968	Growth
G10	0	0.012468651664540503	Growth
G11	0	0.012550760389434057	Growth
G12	NA	0.0010203660919385932	Growth
H01	0	0.021838954603635639	Growth
H02	0	0.016641340340648059	Growth
H03	0	0.020240538777889772	Growth
H04	NA	0.00013304319091954215	Growth
H05	0	0.017561598928402564	Growth
H06	0	0.015807661791263888	Growth
H07	NA	7.7915641556082397e-06	Growth
H08	0	0.014208134951017637	Growth
H09	0	0.012652328006125976	Growth
H10	0	0.019563031925399051	Growth
H11	0	0.013265885105991602	Growth
H12	NA	0.00077403062466605737	Growth











I12	NA
