A01	0	0.019595054617019877	Growth
A02	0	0.014356276575404244	Growth
A03	0	0.013853174334162397	Growth
A04	0	0.013789282577897322	Growth
A05	0	0.01459264473750818	Growth
A06	0	0.021238775750341509	Growth
A07	NA	2.757982139151829e-05	Growth
A08	NA	2.9007710408792975e-05	Growth
A09	NA	9.600429326668467e-05	Growth
A10	NA	0.00012077620095054703	Growth
A11	NA	0.00016504844745909004	Growth
A12	NA	0.00038911656835508365	Growth
B01	NA	0.00027146604278641237	Growth
B02	0	0.017560339846406207	Growth
B03	0	0.015651413763221215	Growth
B04	0	0.020675094339756495	Growth
B05	0	0.017543298175578214	Growth
B06	NA	5.0969620551926596e-05	Growth
B07	NA	6.754030981117485e-05	Growth
B08	NA	7.3269159815672814e-05	Growth
B09	NA	5.589928304087151e-05	Growth
B10	NA	0.0001480341361312146	Growth
B11	NA	0.00026724327751786927	Growth
B12	NA	0.00039200487084451059	Growth
C01	0	0.017547746230104598	Growth
C02	3	0.035935775483815574	Growth
C03	NA	0.00012822044269624223	Growth
C04	1	0.016173243122329321	Growth
C05	0	0.017918923730322705	Growth
C06	NA	0.00013951387851143194	Growth
C07	NA	9.4447552189880909e-05	Growth
C08	NA	5.9407986756909983e-05	Growth
C09	NA	0.00011676381074206304	Growth
C10	NA	0.00014958426774670729	Growth
C11	NA	0.00016296758034557146	Growth
C12	NA	0.0003130106129814016	Growth
D01	0	0.018164459684501557	Growth
D02	0	0.016014188714656701	Growth
D03	0	0.015618476796327087	Growth
D04	1	0.016582117900704511	Growth
D05	0	0.015940848194155838	Growth
D06	NA	0.00014276661477114451	Growth
D07	NA	8.2480205907141892e-05	Growth
D08	NA	0.0001408215225744193	Growth
D09	NA	0.00014469311389463533	Growth
D10	NA	0.00015556679639795569	Growth
D11	NA	0.00028610044000440164	Growth
D12	NA	0.00043864440469352058	Growth
E01	0	0.01681034565298949	Growth
E02	0	0.016796294441659698	Growth
E03	0	0.014620045127330812	Growth
E04	0	0.017637244166757254	Growth
E05	0	0.018510490261161146	Growth
E06	NA	8.5174658707398666e-05	Growth
E07	NA	0.00018232730801459522	Growth
E08	NA	7.8892605025150114e-05	Growth
E09	NA	0.0001789387199772551	Growth
E10	NA	0.0001710554613570273	Growth
E11	NA	0.00024626721670236953	Growth
E12	NA	0.00046912782317117354	Growth
F01	0	0.019097719278178722	Growth
F02	0	0.017765009996505914	Growth
F03	0	0.016607344805440273	Growth
F04	0	0.013173562085674962	Growth
F05	0	0.017027890156984776	Growth
F06	NA	0.00019677881205426814	Growth
F07	NA	0.00017612830609851151	Growth
F08	NA	0.00017002285633564948	Growth
F09	NA	0.00036902534900038457	Growth
F10	NA	0.00024648450121642101	Growth
F11	NA	0.0002758297309211275	Growth
F12	NA	0.00039931572882302555	Growth
G01	0	0.01857491136817906	Growth
G02	0	0.014621635667533569	Growth
G03	0	0.018233671612953271	Growth
G04	0	0.013805277715621626	Growth
G05	3	0.032702962193981264	Growth
G06	NA	0.00030230269094853738	Growth
G07	NA	0.00029173987539425985	Growth
G08	NA	0.000598502302777057	Growth
G09	NA	0.00011263647770517752	Growth
G10	NA	0.00040632831665654004	Growth
G11	NA	0.0002714643305031566	Growth
G12	NA	0.0006312180729640607	Growth
H01	0	0.016463057837221837	Growth
H02	0	0.017143584585328765	Growth
H03	0	0.016755585167169879	Growth
H04	0	0.013107105811527912	Growth
H05	0	0.017917759466963827	Growth
H06	NA	0.00075004093912645975	Growth
H07	NA	0.00062118242803640771	Growth
H08	NA	0.00085764870859711536	Growth
H09	NA	0.00058355596603877234	Growth
H10	NA	0.00064839670815457543	Growth
H11	NA	0.00062156646644771047	Growth
H12	NA	0.00035570359159313626	Growth











I12	NA
