A01	0	0.014647607184351246	Growth
A02	4	0.049797201414152899	Growth
A03	0	0.0084241678691357319	Growth
A04	1	0.020963799064301951	Growth
A05	4	0.065975698259601034	Growth
A06	1	0.013272381231326052	Growth
A07	0	0.010172516966065004	Growth
A08	1	0.023907836185785267	Growth
A09	4	0.064422315334163163	Growth
A10	0	0.014995135898840441	Growth
A11	1	0.0087558974538564458	Growth
A12	0	0.013256575119754886	Growth
B01	0	0.012913160636901171	Growth
B02	3	0.033526866915580864	Growth
B03	4	0.03743949576338635	Growth
B04	4	0.051063652491793343	Growth
B05	NA	5.5937874157626354e-05	Growth
B06	0	0.011726143695898073	Growth
B07	4	0.038618456109041625	Growth
B08	4	0.052533046546923784	Growth
B09	4	0.059378755626490365	Growth
B10	0	0.0070018431410923797	Growth
B11	0	0.013528293239696234	Growth
B12	0	0.011775523197321327	Growth
C01	NA	0.0011822997185184857	Growth
C02	0	0.015717317068603031	Growth
C03	0	0.013623838474846483	Growth
C04	0	0.012400373242172561	Growth
C05	4	0.05832667535197706	Growth
C06	1	0.022133567514012291	Growth
C07	4	0.047442427104990526	Growth
C08	0	0.011758271091791703	Growth
C09	0	0.011265645701142853	Growth
C10	0	0.0086403679090238435	Growth
C11	0	0.0096630617908477056	Growth
C12	4	0.077832259601808798	Growth
D01	2	0.02799867790837085	Growth
D02	0	0.013569831559754383	Growth
D03	0	0.017425969022432906	Growth
D04	3	0.045163613623135201	Growth
D05	4	0.055740661104526835	Growth
D06	0	0.012391065066223237	Growth
D07	1	0.020744411997294345	Growth
D08	4	0.052656860699017739	Growth
D09	1	0.021060353195817651	Growth
D10	0	0.0067967268331273816	Growth
D11	0	0.0078517438141243977	Growth
D12	0	0.018916245466041589	Growth
E01	3	0.044040229393207821	Growth
E02	0	0.012862544355258944	Growth
E03	0	0.014507928200237762	Growth
E04	NA	0.00011930347834008428	Growth
E05	0	0.016131130917664511	Growth
E06	NA	6.8415103978354519e-05	Growth
E07	0	0.012865592220584738	Growth
E08	NA	-3.9116883442093419e-06	Growth
E09	0	0.014549656063179912	Growth
E10	4	0.058586023691276648	Growth
E11	4	0.06939619814469572	Growth
E12	4	0.044439451445036707	Growth
F01	0	0.014224826079340579	Growth
F02	0	0.013112046233948703	Growth
F03	0	0.0128910909551786	Growth
F04	0	0.012900738625655335	Growth
F05	1	0.025910517429864059	Growth
F06	0	0.012023123520102867	Growth
F07	0	0.010757794157371598	Growth
F08	1	0.035283360726493775	Growth
F09	4	0.056571293693487075	Growth
F10	0	0.010258884354150408	Growth
F11	0	0.011851461096976924	Growth
F12	0	0.010953849603662828	Growth
G01	0	0.014552080299430269	Growth
G02	0	0.014409123949411609	Growth
G03	0	0.016453693865565531	Growth
G04	4	0.047818011151477616	Growth
G05	4	0.070215107444351041	Growth
G06	3	0.05080256169588912	Growth
G07	2	0.024303852987015775	Growth
G08	0	0.0098869319226965388	Growth
G09	0	0.010212325986950765	Growth
G10	NA	-6.2169270722930626e-05	Growth
G11	4	0.067471987809475303	Growth
G12	NA	-1.1187814587777236e-05	Growth
H01	4	0.083673783056944603	Growth
H02	0	0.015783567801410547	Growth
H03	0	0.017926469882981372	Growth
H04	0	0.014798126925369267	Growth
H05	4	0.062140527166934398	Growth
H06	0	0.012620702502908386	Growth
H07	0	0.014282644789512949	Growth
H08	0	0.012705366216293177	Growth
H09	0	0.010640908776384196	Growth
H10	2	0.020854980181360748	Growth
H11	4	0.052419054400599574	Growth
H12	NA	-1.5180314958191242e-06	Growth











I12	NA
