Column	Row	x	y	Diameter	Intensity	Area	Trimmed	FeatureMedian	FeatureVariance	BackgroundMedian	Circularity	Perimeter	redMean	greenMean	blueMean	redMeanBack	greenMeanBack	blueMeanBack	redMedian	greenMedian	blueMedian	redMedianBack	greenMedianBack	blueMedianBack	Barcode	Filename
1	1	61	61	122	0.0010060143645552312	0.0095181439619274246	0.0012304238231730553	0.00045363969639966904	0.0043501015582864296	-5.9910265753922998e-07	0.041825937695722099	0.013748430167228501	123.96527777777777	141.39583333333334	137.51388888888889	74.511378044711378	101.4351017684351	108.26152819486153	122.0	137.5	135.0	75.0	102.0	108.0	RhTFIso05r01_SCLW_13	RhTFIso05r01_SCLW_13
2	1	190	68	122	0.04496077567861019	0.3202458853856831	0.045682264234491926	0.00055269289167820016	0.001022705884212485	-3.5335037625939141e-06	0.03834975159144003	0.083283759666864965	128.92156862745097	152.49040247678019	140.92404540763673	79.445546479968883	105.1390509529366	104.9488525865422	129.0	153.0	141.0	79.0	105.0	105.0	RhTFIso05r01_SCLW_13	RhTFIso05r01_SCLW_13
3	1	306	61	122	0.039842784082104038	0.28547822063586492	0.040742719729873138	0.00054322089613099013	0.0010776898459146547	-3.9973115853316141e-06	0.036464763963596658	0.080639830788551789	129.50150497800416	151.73998610789533	139.71312803889791	78.495374653098978	102.99676225716929	102.98640148011101	130.0	151.0	139.0	78.0	103.0	103.0	RhTFIso05r01_SCLW_13	RhTFIso05r01_SCLW_13
4	1	424	61	122	0.026283172670383787	0.28065305043294336	0.027837189125480909	0.00045937466471427052	0.0041201623623866009	-4.131991010991861e-06	0.056708268284163088	0.064115275299094457	129.99222797927462	152.70277908619877	140.02590673575131	78.051364513461365	102.1865294496003	102.38353395203528	130.0	152.0	139.0	78.0	102.0	102.0	RhTFIso05r01_SCLW_13	RhTFIso05r01_SCLW_13
5	1	547	61	122	0.022658887890405505	0.28461894375041313	0.024605128001750767	0.00037867773710902329	0.0053504629587517319	-5.4830361019083923e-06	0.053361121469899971	0.066560909511534136	130.05318160705991	152.33209475150952	139.47933116581515	77.250577473898176	101.42215651852537	101.15771967107086	130.0	152.0	138.0	77.0	101.0	101.0	RhTFIso05r01_SCLW_13	RhTFIso05r01_SCLW_13
6	1	675	53	122	-0.00015675726315718199	0.00014139271827500884	5.8882584931560761e-06	0.00016331258114841705	2.8098959016178854e-06	-1.5830926286019176e-06	0.31028075591010301	0.00063626723223753979													RhTFIso05r01_SCLW_13	RhTFIso05r01_SCLW_13
7	1	796	61	122	0.019750125041984191	0.2758278802300218	0.021671217190252282	0.00031214501968787508	0.0053050407632688331	-5.0809022277262897e-06	0.04597436541202081	0.070592901050961734	126.5875868679607	148.35322310088665	134.91181404265515	76.083242059145675	100.42259948886455	98.467871485943775	127.0	148.0	135.0	76.0	100.0	98.0	RhTFIso05r01_SCLW_13	RhTFIso05r01_SCLW_13
8	1	915	61	122	0.016362505480906453	0.26465728071914868	0.018332170297772996	0.00026680895520880615	0.0041543651118689977	-5.6023125696718054e-06	0.055053907428850739	0.063189900191684842	124.31143856143856	146.34940059940061	132.61163836163837	75.428494382022478	99.020404494382021	96.89069662921348	125.0	146.0	132.0	75.0	99.0	97.0	RhTFIso05r01_SCLW_13	RhTFIso05r01_SCLW_13
9	1	1041	63	122	0.020473444729988782	0.28455284552845528	0.022486358869099183	0.00035232407178227928	0.0041465129081697657	-6.7422316285014303e-06	0.046900174338101737	0.0709894903827087	122.17955865272938	144.31196283391407	130.28037166085946	73.705838876570581	96.982261640798228	94.487897265336287	122.0	143.0	129.0	73.0	97.0	94.0	RhTFIso05r01_SCLW_13	RhTFIso05r01_SCLW_13
10	1	1163	64	122	0.020541302184697147	0.28574261352369623	0.022529168429771186	0.00034528674519123385	0.0034871394440235096	-6.6343035048668825e-06	0.045059920310379448	0.072575847709696606	120.79736294240111	141.74924820726346	127.51006245662734	73.240884693688685	96.111789746437168	93.312233944105131	120.0	141.0	126.0	73.0	96.0	93.0	RhTFIso05r01_SCLW_13	RhTFIso05r01_SCLW_13
11	1	1286	61	122	0.018695923792424032	0.28019036287923854	0.021032970790905089	0.00032937372138435719	0.003774114379629977	-6.5729424049638315e-06	0.043390410596277587	0.073236829929274896	120.24722811983959	141.5380986081623	126.51356451993395	72.004315886134066	94.86088154269973	92.388062442607904	120.0	141.0	126.0	72.0	95.0	92.0	RhTFIso05r01_SCLW_13	RhTFIso05r01_SCLW_13
12	1	1408	61	122	0.013647481154004491	0.26965968774731996	0.016156121147266229	0.00022564557096405952	0.0033898237481239978	-7.1141751433942698e-06	0.048055052609548184	0.071228145909777676	119.10458911419424	140.69236926360725	126.25586979722519	69.732440153679434	93.826421042261842	91.399369520244306	118.0	139.0	125.0	69.0	94.0	91.0	RhTFIso05r01_SCLW_13	RhTFIso05r01_SCLW_13
1	2	61	175	122	0.050088540748769263	0.33617555687751999	0.050658499777629873	0.00058258719731038718	0.0011674415246706582	-2.6312433058833967e-06	0.039439319471993868	0.084143036552316738	131.26228863546993	154.34132913881243	140.67400707825402	80.15592950313652	105.26864482724285	106.93756845564074	132.0	154.0	140.0	80.0	105.0	107.0	RhTFIso05r01_SCLW_13	RhTFIso05r01_SCLW_13
2	2	186	183	122	0.038605426672472742	0.27470421045673871	0.039308619014493167	0.00056347316760720957	0.00095571477467087614	-3.4917693898993999e-06	0.046480808359982841	0.070064115275299099	131.16434071222329	153.38257940327239	138.46126082771897	80.381117287888458	105.36680944135605	102.56584343388317	133.0	154.0	139.0	80.0	105.0	102.0	RhTFIso05r01_SCLW_13	RhTFIso05r01_SCLW_13
3	2	306	183	122	0.039263972757759731	0.28091744332077467	0.04015317218414844	0.00055492046110807846	0.0010365078441416588	-4.4230717892749453e-06	0.032243464536601735	0.085068411659726353	130.99670588235293	152.54917647058824	137.11364705882352	79.958727824248555	104.16334221895394	101.0564390109385	132.0	153.0	138.0	80.0	104.0	101.0	RhTFIso05r01_SCLW_13	RhTFIso05r01_SCLW_13
4	2	435	183	122	4.1117908183715426e-05	0.0061471346420781279	0.00024929480670289475	0.00015650956078866712	0.00010050368141647423	-4.4332522915920523e-07	0.32463124087094525	0.0039658933174697604	97.838709677419359	121.33333333333333	116.64516129032258	79.423583399840382	104.08625964352221	101.91367384942804	98.0	121.0	117.0	79.0	104.0	102.0	RhTFIso05r01_SCLW_13	RhTFIso05r01_SCLW_13
5	2	551	175	122	0.040865540554597526	0.28091744332077467	0.041636027324628767	0.00057006093851893634	0.0011030014727348098	-3.4333944180658838e-06	0.039417841008480711	0.076938330358913343	133.05717647058825	153.71129411764707	137.00211764705881	79.102123356926185	102.94300946778196	99.728835370898054	134.0	154.0	136.0	79.0	103.0	100.0	RhTFIso05r01_SCLW_13	RhTFIso05r01_SCLW_13
6	2	672	186	122	0.041719913044129989	0.29658272192478025	0.042605309956737579	0.00055406346108137635	0.0009105858200763368	-3.2100023622474103e-06	0.038448344719666211	0.080044946790931326	128.99219968798752	151.10118119010474	134.08112324492978	78.560608908099979	101.63005074234167	98.054876902837819	129.0	151.0	133.0	78.0	101.0	98.0	RhTFIso05r01_SCLW_13	RhTFIso05r01_SCLW_13
7	2	787	175	122	0.037950048320390048	0.27212637980038334	0.038762614459291259	0.00054354241878865484	0.00098349214180775465	-2.7814200557292248e-06	0.039878910323132601	0.07528587480996761	128.4908914257955	149.79183871751275	132.94219091571532	77.746095168906649	101.07500908100255	97.416182346531059	129.0	150.0	132.0	78.0	101.0	97.0	RhTFIso05r01_SCLW_13	RhTFIso05r01_SCLW_13
8	2	910	187	122	0.036992139766814661	0.28574261352369623	0.03800477663102092	0.00051014351764140208	0.00079407624150892983	-5.2981974842190039e-06	0.040581526722744128	0.076475642805208535	126.09969928290539	147.44621790423318	129.83414295628037	77.26142883583195	100.01129002406071	96.12178419396632	126.0	147.0	129.0	77.0	100.0	96.0	RhTFIso05r01_SCLW_13	RhTFIso05r01_SCLW_13
9	2	1041	186	122	0.033819487138092248	0.28680018507502147	0.03497380319956022	0.00045332087093208611	0.00073514618628753585	-4.8824592849608271e-06	0.040381947333744457	0.076806133914997687	122.19290159022816	144.45817008527311	127.18575708688638	75.480630213160339	98.661353104726601	94.576737720111211	122.0	144.0	126.0	75.0	98.0	94.0	RhTFIso05r01_SCLW_13	RhTFIso05r01_SCLW_13
10	2	1163	175	122	0.032663538729837051	0.28138013087447949	0.033827616106691764	0.0004450483464678167	0.00078520743990783315	-4.7200223210223309e-06	0.047971762821150961	0.069799722387467775	121.4040404040404	143.37726098191214	125.76062955132723	74.708333333333329	97.458333333333329	93.325699043414275	121.0	142.0	125.0	75.0	97.0	93.0	RhTFIso05r01_SCLW_13	RhTFIso05r01_SCLW_13
11	2	1290	181	122	0.034437852302631376	0.28085134509881682	0.035804561705220901	0.00047535762096129821	0.000795400430770703	-5.2762868017567745e-06	0.039955900866557606	0.076409544583250708	123.34972934808191	144.97387620616615	126.0498940927277	72.860661764705881	96.275091911764704	92.592738970588229	123.0	144.0	124.0	73.0	96.0	92.0	RhTFIso05r01_SCLW_13	RhTFIso05r01_SCLW_13
12	2	1408	178	122	0.021853373241393109	0.25994675875962298	0.023848861474245309	0.00036044306237135169	0.0009421643653039221	-7.2146672493397989e-06	0.0071779734364674289	0.18094826965968774	113.28286742319402	135.58926100193744	123.83088845834486	72.282617149523631	95.92708535874003	92.016430099163912	114.0	136.0	124.0	72.0	95.0	92.0	RhTFIso05r01_SCLW_13	RhTFIso05r01_SCLW_13
1	3	65	305	122	0.047516802984988414	0.35005618348866413	0.048393465134529808	0.00054548441743707563	0.0011900736948171314	-5.9119689743359093e-06	0.029226671679069026	0.099742216934364469	128.27700151057402	151.30230362537765	138.794750755287	80.970914268280282	106.7529746771077	104.53350961049527	130.0	152.0	139.0	81.0	106.0	104.0	RhTFIso05r01_SCLW_13	RhTFIso05r01_SCLW_13
2	3	184	304	122	0.042014126517797207	0.31310727741423755	0.04271327476541624	0.00053658051949109298	0.001059560146043624	-5.227745016960076e-06	0.039797916333921053	0.080838125454425272	129.50116107240871	151.42621912602914	135.83048342833015	82.468725943033107	107.03772132409546	103.14049268668207	131.0	152.0	136.0	82.0	107.0	103.0	RhTFIso05r01_SCLW_13	RhTFIso05r01_SCLW_13
3	3	301	296	122	0.041653622142388519	0.30510939255734021	0.04243360897313906	0.0005475013837224034	0.0010383498143491749	-4.4005439006209438e-06	0.047765296191285556	0.07284024059752793	128.83167244367417	151.3349220103986	134.06195840554594	80.958908018643584	104.97869304670408	101.05906972319985	130.0	152.0	134.0	81.0	105.0	101.0	RhTFIso05r01_SCLW_13	RhTFIso05r01_SCLW_13
4	3	420	298	122	0.036790964818923098	0.2615506642871307	0.037541710511660394	0.00055886866204767495	0.0009594789494400274	-3.253247880335365e-06	0.042631283025565195	0.07138607971445568	130.23022491786708	152.37275713924691	133.90624210260299	80.196920873612598	104.01942355889724	99.918635875402799	131.0	153.0	133.0	80.0	104.0	100.0	RhTFIso05r01_SCLW_13	RhTFIso05r01_SCLW_13
5	3	546	305	122	0.038280598551263575	0.27655496067155794	0.039119108350844034	0.00054073898004417789	0.0010119631190960514	-3.6730636394974912e-06	0.032649632380862909	0.083878643664485428	128.79039196940727	150.74450286806882	133.54326003824093	79.172407492005476	102.59908634079488	98.695934216537225	129.0	151.0	133.0	79.0	102.0	99.0	RhTFIso05r01_SCLW_13	RhTFIso05r01_SCLW_13
6	3	674	305	122	0.035009724848926456	0.2581796549672814	0.035809333269760137	0.00052912328400797984	0.001002014045227528	-3.2825610573790902e-06	0.037968301854149449	0.075153678366051954	128.1710189452125	150.41039426523298	131.27931387608808	78.335560901719688	101.64011405150139	97.786242537645904	129.0	150.0	130.0	78.0	101.0	98.0	RhTFIso05r01_SCLW_13	RhTFIso05r01_SCLW_13
7	3	793	305	122	0.0042270585709216334	0.029744199881023201	0.0045358433413105175	0.00063783491247557296	0.001701958026790267	-1.1257818623130061e-06	0.060392015639942197	0.020226055919095775	129.06888888888889	151.55555555555554	134.34666666666666	77.354383813611278	101.07207575447919	97.542407520948288	131.0	156.0	137.0	77.0	101.0	97.0	RhTFIso05r01_SCLW_13	RhTFIso05r01_SCLW_13
8	3	918	305	122	0.035865496455175019	0.27305175490779299	0.036747886069951587	0.00050223491821244852	0.00089271724444749741	-4.2321861981219169e-06	0.048087695383339228	0.068676052614184677	126.56499636891793	147.66327765674171	129.27039457758411	76.517003091471182	99.72140389161666	95.543462447717772	127.0	147.0	127.0	76.0	99.0	95.0	RhTFIso05r01_SCLW_13	RhTFIso05r01_SCLW_13
9	3	1032	305	122	0.03495021910019333	0.29526075748562364	0.036114862799778706	0.00044665949959767185	0.000842117591820971	-4.8714641304827122e-06	0.041006631261847053	0.077334919690660323	123.595254085516	144.78486680098501	126.29572419968659	76.012943162633647	98.773400862877509	94.081035453010699	123.0	143.0	124.0	76.0	98.0	94.0	RhTFIso05r01_SCLW_13	RhTFIso05r01_SCLW_13
10	3	1163	299	122	0.031217948846068846	0.25969991407231147	0.032299878054499999	0.00047609435528799633	0.00065459416150436911	-5.3589675841617816e-06	0.040804355490758004	0.072708044153612261	122.47874777297022	143.56731992873506	124.89793840671926	74.909285714285716	98.017767857142857	93.713035714285709	123.0	144.0	125.0	75.0	98.0	94.0	RhTFIso05r01_SCLW_13	RhTFIso05r01_SCLW_13
11	3	1284	305	122	0.021311091414655314	0.24363804613655893	0.022677320991531927	0.00035664018348653838	0.0010350008032936101	-5.07244239349505e-06	0.0107787051176505	0.13702161411858022	114.02957135105805	136.50271296798698	123.29571351058057	73.609979900375777	97.008127239360306	92.775758105391944	114.0	137.0	123.0	73.0	97.0	93.0	RhTFIso05r01_SCLW_13	RhTFIso05r01_SCLW_13
12	3	1408	310	122	0.039246830613164189	0.30685660838909273	0.040677728862499769	0.00048960148239503482	0.00089795531049793962	-5.7595354160881298e-06	0.038103030770912094	0.085329879847471035	124.60398593200469	145.55123094958969	126.15310668229777	72.443740917583554	95.290844924226704	91.415715175420388	124.0	145.0	124.0	72.0	95.0	91.0	RhTFIso05r01_SCLW_13	RhTFIso05r01_SCLW_13
1	4	61	427	122	0.043251322879217714	0.31998149249785179	0.043915105662235117	0.00054818090254913504	0.0011731208960837666	-4.2978412158907922e-06	0.049912210000617616	0.072972437041443586	127.19933897954968	151.68353645940923	137.16649452592441	81.318137636080877	107.47083981337481	106.00806765163297	129.0	153.0	138.0	81.0	107.0	106.0	RhTFIso05r01_SCLW_13	RhTFIso05r01_SCLW_13
2	4	184	431	122	0.039843775042639154	0.28680018507502147	0.040488994173199476	0.0005644064505397168	0.0013579049895440106	-4.5504634737379748e-06	0.037676301139437672	0.079516161015268691	130.75362986863334	153.22631942843972	137.18783129753399	82.808804448563478	107.65227062094532	103.39925857275254	133.0	154.0	138.0	82.0	107.0	103.0	RhTFIso05r01_SCLW_13	RhTFIso05r01_SCLW_13
3	4	306	421	122	0.037412152328962348	0.26591314693634743	0.038084464508300567	0.0005601524041182822	0.0010302771152548679	-3.7122147836471206e-06	0.046471991040637949	0.068940445502016001	131.00273427790205	152.71041511309969	135.22619935371614	81.669097784981091	105.27273545831082	101.19593012785882	132.0	153.0	134.0	81.0	105.0	101.0	RhTFIso05r01_SCLW_13	RhTFIso05r01_SCLW_13
4	4	430	419	122	0.037307090661606583	0.26459118249719082	0.038217766078262126	0.00055763476363544892	0.00097339202316612517	-3.7257584510842664e-06	0.03904844384271363	0.075021481922136299	132.59955033724705	153.72770422183362	135.31401448913314	79.919647672119353	103.75966205284918	99.699892144526331	133.0	154.0	135.0	80.0	104.0	100.0	RhTFIso05r01_SCLW_13	RhTFIso05r01_SCLW_13
5	4	559	419	122	0.03509724695640714	0.26016260162601629	0.035936644024372383	0.00052128984672327003	0.00093532783332621501	-4.1871465712562306e-06	0.038941898608816666	0.074492696146473664	129.03988821138211	150.4395325203252	133.89837398373984	78.909318323952476	102.37514518002322	98.574287501116771	129.0	150.0	133.0	79.0	102.0	99.0	RhTFIso05r01_SCLW_13	RhTFIso05r01_SCLW_13
6	4	668	432	122	0.035477179833538028	0.26313702161411856	0.036265800885336943	0.00052268420303306241	0.00098399564973033625	-2.986821141562583e-06	0.041269328614449145	0.072774142375570103	127.1419241396634	149.87867370007535	131.70108013062045	78.010226049515609	101.79153211338357	97.793684965913172	127.0	150.0	131.0	78.0	102.0	98.0	RhTFIso05r01_SCLW_13	RhTFIso05r01_SCLW_13
7	4	796	427	122	0.037738527964501556	0.28957631039725029	0.038729924462599465	0.00050431495842464061	0.00070031167560525556	-4.2876530060461265e-06	0.0554963525401884	0.065833829069998018	126.45035380050217	148.9191965304725	130.23579091531613	77.022701898027535	101.1469110532192	96.746185336806846	126.0	148.0	129.0	77.0	101.0	97.0	RhTFIso05r01_SCLW_13	RhTFIso05r01_SCLW_13
8	4	912	419	122	0.036388463938938402	0.28098354154273247	0.037371722226816034	0.00049973507128972018	0.00099740498127475017	-4.4398670437392603e-06	0.038170819121579977	0.078194196576112096	126.33498000470478	147.58903787344155	129.39567160668079	76.940614083471232	100.24728810443096	95.674204817061963	126.0	147.0	128.0	77.0	100.0	96.0	RhTFIso05r01_SCLW_13	RhTFIso05r01_SCLW_13
9	4	1041	429	122	0.037539966587865306	0.2955912485954128	0.038630818387245053	0.00048932347789385042	0.00089054765749303224	-3.8950204768506804e-06	0.035173655931675499	0.083548152554696276	124.53756708407872	146.89959749552773	128.29427549194992	76.342873228863652	99.620718776391101	94.932626442713712	124.0	146.0	127.0	76.0	99.0	95.0	RhTFIso05r01_SCLW_13	RhTFIso05r01_SCLW_13
10	4	1158	427	122	0.017409892390885664	0.19677440676845792	0.019299414992879578	0.0003739416455355807	0.0016802270007102277	-6.2691389628500199e-06	0.0034290321048651958	0.21832242712671029	113.72052401746726	136.6210950621431	125.41686261336916	76.616524028966424	100.05439433838052	95.265552995391701	113.0	136.0	125.0	76.0	99.0	95.0	RhTFIso05r01_SCLW_13	RhTFIso05r01_SCLW_13
11	4	1286	428	122	0.036398568273101138	0.29202194460969	0.037848316155187661	0.00048503912399999911	0.00083493002103630183	-6.1825115901852762e-06	0.037178611285086309	0.080772027232467444	124.22521502942507	146.50995925758261	127.30602082390222	73.110727289702169	97.032116515731488	92.23629913173373	124.0	146.0	126.0	73.0	97.0	92.0	RhTFIso05r01_SCLW_13	RhTFIso05r01_SCLW_13
12	4	1408	429	122	0.038205213355691756	0.32290092812432547	0.039752810260782159	0.00045641123037084788	0.00080872542187550062	-7.1367600508538835e-06	0.0416968534080287	0.083675084538455999	122.8578431372549	144.70409982174689	125.5066844919786	72.492189990436728	96.292211242163432	91.129954308787589	123.0	144.0	124.0	72.0	96.0	91.0	RhTFIso05r01_SCLW_13	RhTFIso05r01_SCLW_13
1	5	69	543	122	0.041434918587420953	0.30821600898935819	0.04212492205980433	0.00053381801137358017	0.0009686225146535673	-3.6982397168283225e-06	0.050237471000305914	0.07138607971445568	128.99463864464937	152.78018443062408	138.49731932232467	81.793044142939038	107.53917446971144	104.56038601184788	130.0	153.0	138.0	82.0	107.0	104.0	RhTFIso05r01_SCLW_13	RhTFIso05r01_SCLW_13
2	5	184	549	122	0.040960696014785546	0.2768854517813471	0.041496003198351131	0.00058836788779297381	0.0011580414619764415	-3.4259989693618731e-06	0.044964079068636649	0.071518276158371336	134.56433516352351	156.43399379326809	138.82406302220102	82.648811700182819	107.60996343692871	103.46124314442413	136.0	157.0	138.0	82.0	107.0	103.0	RhTFIso05r01_SCLW_13	RhTFIso05r01_SCLW_13
3	5	306	541	122	0.00016087782495190819	0.010641813735210523	0.00040115214918976313	0.00013820737215060138	0.00015910455400122125	-1.5114157612440725e-06	0.28002569811928396	0.0056183488664154936	98.0807453416149	122.50310559006211	114.37888198757764	81.468132014965263	106.33685195082843	102.49752805986104	98.0	122.0	114.0	81.0	106.0	102.0	RhTFIso05r01_SCLW_13	RhTFIso05r01_SCLW_13
4	5	429	542	122	0.048509444462199097	0.33366382444312248	0.049117600386252423	0.00055974516086896642	0.001061806504756482	-3.5324877806318309e-06	0.040083711534753159	0.08315156322294931	131.46236133122028	153.54021394611726	136.52436608557844	80.311675429024902	104.59468306715604	100.31961114968753	131.0	153.0	136.0	80.0	104.0	100.0	RhTFIso05r01_SCLW_13	RhTFIso05r01_SCLW_13
5	5	550	544	122	0.044912004672062952	0.32460836803489984	0.045739160145294347	0.00053130504892248578	0.00094694976745913931	-3.6896235094462778e-06	0.038626526001891412	0.083548152554696276	128.98085929545917	151.01384646711463	134.05273874974546	79.276472890976706	103.58289293403797	99.041201800743792	129.0	150.0	133.0	79.0	103.0	99.0	RhTFIso05r01_SCLW_13	RhTFIso05r01_SCLW_13
6	5	677	549	122	0.040192561705128867	0.29988763302267168	0.040887136181944311	0.00051741276653490995	0.00082339334188635165	-3.5412027148438934e-06	0.055340943461231834	0.067089695287196771	125.88913378884726	148.78928807582102	130.43398721622216	78.733100453172199	102.82524546827794	98.204399546827801	126.0	148.0	128.0	79.0	103.0	98.0	RhTFIso05r01_SCLW_13	RhTFIso05r01_SCLW_13
7	5	788	555	122	0.041037980017601186	0.31033115209200873	0.041986948755916548	0.00051415858199265895	0.0008144217681731481	-4.4022384256332477e-06	0.041246120033903641	0.079053473461563883	125.76719914802982	149.03663471778486	129.82279020234293	78.24353076480736	101.63158903584436	97.221008242284839	126.0	149.0	128.0	78.0	101.0	97.0	RhTFIso05r01_SCLW_13	RhTFIso05r01_SCLW_13
8	5	919	543	122	0.032430930337942511	0.27054002247339548	0.033398467834602541	0.00046763989261433753	0.00090980231861131195	-3.4891365504458608e-06	0.032656087950713224	0.082953268557075813	123.28389934033716	145.28536525775715	128.52308819936476	77.460855382384921	100.94527002537151	96.539235230155853	123.0	145.0	127.0	77.0	101.0	97.0	RhTFIso05r01_SCLW_13	RhTFIso05r01_SCLW_13
9	5	1036	549	122	0.039050762521176209	0.31925441205631566	0.040069464386305494	0.00046091629408839482	0.00098372415929958205	-4.4153484011910352e-06	0.034887303524653565	0.087183554762376894	123.86604554865424	145.68447204968945	127.50124223602485	76.92125449072725	100.18118263909118	95.231672977959022	123.0	144.0	126.0	77.0	100.0	95.0	RhTFIso05r01_SCLW_13	RhTFIso05r01_SCLW_13
10	5	1156	549	122	0.034350815936075627	0.28118183620860598	0.035213187929572051	0.00046102993250224844	0.00091968562156114582	-3.0499538584239829e-06	0.038457384058084555	0.077929803688280785	122.475317348378	144.55430183356842	125.78702397743301	75.619402298850574	99.625287356321834	94.680735632183911	122.0	143.0	124.0	75.0	99.0	95.0	RhTFIso05r01_SCLW_13	RhTFIso05r01_SCLW_13
11	5	1291	549	122	0.037041432967879831	0.28719677440676844	0.038222972245229067	0.00049357312979909278	0.00092084021940199768	-4.4842207425098709e-06	0.040929428098716747	0.07634344636129288	125.08055235903338	146.72359033371691	126.71231300345224	73.808605341246292	97.319732937685458	92.470882789317514	124.0	146.0	125.0	73.0	97.0	92.0	RhTFIso05r01_SCLW_13	RhTFIso05r01_SCLW_13
12	5	1408	549	122	0.035168609699859146	0.28275415497517808	0.036481084420356559	0.00047091057428063059	0.0008198866714846767	-4.4169284993829734e-06	0.050901426488115173	0.070868407799122235	123.18142493638676	145.85954198473283	125.14045801526717	72.318888554519006	96.24195004513993	91.361921958070013	122.0	145.0	123.0	72.0	96.0	91.0	RhTFIso05r01_SCLW_13	RhTFIso05r01_SCLW_13
1	6	64	670	122	0.044179505667993973	0.3129750809703219	0.044631635204899434	0.00055347884772091044	0.00088803689259805876	-2.8839679856051924e-06	0.057642449992047207	0.067155793509154599	129.65744456177401	153.76874340021121	138.87434002111934	81.689243794496832	107.79334231287281	104.37637098325958	130.0	154.0	138.0	82.0	108.0	104.0	RhTFIso05r01_SCLW_13	RhTFIso05r01_SCLW_13
2	6	184	671	122	0.042040575920916722	0.28798995307026243	0.042698549978507847	0.0005829282543977208	0.0011933701461165746	-2.9558358094181115e-06	0.034053277452484175	0.0838125454425276	133.81202662382373	155.91898095019508	137.97039247188434	82.578072781284817	107.44903453397697	102.98161901225399	135.0	157.0	138.0	82.0	107.0	103.0	RhTFIso05r01_SCLW_13	RhTFIso05r01_SCLW_13
3	6	306	668	122	0.040468891570333045	0.28052085398902771	0.041132156561262977	0.00057540547280456511	0.0010344721849288507	-2.6450650566906581e-06	0.043836332697966503	0.072906338819485758	132.58741753063148	154.25612629594721	136.45923656927428	81.190813045475423	105.59016995865871	100.94919614147911	134.0	155.0	136.0	81.0	105.0	101.0	RhTFIso05r01_SCLW_13	RhTFIso05r01_SCLW_13
4	6	429	671	122	0.0021179936680518641	0.016524555489457332	0.0023931735927078942	0.00067778468051353264	0.0044708898728713746	-1.2557900771235302e-06	0.053643751341947148	0.0159957697137947	128.364	149.208	136.892	80.269507359365548	105.03084884736877	101.22736743060689	137.0	156.0	143.0	80.0	105.0	101.0	RhTFIso05r01_SCLW_13	RhTFIso05r01_SCLW_13
5	6	551	671	122	0.0455931160506408	0.33465529777248992	0.046322777253635115	0.00052819054903926338	0.00096271172165447261	-2.7390188611431347e-06	0.038651333202822255	0.084804018771895043	128.34682994272171	151.15287379024295	133.23010073079203	79.642658454202262	104.26932247168686	99.579674150605996	128.0	150.0	132.0	79.0	104.0	100.0	RhTFIso05r01_SCLW_13	RhTFIso05r01_SCLW_13
6	6	669	666	122	0.038084487393841085	0.275761782008064	0.038838486312004171	0.00054129866465195094	0.0010891698610713226	-2.5639973228958608e-06	0.037461457862910295	0.078194196576112096	128.7914669223394	151.49352828379673	132.90675934803451	79.145751574336046	103.34936570229077	98.842201332481523	130.0	151.0	132.0	79.0	103.0	99.0	RhTFIso05r01_SCLW_13	RhTFIso05r01_SCLW_13
7	6	796	664	122	0.040831672608361333	0.32044418005155662	0.041749763378715686	0.00048747912309989391	0.00088877257002738838	-4.9058799759439689e-06	0.043901756263251046	0.077863705466322958	125.76051980198019	149.04537953795381	129.54764851485149	78.433712673864406	101.93522030930843	97.072171967707419	125.0	149.0	128.0	78.0	102.0	97.0	RhTFIso05r01_SCLW_13	RhTFIso05r01_SCLW_13
8	6	916	664	122	0.033251455900138137	0.26796219181704012	0.034133757263200643	0.00047404083519979497	0.0010058648660682861	-3.416681241586239e-06	0.036836551372266831	0.077731509022407302	125.12900838677849	147.82881105081401	128.71904292057226	77.881896162528221	101.17598194130926	96.374085778781037	124.0	147.0	127.0	78.0	101.0	96.0	RhTFIso05r01_SCLW_13	RhTFIso05r01_SCLW_13
9	6	1041	671	122	0.033854708122833886	0.25897283363077533	0.034826563518499283	0.00050014747168288247	0.00098809867564929538	-3.7314590644098144e-06	0.038695110962617602	0.074558794368431491	124.98443083205717	148.1470137825421	127.74374680959673	75.479350637766473	99.582374453661586	94.259655695299259	124.0	147.0	126.0	75.0	99.0	94.0	RhTFIso05r01_SCLW_13	RhTFIso05r01_SCLW_13
10	6	1163	664	122	0.011002875540211753	0.11335845065767731	0.013061636583198845	0.00043996487979825052	0.0022207022960946481	-7.1658980585979271e-06	0.0031491874286363472	0.17291294864168155	114.04431486880466	138.42565597667638	128.56384839650147	75.349634710004466	99.545922170866262	94.803936186074253	114.0	139.0	128.0	75.0	99.0	94.0	RhTFIso05r01_SCLW_13	RhTFIso05r01_SCLW_13
11	6	1286	664	122	0.037910689357259171	0.28957631039725029	0.039166733331751802	0.00049922833099446751	0.00085762847208009163	-5.71988102518383e-06	0.037977829757334033	0.079582259237226519	126.05272768774252	148.12622688883818	127.21616069390551	74.760234462225526	97.825641979903239	92.362206922218093	126.0	147.0	125.0	74.0	98.0	92.0	RhTFIso05r01_SCLW_13	RhTFIso05r01_SCLW_13
12	6	1408	665	122	0.038853333376552696	0.30268364630548961	0.040113221999143016	0.00049607381568626732	0.0010364275723369002	-4.9536601027391066e-06	0.033888902106222391	0.089862580041729617	123.98193487045401	146.82505348229142	126.06370335155692	72.617313248039622	96.307057366900537	91.442014032191494	124.0	146.0	124.0	72.0	96.0	91.0	RhTFIso05r01_SCLW_13	RhTFIso05r01_SCLW_13
1	7	62	789	122	0.041471305143249378	0.31799854583911691	0.042159021367260477	0.00053087500081983063	0.0010625213457879183	-2.7342687217521282e-06	0.048455030881639556	0.073831713926895373	129.82186655580961	153.14238204115568	138.02660569528166	82.450474898236095	108.62269819732506	105.06105834464043	131.0	153.0	138.0	82.0	109.0	105.0	RhTFIso05r01_SCLW_13	RhTFIso05r01_SCLW_13
2	7	184	788	122	0.041793485645231797	0.29010509617291297	0.042246367787173715	0.00057194917808927952	0.001274794596102473	-3.0130117865732058e-06	0.04444317356899008	0.073633419261021876	133.68626110731373	155.89861016176806	137.22169059011165	83.713873370577275	108.53845437616387	103.1193668528864	135.0	157.0	137.0	83.0	108.0	103.0	RhTFIso05r01_SCLW_13	RhTFIso05r01_SCLW_13
3	7	306	787	122	0.04290216791722315	0.28746116729459975	0.043566665030422246	0.0005807083809028637	0.0013084337968191516	-3.0836847404725914e-06	0.039923402587367991	0.077334919690660323	134.86134743619223	155.57668429524028	136.60358703150149	82.027179962894252	105.92282003710575	100.88831168831169	136.0	155.0	136.0	82.0	106.0	101.0	RhTFIso05r01_SCLW_13	RhTFIso05r01_SCLW_13
4	7	426	787	122	0.04410924447404492	0.29750809703218983	0.044722304823913185	0.00057374440726176484	0.0011390028823475274	-2.2097676738355145e-06	0.039475766927225216	0.079119571683521711	132.36236391912908	155.42723839146856	136.80804265718729	80.788200978547238	105.22666541211893	100.79666917576213	133.0	155.0	136.0	81.0	105.0	101.0	RhTFIso05r01_SCLW_13	RhTFIso05r01_SCLW_13
5	7	551	793	122	0.041140479568536323	0.28422235441866611	0.041757652471640171	0.00056367066566643598	0.0010080362860085245	-2.6176104632274555e-06	0.048273299518069586	0.06993191883138343	130.12046511627906	153.26418604651164	133.88162790697675	79.782251362083301	104.51823806445655	99.801736079047004	130.0	153.0	133.0	79.0	104.0	100.0	RhTFIso05r01_SCLW_13	RhTFIso05r01_SCLW_13
6	7	674	793	122	0.0024561460704264834	0.017119439487077798	0.002660978803636479	0.00069148726482575113	0.0024110246711394525	-9.1683308938515501e-07	0.071069307125491865	0.014145019498975477	130.16216216216216	152.53281853281854	139.56756756756758	79.101613987895092	104.16772024209818	99.950840618695366	136.0	159.0	145.0	79.0	104.0	100.0	RhTFIso05r01_SCLW_13	RhTFIso05r01_SCLW_13
7	7	796	785	122	0.040466039178582561	0.28838654240200939	0.041244279740223301	0.00054797203806079874	0.00095558538090286644	-3.6971262041914548e-06	0.041241690849429385	0.076211249917377225	128.5649782259913	151.07609443043776	130.98097639239055	78.669515140256365	102.71038454393461	97.119635890767228	128.0	151.0	129.0	79.0	102.0	97.0	RhTFIso05r01_SCLW_13	RhTFIso05r01_SCLW_13
8	7	914	784	122	0.037373517489261272	0.2744398175689074	0.038124158856535424	0.00052279371132346792	0.00092471714240250703	-3.5379000006969625e-06	0.039111389060039567	0.07634344636129288	126.32225433526011	148.79311175337187	128.72904624277456	78.275211806504515	101.38079621025781	95.847772615468713	126.0	148.0	127.0	78.0	101.0	96.0	RhTFIso05r01_SCLW_13	RhTFIso05r01_SCLW_13
9	7	1041	784	122	0.037274880051623507	0.27959547888161806	0.038267929567600917	0.00051185071227567746	0.00098253087853176135	-4.1299631265548664e-06	0.034907593664867717	0.081565205895961404	126.09550827423168	149.22553191489362	127.66808510638297	76.179374254518763	99.847875951922191	94.151665290393609	126.0	148.0	126.0	76.0	100.0	94.0	RhTFIso05r01_SCLW_13	RhTFIso05r01_SCLW_13
10	7	1163	795	122	0.03968128648733308	0.29241853394143696	0.040952702387202625	0.00052901522066026738	0.00087877468161410384	-4.7962537023800587e-06	0.036156102756194707	0.08196179522770837	126.53277576853526	149.01537070524412	127.91772151898734	73.600560485754315	98.170014012143852	92.750490425035025	126.0	148.0	126.0	73.0	98.0	93.0	RhTFIso05r01_SCLW_13	RhTFIso05r01_SCLW_13
11	7	1285	793	122	0.035159153090277617	0.28719677440676844	0.036403420777834677	0.00047413711076550031	0.00077786717819727986	-4.4798311726740865e-06	0.045289232881933539	0.072575847709696606	123.25891829689299	145.70034522439585	125.39010356731876	73.409031899109792	97.512889465875375	92.830118694362014	123.0	145.0	124.0	73.0	97.0	93.0	RhTFIso05r01_SCLW_13	RhTFIso05r01_SCLW_13
12	7	1410	793	122	3.5553213394423263e-05	0.0	0.0			-2.3804824478825093e-07	0.0	0.00036621987841500039				71.488024609975824	96.396616128323444	92.283454185893206				71.0	96.0	92.0	RhTFIso05r01_SCLW_13	RhTFIso05r01_SCLW_13
1	8	64	911	122	0.046824285078567431	0.34152951285610417	0.047266481791807972	0.00053442087502325608	0.00094179873284427787	-1.7116499003704456e-06	0.050225861669326723	0.075153678366051954	129.44029417456937	153.72014708728469	137.87865299012967	82.471592049789194	109.22043766311985	105.30556113230276	130.0	153.0	137.0	83.0	109.0	105.0	RhTFIso05r01_SCLW_13	RhTFIso05r01_SCLW_13
2	8	184	906	122	0.043418907227196074	0.29420318593429839	0.043937430073258205	0.00058619290769484813	0.001212963882410413	-3.1593667694470151e-06	0.046991353810161368	0.072113160155991798	134.08267804987642	155.78813749719166	136.57470231408672	84.047574452144602	108.18074545795093	102.90428919273272	136.0	157.0	136.0	84.0	108.0	103.0	RhTFIso05r01_SCLW_13	RhTFIso05r01_SCLW_13
3	8	306	921	122	0.041049069630917798	0.28681860589097696	0.041441467773376386	0.00057468463997795767	0.0011630802301422325	-2.8654400138301786e-06	0.043739372900763643	0.0741036918565907	132.14986059479554	155.3403810408922	136.55436802973978	81.788450756867874	106.17136983741356	100.91132498598392	133.0	156.0	135.0	81.0	106.0	101.0	RhTFIso05r01_SCLW_13	RhTFIso05r01_SCLW_13
4	8	427	915	122	0.00016528573983310381	0.0067420186396985925	0.0005672186583507065	0.00026935399664611395	0.0032676930394486916	-9.4491845571051662e-07	0.12817698026646357	0.0066098221957829337	116.25490196078431	137.58823529411765	130.18627450980392	80.983762560724031	106.15498768882678	102.04851267718108	114.5	132.5	127.0	81.0	106.0	102.0	RhTFIso05r01_SCLW_13	RhTFIso05r01_SCLW_13
5	8	551	908	122	0.041958598212242827	0.2897746050631238	0.042733025623679359	0.00056242437738367689	0.0011072168552918877	-2.7690172690408007e-06	0.040871066459644605	0.07674003569303986	130.9375	153.93453467153284	134.83257299270073	80.432107957189388	104.65798045602605	99.650628199162398	130.0	154.0	134.0	80.0	104.0	100.0	RhTFIso05r01_SCLW_13	RhTFIso05r01_SCLW_13
6	8	673	908	122	0.040636033891548032	0.28263599709167825	0.041248199838774306	0.00055405109400599435	0.0010128378679965966	-2.5954303333096655e-06	0.041419047981956524	0.07528587480996761	129.63049579045838	152.95159027128156	133.67095416276894	79.638533124481711	103.78356214871464	98.504745231733168	130.0	153.0	132.0	80.0	104.0	98.0	RhTFIso05r01_SCLW_13	RhTFIso05r01_SCLW_13
7	8	788	909	122	0.037907633093342635	0.27417542468107609	0.038690783290957653	0.00053868828125328591	0.0010337691588267301	-2.7183883136898388e-06	0.040749604864721366	0.074757089034304974	127.38187078109932	150.49734811957569	131.47396335583414	78.85866496676077	102.51807667789819	97.554412166469362	127.0	150.0	130.0	79.0	102.0	98.0	RhTFIso05r01_SCLW_13	RhTFIso05r01_SCLW_13
8	8	917	921	122	0.038420002897702761	0.29361588697854191	0.03911206079066399	0.00049984725818920362	0.00088051032298950042	-4.7919520142620074e-06	0.040240033407876796	0.078168732506997199	127.07557875624148	149.79459827507944	129.67203812982297	77.813018867924526	101.9943396226415	95.570471698113209	127.0	149.0	128.0	77.0	101.0	95.0	RhTFIso05r01_SCLW_13	RhTFIso05r01_SCLW_13
9	8	1041	915	122	0.038629412171149943	0.28349527397713004	0.039473151172759471	0.00052880955779578719	0.00094562789642799075	-3.4386717015242498e-06	0.047697913451596012	0.070262409941172582	127.12054091862905	149.81091163441363	128.73933317789695	75.643542435424351	100.08883763837639	94.656826568265686	126.0	149.0	127.0	75.0	100.0	95.0	RhTFIso05r01_SCLW_13	RhTFIso05r01_SCLW_13
10	8	1161	911	122	0.034359427079693493	0.30709233921607509	0.035621387053637814	0.00043079293774100599	0.0007851562894064816	-5.6699836758826262e-06	0.034546365606102199	0.085927688545178141	119.89926818768834	143.11795092552734	124.87150236762807	74.59982829342745	98.829915100639127	93.46360774587427	120.0	143.0	123.0	74.0	99.0	93.0	RhTFIso05r01_SCLW_13	RhTFIso05r01_SCLW_13
11	8	1286	908	122	0.019513225106208155	0.21210919426267433	0.021049180116412918	0.00039759655415098194	0.0014484297048306016	-4.5414891571671255e-06	0.0045136486624121818	0.19756758543195188	113.97912122156436	139.03365534434403	125.5967591149891	75.125922818791949	99.388255033557044	93.746895973154366	115.0	140.0	126.0	75.0	99.0	93.0	RhTFIso05r01_SCLW_13	RhTFIso05r01_SCLW_13
12	8	1408	915	122	0.0045558399591428015	0.033671487157349453	0.0050764062995942386	0.00061197970225937025	0.0015353462881546314	-7.4370461690301567e-07	0.045127503990301583	0.025973091589322973	130.44871794871796	152.65598290598291	131.26709401709402	71.874916238552601	96.60836869927779	92.194698831062468	133.0	156.0	132.0	72.0	96.0	92.0	RhTFIso05r01_SCLW_13	RhTFIso05r01_SCLW_13
