Column	Row	x	y	Diameter	Intensity	Area	Trimmed	FeatureMedian	FeatureVariance	BackgroundMedian	Circularity	Perimeter	redMean	greenMean	blueMean	redMeanBack	greenMeanBack	blueMeanBack	redMedian	greenMedian	blueMedian	redMedianBack	greenMedianBack	blueMedianBack	Barcode	Filename
1	1	67	74	124	2.8747906266428053e-05	0.00038400000000000001	1.3331983368911215e-05	0.00013530228715663922	1.03532840481509e-05	7.5707730656327574e-08	0.44614333542103574	0.00083199999999999995	91.166666666666671	116.16666666666667	110.5	79.602983545681539	105.31179973109674	100.4555989499968	91.0	116.0	110.5	80.0	105.0	101.0	RhTFIso05r01_SCLW_12	RhTFIso05r01_SCLW_12
2	1	181	66	124	0.041163513296249628	0.31667200000000001	0.041663586470842437	0.00049833127701877876	0.00093666334558690373	-2.3727124988441284e-06	0.037832366183791162	0.082047999999999996	121.55052546483428	146.06164106709781	125.84054163298302	79.948300084293336	104.65505291748619	98.867940432705822	121.0	145.0	124.0	80.0	105.0	99.0	RhTFIso05r01_SCLW_12	RhTFIso05r01_SCLW_12
3	1	303	75	124	0.039565466340151567	0.29920000000000002	0.040069765290389692	0.00050947237679854231	0.00087368308278739802	-2.9310173605834611e-06	0.040258501972315584	0.077312000000000006	122.28770053475935	145.76256684491977	125.68727272727273	78.906757990867575	104.28045662100456	98.090502283105025	122.0	145.0	124.0	79.0	104.0	98.0	RhTFIso05r01_SCLW_12	RhTFIso05r01_SCLW_12
4	1	432	74	124	0.039864707025061064	0.31251200000000001	0.040415254070159785	0.00049055797273508408	0.00078788464617512836	-2.268843804146844e-06	0.045056232710533557	0.074688000000000004	119.7636698750768	143.81486790907229	124.31578947368421	78.59337181158071	103.66784583876372	97.150344442375726	120.0	143.0	123.0	78.0	103.0	97.0	RhTFIso05r01_SCLW_12	RhTFIso05r01_SCLW_12
5	1	560	66	124	0.038379938292460107	0.31616	0.039017664677676284	0.00046380536136920807	0.00082336538210271172	-3.0175847622337397e-06	0.038488356894373063	0.081280000000000005	119.25425101214574	143.38603238866398	123.54291497975709	78.490500701918577	103.03490875058493	96.545999064108557	119.0	143.0	122.0	78.0	103.0	96.0	RhTFIso05r01_SCLW_12	RhTFIso05r01_SCLW_12
6	1	680	65	124	0.04544237548228372	0.339584	0.046149534644829598	0.00050929337608610656	0.00095302515756770794	-3.4809582856537138e-06	0.036477387477564342	0.086527999999999994	123.11929890689785	146.90765171503958	126.39803995476818	77.944955906580091	102.70588235294117	95.925864909390441	123.0	146.0	124.0	78.0	102.0	96.0	RhTFIso05r01_SCLW_12	RhTFIso05r01_SCLW_12
7	1	805	70	124	0.042945850463861852	0.31603199999999998	0.043700094207591869	0.00051658597332933679	0.0010109067517077841	-3.6990423129436166e-06	0.036214430211776838	0.083776000000000003	123.89469420818145	147.21142162818956	126.86735520453625	78.009731449424535	102.45447740245157	95.443810236736226	124.0	146.0	125.0	78.0	102.0	96.0	RhTFIso05r01_SCLW_12	RhTFIso05r01_SCLW_12
8	1	930	66	124	0.044000607979786735	0.32492799999999999	0.044798429256991734	0.00051438994469015095	0.00099655407731789208	-3.2770325883922256e-06	0.039246113715710275	0.081600000000000006	124.08725625369313	146.9206224148119	126.57159740003939	77.666003033750471	102.37087599544937	95.057925673113388	124.0	146.0	124.0	77.0	102.0	95.0	RhTFIso05r01_SCLW_12	RhTFIso05r01_SCLW_12
9	1	1052	68	124	0.047037250898173684	0.33388800000000002	0.047771679776882278	0.00053685392971360288	0.0011706772330584258	-4.0604732758132491e-06	0.035601722065130126	0.086847999999999995	125.73778033352501	148.72474602261838	127.77036611079164	78.014411990776324	102.8424289008455	95.408531898539579	125.0	148.0	126.0	78.0	103.0	95.0	RhTFIso05r01_SCLW_12	RhTFIso05r01_SCLW_12
10	1	1185	69	124	0.043236703150640536	0.32505600000000001	0.043923967403964127	0.00052357425134086746	0.00073128849613438474	-3.8579618493965607e-06	0.044844293830756415	0.076352000000000003	123.74660366213821	146.70131915731443	125.2612719039181	78.638156647069977	103.42821923003983	95.471173904798022	124.0	147.0	124.0	78.0	103.0	96.0	RhTFIso05r01_SCLW_12	RhTFIso05r01_SCLW_12
11	1	1314	63	124	0.044335589488597796	0.33619199999999999	0.044862145740246974	0.0005147884574661771	0.0007290845248813109	-1.956967251793799e-06	0.051696409144982948	0.072319999999999995	122.952217780316	146.07633733104893	124.28440890919475	80.028441959120713	104.61887774778249	96.914770536058626	123.0	146.0	123.0	80.0	104.0	97.0	RhTFIso05r01_SCLW_12	RhTFIso05r01_SCLW_12
12	1	1433	64	124	0.06401208886925748	0.45733333333333331	0.064132432266422804	0.0005447094969934028	0.00085108248844628935	-2.9740468014152817e-06	0.05699524126578772	0.09166666666666666	125.93859329446065	149.53534985422741	128.26712827988339	80.329084766584771	106.23495085995086	99.557893120393118	126.0	149.0	127.0	80.0	106.0	99.0	RhTFIso05r01_SCLW_12	RhTFIso05r01_SCLW_12
1	2	62	186	124	0.044377762393584409	0.33663999999999999	0.044841639460539685	0.00051023206556306865	0.00088499847565600613	-1.9349417529647402e-06	0.042101102243063092	0.080191999999999999	122.50038022813688	146.41007604562736	127.26007604562737	80.920405209840808	105.71606367583213	99.582440906898213	122.0	146.0	125.0	81.0	106.0	100.0	RhTFIso05r01_SCLW_12	RhTFIso05r01_SCLW_12
2	2	180	186	124	0.037977496582673381	0.297792	0.038411592999273263	0.00048957562559604861	0.00088041614493462839	-4.3374125671406293e-07	0.04101420170970236	0.076415999999999998	121.96604341285192	145.80313776058458	126.72469374597034	80.21190302588407	105.39445862194677	99.703700328107914	122.0	145.0	125.0	80.0	105.0	100.0	RhTFIso05r01_SCLW_12	RhTFIso05r01_SCLW_12
3	2	305	193	124	0.036650467959572358	0.28486400000000001	0.037242648577714588	0.00050043618226227422	0.0008243409766803912	-3.0293569195365313e-06	0.039564323939810388	0.076095999999999997	121.83082453381263	145.79352954392272	126.22556728824983	79.778593162699124	104.70109182029712	98.474046894576702	122.0	146.0	125.0	80.0	105.0	99.0	RhTFIso05r01_SCLW_12	RhTFIso05r01_SCLW_12
4	2	429	191	124	0.036754440373254864	0.29548799999999997	0.037332655783766593	0.00048490481246804264	0.0006734185979364695	-2.763368874254882e-06	0.046005549889421536	0.071872000000000005	119.77994368637644	144.39744422785358	124.19948018193632	79.30305232558139	104.29433139534883	97.773528343023258	119.0	144.0	122.0	79.0	104.0	98.0	RhTFIso05r01_SCLW_12	RhTFIso05r01_SCLW_12
5	2	558	194	124	0.041037611333812798	0.29721599999999998	0.041552107303615589	0.00053137283921959335	0.00094407180604962277	-3.0652733496945855e-06	0.040459085325844892	0.076864000000000002	124.17075796726959	147.11197243755385	127.29543496985357	79.181404243693649	103.79282396867316	97.370731263090789	124.0	146.0	126.0	79.0	104.0	97.0	RhTFIso05r01_SCLW_12	RhTFIso05r01_SCLW_12
6	2	683	198	124	0.039646678433162774	0.293184	0.04022270040443985	0.00051453025398435484	0.00099824755049923329	-3.0571801399332145e-06	0.04141355814999656	0.075455999999999995	122.65662519100633	146.78803754638724	127.030124426981	79.017022817819637	103.4357116986599	96.669503802969942	122.0	146.0	125.0	79.0	103.0	97.0	RhTFIso05r01_SCLW_12	RhTFIso05r01_SCLW_12
7	2	802	184	124	0.042893411234311792	0.34111999999999998	0.043664537805527266	0.00048016496864452369	0.00083424382151325762	-2.9745345932116736e-06	0.039269079319699154	0.083584000000000006	121.52908067542214	145.30243902439025	125.4358348968105	78.997377367654195	102.9891209324915	96.279844584749881	121.0	144.0	123.0	79.0	103.0	96.0	RhTFIso05r01_SCLW_12	RhTFIso05r01_SCLW_12
8	2	933	198	124	0.044868821647699002	0.34067199999999997	0.045595337073000099	0.00050389482169411678	0.0010414524632059161	-3.2724425291456475e-06	0.031553212351803958	0.093184000000000003	121.91921848581627	145.81833552507985	125.25962802930678	78.622985827994569	103.03475053387692	95.844884488448841	122.0	145.0	123.0	78.0	103.0	96.0	RhTFIso05r01_SCLW_12	RhTFIso05r01_SCLW_12
9	2	1054	188	124	0.038921556633350549	0.32063999999999998	0.039589271285928575	0.00047427190273279126	0.00068528675727405478	-3.0940142351404377e-06	0.043502712308961217	0.076992000000000005	119.82554890219561	143.78223552894212	123.11556886227545	78.276118699952903	103.10400376825247	96.307489401789923	120.0	144.0	122.0	78.0	103.0	96.0	RhTFIso05r01_SCLW_12	RhTFIso05r01_SCLW_12
10	2	1184	190	124	0.04396284434206877	0.32800000000000001	0.044588095314864594	0.00052343862578853881	0.00071964897196957983	-3.3516278603716083e-06	0.046966688859646666	0.074943999999999997	123.59512195121951	146.27824390243902	124.54185365853658	79.857428571428571	103.648	96.516000000000005	124.0	146.0	123.0	80.0	104.0	97.0	RhTFIso05r01_SCLW_12	RhTFIso05r01_SCLW_12
11	2	1309	193	124	0.042579314153852479	0.33107199999999998	0.043095779372498089	0.00050166389982426931	0.00067137014071115705	-2.9662853973372874e-06	0.051271445463184094	0.072064000000000003	122.96984341774599	145.56620916296154	124.67156388942587	80.459337925755833	105.02650210486031	97.794489092996557	123.0	146.0	123.0	80.0	105.0	98.0	RhTFIso05r01_SCLW_12	RhTFIso05r01_SCLW_12
12	2	1433	191	124	0.057250491280720302	0.43641666666666667	0.057374033288379013	0.00051147859215162526	0.00075062188920199191	-1.6670032760738741e-06	0.064898326320916438	0.083916666666666667	124.68417032652282	148.38590796257398	127.17891922856597	80.907289664350145	106.49918675144167	99.959041845334909	125.0	148.0	126.0	80.0	106.0	100.0	RhTFIso05r01_SCLW_12	RhTFIso05r01_SCLW_12
1	3	68	318	124	0.044249210264414661	0.33951999999999999	0.044653786261219373	0.00050465081975351099	0.00087494577357666737	-2.0700083847790018e-06	0.044936648216796909	0.077951999999999994	122.28727615457116	146.31178133836005	129.01903864278981	81.121802325581399	106.53546511627907	100.80416666666666	122.0	146.0	129.0	81.0	106.0	101.0	RhTFIso05r01_SCLW_12	RhTFIso05r01_SCLW_12
2	3	178	313	124	0.04236139645308145	0.33305600000000002	0.042741764594972996	0.00048710508211522547	0.00091648078716009634	-1.8987716338830925e-06	0.035935463645269533	0.086335999999999996	121.5042275172944	145.4066102997694	127.08800922367409	80.894635831494099	106.04586891852989	100.3649361865464	121.0	145.0	126.0	81.0	106.0	100.0	RhTFIso05r01_SCLW_12	RhTFIso05r01_SCLW_12
3	3	303	317	124	0.042560586494654648	0.33964800000000001	0.042961578558502203	0.00047897323159940295	0.00076190958457307003	-3.407839108959163e-06	0.044732958679298551	0.078144000000000005	121.02468437912191	145.02581496137176	125.76973808177878	80.865574723783681	105.47470440007753	100.00775344058925	121.0	144.0	124.0	81.0	105.0	100.0	RhTFIso05r01_SCLW_12	RhTFIso05r01_SCLW_12
4	3	436	318	124	0.03851178854805825	0.30470399999999997	0.038962122370947497	0.00048401650906443848	0.00079262630223981743	-1.5986891927705508e-06	0.040931291092217811	0.077376	120.35496744381433	144.83952951060701	126.09997899600924	79.892396907216494	105.08321060382916	98.676822533136971	120.0	144.0	125.0	80.0	105.0	99.0	RhTFIso05r01_SCLW_12	RhTFIso05r01_SCLW_12
5	3	558	312	124	0.046487376928939554	0.34278399999999998	0.047028598474143105	0.00051955120919726242	0.00095652714018416049	-2.7200546468936355e-06	0.038863208610015923	0.084223999999999993	123.0026138909634	146.98356982823003	127.32636295743092	79.204596357970587	104.42779238484761	97.933197000681659	123.0	146.0	125.0	79.0	104.0	98.0	RhTFIso05r01_SCLW_12	RhTFIso05r01_SCLW_12
6	3	682	318	124	0.040960497253391424	0.30175999999999997	0.041433900404032629	0.00052113225563675525	0.00094804764798576784	-2.2661898110303975e-06	0.042194404348806995	0.075840000000000005	122.8897136797455	146.59236479321314	126.85153764581123	79.306599450045823	104.00274977085243	97.827589367552704	123.0	146.0	124.0	79.0	104.0	98.0	RhTFIso05r01_SCLW_12	RhTFIso05r01_SCLW_12
7	3	815	310	124	0.044631204400702888	0.34790399999999999	0.045295866350175788	0.00048717407909336851	0.00089868532881086686	-3.4012688918231605e-06	0.040607790506207289	0.083007999999999998	122.42016188373805	145.4192420897719	126.43524650478292	78.947001668465987	103.48689763470409	96.725978996957508	122.0	144.0	124.0	79.0	103.0	97.0	RhTFIso05r01_SCLW_12	RhTFIso05r01_SCLW_12
8	3	931	311	124	0.046342958952396075	0.35334399999999999	0.04705516974310122	0.00049489058312038564	0.00094411453735595359	-2.9796005169893226e-06	0.039458499212795366	0.084863999999999995	123.50208295598624	146.26788625249048	126.67288534685746	79.090162311955666	103.2887965162312	96.279691211401428	123.0	145.0	124.0	79.0	103.0	96.0	RhTFIso05r01_SCLW_12	RhTFIso05r01_SCLW_12
9	3	1055	311	124	0.05390859258215841	0.35859200000000002	0.054498350182040911	0.0005777705165501628	0.001182264539722694	-2.4660856487449185e-06	0.034528210574550626	0.091392000000000001	127.06853471354631	149.45190076744601	128.55434588613244	79.072640191578529	103.33785671522651	96.480143683895434	127.0	149.0	126.0	79.0	103.0	97.0	RhTFIso05r01_SCLW_12	RhTFIso05r01_SCLW_12
10	3	1175	319	124	1.3349307905735006e-05	0.0027520000000000001	9.2922863247056292e-05	0.00013194912016183208	5.4945100349142017e-05	-5.287906911807234e-07	0.30632309320716805	0.0026879999999999999	92.674418604651166	118.55813953488372	108.67441860465117	79.601270696958025	104.28295469131049	98.814465408805034	92.0	118.0	109.0	80.0	104.0	99.0	RhTFIso05r01_SCLW_12	RhTFIso05r01_SCLW_12
11	3	1311	313	124	0.043689439385844811	0.33491199999999999	0.044254224584742582	0.00050930096965301334	0.0007464863070067065	-3.6910365577162217e-06	0.050246816336481571	0.073216000000000003	123.88152111599464	146.56086374928339	125.16988343206573	81.015973826020016	105.04984603541186	98.476905311778296	124.0	147.0	124.0	81.0	105.0	99.0	RhTFIso05r01_SCLW_12	RhTFIso05r01_SCLW_12
12	3	1433	319	124	0.056132157824847546	0.42608333333333331	0.05626475855417426	0.000513305868455967	0.00072056173036163672	-4.5886745999905039e-06	0.072715994738816708	0.078333333333333338	125.00273811852142	147.96616467827107	128.2720516330921	81.130535792072024	106.53622767533034	100.17162770437055	125.0	148.0	127.0	81.0	106.0	100.0	RhTFIso05r01_SCLW_12	RhTFIso05r01_SCLW_12
1	4	70	442	124	0.047997229893534207	0.35558400000000001	0.048324101204679566	0.0005261986487693274	0.0009998044617174056	-1.5501817174606848e-06	0.042151691521260998	0.082367999999999997	124.36537077033837	148.03473722102231	129.11159107271419	82.329526268745653	107.45059092263382	101.67712781805541	125.0	148.0	128.0	82.0	107.0	102.0	RhTFIso05r01_SCLW_12	RhTFIso05r01_SCLW_12
2	4	178	442	124	0.041925352296556931	0.33356799999999998	0.042272338284328359	0.00048684842153951853	0.0008918189066084494	-1.5975371207885243e-06	0.042322714070651669	0.079616000000000006	121.5508442056792	145.62221795855717	128.17075978511127	82.140977624123693	106.83837510803804	101.13502352828195	122.0	145.0	128.0	82.0	107.0	101.0	RhTFIso05r01_SCLW_12	RhTFIso05r01_SCLW_12
3	4	314	445	124	0.041736984432048659	0.33132800000000001	0.042170752556274921	0.00049070242405288989	0.00084913205555260413	-2.5003893500804833e-06	0.043000925818320733	0.078719999999999998	121.57504346146416	145.42746764535445	128.12806644774966	81.184820061255749	106.29240045941808	100.18989280245023	122.0	145.0	127.0	81.0	106.0	100.0	RhTFIso05r01_SCLW_12	RhTFIso05r01_SCLW_12
4	4	430	442	124	0.038053038641504278	0.305728	0.038493866452330334	0.00048177848596606029	0.00092765866329098425	-2.1324836726771969e-06	0.04168718918388456	0.076799999999999993	122.43625706510362	145.92484823110738	127.12936989742516	80.81203908554572	106.02783923303835	100.14325221238938	123.0	145.0	126.0	81.0	106.0	100.0	RhTFIso05r01_SCLW_12	RhTFIso05r01_SCLW_12
5	4	556	440	124	0.047316779920016649	0.351744	0.047784392513210795	0.00051839917029160743	0.00091683966894036872	-2.286290585754933e-06	0.043780156456979753	0.080383999999999997	123.20669577874818	147.00527656477439	127.92449053857351	80.649224997531846	105.23250074044822	99.053608450982324	123.0	147.0	126.0	81.0	105.0	99.0	RhTFIso05r01_SCLW_12	RhTFIso05r01_SCLW_12
6	4	683	440	124	0.04462937189317507	0.332928	0.045237014537204814	0.00051517917773583261	0.00092084903578998562	-2.9189066100474679e-06	0.043490987771673831	0.078464000000000006	123.43521722414457	146.7714340638216	127.22837370242215	80.387892161565773	104.33781061114843	97.887556365729637	123.0	146.0	125.5	80.0	104.0	98.0	RhTFIso05r01_SCLW_12	RhTFIso05r01_SCLW_12
7	4	803	442	124	0.047690618836781204	0.36038399999999998	0.048292929928625564	0.00050257025245451447	0.00088396549688628419	-2.6320830274763672e-06	0.041550319536974793	0.083519999999999997	123.31664002841414	146.50133191262654	127.51038891848695	79.89663798278967	104.20172103261957	98.125875525315195	123.0	146.0	125.0	80.0	104.0	98.0	RhTFIso05r01_SCLW_12	RhTFIso05r01_SCLW_12
8	4	930	442	124	0.039210712700667061	0.33030399999999999	0.039913933546672664	0.00045504272205478159	0.00071301657996588003	-3.3479759016786425e-06	0.040915914543614929	0.080575999999999995	119.48750242201123	143.07285409804302	124.03507072272815	79.47601299694189	103.7249617737003	97.670107033639141	119.0	142.0	122.0	79.0	104.0	98.0	RhTFIso05r01_SCLW_12	RhTFIso05r01_SCLW_12
9	4	1053	433	124	0.0438965756776429	0.34176000000000001	0.044636218346271024	0.00050194326030240726	0.00078103807294543372	-4.1989783549462196e-06	0.043996406484733713	0.079039999999999999	123.70149812734083	146.20561797752808	125.55355805243445	79.284200291686929	103.89421487603306	97.336217792902289	124.0	146.0	124.0	79.0	104.0	97.0	RhTFIso05r01_SCLW_12	RhTFIso05r01_SCLW_12
10	4	1181	447	124	0.00025436672183122642	0.0091520000000000004	0.00036845278785998918	0.00012211915080316863	0.00057111807965008787	-4.4245244587232537e-07	0.23204945736742791	0.0056319999999999999	97.979020979020973	121.66433566433567	107.89510489510489	80.172975067820701	104.66748482108255	99.568466606381605	95.0	119.0	106.0	80.0	105.0	100.0	RhTFIso05r01_SCLW_12	RhTFIso05r01_SCLW_12
11	4	1300	442	124	0.047426345322850214	0.33734399999999998	0.047911686473104474	0.00055225323068165721	0.00091991959091579465	-2.5043232742999321e-06	0.045466166712052655	0.077247999999999997	126.1305255169797	148.17055587175108	127.64086511098463	81.316785783272167	105.44398300173846	98.546069152018546	127.0	148.0	126.0	81.0	105.0	99.0	RhTFIso05r01_SCLW_12	RhTFIso05r01_SCLW_12
12	4	1433	439	124	0.057584249191645231	0.43183333333333335	0.057605335426879414	0.00052025637954419748	0.00076372932431144011	-1.8411860373847193e-06	0.068641909907712684	0.081166666666666665	125.36723272867619	148.54862987263604	128.46873793901969	82.005426811381639	106.78952772073922	100.99119976532708	126.0	149.0	127.0	81.0	106.0	101.0	RhTFIso05r01_SCLW_12	RhTFIso05r01_SCLW_12
1	5	69	558	124	0.00012504102582475057	0.0085120000000000005	0.00021227923532138445	9.6257049190033621e-05	5.2591677470414069e-05	2.5382361185235375e-07	13.812622245535289	0.00070399999999999998	92.864661654135332	118.0375939849624	112.06015037593986	82.945132971856438	108.46959721146398	103.74109217660728	93.0	118.0	112.0	83.0	108.0	104.0	RhTFIso05r01_SCLW_12	RhTFIso05r01_SCLW_12
2	5	187	571	124	0.043822610957348393	0.32358399999999998	0.044140466043464464	0.00053562403314877903	0.0010212676039952505	-9.5996133135965563e-07	0.044048478769912094	0.076864000000000002	125.06487341772151	148.20075158227849	129.36669303797467	82.677452928375445	107.49701958558047	102.1216766013814	126.0	148.0	128.0	83.0	107.0	102.0	RhTFIso05r01_SCLW_12	RhTFIso05r01_SCLW_12
3	5	306	566	124	0.044978879371929736	0.33811200000000002	0.04532220197626366	0.00052116068623120847	0.00091768830723081344	-2.0430220389698136e-06	0.041618246063996674	0.080832000000000001	123.33730834752981	147.43460155214839	128.30020821502933	81.865403210210786	107.08779733127055	100.89615161477471	124.0	147.0	127.0	82.0	107.0	101.0	RhTFIso05r01_SCLW_12	RhTFIso05r01_SCLW_12
4	5	429	559	124	5.7788482091506739e-05	0.0040959999999999998	0.00015323256178148196	0.00012130476368737003	0.00037488400408622639	-2.5505148660370292e-07	0.23103927587445763	0.0037759999999999998	93.328125	120.828125	110.828125	81.285650022492135	106.59610564873722	101.71473555684082	91.0	118.0	110.0	81.0	106.0	102.0	RhTFIso05r01_SCLW_12	RhTFIso05r01_SCLW_12
5	5	552	570	124	0.049539105197473489	0.36563200000000001	0.04996502160652147	0.00052468390842995232	0.00093408855735755574	-1.5908428822642683e-06	0.040646590878500699	0.085056000000000007	123.56222650096272	147.13373008927007	127.80185541746893	81.570419693301048	105.80367231638418	99.831416464891035	124.0	147.0	126.0	81.0	106.0	100.0	RhTFIso05r01_SCLW_12	RhTFIso05r01_SCLW_12
6	5	690	566	124	0.048289657869153277	0.34534399999999998	0.048824541703340454	0.00054061477605704612	0.0010436025247450556	-1.9358287154289682e-06	0.039213020766575832	0.084159999999999999	125.6401037805782	148.19996293550778	129.4592290585619	80.41929807410304	105.02766643855705	98.890702903509634	126.0	148.0	128.0	80.0	105.0	99.0	RhTFIso05r01_SCLW_12	RhTFIso05r01_SCLW_12
7	5	806	563	124	0.035962735893564308	0.32416	0.036466150837191721	0.00043029351955420309	0.00083974131454543242	-2.4399220746240193e-06	0.034060599255268914	0.087487999999999996	117.3182625863771	140.70108588351431	124.85863770977295	80.377083333333331	104.78816287878787	98.779071969696972	117.0	140.0	124.0	80.0	105.0	99.0	RhTFIso05r01_SCLW_12	RhTFIso05r01_SCLW_12
8	5	926	558	124	0.038617360983853266	0.32889600000000002	0.039149381565295113	0.00045530320075006647	0.00079988910806899139	-2.5292654845815523e-06	0.038153456477452032	0.083264000000000005	119.57462541350458	141.94220665499125	124.57910099241097	80.161071905397677	104.40043868014496	98.373545679954219	119.0	141.0	124.0	80.0	104.0	98.0	RhTFIso05r01_SCLW_12	RhTFIso05r01_SCLW_12
9	5	1058	562	124	0.038826207104715051	0.32780799999999999	0.039434905020882934	0.00045574552265426153	0.00074968724247492053	-2.9779615188266835e-06	0.039346703186157878	0.081855999999999998	120.54256149941429	143.66614603670442	124.44826239750098	80.592211749024088	104.61963248595639	98.329905741216791	120.0	143.0	123.0	81.0	104.0	98.0	RhTFIso05r01_SCLW_12	RhTFIso05r01_SCLW_12
10	5	1176	566	124	6.3130194100151899e-05	0.0085760000000000003	0.00024431126842852446	0.00010360001413155213	9.8714356820091178e-05	-5.3726105258595896e-07	0.23864706098697974	0.0053759999999999997	94.477611940298502	117.40298507462687	107.58208955223881	80.307081531211665	105.19114324446453	99.693112129623657	94.0	117.0	107.0	80.0	105.0	100.0	RhTFIso05r01_SCLW_12	RhTFIso05r01_SCLW_12
11	5	1310	559	124	0.046453805285409704	0.34617599999999998	0.046971223229439564	0.00053097990152749849	0.00077193595551970412	-2.4214650496213171e-06	0.048651013548596085	0.075648000000000007	125.54926973562581	147.25161767424663	126.00684045110002	81.858163664839466	105.77261158966327	99.028582615505087	126.0	147.0	125.0	82.0	106.0	99.0	RhTFIso05r01_SCLW_12	RhTFIso05r01_SCLW_12
12	5	1433	560	124	0.060653027198981524	0.43891666666666668	0.060840402099263127	0.0005483392520030609	0.00087385981753885882	-3.3672037143245143e-06	0.057061314982063349	0.089749999999999996	127.38389975318017	149.55287640022783	130.11999240554394	82.418981137680078	106.93108569731174	101.21387197386009	128.0	150.0	129.0	82.0	106.0	101.0	RhTFIso05r01_SCLW_12	RhTFIso05r01_SCLW_12
1	6	70	691	124	0.0503161574669427	0.35961599999999999	0.050564522616312391	0.00055776997250994384	0.0011634067858730982	-1.7391017423875118e-06	0.046596445653599494	0.078784000000000007	126.54547072432817	150.24114611140772	130.75938779142197	83.578452928243053	108.79052568458924	103.05036977813312	128.0	151.0	130.0	83.0	109.0	103.0	RhTFIso05r01_SCLW_12	RhTFIso05r01_SCLW_12
2	6	178	683	124	0.044444855498191674	0.33619199999999999	0.044757090835629974	0.00052064288366657099	0.0010201296240062159	-1.4288460717367477e-06	0.045612724103587472	0.076992000000000005	124.42242528079193	147.71463925375974	128.68189605939463	82.949382954107207	108.13333976089471	102.16930196683379	125.0	148.0	128.0	83.0	108.0	102.0	RhTFIso05r01_SCLW_12	RhTFIso05r01_SCLW_12
3	6	304	691	124	0.045929406032067972	0.345472	0.046282579029853131	0.00052436694457806232	0.00094648756328153619	-1.7263714339713464e-06	0.04259160777694878	0.080768000000000006	124.16950722489811	148.18618006669138	129.26824749907374	82.991395326097589	107.83083993350934	101.93380267918256	125.0	148.0	128.0	83.0	108.0	102.0	RhTFIso05r01_SCLW_12	RhTFIso05r01_SCLW_12
4	6	429	691	124	0.043601379526770657	0.32806400000000002	0.043925637534763182	0.00052795616351274382	0.00092898649711309345	-2.1115683928937235e-06	0.041490854695993548	0.079743999999999995	123.03726102223956	146.81467030823254	128.46859149434258	82.210115249071336	107.22811696352034	101.02666920659111	124.0	147.0	127.0	82.0	107.0	101.0	RhTFIso05r01_SCLW_12	RhTFIso05r01_SCLW_12
5	6	553	691	124	0.052826374755234419	0.36575999999999997	0.053144642901649268	0.0005665869381343714	0.001159678272583995	-1.7655945101017404e-06	0.037820534619841265	0.088192000000000006	126.81347331583552	149.23062117235347	129.87121609798774	82.505247225025229	106.7627648839556	100.90938446014127	128.0	149.0	128.0	82.0	107.0	101.0	RhTFIso05r01_SCLW_12	RhTFIso05r01_SCLW_12
6	6	679	691	124	0.038164596998417392	0.33376	0.038636484530109656	0.00043817823348083916	0.00081669829474388482	-1.8920558155256724e-06	0.034966911996292253	0.087615999999999999	119.59252157238734	142.59463087248321	124.83413231064237	81.849855907780977	106.1375600384246	100.34831892411142	119.0	142.0	124.0	82.0	106.0	100.0	RhTFIso05r01_SCLW_12	RhTFIso05r01_SCLW_12
7	6	802	691	124	0.037029417493263689	0.33286399999999999	0.037487206257076869	0.00042426737849606845	0.0008527950487137166	-1.5405195082204214e-06	0.032231219604769983	0.091135999999999995	118.04691405498943	141.02634108825225	124.13035954624111	81.824443591711429	105.91193399846507	99.43217574827321	118.0	140.0	123.0	82.0	106.0	99.0	RhTFIso05r01_SCLW_12	RhTFIso05r01_SCLW_12
8	6	927	689	124	0.050865585438059975	0.36825599999999997	0.051387171415479334	0.00053807239452866734	0.00097541716037051506	-2.5270722969667354e-06	0.041372980764842311	0.084608000000000003	126.7499131039277	148.13051790059089	129.1129648939868	81.451220747644612	105.48059973660217	99.028568534089757	127.0	148.0	127.0	81.0	105.0	99.0	RhTFIso05r01_SCLW_12	RhTFIso05r01_SCLW_12
9	6	1059	697	124	0.046390077645390188	0.35827199999999998	0.04685709843433556	0.00050678084060030092	0.00080265619627903719	-2.682243657956632e-06	0.041753546821578447	0.083071999999999993	123.54966059306895	145.79581993569133	126.48517327617006	81.919816495462257	105.57913633190385	99.15218908945846	124.0	146.0	125.0	82.0	106.0	99.0	RhTFIso05r01_SCLW_12	RhTFIso05r01_SCLW_12
10	6	1187	682	124	0.00020507327601927689	0.012416	0.00027927631296515392	8.5826636263417117e-05	7.1007521389383998e-05	-3.6712074408607366e-07	2.5368115496208943	0.0019840000000000001	93.798969072164951	117.91752577319588	107.4278350515464	80.909143931047893	105.5889443328365	100.22513122934353	93.5	118.0	107.0	81.0	105.0	100.0	RhTFIso05r01_SCLW_12	RhTFIso05r01_SCLW_12
11	6	1310	688	124	0.052222950391873156	0.35814400000000002	0.052664471132337097	0.0005822004855753789	0.00098699960230859418	-2.8030627190669909e-06	0.044435112866180411	0.080512	127.97373123659757	149.58255897069336	128.46157969978557	81.63755110180476	106.1230431747931	100.03579619104596	129.0	151.0	128.0	81.0	106.0	100.0	RhTFIso05r01_SCLW_12	RhTFIso05r01_SCLW_12
12	6	1433	699	124	0.058659089787664036	0.42633333333333334	0.058382142749730005	0.00053826595520100001	0.00085747806702754015	-5.802105564444143e-07	0.078149431972884584	0.075583333333333336	127.48318999218139	150.19311962470681	129.89132134480062	82.49622312608949	108.2135386403254	103.0486635676932	128.0	150.0	129.0	82.0	108.0	103.0	RhTFIso05r01_SCLW_12	RhTFIso05r01_SCLW_12
1	7	62	815	124	0.055748761923145582	0.39648	0.055956272666363459	0.00057797769844293676	0.0016874724823866013	-5.0090188212167183e-07	0.050875861395672684	0.079168000000000002	128.35851493139629	150.83454398708636	132.38563357546408	85.060869565217388	110.73913043478261	104.8033934252386	131.0	153.0	132.0	85.0	111.0	105.0	RhTFIso05r01_SCLW_12	RhTFIso05r01_SCLW_12
2	7	183	815	124	0.049238900020002148	0.35398400000000002	0.049455736707059716	0.00055942623898012174	0.001122159447362519	-1.0510314019239095e-06	0.049496765737699143	0.075840000000000005	126.04917736394866	149.18405351654312	130.55921171578376	84.465127798692293	109.64057856152169	103.72300376461264	127.0	150.0	130.0	84.0	110.0	104.0	RhTFIso05r01_SCLW_12	RhTFIso05r01_SCLW_12
3	7	312	806	124	0.045722069533337781	0.348416	0.046001999367196025	0.00052464349371368006	0.00095107188840986429	-1.6598105782599068e-06	0.049890078858910537	0.074943999999999997	124.49871418074945	147.88611315209405	129.86866274797941	83.836460072684417	108.98389156271486	102.71171790590316	126.0	149.0	129.0	84.0	109.0	103.0	RhTFIso05r01_SCLW_12	RhTFIso05r01_SCLW_12
4	7	428	815	124	0.047348363810819118	0.34976000000000002	0.047597043259109822	0.00054423896306279504	0.0010031565761427655	-1.0497776124838765e-06	0.045615338799500291	0.078528000000000001	125.07063129002745	148.26770356816101	128.91857273559012	83.630511811023624	108.78238188976378	102.58484251968504	126.0	149.0	128.0	84.0	109.0	103.0	RhTFIso05r01_SCLW_12	RhTFIso05r01_SCLW_12
5	7	556	815	124	0.039680767385025392	0.340416	0.039969902384974207	0.00046185079169280808	0.00085646310951714418	-4.1773334289853416e-07	0.046963339020632676	0.076352000000000003	120.84113555179545	143.71893213009963	126.58413235570596	83.915389093731804	108.76237143411605	102.57354938870562	121.0	144.0	126.0	84.0	109.0	103.0	RhTFIso05r01_SCLW_12	RhTFIso05r01_SCLW_12
6	7	678	815	124	0.042411697772991641	0.34304000000000001	0.042683151393674457	0.00048998844578747943	0.00079676382436301961	-1.2889953699442796e-06	0.047088222232528974	0.076544000000000001	122.95373134328358	145.28992537313434	126.70335820895522	83.816853385289818	108.04890404286409	101.78314661471018	124.0	145.0	126.0	84.0	108.0	102.0	RhTFIso05r01_SCLW_12	RhTFIso05r01_SCLW_12
7	7	811	815	124	0.052556751382333768	0.36518400000000001	0.052927373879627107	0.00056453917406473677	0.0011587849315289498	-1.922315406406799e-06	0.040780691271184638	0.084863999999999995	127.93901156677182	149.95250613389413	131.05643182614793	82.963101119064419	107.90805524750479	100.98467587458413	129.0	150.0	129.0	83.0	108.0	101.0	RhTFIso05r01_SCLW_12	RhTFIso05r01_SCLW_12
8	7	934	822	124	0.051629061526095879	0.35827199999999998	0.051870162869015496	0.00056397527986834191	0.0012317882509522151	-9.0958898729572219e-07	0.036885476736983745	0.088384000000000004	127.88728117184709	149.72400857449088	130.20042872454448	83.092051461055149	107.79435524084971	101.31355340580433	129.0	150.0	129.0	83.0	108.0	101.0	RhTFIso05r01_SCLW_12	RhTFIso05r01_SCLW_12
9	7	1065	823	124	0.042911588087522136	0.34099200000000002	0.043295272666277591	0.00049494865310880471	0.00076097365315842716	-2.4834366857173473e-06	0.056147290512171162	0.069888000000000006	123.27064564564564	146.03547297297297	126.00919669669669	82.731183839953388	107.59590171894726	101.31679129843644	124.0	146.0	125.0	83.0	108.0	102.0	RhTFIso05r01_SCLW_12	RhTFIso05r01_SCLW_12
10	7	1175	815	124	0.046192671375889567	0.340864	0.046560963929838231	0.00053704936680471925	0.00086048424507448535	-1.6540485114948875e-06	0.04758188555354697	0.075903999999999999	125.33477281261735	147.33721366879459	126.78989861058956	82.100009709680549	107.25099524225654	100.43839207690067	126.0	148.0	126.0	82.0	107.0	101.0	RhTFIso05r01_SCLW_12	RhTFIso05r01_SCLW_12
11	7	1309	821	124	0.049963531548090558	0.35871999999999998	0.050334403292405572	0.00057264022958865486	0.0013471351366023396	-1.1566036054061732e-06	0.044790963839784877	0.080255999999999994	128.17627118644069	149.11043710972345	129.03122212310438	82.466966067864277	107.53383233532934	102.17415169660678	130.0	151.0	128.0	82.0	107.0	102.0	RhTFIso05r01_SCLW_12	RhTFIso05r01_SCLW_12
12	7	1433	808	124	0.00061159248422646339	0.017999999999999999	0.00071216701632776194	0.00015497012637061069	0.000145528664303656	-2.0147874227544521e-07	0.50935185826638796	0.006083333333333333	95.412037037037038	122.08796296296296	116.05092592592592	81.303292600135777	108.00644942294637	104.73803462321793	96.0	122.0	116.0	81.0	108.0	104.0	RhTFIso05r01_SCLW_12	RhTFIso05r01_SCLW_12
1	8	62	939	124	0.075228728772003109	0.5138585858585859	0.074807953421672249	0.00060073706681439891	0.0019661137762030708	2.3669384192883742e-07	0.06509073389519443	0.089535353535353537	130.56392514546312	153.30618021701525	135.53640509514074	86.15824468085107	112.47938829787235	107.65541888297872	133.0	155.0	136.0	86.0	112.0	108.0	RhTFIso05r01_SCLW_12	RhTFIso05r01_SCLW_12
2	8	181	939	124	0.068064906446294496	0.48016161616161618	0.067668771095601904	0.00057416758267369433	0.0015017345028971105	8.041143172096683e-07	0.06734196258374725	0.085090909090909092	127.78660383709189	151.41585324806462	133.7728037697745	85.479713974817344	111.59940929581843	106.59894295041194	130.0	153.0	134.0	85.0	111.0	107.0	RhTFIso05r01_SCLW_12	RhTFIso05r01_SCLW_12
3	8	309	939	124	0.063134296703402759	0.45511111111111113	0.062931561423528806	0.00055842652766670677	0.0012855519061705884	-6.4052522164333101e-07	0.067363521047063279	0.082828282828282834	127.95454545454545	151.33043323863637	133.70543323863637	84.443274506896046	110.75144594394186	105.87468485837165	130.0	152.0	133.0	84.0	111.0	106.0	RhTFIso05r01_SCLW_12	RhTFIso05r01_SCLW_12
4	8	434	939	124	0.062640655408323809	0.45333333333333331	0.062407749093911384	0.00055740915710083595	0.0012070714699463775	-9.2792177240262624e-07	0.070922234251958427	0.080565656565656563	126.98039215686275	151.25329768270944	132.79483065953653	84.534959349593493	110.51042128603105	105.44257206208425	129.0	152.0	133.0	84.0	110.0	105.0	RhTFIso05r01_SCLW_12	RhTFIso05r01_SCLW_12
5	8	561	939	124	0.057910258265022031	0.44484848484848483	0.058122935183532259	0.0005224496561517315	0.0010098438746886677	-2.9730846298008756e-06	0.056861218544369846	0.089131313131313131	125.11298819255222	148.72897366030881	131.72806539509537	83.974526928675402	110.28529839883552	104.83915574963611	127.0	149.0	132.0	84.0	110.0	105.0	RhTFIso05r01_SCLW_12	RhTFIso05r01_SCLW_12
6	8	678	939	124	0.076064145551872048	0.514989898989899	0.075880744987635126	0.00057640204358828885	0.0014184995480355611	-2.0028374500519301e-06	0.050685440720706139	0.10157575757575757	130.99921544013807	153.13008002510591	136.16742507453318	84.854215261579469	110.3188937020993	104.61746084638453	131.0	153.0	134.0	84.0	110.0	104.0	RhTFIso05r01_SCLW_12	RhTFIso05r01_SCLW_12
7	8	805	939	124	0.076746127067236602	0.51151515151515148	0.076925480478511651	0.00059324193284262107	0.001602179883942933	-1.8035635129585531e-06	0.037781461103558685	0.11725252525252525	130.56366508688782	152.46793048973143	135.18056872037914	83.883705541770055	109.75285359801489	104.54061207609595	132.0	153.0	133.0	84.0	110.0	105.0	RhTFIso05r01_SCLW_12	RhTFIso05r01_SCLW_12
8	8	932	939	124	0.073683653761288714	0.48993939393939395	0.073842296075783395	0.00059167864462159579	0.0014094483176906151	-2.4209751128302099e-08	0.039377049562665439	0.11240404040404041	130.00808180768595	152.39864753422398	135.04007916872834	83.344581749049425	109.23130544993663	103.95278833967046	131.0	153.0	133.0	83.0	109.0	104.0	RhTFIso05r01_SCLW_12	RhTFIso05r01_SCLW_12
9	8	1058	939	124	0.064294456600236638	0.45850505050505053	0.06468315677202241	0.00056117625439353969	0.0010531761682024375	-2.9228805459096317e-06	0.046597197346093112	0.099959595959595957	127.01674303842087	150.47832217130772	132.24427211843496	82.70750634233697	108.56573645724519	103.47903298015221	128.0	151.0	131.0	83.0	108.0	103.0	RhTFIso05r01_SCLW_12	RhTFIso05r01_SCLW_12
10	8	1176	939	124	0.064666972294855574	0.45866666666666667	0.065030110314722944	0.00056441010964101512	0.0011195197574140824	-2.5662726642873388e-06	0.048237534360326316	0.09826262626262626	126.82399577167018	149.44855532064835	130.55144467935165	82.088072846693535	108.07971339005822	103.37124944021495	129.0	150.0	130.0	82.0	108.0	103.0	RhTFIso05r01_SCLW_12	RhTFIso05r01_SCLW_12
11	8	1302	939	124	0.070185557239784369	0.48032323232323232	0.070621834192630906	0.00059018257126805908	0.001150075480124435	-2.6391184478058637e-06	0.044471180872146326	0.10472727272727272	128.99848586810228	151.56847240915209	132.56880888290712	82.017104649354692	108.05955527911678	103.24708443476909	131.0	153.0	132.0	82.0	108.0	103.0	RhTFIso05r01_SCLW_12	RhTFIso05r01_SCLW_12
12	8	1437	939	124	0.00071669646403940722	0.029424681598594644	0.00092194845055744662	0.00011228058269389662	0.00022913378958332208	-1.5111508523116422e-07	0.93549647906896061	0.006587615283267457	90.761194029850742	121.75	119.17537313432835	78.727714932126702	107.53823529411764	107.94355203619909	90.5	121.0	119.0	79.0	107.0	108.0	RhTFIso05r01_SCLW_12	RhTFIso05r01_SCLW_12
