RhTFIso05r01_3AT_43.jpg,96,60,62,1405,901
RhTFIso05r01_3AT_44.jpg,96,60,62,1408,926
RhTFIso05r01_3AT_45.jpg,96,50,76,1412,943
RhTFIso05r01_3AT_46.jpg,96,62,54,1405,899
RhTFIso05r01_3AT_47.jpg,96,74,49,1418,912
RhTFIso05r01_3AT_48.jpg,96,74,69,1423,929
