Column	Row	x	y	Diameter	Intensity	Area	Trimmed	FeatureMedian	FeatureVariance	BackgroundMedian	Circularity	Perimeter	redMean	greenMean	blueMean	redMeanBack	greenMeanBack	blueMeanBack	redMedian	greenMedian	blueMedian	redMedianBack	greenMedianBack	blueMedianBack	Barcode	Filename
1	1	62	69	121	0.050187819594588533	0.25044616299821537	0.050638718389272544	0.00079866739633814771	0.0018764871349690579	-1.0228164104682676e-06	0.037354814616670035	0.074624892590389319	118.40828714700449	139.36764317761941	125.43626286619161	59.373192239858909	81.758112874779542	84.664462081128747	120.0	140.0	125.0	60.0	82.0	85.0	RhTFIso05r01_3AT_52	RhTFIso05r01_3AT_52
2	1	180	61	121	0.042766533142825226	0.31647828673408684	0.044279298563573287	0.00066083014857500056	0.0064755523980559049	-4.6729760839178133e-06	0.043138417622482786	0.078062000132196441	123.7702589807853	143.65246449456976	127.87907268170426	62.069819166424914	84.016632820810372	85.851658446958709	127.0	146.0	127.0	62.0	84.0	86.0	RhTFIso05r01_3AT_52	RhTFIso05r01_3AT_52
3	1	308	61	121	0.0075762565939981432	0.22255271333201138	0.0080350483034320359	0.00011519267919064571	0.00051654280759326889	-2.2501812110112128e-06	0.11675083569316931	0.039791129618613259	79.371547371547365	101.84763884763885	101.19453519453519	63.925352831151166	85.94609760244856	88.027886413875194	78.0	100.0	100.0	64.0	86.0	88.0	RhTFIso05r01_3AT_52	RhTFIso05r01_3AT_52
4	1	431	61	121	0.0081092612330561555	0.2615506642871307	0.0087225420327282418	0.00010886776309856847	0.0011503269031959906	-2.511732572534045e-06	0.082788975685359825	0.051226122017317736	82.059388425574937	104.27571392469042	103.99620924943139	65.401987110633726	87.557465091299676	89.716612960973862	80.0	103.0	103.0	65.0	87.0	90.0	RhTFIso05r01_3AT_52	RhTFIso05r01_3AT_52
5	1	562	69	121	0.011149419713886808	0.28144622909643729	0.011375251739688333	0.00014284567319974471	0.00041036794670882139	-1.3305070240155978e-06	0.12821843896697313	0.042699451384757753	79.314936589948331	103.11930483795209	102.52278064819164	65.344862478152891	88.124183607763769	90.909759911691651	78.0	102.0	101.0	65.0	88.0	91.0	RhTFIso05r01_3AT_52	RhTFIso05r01_3AT_52
6	1	670	61	121	0.0075074577788496553	0.27291955846387733	0.0079432035477768788	0.00010232602000173045	0.00085355748797370811	-1.8403706962094649e-06	0.21877456272400281	0.032189834093462884	79.556551223056431	103.11358682489707	104.48558973116978	65.080727272727273	88.37381818181818	90.88663636363637	78.0	101.0	103.0	65.0	88.0	91.0	RhTFIso05r01_3AT_52	RhTFIso05r01_3AT_52
7	1	796	69	121	0.011874963979564772	0.24297706391698062	0.012122056464183182	0.00017314173647607107	0.00073362291701570574	-7.7174205007956575e-07	0.097025789494611034	0.045607773150902239	83.182263329706203	106.52230685527748	106.39118607181719	65.457696673360687	88.966733606915213	91.875141884222472	82.0	105.0	105.0	65.0	89.0	92.0	RhTFIso05r01_3AT_52	RhTFIso05r01_3AT_52
8	1	929	61	121	0.020295563569255371	0.27113490647101596	0.020580741956522767	0.00022674757847978238	0.0032583929490968646	-5.7800287865580644e-07	0.013175070430984849	0.13074228303258642	89.290589956118964	113.64700146270113	111.11945392491468	66.308515462047694	90.271061938877295	92.295365920014504	85.0	109.0	107.0	66.0	90.0	92.0	RhTFIso05r01_3AT_52	RhTFIso05r01_3AT_52
9	1	1040	61	121	0.010167372526777718	0.23438429506246283	0.010386646545968549	0.00015450691519987609	0.00055939984136085374	-4.9447612488958109e-07	0.1782414007940705	0.033049110978914664	80.801184433164124	105.37760857304005	106.0307388606881	66.075369075369082	90.167227833894501	92.48666148666149	80.0	104.0	105.0	66.0	90.0	93.0	RhTFIso05r01_3AT_52	RhTFIso05r01_3AT_52
10	1	1167	61	121	0.010261790754818704	0.2325335448476436	0.010513271786954105	0.00015449073794430307	0.00058254792078015155	-1.4899885879114639e-06	0.13654668666490272	0.037609888294004891	81.106594656054583	105.79761227970438	105.60801591813531	65.630781155800534	90.359228317974328	92.673413142709506	79.5	105.0	105.0	66.0	90.0	93.0	RhTFIso05r01_3AT_52	RhTFIso05r01_3AT_52
11	1	1293	61	121	0.017284343458242087	0.28666798863110582	0.017580362195588832	0.00022710144261698823	0.00098241063471314984	-2.1524807016730705e-06	0.068804884931796151	0.058827417542468105	84.819460456536774	110.94258704173392	109.23287987087849	65.365177909562632	90.254818383988137	92.472386953298738	84.0	111.0	108.0	65.0	90.0	92.0	RhTFIso05r01_3AT_52	RhTFIso05r01_3AT_52
12	1	1422	61	121	0.069830975668678144	0.38946549039958483	0.070219371268194206	0.00073614820315949438	0.0021009314410575584	-2.0489321446608078e-06	0.045761709147801741	0.096177131984085798	119.47701532311793	140.69042860315346	127.76215856095936	63.59101855786939	87.87717807054824	90.870661566794169	122.0	143.0	129.0	63.0	88.0	91.0	RhTFIso05r01_3AT_52	RhTFIso05r01_3AT_52
1	2	62	177	121	0.036644014179711415	0.23464868795029414	0.037143577399494768	0.00060102195425031015	0.0019505798595899253	-1.9173881902459155e-06	0.019057036046381759	0.10113027959547888	107.4943661971831	130.82760563380282	121.09070422535211	59.408843596165475	82.841782537352103	85.927282148717509	107.0	130.0	120.0	60.0	83.0	86.0	RhTFIso05r01_3AT_52	RhTFIso05r01_3AT_52
2	2	176	182	121	0.013573719019268911	0.23134377685240268	0.01414464229043199	0.00021970683337912188	0.00065183111832447648	-2.5961372923161328e-06	0.042945422860708161	0.066891400621323288	83.61571428571429	106.15742857142857	104.37971428571429	61.383437956832054	83.97308453005418	86.812193653796541	82.0	105.0	104.0	61.0	84.0	87.0	RhTFIso05r01_3AT_52	RhTFIso05r01_3AT_52
3	2	308	176	121	0.037431871854883655	0.24046533148258312	0.037871442876061541	0.00062474011909119842	0.0023487728287997041	-1.9808183238407605e-06	0.012427259097186597	0.12677638971511665	108.50164925783398	132.2737768004398	122.0417811984607	62.41040814550518	84.835175354625363	86.49760682273083	109.0	133.0	122.0	62.0	85.0	87.0	RhTFIso05r01_3AT_52	RhTFIso05r01_3AT_52
4	2	436	190	121	0.04622589339346253	0.28091744332077467	0.046628705300618072	0.00068205128848372923	0.002787337243832622	-1.7209874051006113e-06	0.025827419820366761	0.09504924317535858	112.44423529411765	136.13176470588235	123.57741176470589	63.923246621932165	86.236602628918092	87.35619082636272	115.0	138.0	125.0	64.0	86.0	87.0	RhTFIso05r01_3AT_52	RhTFIso05r01_3AT_52
5	2	545	182	121	0.011601301881517631	0.24806662700773349	0.011874300401680693	0.00016311369381497219	0.00080080414766916651	-9.8205626299262186e-07	0.063766345207801473	0.056844470883733227	81.828403943511859	104.8156141753264	103.40873967492672	64.807753164556956	87.393372011251756	89.148382559774959	80.0	103.0	102.0	64.0	87.0	89.0	RhTFIso05r01_3AT_52	RhTFIso05r01_3AT_52
6	2	671	182	121	0.012833073698524112	0.23035230352303523	0.013164721997944976	0.00019741964346880415	0.00063285746002504769	-1.7814715197628592e-06	0.054307520288889584	0.05935620331813074	82.415494978479202	107.05738880918221	104.27919655667145	64.124441772586735	87.313981449673648	89.322311920302297	81.0	105.0	103.0	64.0	87.0	89.0	RhTFIso05r01_3AT_52	RhTFIso05r01_3AT_52
7	2	795	187	121	0.012096566930557747	0.21700046268755371	0.012420526059191906	0.00019942462885147002	0.00062797893124008424	-1.0470296845990172e-06	0.055910634271571114	0.056778372661775399	82.642704843131284	107.01583917148949	104.58939993908011	63.85995272665879	87.420563903427322	89.338595306432552	81.0	105.0	103.0	64.0	87.0	89.0	RhTFIso05r01_3AT_52	RhTFIso05r01_3AT_52
8	2	924	187	121	0.030023735829070104	0.24614977857095643	0.030284927647060304	0.00034172360955493159	0.0083768988664974925	-3.7518881985667892e-07	0.010744213710739874	0.13794698922598983	102.3719119226638	125.80504833512353	118.62996777658432	64.496975010960099	88.448399824638315	89.698465585269616	92.0	116.0	110.0	64.0	88.0	90.0	RhTFIso05r01_3AT_52	RhTFIso05r01_3AT_52
9	2	1048	174	121	0.012526303214255189	0.22242051688809572	0.012754841261614148	0.00020084676728564593	0.00059411719663118943	-9.4195699945224573e-07	0.071320352702510734	0.050895630907528584	83.063595839524524	108.28350668647846	106.19851411589896	64.664144848690924	88.847585855151308	90.330074804488262	81.0	107.0	105.0	65.0	89.0	91.0	RhTFIso05r01_3AT_52	RhTFIso05r01_3AT_52
10	2	1174	182	121	0.013179023617375928	0.22526274043228237	0.013473241284862473	0.00019393290599168143	0.0012214735356096641	-2.8198339566887738e-07	0.05263763582005012	0.059620596205962058	83.945129107981217	108.60269953051643	105.14025821596245	64.510536643631085	88.973722378636637	89.91058783380258	81.0	106.0	103.0	64.0	89.0	90.0	RhTFIso05r01_3AT_52	RhTFIso05r01_3AT_52
11	2	1290	174	121	0.011502114263191502	0.22764227642276422	0.011760253467123309	0.00017877539593706289	0.00053614866028372393	-1.7183877713576414e-06	0.077767001120997395	0.049309273580540686	81.50813008130082	107.23025551684088	103.71747967479675	64.548480958493798	89.331964056482676	88.75404364569961	80.0	106.0	103.0	65.0	89.0	89.0	RhTFIso05r01_3AT_52	RhTFIso05r01_3AT_52
12	2	1417	177	121	0.074130505069444186	0.39344666173934467	0.074374395767385734	0.00078883391087770103	0.0027782719072671669	-2.5136595935834351e-06	0.038966713426819989	0.10207768744354111	121.76497599666041	144.55186808599458	126.51972448340639	64.922420796100738	89.576766856214462	89.272136474411042	126.0	148.0	127.0	65.0	89.0	90.0	RhTFIso05r01_3AT_52	RhTFIso05r01_3AT_52
1	3	62	304	121	0.017572939548101432	0.21541410536056579	0.018070354363678126	0.00029123936284185405	0.0015015247372120529	-1.8469474193905527e-06	0.02353990107388115	0.087183554762376894	88.873274010432652	112.74071801166002	109.66676894752992	59.250716090985676	83.173378264532431	86.96840775063184	86.0	111.0	108.0	59.0	83.0	87.0	RhTFIso05r01_3AT_52	RhTFIso05r01_3AT_52
2	3	181	294	121	0.014288904149818097	0.26908586159032322	0.014840471292656452	0.00020357837429190264	0.00070746322818153972	-2.3413598398858582e-06	0.049364575915501516	0.067287989953070268	82.208056988454928	106.66224514861213	104.19503807418324	61.112045577862183	84.492313257370228	87.126062579128231	82.0	106.0	104.0	61.0	84.0	87.0	RhTFIso05r01_3AT_52	RhTFIso05r01_3AT_52
3	3	306	294	121	0.066614453868270904	0.31059554497984004	0.06712390429439484	0.00086313453090693831	0.0024979938935968029	-2.3290709759870298e-06	0.034147884466667867	0.08691916187454557	126.04171100234092	147.19642477122792	131.18876356671632	61.558101629913708	84.616395014381595	85.256471716203265	128.0	149.0	131.0	61.0	84.0	86.0	RhTFIso05r01_3AT_52	RhTFIso05r01_3AT_52
4	3	431	303	121	0.010721356267141192	0.22103245422698128	0.011104209880045398	0.00016851722101471694	0.00082574276335224597	-1.1723453784164406e-06	0.039456334631348282	0.068213365060479869	81.632775119617222	105.19138755980862	102.30322966507177	62.926177344081459	85.873907509546029	87.15706406448875	80.0	103.0	100.0	63.0	86.0	87.0	RhTFIso05r01_3AT_52	RhTFIso05r01_3AT_52
5	3	554	305	121	0.060646837745533901	0.32269151959812281	0.060982229719463175	0.00075548150132631348	0.0024867042859343237	-2.6320586719650732e-06	0.025469722032803316	0.10258444047855113	120.70524375256042	142.59156083572307	128.91745186399018	64.836830291792722	87.298038450278128	86.504733092612469	122.0	144.0	129.0	65.0	87.0	86.0	RhTFIso05r01_3AT_52	RhTFIso05r01_3AT_52
6	3	683	311	121	0.010550667776474953	0.22790666931059556	0.011018547876038426	0.00016216160989097526	0.00061917736158865078	-1.9785032996739384e-06	0.049989381015424585	0.061537444642739109	80.92952436194895	104.92778422273781	103.5284222737819	63.075421624860887	86.199811659960616	88.114202551151436	80.0	103.0	102.0	63.0	86.0	88.0	RhTFIso05r01_3AT_52	RhTFIso05r01_3AT_52
7	3	798	303	121	0.017059958885486511	0.22717958886905942	0.017400844969829903	0.00027246119853860509	0.00085169348004909601	-2.1967374045159831e-06	0.042172405249215422	0.066891400621323288	86.939191155077097	111.70148385219669	107.80855397148676	63.691070817653099	87.192353746151213	88.926017789941838	85.0	110.0	106.0	63.0	87.0	89.0	RhTFIso05r01_3AT_52	RhTFIso05r01_3AT_52
8	3	929	299	121	0.012788107383676087	0.24350584969264327	0.013179853915320247	0.00018365266113078605	0.00066234618170494164	-1.3961141929497927e-06	0.049920268354127856	0.063652587745389649	82.883279044516826	106.58984799131379	103.9714983713355	63.738925294888595	87.259938837920487	89.074879860200966	81.0	105.0	103.0	64.0	87.0	89.0	RhTFIso05r01_3AT_52	RhTFIso05r01_3AT_52
9	3	1043	304	121	0.018099323196392434	0.27820741622050366	0.018404779510753429	0.00023628324853894477	0.00064838961038761955	-4.9924507406117552e-07	0.04179109445201995	0.074360499702557994	85.011641720123549	110.01639344262296	106.72748871465906	64.095970695970692	87.400091575091579	88.306135531135524	83.0	109.0	106.0	64.0	87.0	89.0	RhTFIso05r01_3AT_52	RhTFIso05r01_3AT_52
10	3	1171	303	121	0.059883043854441688	0.29400489126842488	0.060196780774544989	0.00082268957232335411	0.0026098359058545654	-1.323534348711748e-06	0.037863615974983215	0.080309339678762637	125.30710431654676	147.44694244604315	129.39883093525179	63.382829323097091	88.076116468495457	86.973691601909934	128.0	149.0	129.0	63.0	88.0	87.0	RhTFIso05r01_3AT_52	RhTFIso05r01_3AT_52
11	3	1285	296	121	0.011243444825444433	0.20682133650604798	0.011438767954078105	0.00020022685082183423	0.00054100829627335399	-8.0634600262063461e-07	0.082349190129722138	0.045673871372860067	83.735698306168103	107.16203259827421	102.60690316395015	64.374083333333331	88.468333333333334	87.831833333333336	83.0	106.0	102.0	64.0	88.0	88.0	RhTFIso05r01_3AT_52	RhTFIso05r01_3AT_52
12	3	1417	299	121	0.043931084197490498	0.30270181489693687	0.044222316951503422	0.00058393673921292456	0.0033679832770656198	-2.1196090681776235e-06	0.0072079085442118673	0.20817935452081793	106.7311448724905	130.72354856212698	120.26994031470429	64.379578377105176	89.115298551407378	89.022729949358137	108.0	132.0	120.0	64.0	89.0	89.0	RhTFIso05r01_3AT_52	RhTFIso05r01_3AT_52
1	4	62	425	121	0.00014534252472015683	0.0072047061934033974	0.00037800638699600145	0.00015558829313095298	0.0013716340021272034	-9.3711609750800192e-07	0.18958261549690653	0.0056183488664154936	78.522935779816507	101.30275229357798	100.53211009174312	58.503129161118508	82.390545938748332	87.206524633821573	74.0	99.0	98.0	58.0	82.0	87.0	RhTFIso05r01_3AT_52	RhTFIso05r01_3AT_52
2	4	185	420	121	0.00019628459898366951	0.0098486350717165716	0.00032535273727645137	0.0001189095830742582	0.00010516874052722432	7.2448899120116587e-07	0.69245163518473252	0.0034371075418071252	75.765100671140942	98.134228187919462	99.543624161073822	60.994058744993325	85.067089452603469	88.537449933244332	75.0	98.0	99.0	61.0	85.0	88.0	RhTFIso05r01_3AT_52	RhTFIso05r01_3AT_52
3	4	312	419	121	0.014709218947345804	0.21871901645845726	0.015099332183918974	0.0002359305844860204	0.00089315982707456685	-1.858419702888913e-06	0.031661930839885069	0.075748562363672417	84.454517981263223	109.00302206104563	106.60773647627683	61.70685279187817	85.337309644670057	87.598392554991534	83.0	107.0	105.0	62.0	85.0	88.0	RhTFIso05r01_3AT_52	RhTFIso05r01_3AT_52
4	4	423	418	121	0.039468434517762961	0.24370414435851676	0.039856781501378363	0.00063456548856470922	0.0023876822086640343	-1.7716736073116274e-06	0.015356186032384088	0.11481261154074955	110.04800650935721	134.49281258475725	123.826688364524	62.224960671211328	85.869515818912774	86.851337178814887	110.0	134.0	123.0	62.0	86.0	87.0	RhTFIso05r01_3AT_52	RhTFIso05r01_3AT_52
5	4	547	419	121	0.070417869981529629	0.34800713860797144	0.070736491855801803	0.00080340082881551135	0.0023243142861181371	-2.5944317113049743e-06	0.034047301143351111	0.092140921409214094	122.71851851851852	145.06153846153848	129.53124406457741	62.894971613949714	86.104622871046232	87.115166261151657	124.0	146.0	129.0	63.0	86.0	87.0	RhTFIso05r01_3AT_52	RhTFIso05r01_3AT_52
6	4	674	425	121	0.01718835642072045	0.24562099279529381	0.017565001220340874	0.00020914332745392071	0.002988476196344265	-1.8883035183088429e-06	0.027673702458964222	0.085861590323220299	86.941334768568353	110.58826695371367	106.83180839612487	62.877946201699814	86.495312363094712	87.805134495750465	82.0	106.0	103.0	62.0	86.0	88.0	RhTFIso05r01_3AT_52	RhTFIso05r01_3AT_52
7	4	793	417	121	0.012307050721596442	0.26835878114878708	0.012677193572294682	0.00016823415714465744	0.00044201205439236321	-1.8309364599601518e-06	0.06725113023722451	0.057571551325269352	80.495812807881777	105.1783251231527	103.25911330049261	63.583250519468784	87.275634655343751	88.858072093233361	80.0	104.0	102.0	63.0	87.0	89.0	RhTFIso05r01_3AT_52	RhTFIso05r01_3AT_52
8	4	917	420	121	0.013750930999459249	0.27311785312975079	0.014157567888471428	0.00016884986480104189	0.00096137386213203065	-1.2360464071007726e-06	0.033660997779367402	0.082093991671624039	81.252662149080351	106.04501452081317	103.50024201355276	63.190779303446398	87.134673092661629	88.990451941438579	79.0	104.0	101.0	63.0	87.0	89.0	RhTFIso05r01_3AT_52	RhTFIso05r01_3AT_52
9	4	1047	431	121	0.011346923735922772	0.26716901315354619	0.011703474844370565	0.00014828821988248987	0.0004923239997182482	-7.5104375226419221e-07	0.072329945180364341	0.055390310000660983	78.958436417615047	104.1318654131618	101.36491835724888	63.265806800757645	87.233606927031659	88.47343735906918	77.0	103.0	100.0	63.0	87.0	89.0	RhTFIso05r01_3AT_52	RhTFIso05r01_3AT_52
10	4	1178	425	121	0.02018982079135502	0.25375107409610681	0.020489209657430871	0.00022595053722664193	0.0041208889750225866	-1.4940779565702909e-06	0.034764612684533992	0.077863705466322958	89.285751497785881	113.07788486585048	107.58791351914562	64.336935341009749	88.175730735163867	86.406643046944197	82.0	107.0	103.0	64.0	88.0	86.0	RhTFIso05r01_3AT_52	RhTFIso05r01_3AT_52
11	4	1287	421	121	0.048509123037216786	0.26465728071914868	0.048897658720600159	0.000751659433110959	0.002340905590989365	-1.3005255722466508e-06	0.037782641298816061	0.076277348139335052	120.81743256743256	143.15009990009989	124.82292707292707	64.405932584269664	88.809348314606737	86.573662921348316	124.0	145.0	125.0	64.0	89.0	86.0	RhTFIso05r01_3AT_52	RhTFIso05r01_3AT_52
12	4	1417	416	121	0.020246680418764963	0.27757247269442392	0.020540856407424566	0.0002530063913088935	0.0013522353170668092	-1.2931975245542656e-06	0.020483378026877896	0.11825572801182557	87.891420118343191	112.35236686390533	107.19289940828402	64.86097533249972	89.25099465726953	89.430373991133337	85.0	110.0	105.0	65.0	89.0	90.0	RhTFIso05r01_3AT_52	RhTFIso05r01_3AT_52
1	5	68	546	121	0.038981863724987832	0.24654636790270343	0.03948573190008571	0.00059493202011976377	0.0034638796859138635	-1.6968102244690367e-06	0.0080702058145623711	0.15929671491836869	106.71072386058981	132.44128686327079	124.60241286863271	58.289235897885781	82.589086761996668	87.082463373980175	105.0	131.0	122.0	58.0	82.0	87.0	RhTFIso05r01_3AT_52	RhTFIso05r01_3AT_52
2	5	185	543	121	0.019480064486642367	0.23524357194791459	0.019924058789063233	0.00029785878309494281	0.0013167225644867195	-1.992312435920922e-06	0.027425594943429776	0.084407429440148063	88.059567294183765	112.95082888451812	109.95476257375667	60.289369057908381	84.599222126188423	88.02800345721694	86.0	111.0	108.0	60.0	84.0	88.0	RhTFIso05r01_3AT_52	RhTFIso05r01_3AT_52
3	5	304	546	121	0.0014162720141352842	0.016722850155330822	0.0015952133401919927	0.00019369403953218553	0.0070739902220772989	-1.0673533495991225e-06	0.077916178939144959	0.013351840835481526	96.588932806324109	113.52173913043478	109.51383399209486	61.606278569507936	85.760957246571664	87.744823877386395	84.0	102.0	100.0	61.0	86.0	88.0	RhTFIso05r01_3AT_52	RhTFIso05r01_3AT_52
4	5	428	546	121	0.026977065388942571	0.30768722321369557	0.027466018986718539	0.00026749092264306417	0.0031299672167147061	-2.2275344122980393e-06	0.023792355077409944	0.1036420120298764	90.749516648764768	115.47389903329753	110.31041890440386	62.197536757685697	86.290815352300939	87.69295398128699	85.0	110.0	106.0	62.0	86.0	88.0	RhTFIso05r01_3AT_52	RhTFIso05r01_3AT_52
5	5	549	546	121	0.0054993579886041082	0.21303456937008394	0.0060728938109228959	8.7549915729687199e-05	0.00041047806673179114	-2.0448262988556661e-06	0.07878288096045552	0.047392425143763635	75.981694073844238	100.56996587030717	99.592925845485567	62.861498404165964	87.028305056274149	88.63363010246934	74.0	99.0	99.0	62.0	86.0	88.0	RhTFIso05r01_3AT_52	RhTFIso05r01_3AT_52
6	5	679	546	121	0.065088384605646796	0.32778108268887568	0.065446286999397196	0.00079661046869533092	0.0023969742664803123	-1.6346670601740406e-06	0.033941058469578102	0.089563090752858746	122.70538415003024	146.13026819923371	131.02500504133897	63.31779744346116	86.858210422812192	87.864896755162235	125.0	147.0	131.0	63.0	87.0	88.0	RhTFIso05r01_3AT_52	RhTFIso05r01_3AT_52
7	5	800	540	121	0.012395238882570995	0.23914336704342654	0.012813890731871978	0.00019176474316744867	0.00052257463218566573	-1.7244396323800492e-06	0.080611787714474775	0.049639764690329831	82.552791597567719	107.18407960199005	104.53150912106136	63.317609243332463	87.615585092520192	89.123534010946045	82.0	106.0	104.0	63.0	87.0	89.0	RhTFIso05r01_3AT_52	RhTFIso05r01_3AT_52
8	5	930	539	121	0.013823478067454577	0.21871901645845726	0.014129014349621574	0.00023550993493436434	0.00089313044962143027	-1.2928326891647875e-06	0.0446531400713195	0.063784784189305305	84.689936536718037	109.61589604110003	106.03142943487458	62.975888324873097	87.536379018612521	88.86666666666666	83.0	109.0	105.0	63.0	87.0	89.0	RhTFIso05r01_3AT_52	RhTFIso05r01_3AT_52
9	5	1042	551	121	0.011201002280269851	0.23987044748496267	0.011623633374014822	0.00017069337425513741	0.00054146108325012167	-2.0276912353131521e-06	0.069506719950479259	0.05353955978584176	80.542573711766323	105.37696335078535	102.17222375310003	62.926956521739129	87.243478260869566	88.32895652173913	79.0	104.0	101.0	63.0	87.0	88.0	RhTFIso05r01_3AT_52	RhTFIso05r01_3AT_52
10	5	1170	546	121	0.07031968274309415	0.33617555687751999	0.070666927204839386	0.0008497717896801902	0.0024237062990950619	-1.8874534692282614e-06	0.045208751192513053	0.078590785907859076	126.49252850963428	149.04895792371215	130.20861187573732	63.838295330080655	87.749775963357564	86.007567459922328	130.0	151.0	130.0	64.0	88.0	86.0	RhTFIso05r01_3AT_52	RhTFIso05r01_3AT_52
11	5	1287	546	121	0.015678364337756139	0.26247603939454028	0.016016615570250557	0.00021063946843454093	0.0011548693023577306	-1.6416874980902165e-06	0.062575860913513304	0.059025712208341595	84.228154117350797	109.11206245278268	103.79753210778142	64.595088725578066	88.995608531994975	86.854274959670192	82.0	107.0	103.0	64.0	89.0	87.0	RhTFIso05r01_3AT_52	RhTFIso05r01_3AT_52
12	5	1417	543	121	0.013423566172018292	0.32799540116613285	0.013725794337706688	0.00013784364611219837	0.00048748724213833498	-1.9839035248462539e-06	0.097629173613422063	0.058881497905888147	79.783675513269898	105.03855783675513	101.39258888332499	65.282414762312115	89.957350604912619	89.600391054625447	78.0	104.0	100.0	65.0	90.0	90.0	RhTFIso05r01_3AT_52	RhTFIso05r01_3AT_52
1	6	62	674	121	0.016576653761170266	0.23742481327252296	0.017207071302591415	0.00023666249985791952	0.0011268463666859907	-2.9372647454005819e-06	0.026957377437404687	0.085531099213431161	83.360523385300667	109.09827394209354	106.71854120267261	58.083817283522578	82.779838779578753	87.452630666551102	81.0	106.0	104.0	58.0	83.0	87.0	RhTFIso05r01_3AT_52	RhTFIso05r01_3AT_52
2	6	185	671	121	0.014260308097618657	0.24747174301011302	0.014741468504362561	0.00019985091371386993	0.00077023298619457287	-2.3179475339608837e-06	0.03539053186804117	0.076211249917377225	80.626602564102569	106.74599358974359	104.57532051282051	60.601493192797541	84.783574879227046	87.592358366271412	79.0	105.0	103.0	61.0	85.0	88.0	RhTFIso05r01_3AT_52	RhTFIso05r01_3AT_52
3	6	309	661	121	0.053796708004093308	0.28098354154273247	0.054199568442457352	0.00077950654502883751	0.0025282543753386384	-1.798896679405359e-06	0.022612742328417298	0.10159296714918369	120.12067748764997	144.13926135027052	130.50388143966126	62.156830299687442	86.001195072623645	86.860820003677148	123.0	146.0	132.0	62.0	86.0	87.0	RhTFIso05r01_3AT_52	RhTFIso05r01_3AT_52
4	6	436	667	121	0.064265908037059963	0.3364399497653513	0.064676142337222783	0.00075635668758314691	0.001910059291811309	-1.4980182295623503e-06	0.046015064611107284	0.077929803688280785	122.06699410609038	144.12102161100196	128.01807465618862	62.560713218448051	86.102998306604249	87.131586811435398	123.0	145.0	127.0	62.0	86.0	87.0	RhTFIso05r01_3AT_52	RhTFIso05r01_3AT_52
5	6	554	660	121	0.017793328321865677	0.25910503007469099	0.018176281286572962	0.000207075793255001	0.002145733904406292	-2.439963103150915e-06	0.021405470068421636	0.1002710027100271	85.808418367346945	110.57066326530612	107.09719387755102	62.898296012133109	86.579801944865736	88.226871264162725	82.0	106.0	103.0	63.0	86.0	88.0	RhTFIso05r01_3AT_52	RhTFIso05r01_3AT_52
6	6	685	660	121	0.017217661699481447	0.28428845264062397	0.017629954251131244	0.00021582877664416821	0.00080291956163367081	-2.1152773066908481e-06	0.043086702815974813	0.074030008592768856	83.983724715182518	109.05440595210416	105.88119042083237	63.096231991134097	87.222109346139632	88.768932397488001	82.0	107.0	105.0	63.0	87.0	89.0	RhTFIso05r01_3AT_52	RhTFIso05r01_3AT_52
7	6	805	660	121	0.022798311759322298	0.24700905545640822	0.023109122355945109	0.00033379822682360179	0.0019754448373306152	-1.2236193777124029e-06	0.017762000557461934	0.1074757089034305	92.255284987958262	117.76317902060477	112.27267861921327	63.536955758426963	88.054160814606746	89.041695926966298	90.0	116.0	110.0	63.0	88.0	89.0	RhTFIso05r01_3AT_52	RhTFIso05r01_3AT_52
8	6	918	659	121	0.019406530301036954	0.22810496397646904	0.019699134939337924	0.00030667193950613793	0.00130969053534208	-1.91902051985609e-06	0.031518010733223516	0.077533214356533806	89.342799188640967	114.8806143146914	110.4077079107505	63.292002055146426	87.64548724096592	88.907175886281891	87.0	113.0	109.0	63.0	87.0	89.0	RhTFIso05r01_3AT_52	RhTFIso05r01_3AT_52
9	6	1043	659	121	0.0092600886711788205	0.21713265913146937	0.0096008166946095208	0.0001462459432623402	0.00055046730534648541	-1.1980398839257993e-06	0.06338670380786747	0.05334126511996827	79.480060882800615	104.95981735159818	101.87001522070015	63.409996622762577	87.674603174603178	88.571850726106049	78.0	104.0	101.0	63.0	88.0	89.0	RhTFIso05r01_3AT_52	RhTFIso05r01_3AT_52
10	6	1171	667	121	0.012459766711238038	0.24106021548020359	0.012807540772512973	0.00017558220243401026	0.00095139340217630477	-1.5261714687294361e-06	0.045465105346113463	0.066362614845660653	81.491636961886485	106.39758705785577	102.27529476281876	64.236631248911337	88.395488590837829	86.427625849155206	79.0	104.0	100.0	64.0	88.0	86.0	RhTFIso05r01_3AT_52	RhTFIso05r01_3AT_52
11	6	1289	658	121	0.055087491564172447	0.29122876594619607	0.055338413057714669	0.0007729443629659865	0.0025700699807685782	-1.0626797417314855e-06	0.038004919471315499	0.079780553903100002	121.71584203359056	144.19632319564229	125.54266908760781	64.914669402219531	89.135316609157883	86.43504616245454	125.0	147.0	126.0	65.0	89.0	86.0	RhTFIso05r01_3AT_52	RhTFIso05r01_3AT_52
12	6	1417	667	121	0.016332014490203946	0.27905066929457173	0.016584503580571654	0.00021474837077352742	0.00060646078875962518	-5.336760902411064e-07	0.080348575566417474	0.059866962305986697	83.907004120070624	109.0935844614479	104.59299587992938	64.909784713520907	89.641644834263587	88.744048297072553	83.0	108.0	104.0	65.0	90.0	89.0	RhTFIso05r01_3AT_52	RhTFIso05r01_3AT_52
1	7	64	788	121	0.02118615790899217	0.24476171590984203	0.021886897616561755	0.00027840902165797513	0.0031732015876764132	-3.0699682946188056e-06	0.018782531247516429	0.10403860136162338	88.332973264920341	113.49662435862814	109.35241695922225	57.707509189567652	82.366532469805705	86.166199894976373	84.0	109.0	106.0	57.0	82.0	86.0	RhTFIso05r01_3AT_52	RhTFIso05r01_3AT_52
2	7	185	788	121	0.016372634823180524	0.24330755502676979	0.016893608370506692	0.00020583355603574676	0.0023985273804730247	-1.6863322048204935e-06	0.027883286133501863	0.085134509881684181	84.622385221407228	110.23988046726433	105.9959250203749	60.480171208944796	84.660901467505241	86.739430468204048	80.0	106.0	103.0	60.0	85.0	87.0	RhTFIso05r01_3AT_52	RhTFIso05r01_3AT_52
3	7	300	788	121	0.054377897051738518	0.2733161477956243	0.054716712140462469	0.00079303747337904149	0.002206774917071201	-1.320078199561494e-06	0.033096588930620896	0.082821072113160157	120.08174123337363	144.17605804111244	129.58621523579203	61.57158450063671	85.659359650718571	87.085137347644164	121.0	145.0	130.0	61.0	86.0	87.0	RhTFIso05r01_3AT_52	RhTFIso05r01_3AT_52
4	7	425	787	121	0.012540378600154854	0.24714125190032388	0.012959347539905838	0.00016865121989728316	0.00085188601402102094	-1.3489239126895122e-06	0.038134615475277127	0.073369026373190566	81.425514843541052	106.01497726664884	103.46429526611394	61.614574187884109	86.09192273924495	87.597717295873579	79.0	104.0	101.0	61.0	86.0	88.0	RhTFIso05r01_3AT_52	RhTFIso05r01_3AT_52
5	7	549	784	121	0.022305599046805305	0.23550796483574593	0.022603946898263241	0.00031377734541155786	0.0036624798242028871	-1.0390323657685099e-06	0.0067316728560823059	0.17046731442924185	91.356160538871734	117.34212742071288	112.65366264383947	62.472592080235174	86.618277710530862	88.073923569081785	87.0	113.0	109.0	62.0	86.0	88.0	RhTFIso05r01_3AT_52	RhTFIso05r01_3AT_52
6	7	678	784	121	0.014161951789179355	0.22341199021746316	0.014440671999868392	0.00021720420239630509	0.0015089349708545989	-1.9173518804657271e-06	0.029743409727794684	0.078987375239606056	83.282840236686397	109.77248520710059	105.73431952662722	62.823389224614864	87.302323602008684	88.719891054557834	81.0	107.0	104.0	63.0	87.0	89.0	RhTFIso05r01_3AT_52	RhTFIso05r01_3AT_52
7	7	809	788	121	0.013383233020410744	0.23068279463282437	0.013618386935035724	0.00021272776783786825	0.0006613910051184495	-9.1948650341479024e-07	0.052155080449516535	0.060612069535329501	82.392836676217769	107.50429799426934	104.37163323782235	63.655554600910733	88.155511641893639	89.238766217028953	81.0	106.0	103.0	63.0	88.0	89.0	RhTFIso05r01_3AT_52	RhTFIso05r01_3AT_52
8	7	917	782	121	0.012224010009082088	0.22017317734152952	0.012493533575689966	0.00020586970646803668	0.00061147088090980606	-1.58734965316866e-06	0.077063640444190298	0.048714389582920223	82.59201441008706	107.74422095466826	104.10837586310417	62.942617392778438	88.0	89.023987116460418	82.0	107.0	104.0	63.0	88.0	89.0	RhTFIso05r01_3AT_52	RhTFIso05r01_3AT_52
9	7	1052	779	121	0.04284519108868768	0.25038006477625752	0.043133729615819863	0.00072656582530299097	0.0032927145076943587	-2.1455426831758982e-06	0.0088439008411103862	0.15334787494216406	113.02402323125661	138.97993664202747	125.26742344244984	63.884666255180321	88.169032713164626	87.122916850365925	117.0	143.0	127.0	64.0	88.0	87.0	RhTFIso05r01_3AT_52	RhTFIso05r01_3AT_52
10	7	1170	788	121	0.055959156296704955	0.28580871174565403	0.056256103985456593	0.00080771067968936957	0.0027603478547775077	-1.4063326746086717e-06	0.037112892928412723	0.079978848568973498	122.46901017576319	145.49629972247919	127.26318223866789	64.383988894030537	88.620823692734845	86.070985654789453	126.0	148.0	127.0	64.0	88.0	86.0	RhTFIso05r01_3AT_52	RhTFIso05r01_3AT_52
11	7	1291	788	121	0.038028192780655681	0.24396853724634807	0.038160438390526789	0.00062992231432810856	0.0021664039196509395	-2.2555816565143893e-07	0.024284984081879544	0.091347742745720134	110.23733405581143	133.92088864806286	120.96044432403143	65.161042140234301	89.601066620038466	87.036020283266311	112.0	135.0	121.0	65.0	90.0	87.0	RhTFIso05r01_3AT_52	RhTFIso05r01_3AT_52
12	7	1420	790	121	0.00094008808348841752	0.02540650406504065	0.0010214399419334554	0.00013353791408919798	0.00076116204978809424	-1.0101504784791723e-06	0.46542113386515455	0.007621951219512195	79.36333333333333	103.25	100.26666666666667	65.111661452902325	89.850104275286753	90.277372262773724	78.0	102.0	99.0	65.0	90.0	91.0	RhTFIso05r01_3AT_52	RhTFIso05r01_3AT_52
1	8	63	910	121	0.077010667909799366	0.32280421164867384	0.077522334736988718	0.00094684804186772069	0.0025316508062003707	-2.939189127080656e-06	0.039974558797309503	0.082233773157403711	130.7058216350124	153.28819157720892	134.79789430222957	57.86882503444204	82.574197992521164	83.996555796103124	133.0	154.0	134.0	58.0	82.0	84.0	RhTFIso05r01_3AT_52	RhTFIso05r01_3AT_52
2	8	185	910	121	0.061952261969162474	0.32107157137145143	0.062369738601474399	0.00076488373798253939	0.0019277501028495683	-2.1848341351835352e-06	0.031884398214942301	0.09182993469278955	119.6214196762142	142.99107513491074	128.67745952677458	60.836572438162541	84.681782489202988	85.695327836670586	121.0	143.0	129.0	61.0	84.0	86.0	RhTFIso05r01_3AT_52	RhTFIso05r01_3AT_52
3	8	312	903	121	0.010979368678386526	0.22387467777116796	0.011459890685197451	0.00016425510988774954	0.00089409814524106361	-1.249532506511018e-06	0.033749360510173437	0.074228303258642339	80.805727782698554	105.86684381458518	103.64599940950694	61.40538238800886	85.754215636177818	87.589422585590185	78.0	104.0	102.0	61.0	86.0	88.0	RhTFIso05r01_3AT_52	RhTFIso05r01_3AT_52
4	8	431	906	121	0.013264274069932865	0.22717958886905942	0.013645140502210849	0.00020130060691619958	0.00085087267655431173	-1.0375229901243251e-06	0.032715181856060156	0.0759468570295459	81.609252254873439	107.3407041024149	104.38900203665987	61.855884365378039	86.397109134450901	87.916524119055765	79.0	105.0	103.0	62.0	86.0	88.0	RhTFIso05r01_3AT_52	RhTFIso05r01_3AT_52
5	8	547	909	121	5.7319969883994147e-05	0.0022473395465661974	6.4869680385805806e-05	0.00010453558013863697	3.4717970276584352e-05	5.4651407157732504e-07	3.5310462883323295	0.00072708044153612273	72.588235294117652	97.205882352941174	94.470588235294116	61.717191122888373	86.552633322292152	87.948724743292487	72.0	97.0	94.0	62.0	87.0	88.0	RhTFIso05r01_3AT_52	RhTFIso05r01_3AT_52
6	8	682	911	121	0.014492260684982111	0.23046428811395553	0.014804496370490101	0.00021585372991539699	0.0008017660767105912	-8.3687138261727075e-07	0.040159146411849075	0.069609621716051867	83.838192419825077	109.34139941690962	105.32478134110787	62.773945691085302	87.272505020518636	88.740330044529813	82.0	107.0	103.0	63.0	87.0	89.0	RhTFIso05r01_3AT_52	RhTFIso05r01_3AT_52
7	8	801	911	121	0.04112452960272505	0.24618692467916414	0.041353235056572159	0.00068769117515237431	0.0033533514233539379	-6.3519093915751851e-07	0.0097869242063206331	0.14573674662366459	113.0693231441048	136.84770742358077	125.71779475982532	63.56841073179428	88.098047954363139	88.448346554951428	115.0	139.0	126.0	63.0	88.0	89.0	RhTFIso05r01_3AT_52	RhTFIso05r01_3AT_52
8	8	924	904	121	0.013678252373871798	0.21904950756824643	0.014246089911721894	0.00024689739524151523	0.00058032711693651933	-1.8601740137032795e-06	0.058186420613743857	0.055919095776323618	84.41520820760411	110.16083283041641	105.85727217863609	63.289716462124417	87.954718578078712	88.498518831993223	84.0	110.0	106.0	63.0	88.0	89.0	RhTFIso05r01_3AT_52	RhTFIso05r01_3AT_52
9	8	1043	913	121	0.010835086327164064	0.22477283596365374	0.011200286959089121	0.00016779461932538739	0.00057726363912981174	-1.9317468959158938e-06	0.047904281860585624	0.063469290155086427	80.665653495440736	106.95744680851064	103.05744680851063	63.761258482418263	88.702564554507802	88.256455450779939	79.0	105.0	102.0	63.0	88.0	89.0	RhTFIso05r01_3AT_52	RhTFIso05r01_3AT_52
10	8	1170	915	121	0.025357767493466379	0.24084497255228962	0.025586723996752873	0.00039502375340716379	0.0016743240003583622	-9.2373476313218123e-07	0.017381073363332888	0.10999930512125634	95.763127524523952	121.48326601269476	113.11915753029429	64.608146453089248	89.074233409610983	86.923112128146457	95.0	120.0	112.0	65.0	89.0	87.0	RhTFIso05r01_3AT_52	RhTFIso05r01_3AT_52
11	8	1285	905	121	0.047408351052725402	0.26016260162601629	0.047706168783890876	0.00073665407531293926	0.0028692876681412106	-4.2660727222834937e-07	0.03000094303366967	0.08487011699385287	117.26880081300813	141.63338414634146	122.62169715447155	65.629232556061822	90.35977843294917	87.331189136067181	118.0	143.0	122.0	66.0	90.0	87.0	RhTFIso05r01_3AT_52	RhTFIso05r01_3AT_52
12	8	1413	910	121	0.0017254200500711225	0.043450580932675474	0.0017731242360326178	0.00011633593114141525	0.0012900352635335671	-1.0105175453825024e-07	0.1648702026970422	0.016234282985834791	81.547619047619051	107.43956043956044	104.09157509157509	65.8071547420965	91.3589850249584	91.066306156405986	76.0	103.0	100.0	66.0	91.0	91.0	RhTFIso05r01_3AT_52	RhTFIso05r01_3AT_52
