RhTFIso05r01_3AT_AD1A.jpg,96,47,59,1387,895
RhTFIso05r01_3AT_AD1B.jpg,96,47,59,1387,925
RhTFIso05r01_3AT_AD2A.jpg,96,39,71,1397,938
RhTFIso05r01_3AT_AD2B.jpg,96,57,39,1393,891
RhTFIso05r01_3AT_xx.jpg,96,67,59,1417,920
