Column	Row	x	y	Diameter	Intensity	Area	Trimmed	FeatureMedian	FeatureVariance	BackgroundMedian	Circularity	Perimeter	redMean	greenMean	blueMean	redMeanBack	greenMeanBack	blueMeanBack	redMedian	greenMedian	blueMedian	redMedianBack	greenMedianBack	blueMedianBack	Barcode	Filename
1	1	65	59	118	0.025130206504384991	0.31685615422639646	0.025422224292088447	0.00031926063935877277	0.001480591797728914	-5.4084124091704654e-07	0.030395669831351498	0.096179648329920209	96.49253398707377	122.21930020057945	122.58413193670604	71.851147405416583	96.429295017572869	100.94480049617532	97.0	123.0	123.0	72.0	97.0	101.0	RhTFIso05r01_CHX_19	RhTFIso05r01_CHX_19
2	1	180	59	118	0.010211033984495322	0.17498764211566981	0.010440692152303283	0.00022701971546538446	0.00058926043503933863	-6.7985490459152381e-07	0.056104619399814475	0.052609279005719933	92.018966908797424	116.5859564164649	114.43381759483455	72.036634426089194	96.981682786955403	98.931438842762986	91.0	116.0	114.0	72.0	97.0	99.0	RhTFIso05r01_CHX_19	RhTFIso05r01_CHX_19
3	1	306	61	118	0.013580901219658744	0.24327378010027539	0.013920247850821001	0.00021548100326824731	0.00049408783171609231	-1.6726742924804987e-06	0.050053355031179726	0.065673328154791322	92.383164005805511	115.87489114658926	112.42931785195937	72.089305711086226	95.817282568122437	97.522116461366181	91.0	115.0	112.0	72.0	96.0	98.0	RhTFIso05r01_CHX_19	RhTFIso05r01_CHX_19
4	1	424	59	118	0.0093050587075247868	0.23254007485347081	0.0097911174430363093	0.00014853911971418534	0.00042623390173123681	-2.5291566037906435e-06	0.08026989710097833	0.050702633994774378	88.27755845733374	112.47251746128151	109.88885514728211	71.824438719175561	95.721475892528531	96.85121457489879	87.0	111.0	109.0	72.0	96.0	97.0	RhTFIso05r01_CHX_19	RhTFIso05r01_CHX_19
5	1	547	65	118	0.018341329349884361	0.25739707647764987	0.018744945568459903	0.00027307597920446378	0.00086502263039962704	-1.7969403169956375e-06	0.023006649128387908	0.099639855942376954	97.971193415637856	121.9275720164609	117.28230452674897	72.164035755039933	95.72204260174972	95.976321795359453	98.0	121.0	116.0	72.0	96.0	96.0	RhTFIso05r01_CHX_19	RhTFIso05r01_CHX_19
6	1	673	59	118	0.0074704673662519296	0.2085304710119342	0.0080445440865716689	0.00013956313287037363	0.00052627263725398454	-2.0401219741085321e-06	0.063741787048438928	0.053880375679683637	88.810700982052154	112.32780223501524	109.30037250253979	71.278372591006431	95.233047822983579	94.740453247680222	88.0	111.0	108.0	71.0	95.0	95.0	RhTFIso05r01_CHX_19	RhTFIso05r01_CHX_19
7	1	790	59	118	0.005526559022708777	0.18833415719228869	0.0060771234327064586	0.00011347523791791252	0.00054376505221439544	-2.6777968878766586e-06	0.073339760574944665	0.047736741755525738	87.015373078365201	110.29771278590177	107.31196100487439	71.471463372194194	94.835479380546374	94.602749260483733	86.0	109.0	106.0	71.0	95.0	95.0	RhTFIso05r01_CHX_19	RhTFIso05r01_CHX_19
8	1	918	60	118	0.0068639576431461635	0.20429348209872183	0.0074436990097100017	0.00012590870084719055	0.00063135716386484241	-2.5836695298107175e-06	0.036720800169027137	0.070263399477438038	87.965433805737987	110.85758727964051	107.68337366055997	70.730209442669505	94.51819311324104	92.86785587504437	86.0	109.0	107.0	71.0	94.0	93.0	RhTFIso05r01_CHX_19	RhTFIso05r01_CHX_19
9	1	1040	59	118	0.0022674204104581714	0.11616411270390509	0.0029761324562091371	9.1946027327576959e-05	0.00018397616791771744	-2.1821020258369463e-06	0.11663034885055285	0.029729538874373278	83.809726443768994	107.12218844984803	104.1756838905775	70.309443911792911	93.691994247363368	92.017337807606268	83.0	106.0	104.0	70.0	93.0	91.0	RhTFIso05r01_CHX_19	RhTFIso05r01_CHX_19
10	1	1162	59	118	0.0049343529869692697	0.17124496857566557	0.005744500550810671	0.00011607469704050102	0.00042496782331270013	-2.0265450087271797e-06	0.040446612717169872	0.061295106277805239	86.082061855670105	108.90226804123711	105.15917525773196	69.719069529652359	92.597477845944098	90.529396728016366	85.0	108.0	105.0	69.0	92.0	90.0	RhTFIso05r01_CHX_19	RhTFIso05r01_CHX_19
11	1	1285	59	118	0.0023502025222408114	0.091942659416707859	0.0030477834525699304	0.0001096727842309549	0.00045928456935792015	-2.4696365158084354e-06	0.058027225537913549	0.037497351881929243	86.585253456221196	108.53379416282642	103.43317972350231	69.576872229566845	92.065946030017884	89.94175285792052	84.0	106.0	103.0	69.0	91.0	89.0	RhTFIso05r01_CHX_19	RhTFIso05r01_CHX_19
12	1	1407	59	118	0.0030346866920117031	0.12515006002400961	0.0038181916919974778	0.00010746597496036854	0.00029369096210660845	-3.0679429364090108e-06	0.063618309633330192	0.043067226890756302	85.997601918465222	107.66666666666667	102.94844124700239	68.497169811320759	91.376586620926247	89.682246998284739	84.0	107.0	102.0	68.0	91.0	89.0	RhTFIso05r01_CHX_19	RhTFIso05r01_CHX_19
1	2	61	177	118	0.0055616296783613543	0.19991526022173575	0.0058844648052815262	6.9360788857737583e-05	0.00071129095277758681	-5.5191054043533605e-07	0.051024267932519372	0.058964762375538451	85.616036736135641	109.28682444365948	110.69339456022607	72.862930273609891	97.785701676963811	100.47528684907326	83.0	106.0	108.0	72.0	98.0	100.0	RhTFIso05r01_CHX_19	RhTFIso05r01_CHX_19
2	2	184	181	118	0.017238811318307175	0.25259515570934254	0.017581302927984401	0.00026017588085723277	0.00078667673200148172	-9.0306575093430999e-07	0.027737799007338197	0.089894781441988564	95.931786413195411	119.96617277047805	115.56835336874475	72.579081632653057	97.057823129251702	96.890684051398338	95.0	119.0	115.0	73.0	97.0	97.0	RhTFIso05r01_CHX_19	RhTFIso05r01_CHX_19
3	2	298	180	118	0.014660767853781431	0.24715768660405338	0.015074155721963283	0.00021736590649215401	0.00068854376567803704	-2.183767390834941e-06	0.035441127247998465	0.078666760821975851	92.421999999999997	117.13171428571428	112.07142857142857	72.172873088828439	96.125597973923647	95.355032360941749	91.0	116.0	111.0	72.0	96.0	95.0	RhTFIso05r01_CHX_19	RhTFIso05r01_CHX_19
4	2	428	172	118	0.01623979070479609	0.2394604900783843	0.016556233124596163	0.00025173188293418144	0.00060957659360570866	-1.1435549974081808e-06	0.044279187075631651	0.069274768731021827	95.757888528457684	119.09377764671189	113.39427897375406	72.214206128133711	95.806778087279483	95.485979572887658	95.0	118.0	113.0	72.0	96.0	96.0	RhTFIso05r01_CHX_19	RhTFIso05r01_CHX_19
5	2	549	174	118	0.011977895205425249	0.2456041240025422	0.012346111856431927	0.00018467211370730262	0.00034804906974846326	-1.4375544914308649e-06	0.083150224964073621	0.05119694936798249	90.736055204140314	113.92581943645773	109.88154111558367	71.950014040999719	95.940185341196297	93.9708883272489	90.0	113.0	110.0	72.0	96.0	94.0	RhTFIso05r01_CHX_19	RhTFIso05r01_CHX_19
6	2	677	175	118	0.013358784350105367	0.23741261210366499	0.013775874423280125	0.00021430018539640106	0.00051071524209939979	-1.6327509829993703e-06	0.044260717071430554	0.068992302803474334	93.238251041046993	116.16180844735277	110.72992266508031	72.129734234651352	95.084822668765625	93.433280859338822	92.0	115.0	110.0	72.0	95.0	93.0	RhTFIso05r01_CHX_19	RhTFIso05r01_CHX_19
7	2	790	179	118	0.013527648208033894	0.24475672621989972	0.013917655662464994	0.00019702359322371755	0.00057123702880700349	-1.4831744082522328e-06	0.037203508725685036	0.076407033401595936	92.350259665320252	114.89699942296596	110.62896710905943	71.381580177653106	94.71940158952782	92.705282842449748	91.0	114.0	109.0	72.0	95.0	92.0	RhTFIso05r01_CHX_19	RhTFIso05r01_CHX_19
8	2	919	171	118	0.0064220129420517729	0.22180636960666619	0.0069470189529843279	0.00010717232291850975	0.00030891670844895343	-2.4602346824426158e-06	0.071499033780882057	0.052468046041946187	86.674625915313598	108.91276663482967	105.34447628143903	70.978402903811258	94.409618874773145	92.111978221415612	86.0	108.0	105.0	71.0	94.0	92.0	RhTFIso05r01_CHX_19	RhTFIso05r01_CHX_19
9	2	1040	172	118	0.0069937076888664457	0.21686321587458512	0.0075626463094879727	0.00011789702360347062	0.00043153389239811868	-3.1111718883345349e-06	0.047222918000500498	0.063837299625732646	87.051123412569197	110.14425268642137	105.35135135135135	69.998376916140671	93.083318304779084	90.58259693417493	86.0	109.0	105.0	70.0	93.0	90.0	RhTFIso05r01_CHX_19	RhTFIso05r01_CHX_19
10	2	1157	170	118	0.012037060673854464	0.24334439658216228	0.012446887992594954	0.00018094463681886611	0.00060130120493475053	-1.7604907366020333e-06	0.043390450647926911	0.07054586540498553	90.082414393499704	112.92367962855485	106.30354033662218	69.880261315912279	92.276061595893609	90.001306579561358	89.0	111.5	105.0	70.0	92.0	90.0	RhTFIso05r01_CHX_19	RhTFIso05r01_CHX_19
11	2	1285	174	118	0.0051993309805128439	0.19207683073229292	0.0060098949769765249	0.00010416691264167814	0.00036670308226152026	-3.539917795219274e-06	0.045158578505822368	0.061436339241578986	85.887500000000003	108.63088235294117	104.60992647058823	68.658246656760767	91.776418145267016	89.314832619526271	85.0	107.0	104.0	68.0	91.0	89.0	RhTFIso05r01_CHX_19	RhTFIso05r01_CHX_19
12	2	1407	172	118	0.0040549300316660127	0.16604141656662666	0.0047078201724649466	9.3424433418460185e-05	0.00033177778028319781	-2.1071948384605297e-06	0.05790616569649671	0.051995798319327734	85.307727067329424	107.9037505648441	102.72797107998193	68.788034188034189	91.566711650922173	89.407647323436791	84.0	107.0	102.0	68.0	91.0	89.0	RhTFIso05r01_CHX_19	RhTFIso05r01_CHX_19
1	3	61	291	118	0.017335957670770993	0.4047736741755526	0.017934950843231982	0.00017412985535965813	0.00055857527838078941	-2.9983784905255781e-06	0.03093192713864306	0.10776075135936727	89.115143056524772	113.78018143754362	112.87090020935101	73.197176414758573	98.119943053743029	99.174160635899867	89.0	114.0	113.0	73.0	98.0	99.0	RhTFIso05r01_CHX_19	RhTFIso05r01_CHX_19
2	3	179	291	118	0.017420173655390388	0.29531812725090034	0.018018693406814026	0.000233944984043261	0.00073087381546064524	-3.3551483681846536e-06	0.023325583037579679	0.10599533931219547	93.224055475848871	117.70349115255858	112.76781444285031	74.137588936767216	97.659985970538131	96.547349433811007	93.0	118.0	113.0	74.0	97.0	96.0	RhTFIso05r01_CHX_19	RhTFIso05r01_CHX_19
3	3	306	295	118	0.020242144541559391	0.28839771202598685	0.020820543413648609	0.00027376130995180004	0.00084533500388817679	-4.0657653402783885e-06	0.021724403591921015	0.10853753266012288	97.750734573947113	120.45714985308521	113.82859941234084	73.516820482286391	96.433363104098447	94.568720849459169	98.0	120.0	114.0	73.0	96.0	94.0	RhTFIso05r01_CHX_19	RhTFIso05r01_CHX_19
4	3	430	287	118	0.012978059965198876	0.24857001624179084	0.013395862689619396	0.00018482626945033842	0.00051684161206999352	-1.7444912419232956e-06	0.041856826525140702	0.072593743379704825	91.478977272727278	115.25255681818182	110.09801136363636	72.029320552579648	95.370829809228454	94.049337468283056	90.0	114.0	109.0	72.0	95.0	94.0	RhTFIso05r01_CHX_19	RhTFIso05r01_CHX_19
5	3	546	291	118	0.026786701625325645	0.23423487041875574	0.027071826823229003	0.00043324643627930324	0.0013910914561660187	-6.0933818435846048e-07	0.016932046339116335	0.11079726008050279	107.68164003617727	130.76334036780224	121.55351220982816	71.639708594614532	95.133161195130953	93.482017705643671	107.0	130.0	121.0	72.0	95.0	93.0	RhTFIso05r01_CHX_19	RhTFIso05r01_CHX_19
6	3	667	291	118	0.013858588525753781	0.24037850434291363	0.014249349893311634	0.0002144305780643772	0.00052804150039246903	-1.2706872268252951e-06	0.037784715758450368	0.075135936727632233	92.98296122209166	116.14453584018801	109.94741480611046	71.486380961234545	94.911871339592821	92.713024077344983	92.0	115.0	109.0	71.0	95.0	93.0	RhTFIso05r01_CHX_19	RhTFIso05r01_CHX_19
7	3	795	288	118	0.012956363004712972	0.24489795918367346	0.013325903958961619	0.00018989430401124968	0.00058204839328795217	-1.7038123888393442e-06	0.037362974357508238	0.07626580043782219	91.470876585928494	114.659169550173	108.98039215686275	70.804170952959879	94.133545310015904	92.224258860937056	90.0	113.0	108.0	71.0	94.0	92.0	RhTFIso05r01_CHX_19	RhTFIso05r01_CHX_19
8	3	917	299	118	0.015540560592043656	0.25280700515500315	0.015977666300041483	0.00023793596705200322	0.00067998155280218355	-1.8268040486586804e-06	0.032529564359327884	0.083044982698961933	93.495251396648044	116.4268156424581	109.94441340782123	70.818448161799452	93.906341555618567	91.561383612134961	93.0	116.0	109.0	71.0	94.0	91.0	RhTFIso05r01_CHX_19	RhTFIso05r01_CHX_19
9	3	1040	302	118	0.012102596831771027	0.24242638231763294	0.012591272193517173	0.00018356335235801438	0.00057550964137064527	-2.8073861429298041e-06	0.043313430788525988	0.070475248923098657	91.006699679580535	112.81299155257793	107.60267987183222	70.533650260999252	93.167971662938101	90.772651006711413	90.0	111.0	107.0	70.0	93.0	91.0	RhTFIso05r01_CHX_19	RhTFIso05r01_CHX_19
10	3	1165	296	118	0.009447719185360564	0.23133959466139398	0.010075253149683671	0.0001460268452570673	0.00054616658023003606	-1.8546413305508814e-06	0.036916959126636256	0.074571004872537247	89.066239316239319	111.7997557997558	105.90262515262515	69.120440973817182	92.652457510335324	89.912815801561777	88.0	110.0	105.0	69.0	93.0	90.0	RhTFIso05r01_CHX_19	RhTFIso05r01_CHX_19
11	3	1285	295	118	0.0080018730571713836	0.22378363109949861	0.0086893401469610929	0.00013422667191631568	0.00050359248260587093	-2.883957809807446e-06	0.036747740780639519	0.073511757644234163	87.720416535184597	110.56137582833702	105.14862732723256	67.938045851528386	91.303311499272198	88.974799854439595	86.0	109.0	104.0	68.0	91.0	89.0	RhTFIso05r01_CHX_19	RhTFIso05r01_CHX_19
12	3	1407	295	118	0.0098074601652950386	0.24609843937575029	0.010388847797033132	0.00014888943589011069	0.00048209009468011343	-1.9568707765591393e-06	0.046351129565620069	0.070753301320528206	88.245121951219517	110.93689024390244	104.30518292682927	67.801751592356695	90.761445063694268	88.413515127388536	87.0	110.0	103.0	68.0	90.0	88.0	RhTFIso05r01_CHX_19	RhTFIso05r01_CHX_19
1	4	61	411	118	0.019606276417972739	0.34842172162982843	0.020106327246023431	0.00021295707351939606	0.00096345144850236756	-2.1001019810175195e-06	0.025608835113454246	0.10987924581597344	92.453384677746257	117.70753952168626	114.95379002837454	73.066435461146639	97.593692424406626	98.807413026986026	92.0	117.0	114.0	73.0	97.0	99.0	RhTFIso05r01_CHX_19	RhTFIso05r01_CHX_19
2	4	184	406	118	0.018378252558049854	0.30795847750865052	0.018916307576244438	0.00023643882130606209	0.00070403471417884408	-3.4480644118671888e-06	0.021595556457658389	0.11249205564578772	93.181609722540699	117.21875716578766	111.79454253611557	73.566836734693879	97.606632653061226	95.997346938775507	93.0	117.0	112.0	73.0	98.0	96.0	RhTFIso05r01_CHX_19	RhTFIso05r01_CHX_19
3	4	303	409	118	0.0014948238644651452	0.049290304357036935	0.0019303083861349928	0.00014056481771753824	0.00029000445634549889	-1.9513978921628099e-06	0.028476022039843202	0.039192147447214179	86.494269340974213	108.932664756447	105.15186246418338	73.224541335512143	96.398128203223649	94.911163930773228	85.0	108.0	104.0	73.0	96.0	95.0	RhTFIso05r01_CHX_19	RhTFIso05r01_CHX_19
4	4	428	420	118	0.014560221652481324	0.25019419532518888	0.015000054195575969	0.00022074435351102033	0.00055581588590760886	-2.6315224918420953e-06	0.038742839342241576	0.075700868582727204	92.974315551792273	116.3638159751623	110.98532317245272	71.367018270860797	95.24816349595028	94.066490864569602	92.0	116.0	110.0	71.0	95.0	94.0	RhTFIso05r01_CHX_19	RhTFIso05r01_CHX_19
5	4	551	406	118	0.01623367220686886	0.24793446790480897	0.016544986942669614	0.00023679048259649224	0.00072959160849874242	-1.0174750473536674e-06	0.033949313040177787	0.080502789351034526	93.738251210481351	117.76274565650812	112.27655938479066	70.982159624413143	94.965352112676058	93.605727699530519	92.0	116.0	111.0	71.0	95.0	93.0	RhTFIso05r01_CHX_19	RhTFIso05r01_CHX_19
6	4	676	412	118	0.015851983416214611	0.25111220958971825	0.016206555616911582	0.00023472707947623785	0.00059258805484967755	-1.2048461824431157e-06	0.033966029348127917	0.080997104724242638	92.624015748031496	116.96962879640046	111.16310461192352	70.835737859500242	94.867326732673263	93.143140028288542	92.0	116.0	111.0	71.0	95.0	93.0	RhTFIso05r01_CHX_19	RhTFIso05r01_CHX_19
7	4	796	409	118	0.0133554926271745	0.24708707012216652	0.013732326120635926	0.00019841394677198163	0.00058290602762296057	-1.4181388022987815e-06	0.043018126796771361	0.071393263187627995	90.669905687339238	114.82966561874821	109.77879394112604	70.952072781842062	94.419714875257924	92.394485087225661	90.0	114.0	109.0	71.0	94.0	92.0	RhTFIso05r01_CHX_19	RhTFIso05r01_CHX_19
8	4	918	412	118	0.0080892012055682281	0.23465856931007698	0.0085402455856743893	0.00012449967967906284	0.00043878719144136211	-1.1259449055652107e-06	0.045978458208975607	0.067297507238189391	86.862473668371948	110.30454408666867	106.57749021968101	70.921018638125119	94.145414283078054	92.381804761026018	85.0	109.0	106.0	71.0	94.0	92.0	RhTFIso05r01_CHX_19	RhTFIso05r01_CHX_19
9	4	1040	406	118	0.011190484540115262	0.25153590848103946	0.011622082992544009	0.00016389900239303356	0.00047220878325041109	-3.5908895729749998e-06	0.050550392530553871	0.066450109455546927	89.090960134755761	111.55390230207749	106.86917462099944	70.945277856401546	93.829606566657233	91.542504009812248	88.0	110.0	106.0	71.0	94.0	91.0	RhTFIso05r01_CHX_19	RhTFIso05r01_CHX_19
10	4	1162	417	118	0.012031002020124006	0.24242638231763294	0.012414677837108944	0.00017694276144496603	0.00069775706061397133	-2.2299749460663809e-06	0.035076849157841317	0.078313678412541485	89.835129624235364	113.3402272065249	107.10195164579085	70.317020879940344	93.749627143922453	91.129474272930651	88.0	112.0	106.0	70.0	94.0	91.0	RhTFIso05r01_CHX_19	RhTFIso05r01_CHX_19
11	4	1285	412	118	0.011316846460065765	0.24454487677423911	0.011853509475476446	0.0001664103805122102	0.00065535630240203945	-2.4275567728625537e-06	0.036095883422355778	0.077536897111785893	89.393011839445563	113.06323996534796	105.81923187987294	67.680781454477469	91.583473546457284	89.180220601981674	88.0	112.0	105.0	67.0	91.0	89.0	RhTFIso05r01_CHX_19	RhTFIso05r01_CHX_19
12	4	1407	419	118	0.010218784382218737	0.25037515006002403	0.010911969386518677	0.00014551381100619986	0.00063454661725175171	-3.1957113823238607e-06	0.037110733781295382	0.079756902761104448	88.285286185196284	111.423733892718	105.29157926281091	67.304974477029333	91.102592333099793	89.341607446702028	87.0	110.0	104.0	67.0	91.0	89.0	RhTFIso05r01_CHX_19	RhTFIso05r01_CHX_19
1	5	61	526	118	0.01595422551152292	0.32822540781018289	0.016327626269402432	0.00019193937826698622	0.00050561095638428934	-1.4397686129368748e-06	0.047235270734839546	0.078525527858202104	91.20589500860585	115.12026678141136	113.10692771084338	72.551981499001371	97.182066645642806	98.307053505729002	91.0	115.0	113.0	72.0	97.0	98.0	RhTFIso05r01_CHX_19	RhTFIso05r01_CHX_19
2	5	181	532	118	0.018150775405578197	0.26234023020973096	0.018462494194668888	0.00026229737755993447	0.00066583846124375259	-2.467816324095554e-06	0.036048247652083115	0.080361556387260794	95.235531628532968	119.48882907133243	114.03983849259758	72.956059735784038	97.066149722381766	95.861860999425616	95.0	118.0	114.0	73.0	97.0	96.0	RhTFIso05r01_CHX_19	RhTFIso05r01_CHX_19
3	5	306	524	118	0.018293712951251578	0.26459995763011085	0.018637510555947614	0.00025474704090946819	0.00070142209730332267	-2.0509320105205445e-06	0.031275512256491785	0.086646423275192425	96.434480918067791	119.99919935948759	113.62636776087537	72.787977722296901	96.415498367582103	94.515748031496059	95.0	119.0	113.0	73.0	96.0	94.0	RhTFIso05r01_CHX_19	RhTFIso05r01_CHX_19
4	5	421	531	118	0.015371763798417532	0.2542899512746275	0.015707413641732421	0.0002206598501824478	0.00063292066811112375	-9.1339572259143467e-07	0.034216635600988567	0.081208954169903258	93.629547347958905	117.26687031380172	112.0969175229103	71.694696969696963	95.653409090909093	94.015435606060606	93.0	116.0	111.0	72.0	96.0	94.0	RhTFIso05r01_CHX_19	RhTFIso05r01_CHX_19
5	5	548	529	118	0.017649135619797206	0.26156344890897537	0.018013597528070666	0.00025890277160893596	0.0006723725364402959	-1.6284808206584017e-06	0.034177408552081977	0.082409434361980088	94.704373650107996	118.07208423326134	113.42467602591793	71.185426030410255	95.271970928564599	94.03844314813044	94.0	117.0	113.0	71.0	95.0	94.0	RhTFIso05r01_CHX_19	RhTFIso05r01_CHX_19
6	5	674	534	118	0.015192279213055904	0.25810324129651863	0.01551258309478944	0.00021644875478730313	0.00057926958570075958	-1.9181107029560503e-06	0.043377697497058366	0.072664359861591699	91.540902872777025	116.87332421340629	111.35458276333789	71.805349324195703	95.586807538549394	93.787169236626696	91.0	116.0	111.0	72.0	95.0	94.0	RhTFIso05r01_CHX_19	RhTFIso05r01_CHX_19
7	5	795	537	118	0.017596008716189344	0.25796200833274485	0.018002242018582804	0.0002608972256001828	0.00059297532024717538	-1.5781599548204683e-06	0.034710738642158075	0.081208954169903258	95.709006296194914	118.73692855187517	112.33096085409252	71.254567948229919	95.176722497145036	92.567948229920063	95.0	118.0	112.0	71.0	95.0	92.0	RhTFIso05r01_CHX_19	RhTFIso05r01_CHX_19
8	5	911	527	118	0.014740481587884321	0.26474119059388462	0.015156438022174598	0.0001992270569712507	0.00062387261373564459	-1.8910770554957619e-06	0.03477117316253981	0.082197584916319469	91.883168845025338	115.26727127233929	109.13336889837289	70.372166730695355	94.662696888205915	92.204283519016514	91.0	114.0	108.0	70.0	95.0	92.0	RhTFIso05r01_CHX_19	RhTFIso05r01_CHX_19
9	5	1040	533	118	0.012166931212068787	0.2599392698255773	0.012532596570519933	0.00017436712014638316	0.0005622233309539494	-2.1424952780468192e-06	0.038090133292920735	0.077819363039333386	89.292583537082308	113.36104319478403	107.61287693561532	70.117557251908394	94.118988549618322	91.258492366412213	88.0	112.0	107.0	70.0	94.0	91.0	RhTFIso05r01_CHX_19	RhTFIso05r01_CHX_19
10	5	1165	532	118	0.01465022272981599	0.26106913353576727	0.015067877778149363	0.00020187194623912368	0.00065035956498494087	-1.6253471717088099e-06	0.036642283757469862	0.079514158604618315	92.179334595618073	115.12523667838788	108.61374087097647	69.099579510703364	92.507358562691138	89.909499235474001	91.0	114.0	107.0	69.0	92.0	90.0	RhTFIso05r01_CHX_19	RhTFIso05r01_CHX_19
11	5	1285	531	118	0.010382444195209077	0.25217145681802133	0.010970988021157433	0.00016314810740630811	0.00024487877135771931	-2.7448355098133438e-06	0.076478995466389102	0.054092225125344257	88.786614393727248	112.08120974516942	105.51862223466816	68.545703493862135	92.188196411709157	89.351085930122764	89.0	112.0	105.0	69.0	92.0	89.0	RhTFIso05r01_CHX_19	RhTFIso05r01_CHX_19
12	5	1407	528	118	0.011039384950782119	0.25487695078031214	0.011775904130288496	0.00016060323400150371	0.00060829698991389112	-3.6870510160947648e-06	0.036665914511667348	0.080957382953181278	88.778333823962313	111.63143950544598	104.85516632322637	66.818850065451613	90.432383445775855	88.173799214580612	87.0	110.0	103.0	67.0	90.0	88.0	RhTFIso05r01_CHX_19	RhTFIso05r01_CHX_19
1	6	61	642	118	0.01396159569973403	0.31537320810677211	0.014483726104705788	0.00017160425968505588	0.00061818965833597926	-1.5479638809157732e-06	0.068371040212329953	0.063978532589506393	91.105015673981185	116.31974921630093	113.14263322884013	72.413202681794743	97.231253223310986	97.549045899948425	90.0	116.0	113.0	72.0	97.0	98.0	RhTFIso05r01_CHX_19	RhTFIso05r01_CHX_19
2	6	181	642	118	0.016005644065847868	0.26784831579690699	0.016409837500419602	0.00021860785221658704	0.00056450829807602092	-1.6069423408626208e-06	0.042023622949824188	0.075206553209519106	93.081993145267603	117.80754020564197	113.16029528078039	72.916280864197532	97.060378086419746	95.720968364197532	92.0	117.0	112.0	73.0	97.0	95.0	RhTFIso05r01_CHX_19	RhTFIso05r01_CHX_19
3	6	306	650	118	0.017651631750076984	0.26347009391992093	0.017989646074638006	0.00025389952907493353	0.0006446654205736177	-1.3578979456727849e-06	0.031970308479847248	0.085516559565002467	94.741624229429107	118.7204502814259	112.97239346019833	72.621284755512946	96.27861936720997	94.157238734419948	94.0	118.0	112.0	73.0	96.0	94.0	RhTFIso05r01_CHX_19	RhTFIso05r01_CHX_19
4	6	428	650	118	0.013853707735838331	0.25365440293764563	0.014186154315115737	0.00020733705098602802	0.00054028958203885147	-1.7725428350114058e-06	0.037714777335222327	0.077254431184238401	91.439587973273944	115.59214922048997	110.5011135857461	71.776137761377612	95.575740372788346	94.599772920806132	91.0	115.0	110.0	72.0	95.0	94.0	RhTFIso05r01_CHX_19	RhTFIso05r01_CHX_19
5	6	546	642	118	0.01751477644818953	0.26551797189464021	0.017854959508051219	0.00024213745552122191	0.00074082681028666956	-1.609995277290603e-06	0.032866945355484928	0.084669161782360003	94.049202127659569	118.04202127659575	112.51170212765958	71.219305835977309	95.600423036246511	94.065474473608305	93.0	117.0	111.0	71.0	95.0	94.0	RhTFIso05r01_CHX_19	RhTFIso05r01_CHX_19
6	6	667	643	118	0.014095816252461157	0.26248146317350468	0.014488937000652909	0.00020371091503891501	0.00037891977830136067	-1.3640006609316861e-06	0.055790497863266203	0.064614080926488238	90.494215765402203	114.9273607748184	109.39090664514393	70.85953657602451	95.459019532746069	93.414975105323634	89.0	114.0	109.0	71.0	95.0	93.0	RhTFIso05r01_CHX_19	RhTFIso05r01_CHX_19
7	6	794	645	118	0.015303347957160046	0.26940187839841817	0.015793259133931457	0.00020787244204498837	0.00058112516824823299	-1.9830073017409218e-06	0.037677858173146034	0.079655391568392062	92.691218872870252	116.02568807339449	110.64560943643512	71.150976222694766	95.313841098008893	92.801275855403048	91.0	115.0	110.0	71.0	95.0	93.0	RhTFIso05r01_CHX_19	RhTFIso05r01_CHX_19
8	6	918	648	118	0.02179795590200764	0.26198714780029658	0.022201444857102202	0.00025669723732347539	0.0037310778673741852	-1.4367010950756265e-06	0.021752121489179529	0.10338252948238119	98.689218328840965	122.85013477088948	113.73369272237197	70.906133384365134	94.50224858865181	91.906037699741645	94.0	118.0	109.0	71.0	94.0	92.0	RhTFIso05r01_CHX_19	RhTFIso05r01_CHX_19
9	6	1040	643	118	0.014772472340546194	0.26396440929312903	0.015108838258169464	0.00020927376096241057	0.00069622720856542394	-1.2559608813048546e-06	0.040723078205766386	0.075842101546500951	92.010700909577309	115.66960941680043	108.09898341359016	69.786241964885349	93.843519140362659	91.032812050273435	91.0	115.0	107.0	70.0	94.0	91.0	RhTFIso05r01_CHX_19	RhTFIso05r01_CHX_19
10	6	1166	651	118	0.025863448467654621	0.2547842666478356	0.026493099420347461	0.00026649233296490658	0.0076021412724135498	-2.4219024038916648e-06	0.0086533607130514223	0.16164112703905092	103.7560975609756	126.91657427937916	117.74029933481152	67.222401212925234	91.23443570548659	88.430872737610159	94.0	117.0	108.0	67.0	91.0	88.0	RhTFIso05r01_CHX_19	RhTFIso05r01_CHX_19
11	6	1287	650	118	0.01155311289540523	0.24722830308594027	0.012003808439993035	0.00017413572918357483	0.00055249857667309308	-1.9792844845720936e-06	0.034272213535265522	0.080008473977826428	89.299914310197082	112.51471008283347	105.48728934590117	68.10506566604127	92.078424015009375	89.089681050656665	88.0	111.0	104.0	68.0	92.0	89.0	RhTFIso05r01_CHX_19	RhTFIso05r01_CHX_19
12	6	1414	656	118	0.0099507815343856873	0.25474189675870346	0.010412898135078355	0.00013523756311646637	0.00065191793982901616	-1.8546527972009314e-06	0.039444600473453696	0.080592236894757904	87.986176562990892	110.78542255733585	103.95287464655985	66.549183848797256	90.710481099656363	88.243986254295535	87.0	109.0	103.0	66.0	90.0	88.0	RhTFIso05r01_CHX_19	RhTFIso05r01_CHX_19
1	7	61	768	118	0.011823208654060599	0.30019066450109455	0.012929484350328794	0.00013706596410764492	0.002675641635453206	-3.6058019596917806e-06	0.027022798796481267	0.099286773532942588	93.907786403199253	119.51776052693484	114.86285579863562	72.22795156407669	97.11644803229062	96.786579212916251	90.0	115.0	111.0	72.0	97.0	97.0	RhTFIso05r01_CHX_19	RhTFIso05r01_CHX_19
2	7	185	768	118	0.021855637811573892	0.28458442200409578	0.022252089247878807	0.00029603464372906634	0.00077598760797614752	-2.6275300460006261e-06	0.033637660633483293	0.086646423275192425	97.930272952853599	121.90669975186104	115.74640198511166	73.933076695291675	97.638337775145587	95.364524726088248	98.0	122.0	116.0	74.0	98.0	95.0	RhTFIso05r01_CHX_19	RhTFIso05r01_CHX_19
3	7	306	768	118	0.017292118858237279	0.28825647906221313	0.017609909150065578	0.00022114969942302318	0.00065855797674745	-2.1364806023679765e-06	0.035503725659545619	0.084881011228020622	94.447084762371389	117.37898089171975	111.09235668789809	73.427919436452029	96.912590534775276	94.338624863577735	94.0	117.0	111.0	73.0	97.0	94.0	RhTFIso05r01_CHX_19	RhTFIso05r01_CHX_19
4	7	427	760	118	0.022677126056727517	0.26714215097803828	0.022931311156063477	0.00032776785635151945	0.00083828727493449114	-1.9003204466374292e-07	0.025071384929042671	0.097238895558223293	98.772667195347609	122.75786412899815	115.29394660322495	72.658797456157259	95.852380034688764	93.999614569281178	98.0	122.0	115.0	73.0	96.0	94.0	RhTFIso05r01_CHX_19	RhTFIso05r01_CHX_19
5	7	549	771	118	0.018574250431540471	0.26763646635124638	0.018858603842612013	0.0002604082234203624	0.00073148141670865139	-1.0821122936092155e-06	0.028311906920258579	0.091589577007273493	94.905013192612131	119.06754617414248	113.73324538258575	71.003567640536104	96.058239321184075	93.426959791726929	94.0	118.0	113.0	71.0	96.0	93.0	RhTFIso05r01_CHX_19	RhTFIso05r01_CHX_19
6	7	671	762	118	0.0095885132218274157	0.24708707012216652	0.0099326833088629329	0.00013952866333873291	0.00042661050412854328	-1.7129288352486044e-06	0.049029091790607299	0.066873808346868152	86.543583881108887	111.3378108030866	107.12603601028866	71.235321703245177	95.671731382479834	93.423654098668166	85.0	110.0	106.0	71.0	96.0	93.0	RhTFIso05r01_CHX_19	RhTFIso05r01_CHX_19
7	7	795	772	118	0.016039264739848624	0.2667890685686039	0.01635502126064467	0.00021742214963147929	0.00064120874324831792	-1.3304343871888959e-06	0.036659563830301486	0.080361556387260794	92.627845420857597	117.13446267866595	110.44017998941239	70.916787055764232	95.478570740633728	92.633920832129448	91.0	116.0	109.0	71.0	95.0	93.0	RhTFIso05r01_CHX_19	RhTFIso05r01_CHX_19
8	7	918	762	118	0.020676600747135662	0.27399194972106489	0.021038207629635042	0.00026527185830676651	0.0014980858171282955	-1.4377361630209283e-06	0.021131291542031607	0.10726643598615918	96.779381443298973	120.3090206185567	113.19252577319588	70.805952728333821	94.740492170022378	91.741270304445095	95.0	118.0	111.0	71.0	95.0	92.0	RhTFIso05r01_CHX_19	RhTFIso05r01_CHX_19
9	7	1040	765	118	0.012554095990463627	0.26000988630746419	0.013094787117829703	0.0001730310530263217	0.00063830535169809614	-2.9448968194480313e-06	0.033286339469174267	0.083256832144622553	89.560836501901136	113.76235741444867	107.70315046170559	69.739288100009546	93.893024143525139	90.719629735661798	88.0	112.0	106.0	70.0	94.0	91.0	RhTFIso05r01_CHX_19	RhTFIso05r01_CHX_19
10	7	1162	760	118	0.014586282986325602	0.26615352023162209	0.015149257828281954	0.00019779688352219453	0.00074284330104830692	-2.878812413567476e-06	0.033333697556922913	0.084174846409151891	91.32767312284426	114.58450517378616	106.99495887503316	66.808217859892224	91.024249422632792	88.374615088529637	90.0	113.0	106.0	67.0	91.0	88.0	RhTFIso05r01_CHX_19	RhTFIso05r01_CHX_19
11	7	1285	760	118	0.020975414452400656	0.26841324765200197	0.021527576185532252	0.00029893509246085035	0.00076749188445469603	-2.1410425398567647e-06	0.022780885954898362	0.10225266577219123	95.478032096816634	119.58642462509866	110.41541699552749	66.898841698841693	91.04980694980695	88.214189189189185	95.0	119.0	110.0	67.0	91.0	88.0	RhTFIso05r01_CHX_19	RhTFIso05r01_CHX_19
12	7	1407	760	118	-3.9879800760289195e-05	0.0	0.0			-9.8204313975138512e-07	0.0	0.0011254501800720287				64.625675270108047	89.324804921968791	87.165441176470594				64.0	89.0	87.0	RhTFIso05r01_CHX_19	RhTFIso05r01_CHX_19
1	8	61	879	118	0.011541739105896374	0.28288962643881083	0.012324644044960706	0.00015510607666719721	0.00061460818031290967	-3.1770034500670929e-06	0.057215689009782238	0.066238260009886307	90.307788317523716	115.65726410384423	112.3237643534698	71.984342688330869	96.483702609551941	96.753421959625797	89.0	115.0	111.0	72.0	96.0	97.0	RhTFIso05r01_CHX_19	RhTFIso05r01_CHX_19
2	8	179	878	118	0.017940878895064075	0.26643598615916952	0.018128918514800189	0.00024142712609313065	0.00061400563779425148	-1.1370986869883741e-06	0.039470766563196924	0.077395664148012147	93.722236946726738	119.17121653856347	113.19188974291015	72.989795918367349	97.092895648825575	94.823546399691949	92.0	118.0	112.0	73.0	97.0	95.0	RhTFIso05r01_CHX_19	RhTFIso05r01_CHX_19
3	8	304	888	118	0.016781913733205981	0.2665772191229433	0.016991800612350495	0.00022749872583671863	0.00061061718252241237	-1.0397322263245428e-06	0.034535965087832902	0.082762516771414454	94.014569536423835	117.478940397351	111.22066225165563	72.437704602349314	96.449643751203538	94.027729636048534	93.0	116.0	110.0	72.0	96.0	94.0	RhTFIso05r01_CHX_19	RhTFIso05r01_CHX_19
4	8	428	888	118	0.028776839765294712	0.28062989901843088	0.029092719781167325	0.00032302033307451261	0.0038359534315782606	-1.081955227352136e-06	0.0066907736331220232	0.19292422851493538	104.11147458480121	128.62405636638147	120.4723200805234	72.127809953862766	96.117306370864824	93.698831844507708	98.0	123.0	115.0	72.0	96.0	94.0	RhTFIso05r01_CHX_19	RhTFIso05r01_CHX_19
5	8	544	893	118	0.014001867516138576	0.2611397500176541	0.01436851448389327	0.00019698003450337032	0.00055430675236443374	-3.5103545156332859e-07	0.034122045579265431	0.082409434361980088	90.883180097349921	115.3912925905895	111.22417522985397	71.546306030775114	95.8361846506738	93.861703144413653	90.0	114.0	110.0	71.0	96.0	94.0	RhTFIso05r01_CHX_19	RhTFIso05r01_CHX_19
6	8	671	878	118	0.018058638226016579	0.26099851705388039	0.018365512877061011	0.00025433787253341779	0.00076899924092759767	-1.4908899163500002e-06	0.030599928444056429	0.086999505684626791	94.398268398268399	118.571158008658	112.56709956709956	71.119254658385088	95.371619684663159	93.553655040611559	93.0	117.0	111.0	71.0	95.0	93.0	RhTFIso05r01_CHX_19	RhTFIso05r01_CHX_19
7	8	795	885	118	0.015390048134212245	0.26347009391992093	0.015788566490765137	0.00021234280472909645	0.00055629307323975207	-1.0706951400675735e-06	0.038467766063272936	0.077960596003107119	91.735459662288932	116.40123291342803	110.0570892522112	70.85369127516779	95.30402684563758	92.356759348034515	90.0	115.0	109.0	71.0	95.0	92.0	RhTFIso05r01_CHX_19	RhTFIso05r01_CHX_19
8	8	915	883	118	0.015324896608765085	0.27716969140597414	0.015736382034972383	0.00019757645718652397	0.00074538329597263297	-1.0441978041830184e-06	0.03286830797924848	0.086505190311418678	91.272611464968151	115.02751592356688	108.05019108280254	70.626318874560368	94.835677999218447	91.825322391559197	89.0	114.0	106.0	71.0	95.0	92.0	RhTFIso05r01_CHX_19	RhTFIso05r01_CHX_19
9	8	1040	890	118	0.022627619066585683	0.27356825082974368	0.022947654368805706	0.00031136592617437132	0.00093010956431223521	-1.4538273457951074e-06	0.016190911321047479	0.12244897959183673	98.135260712441919	122.11874032008261	112.94889003613835	69.74317099251482	93.898318265772332	90.769126081462034	97.0	121.0	112.0	70.0	94.0	91.0	RhTFIso05r01_CHX_19	RhTFIso05r01_CHX_19
10	8	1162	886	118	0.012955126294424156	0.26452934114822402	0.013728801146918023	0.00018688306241197716	0.0003896698664153103	-3.272544613618619e-06	0.04911478570030859	0.06913353576724808	89.401761879337954	113.17512012813668	105.58622530699412	66.620835333653389	91.159481517042721	88.73999039846376	89.0	112.0	104.5	67.0	91.0	89.0	RhTFIso05r01_CHX_19	RhTFIso05r01_CHX_19
11	8	1288	889	118	0.014438969446691936	0.26742461690558578	0.014916986992099059	0.00019419046987126834	0.0008554916319421876	-2.22414162125604e-06	0.032078244448069719	0.08601087493821058	90.22920517560074	114.89411143385266	106.61790335357803	68.1443030653557	92.480335454019666	89.231251204935418	88.0	113.0	105.0	68.0	92.0	89.0	RhTFIso05r01_CHX_19	RhTFIso05r01_CHX_19
12	8	1407	886	118	5.7240174218307243e-06	0.00030012004801920766	1.3262648037226988e-05	0.00017400433258543316	1.6108436011392154e-05	-2.0778795917859509e-07	0.50265482457436694	0.00075030012004801924	80.0	105.0	101.0	65.170969678775137	89.870684479135392	87.224482137496253	80.0	105.0	101.0	65.0	90.0	87.0	RhTFIso05r01_CHX_19	RhTFIso05r01_CHX_19
