Column	Row	x	y	Diameter	Intensity	Area	Trimmed	FeatureMedian	FeatureVariance	BackgroundMedian	Circularity	Perimeter	redMean	greenMean	blueMean	redMeanBack	greenMeanBack	blueMeanBack	redMedian	greenMedian	blueMedian	redMedianBack	greenMedianBack	blueMedianBack	Barcode	Filename
1	1	62	62	124	0.014230022364043598	0.24256	0.014502802993662267	0.0002048177659812891	0.00058117025884271841	-8.8368376327559061e-07	0.0217727219286926	0.094656000000000004	85.621108179419522	108.88496042216359	101.79234828496043	64.3792986903253	89.177355302070126	86.196873679763414	84.0	107.0	100.0	64.0	89.0	86.0	RhTFIso05r01_CHX_23	RhTFIso05r01_CHX_23
2	1	186	67	124	0.012503532132868606	0.27251199999999998	0.012794704192146972	0.0001675642159702137	0.00041000134329392032	-1.4141323839838116e-06	0.025205563879456976	0.093247999999999998	82.311413809300134	106.24964772193518	100.39431658055425	66.341602885545882	90.630069499428174	87.425442069147536	81.0	105.0	100.0	66.0	90.0	87.0	RhTFIso05r01_CHX_23	RhTFIso05r01_CHX_23
3	1	310	62	124	0.013025321198105967	0.25811200000000001	0.013554642354725876	0.00021644874010295215	0.0023164922274504546	-9.6757871515289351e-07	0.0079176635610165042	0.16192000000000001	90.806595586412101	114.25018596578229	106.49466898090752	68.264665286404423	91.91614906832298	88.23921670117322	90.0	113.0	106.0	68.0	92.0	88.0	RhTFIso05r01_CHX_23	RhTFIso05r01_CHX_23
4	1	431	64	124	0.0086087500974024352	0.26617600000000002	0.0088838293832043808	0.00011478414046687376	0.00027875985989281012	-1.1126675493692808e-06	0.043429569984203047	0.070208000000000007	79.952151959605672	104.38566963212311	98.477518634287094	68.399616256759117	91.599511599511601	87.941828013256583	79.0	103.0	97.0	68.0	92.0	88.0	RhTFIso05r01_CHX_23	RhTFIso05r01_CHX_23
5	1	551	67	124	0.0096879380356856681	0.26585599999999998	0.0099646134217081395	0.00013029562513224542	0.00032836300607320268	-4.9259637978095395e-07	0.03293251482545561	0.080575999999999995	80.554164660568134	104.83726528647087	98.774193548387103	68.194839159619917	91.704123441722601	88.025717025542676	80.0	104.0	98.0	68.0	92.0	88.0	RhTFIso05r01_CHX_23	RhTFIso05r01_CHX_23
6	1	679	62	124	0.0095272758244933399	0.25273600000000002	0.0098011639808455817	0.00014188741545199761	0.00029358866115655481	-9.7962666165120354e-07	0.044500937604116782	0.067584000000000005	81.781210433021016	105.35452013167891	98.495062041023047	68.10748544021925	91.39157245632066	87.974648852346689	81.0	105.0	98.0	68.0	91.0	88.0	RhTFIso05r01_CHX_23	RhTFIso05r01_CHX_23
7	1	802	62	124	0.0067174258560771796	0.257664	0.0071557193225806571	0.00010752977923095357	0.00076866061674745118	-7.3550237393060389e-07	0.02864400050356097	0.085056000000000007	83.072776949826135	106.04297069051168	99.639841033283659	68.720148288645575	92.12759720665575	88.260625916027237	82.0	105.0	99.0	69.0	92.0	88.0	RhTFIso05r01_CHX_23	RhTFIso05r01_CHX_23
8	1	930	67	124	0.0075964377180946984	0.25273600000000002	0.0078917896881357408	0.00010795414375462483	0.00024335096823826019	-6.3530960596138778e-07	0.058885943151143642	0.058751999999999999	79.152950113952897	103.23474297290453	97.433021017979229	67.819544364508388	91.496317231928742	87.793936279547793	78.0	103.0	97.0	68.0	91.0	88.0	RhTFIso05r01_CHX_23	RhTFIso05r01_CHX_23
9	1	1050	70	124	0.0073876810952279229	0.25785599999999997	0.0077418718414752905	0.00011238984980650807	0.00032498742890957024	-5.4364305048938437e-07	0.051762417129632331	0.063296000000000005	79.833705634152395	103.78803673368081	98.159344750558446	67.894791307347361	91.627630217316323	87.940410486374617	79.0	103.0	98.0	68.0	92.0	88.0	RhTFIso05r01_CHX_23	RhTFIso05r01_CHX_23
10	1	1179	65	124	0.0062175236844357494	0.24499199999999999	0.0066657651618424905	0.00011284676784605734	0.00069781859012931922	-1.0824725737057728e-06	0.045167119906938169	0.066047999999999996	81.247387669801469	105.20245559038662	98.357366771159874	68.490717979147234	91.433839111638548	87.542680342459946	80.0	104.0	98.0	69.0	91.0	88.0	RhTFIso05r01_CHX_23	RhTFIso05r01_CHX_23
11	1	1306	69	124	0.0060898675673676673	0.254272	0.0065366353935603543	0.00010124634917626547	0.00050260300987869217	-1.4291837815926242e-06	0.051458363215593279	0.063039999999999999	80.535615403976848	103.95469418575384	97.40724893027938	69.011500171644357	91.857191898386546	87.889375214555443	80.0	103.0	97.0	69.0	92.0	88.0	RhTFIso05r01_CHX_23	RhTFIso05r01_CHX_23
12	1	1429	62	124	0.0057120068590514684	0.3244536082474227	0.006159777100013834	7.38692298331832e-05	0.00042720907092501175	-1.7261775042284766e-06	0.12615241044843006	0.05162886597938144	78.554397559735634	102.90976105744789	97.260040671072701	69.305213038701012	92.708216335001836	89.125747771944816	78.0	102.0	97.0	69.0	93.0	89.0	RhTFIso05r01_CHX_23	RhTFIso05r01_CHX_23
1	2	62	185	124	-0.00011775659694158933	0.00012799999999999999	2.820341416371176e-06	8.6407518883920844e-05	5.7580621967495391e-06	-1.1766943120253439e-06	0.02615269638784427	0.0019840000000000001	73.0	96.5	94.0	63.247839723484603	88.108237854445363	85.682263329706203	73.0	96.5	94.0	63.0	88.0	85.0	RhTFIso05r01_CHX_23	RhTFIso05r01_CHX_23
2	2	186	186	124	0.011319393004567609	0.25004799999999999	0.011597288625627431	0.00016391492527734159	0.00038034446361149307	-7.1075475378398513e-07	0.029366772950368894	0.082752000000000006	81.731763501407727	106.41617609418992	100.27105195802406	64.584570745861072	89.361068441713599	86.262160778289811	81.0	105.0	99.0	64.0	89.0	86.0	RhTFIso05r01_CHX_23	RhTFIso05r01_CHX_23
3	2	302	178	124	0.0093664659487639711	0.25459199999999998	0.0096618809501910399	0.00013552002430723163	0.00031173803376556564	-1.041360724293486e-06	0.04161534836692217	0.070143999999999998	80.526897938662643	104.65183509301157	99.161890397184521	67.073066025585987	91.056237657765948	87.694084313557141	80.0	104.0	98.0	67.0	91.0	88.0	RhTFIso05r01_CHX_23	RhTFIso05r01_CHX_23
4	2	428	177	124	0.0094332054428398534	0.25299199999999999	0.0095753849410563779	0.0001310370448433351	0.00027555200580137759	-1.0643579204127353e-07	0.041203299788787867	0.070272000000000001	80.853528965342775	104.41664558563117	98.724007083227932	67.708019191226867	91.473612063056891	87.827364633310481	80.0	103.0	98.0	68.0	91.0	88.0	RhTFIso05r01_CHX_23	RhTFIso05r01_CHX_23
5	2	550	180	124	0.0084440975554514568	0.25644800000000001	0.008715009739087131	0.00011754242006417516	0.00024629150795529284	-5.6928042198270964e-07	0.051272193486827669	0.063423999999999994	80.484152732717746	103.75343149488396	98.165210880958327	68.157255982096743	91.612669994835599	87.901015665346875	80.0	103.0	97.0	68.0	92.0	88.0	RhTFIso05r01_CHX_23	RhTFIso05r01_CHX_23
6	2	680	191	124	0.0079614217269899749	0.26591999999999999	0.0082518022328157952	0.00010818804892407534	0.00021656993693353074	-1.1147509155927236e-06	0.056891826115060475	0.061311999999999998	78.836341756919367	102.61901323706378	97.141516245487367	68.103138622493461	91.292414995640797	88.027462946817792	78.0	102.0	96.0	68.0	91.0	88.0	RhTFIso05r01_CHX_23	RhTFIso05r01_CHX_23
7	2	799	179	124	0.0074497273675017241	0.245888	0.0076892110283673628	0.00010157898031329885	0.00027419634786040448	-1.0897659218327067e-06	0.045953595146096787	0.065600000000000006	79.56038521603331	102.95158771473191	97.369338885996882	68.10370873292031	91.738521598913692	88.068658236442332	78.0	102.0	96.0	68.0	92.0	88.0	RhTFIso05r01_CHX_23	RhTFIso05r01_CHX_23
8	2	931	178	124	0.0073430578073896257	0.242368	0.0075951366653313583	0.00010875610920475461	0.00024330241180976688	-6.110753715951104e-07	0.053515770629574154	0.060352000000000003	79.268550303670452	103.10034327964088	96.387113810404017	67.80554147660078	91.633384017570535	87.811032268964354	79.0	102.0	96.0	68.0	92.0	88.0	RhTFIso05r01_CHX_23	RhTFIso05r01_CHX_23
9	2	1050	183	124	0.0091175340692070533	0.24742400000000001	0.0093414528531749336	0.00013526763677695921	0.0003270321377030884	-8.5772618936742901e-07	0.035611152417134258	0.074751999999999999	80.82048629073978	104.39912053802379	98.523538541127778	67.838166510757716	91.529041585168812	87.70354621991666	80.0	103.0	98.0	68.0	91.0	88.0	RhTFIso05r01_CHX_23	RhTFIso05r01_CHX_23
10	2	1175	185	124	0.010394447394907578	0.25542399999999998	0.010606880608767411	0.00014584867461204289	0.00030002034068458446	-4.284352542884049e-07	0.046817788160197396	0.066239999999999993	81.484339764470064	105.50613881232773	98.739163117013277	68.705518308406397	91.417053463984871	87.130651538593781	81.0	104.0	98.0	69.0	91.0	87.0	RhTFIso05r01_CHX_23	RhTFIso05r01_CHX_23
11	2	1310	185	124	0.0088328139910432944	0.25382399999999999	0.0090708904361801752	0.00013121306034921654	0.0002237624768900122	-6.9959595381272266e-08	0.056523804986552982	0.060095999999999997	80.576399394856281	103.86384266263238	97.484871406959158	69.101638219401323	92.385110215284328	88.363924864911226	80.0	103.0	97.0	69.0	92.0	89.0	RhTFIso05r01_CHX_23	RhTFIso05r01_CHX_23
12	2	1429	186	124	0.009949420579593235	0.34086597938144331	0.010183986482588177	0.00010791556892125738	0.00021780183051959301	-9.0257946016346336e-07	0.10690787891773611	0.057484536082474225	78.99080571013792	103.02153399467699	97.338253084926208	69.713713713713716	93.455580580580587	89.751876876876878	78.0	102.0	97.0	70.0	93.0	90.0	RhTFIso05r01_CHX_23	RhTFIso05r01_CHX_23
1	3	67	306	124	0.016022864752485301	0.25548799999999999	0.016452284585012519	0.00023446740225993972	0.00054878936353945521	-1.3308706488794511e-06	0.015886401743950104	0.113728	85.277805611222448	109.53131262525051	103.81487975951904	63.081750193415282	87.893148800825244	85.646866672397493	84.0	109.0	103.0	63.0	88.0	85.0	RhTFIso05r01_CHX_23	RhTFIso05r01_CHX_23
2	3	186	306	124	0.0089214386768712399	0.21152000000000001	0.0093520487259906547	0.0001524806328399218	0.00040060797019410391	-1.2411499060669821e-06	0.02376393837813762	0.084608000000000003	80.501966717095314	104.93827534039335	100.37307110438729	64.058279220779227	88.736607142857139	85.917694805194799	79.0	104.0	99.0	64.0	89.0	86.0	RhTFIso05r01_CHX_23	RhTFIso05r01_CHX_23
3	3	302	300	124	0.0092754653907924766	0.244672	0.0094787104535451992	0.00013148701303558017	0.00037976991267662803	-6.1709032452756466e-07	0.028735391090161325	0.082752000000000006	80.371174470311274	104.45775568924928	99.884383991629605	66.36485341467548	90.657092018301981	87.525927808845964	79.0	103.0	99.0	66.0	91.0	87.0	RhTFIso05r01_CHX_23	RhTFIso05r01_CHX_23
4	3	432	310	124	0.0146830878929783	0.25196800000000003	0.014940854159067297	0.00022031036846108912	0.00048509055209474929	-1.7445897058298816e-06	0.02121764626538164	0.097727999999999995	85.632207264414532	110.0259080518161	103.39141478282957	66.517710472279262	90.610797399041758	87.190879534565369	85.0	109.0	103.0	66.0	91.0	87.0	RhTFIso05r01_CHX_23	RhTFIso05r01_CHX_23
5	3	550	303	124	0.019058746306382511	0.26707199999999998	0.019225552305950706	0.00027468331998126638	0.00060856997262250185	-5.8665386035961022e-07	0.016077656910127563	0.11558400000000001	89.117900790797989	113.5017972681524	105.1778097292116	67.761089765979747	91.417918267551514	87.811997904296192	89.0	113.0	104.0	68.0	91.0	88.0	RhTFIso05r01_CHX_23	RhTFIso05r01_CHX_23
6	3	680	300	124	0.0091619933609871258	0.25465599999999999	0.0093886277655624226	0.00013128415654062677	0.000282265432493116	-2.9492315846756824e-07	0.041024722906931932	0.070655999999999997	80.913294797687868	104.67780849459663	98.441316913797436	68.333419199725228	91.465567576850418	88.068177915164	80.0	104.0	98.0	68.0	91.0	88.0	RhTFIso05r01_CHX_23	RhTFIso05r01_CHX_23
7	3	803	308	124	0.0094257464052461531	0.25791999999999998	0.0096882178812201306	0.0001355872201919135	0.00027223820764655203	-1.0760379552085167e-06	0.044817577805999514	0.068031999999999995	80.42853598014888	104.26228287841191	98.194044665012413	67.510306166451059	91.564898663216908	87.82250970245795	80.0	104.0	98.0	67.0	92.0	88.0	RhTFIso05r01_CHX_23	RhTFIso05r01_CHX_23
8	3	926	307	124	0.011012270043574423	0.256768	0.011300969462066502	0.00016068550855927933	0.00034977418874615479	-1.4420718003938118e-06	0.027994051466219756	0.085888000000000006	82.243270189431712	105.71136590229312	99.983798604187442	67.874451046241276	91.159648669594418	87.514079049341262	82.0	105.0	99.0	68.0	91.0	88.0	RhTFIso05r01_CHX_23	RhTFIso05r01_CHX_23
9	3	1062	302	124	0.0091455339654401505	0.24915200000000001	0.0093838433849172068	0.00013060090280180733	0.00033187111108573032	-4.045580941467855e-07	0.037445687356873675	0.073151999999999995	80.532494220395577	104.68687387618803	98.008219881839196	67.845209682918508	91.652488919195363	87.620098874872141	80.0	104.0	97.0	68.0	92.0	88.0	RhTFIso05r01_CHX_23	RhTFIso05r01_CHX_23
10	3	1180	307	124	0.0057612048189470801	0.22822400000000001	0.0059929246969137292	8.6215185658432611e-05	0.00027773747063181131	-7.1397717217668668e-07	0.082277005917268539	0.047232000000000003	77.972518227706118	102.15114974761637	96.024677509814921	67.934074135500452	91.736959946927612	87.567377062774696	77.0	101.0	95.0	68.0	92.0	88.0	RhTFIso05r01_CHX_23	RhTFIso05r01_CHX_23
11	3	1305	300	124	0.0069406916911968963	0.246144	0.0071370257277058079	0.00010542657867707062	0.00017012654022636529	-2.4460431282223095e-07	0.089952076783305399	0.046912000000000002	78.93603744149766	102.37623504940197	96.136505460218402	68.833771967060017	92.6297648357246	88.409712199677386	79.0	102.0	96.0	69.0	93.0	89.0	RhTFIso05r01_CHX_23	RhTFIso05r01_CHX_23
12	3	1429	311	124	0.010077483850492239	0.33880412371134022	0.010328848185201051	0.00011103220382634826	0.00017548703767298232	-1.7267598595454179e-07	0.13300384790568981	0.051381443298969071	79.666747809152866	103.10783836416748	98.230769230769226	69.246226768117751	93.704502931271051	89.873518772608207	79.0	103.0	98.0	69.0	94.0	90.0	RhTFIso05r01_CHX_23	RhTFIso05r01_CHX_23
1	4	62	428	124	0.014823329501211669	0.31110399999999999	0.015396800835078304	0.00017738627939185855	0.00059111455493470757	-3.012789255088226e-06	0.019000932098645982	0.11475200000000001	81.679284097922235	106.09463073441678	100.50339436329973	63.303325901151986	88.290226681531024	85.479375696767008	81.0	105.0	100.0	63.0	88.0	85.0	RhTFIso05r01_CHX_23	RhTFIso05r01_CHX_23
2	4	179	437	124	0.0138203363959425	0.27916800000000003	0.014336298525092623	0.00018565628575477469	0.00035936362219952136	-2.7925980171598996e-06	0.024297168187571792	0.096128000000000005	81.835396607060986	105.92778541953233	100.53805593764328	62.766580839918319	87.714907218325493	85.058332593447574	81.0	105.0	100.0	63.0	87.0	85.0	RhTFIso05r01_CHX_23	RhTFIso05r01_CHX_23
3	4	311	434	124	0.0097982114070485783	0.258496	0.010184912684019581	0.00014185179478035911	0.00029720248272486279	-1.6027869778828796e-06	0.036023199170029073	0.075967999999999994	80.00198068828918	103.5075513741025	98.834860113889576	63.851113412739515	88.30424650440186	85.380804419126534	79.0	103.0	98.0	64.0	88.0	85.0	RhTFIso05r01_CHX_23	RhTFIso05r01_CHX_23
4	4	435	424	124	0.0094593860130917189	0.25247999999999998	0.0098190671801319743	0.000136509376066074	0.00029746195355656276	-1.3117198131174869e-06	0.034541662421263414	0.076672000000000004	80.622560202788335	104.26996197718631	99.066413181242083	65.623373287671228	89.658904109589045	86.573030821917811	80.0	103.0	98.0	66.0	90.0	87.0	RhTFIso05r01_CHX_23	RhTFIso05r01_CHX_23
5	4	550	433	124	0.0097474173463966644	0.25542399999999998	0.0099516385088318417	0.0001427741684078139	0.00025569661340514918	-6.159677459721772e-07	0.040124347657863567	0.071552000000000004	80.608619393635678	104.28639438737159	99.324229516411933	67.816314251332301	91.00309437854564	87.654031287605292	80.0	104.0	99.0	68.0	91.0	88.0	RhTFIso05r01_CHX_23	RhTFIso05r01_CHX_23
6	4	682	425	124	0.0095138161639621559	0.26278400000000002	0.009749182545790179	0.00013713151109525599	0.00019307976313000244	-8.0304950148123952e-07	0.063278082217094439	0.057792000000000003	80.428884559181682	104.55845104724793	98.442523136872865	68.158173452556639	91.406806146366876	87.989495615938878	80.0	104.0	98.0	68.0	91.0	88.0	RhTFIso05r01_CHX_23	RhTFIso05r01_CHX_23
7	4	800	426	124	0.0064216863928288461	0.24556800000000001	0.0066765349465641912	9.5838048154445098e-05	0.00018075523310310024	-5.6267089064881061e-07	0.071709048255943111	0.052479999999999999	77.94553036226219	101.57127964555643	96.313265572061511	67.086359009161853	91.357906345436035	87.586189345096713	77.0	101.0	96.0	67.0	91.0	88.0	RhTFIso05r01_CHX_23	RhTFIso05r01_CHX_23
8	4	923	424	124	0.0079739018409066206	0.244864	0.0082337806794098908	0.00012007236154183018	0.00023905003387995427	-7.8472378374698e-07	0.050061363984317153	0.062719999999999998	79.96001045478306	103.11055933089388	97.445896497647681	67.509026188660059	91.117552334943639	87.505466564963129	79.0	102.0	97.0	68.0	91.0	87.0	RhTFIso05r01_CHX_23	RhTFIso05r01_CHX_23
9	4	1050	425	124	0.0075032363116281841	0.244672	0.0077282615430133254	0.00011121892703986533	0.0002248450523184285	5.2307886837395352e-07	0.056759492980499905	0.058880000000000002	79.113000261574683	102.80224954224431	96.979335600313888	68.086426029486532	91.254787324182345	87.656498898491776	78.0	102.0	96.0	68.0	91.0	88.0	RhTFIso05r01_CHX_23	RhTFIso05r01_CHX_23
10	4	1177	433	124	0.0072213735816691865	0.22579199999999999	0.007385742689421302	0.0001119190514685919	0.00031021333276476767	1.631056461412096e-07	0.067405716903457785	0.051903999999999999	78.826530612244895	103.37896825396825	96.825113378684804	67.701744234107636	91.664131602876751	87.590311647515918	78.0	102.0	96.0	68.0	92.0	88.0	RhTFIso05r01_CHX_23	RhTFIso05r01_CHX_23
11	4	1297	426	124	0.010595625243989817	0.25503999999999999	0.01082064972762109	0.00014579504125129824	0.000364198643443532	-7.8374921304043335e-07	0.03042179790899599	0.082112000000000004	82.633124215809289	105.9038895859473	98.734002509410288	68.917525773195877	92.16331615120275	88.10661512027491	81.0	105.0	98.0	69.0	92.0	88.0	RhTFIso05r01_CHX_23	RhTFIso05r01_CHX_23
12	4	1429	426	124	0.0098970356718844008	0.34169072164948455	0.010152720572927402	0.00010415357042194814	0.00022000177866856747	-9.3064396019485987e-07	0.12135067526435533	0.054020618556701032	78.727974897417326	103.14627081824764	98.100893072652667	69.505512402906547	93.429716862941618	89.791029817088443	78.0	103.0	98.0	70.0	93.0	90.0	RhTFIso05r01_CHX_23	RhTFIso05r01_CHX_23
1	5	62	555	124	0.013296756769407531	0.26028800000000002	0.013818094638670031	0.0001843522086849365	0.00049267206287217956	-2.337434896691545e-06	0.021108863479209244	0.099584000000000006	82.405950331940005	107.27046963363659	101.80108187853455	62.524571725211977	87.495068350925763	85.801695795120267	81.0	106.0	100.0	62.0	87.0	85.0	RhTFIso05r01_CHX_23	RhTFIso05r01_CHX_23
2	5	186	557	124	0.010440211501304499	0.258048	0.010974608395207842	0.00014790065881198472	0.00039798521437288116	-2.2487896772375018e-06	0.028773224994929486	0.084928000000000003	80.155257936507937	104.99751984126983	100.13665674603175	62.297334598464587	87.179246096782535	85.400845337703785	79.0	104.0	99.0	62.0	87.0	85.0	RhTFIso05r01_CHX_23	RhTFIso05r01_CHX_23
3	5	305	555	124	0.01033079101481754	0.25440000000000002	0.010755631630964416	0.00015158002408193987	0.00027663260546750178	-2.7689690087986533e-06	0.034458313920429764	0.077055999999999999	79.419119496855345	103.92553459119497	99.195974842767299	63.042060085836908	88.032188841201716	85.464549356223174	79.0	103.0	99.0	63.0	88.0	85.0	RhTFIso05r01_CHX_23	RhTFIso05r01_CHX_23
4	5	435	557	124	0.0093637853144886898	0.27123199999999997	0.0096472634543419439	0.00012613052412344651	0.00024588092303568816	-1.4062997608610691e-06	0.048397155821972328	0.067136000000000001	78.793770646531385	102.76451156205758	98.361727229825391	66.504434881882844	89.7169579344867	86.965838236585583	78.0	102.0	98.0	67.0	90.0	87.0	RhTFIso05r01_CHX_23	RhTFIso05r01_CHX_23
5	5	554	551	124	0.0088159373314543529	0.25350400000000001	0.0090645019718219796	0.00012785408781059305	0.00022726452551066287	-6.4357111012235538e-07	0.055620185585548459	0.060544000000000001	80.100732138348903	104.05503660691744	98.913910628629139	67.854852537722905	91.233196159122087	88.040552126200268	80.0	103.0	98.0	68.0	91.0	88.0	RhTFIso05r01_CHX_23	RhTFIso05r01_CHX_23
6	5	689	557	124	0.010125910074850804	0.26169599999999998	0.010409705703380333	0.00013699630093267791	0.00033864621457160913	-1.2947181625688568e-06	0.036103232422516826	0.076352000000000003	81.678160919540232	105.16507703595011	99.145023233064322	67.672676837725376	91.095266990291265	87.631501386962555	81.0	104.0	98.0	68.0	91.0	88.0	RhTFIso05r01_CHX_23	RhTFIso05r01_CHX_23
7	5	808	551	124	0.0063970889928676505	0.23846400000000001	0.0066983809495714235	0.00010150956956851358	0.00018285117520425032	-1.6461402995478139e-06	0.06557515060271317	0.054080000000000003	79.033816425120776	101.75496511003757	97.327697262479873	67.179763005294561	91.145978653668379	87.654256660223552	79.0	101.0	97.0	67.0	91.0	88.0	RhTFIso05r01_CHX_23	RhTFIso05r01_CHX_23
8	5	930	551	124	0.008403773381368768	0.24563199999999999	0.0086822528284244936	0.000121381847421117	0.00030203350127327202	-1.0147968477310819e-06	0.039786908621516154	0.070463999999999999	79.94293903074518	104.00312662845232	98.199583116206355	67.487655892084504	90.900398744379402	87.454653431746834	79.0	103.0	97.0	68.0	91.0	87.0	RhTFIso05r01_CHX_23	RhTFIso05r01_CHX_23
9	5	1050	555	124	0.0066633503203177196	0.24409600000000001	0.0069722358452364366	0.00010005086076607351	0.00022561558884147417	-1.5040240938476593e-06	0.062031574202205009	0.056256	78.423964341898269	102.43786051389617	96.981384373361294	67.69816272965879	91.30708661417323	87.728473456946915	78.0	102.0	96.0	68.0	91.0	88.0	RhTFIso05r01_CHX_23	RhTFIso05r01_CHX_23
10	5	1181	557	124	0.0011723343711899767	0.038399999999999997	0.0013259887228031992	0.00012194244346417144	0.00034634785346798053	-4.9565025313129777e-07	0.073173031789438223	0.020544	79.609999999999999	102.75666666666666	97.11333333333333	67.735307820299496	91.167986688851911	87.478202995008317	79.0	102.0	96.0	68.0	91.0	87.0	RhTFIso05r01_CHX_23	RhTFIso05r01_CHX_23
11	5	1306	556	124	0.0085874081497322053	0.25062400000000001	0.0088125267282239319	0.00012325596140558412	0.00027528464701454675	-5.0454749014986819e-07	0.048144894122937029	0.064703999999999998	80.551327885597544	103.85188968335035	97.524259448416757	68.919719873601508	92.056281492868735	88.059783072849939	80.0	103.0	97.0	69.0	92.0	88.0	RhTFIso05r01_CHX_23	RhTFIso05r01_CHX_23
12	5	1429	557	124	0.0065373280924215012	0.32808247422680414	0.0068010529069338728	6.6311264633348569e-05	0.00016734129177186974	-8.3431774703609081e-07	0.25938544478246162	0.036206185567010309	76.363750628456515	100.83333333333333	96.149572649572647	69.163741254449491	93.324045660979507	89.546458819197255	76.0	100.0	95.0	69.0	93.0	90.0	RhTFIso05r01_CHX_23	RhTFIso05r01_CHX_23
1	6	69	675	124	0.017093765935415516	0.26304	0.017501935561165763	0.00023829347049855924	0.00068168810617836326	-1.4643611651998576e-06	0.017871205268171694	0.10879999999999999	84.709975669099762	109.89610705596107	103.84063260340632	62.642205818497615	87.879895788102473	85.910290924880584	83.0	108.0	102.0	63.0	88.0	85.0	RhTFIso05r01_CHX_23	RhTFIso05r01_CHX_23
2	6	186	684	124	0.013409619371087868	0.253056	0.013911338193946219	0.00019483179896329764	0.00043620949916966102	-2.563392350465475e-06	0.020365002602287758	0.099968000000000001	82.206120384420842	107.29084471421345	102.3859382903389	62.443064004798217	87.728729329106329	86.273841144717679	81.0	106.0	101.0	62.0	88.0	86.0	RhTFIso05r01_CHX_23	RhTFIso05r01_CHX_23
3	6	310	683	124	0.010489224342315844	0.26028800000000002	0.010891641945656441	0.00014675768468503205	0.00031860945005908909	-1.5432150326338597e-06	0.031736628798510864	0.081215999999999997	80.456601917875588	104.22326038849275	100.10277846078191	64.15937013324104	88.886831631770207	86.230143623464272	80.0	103.0	99.0	64.0	89.0	86.0	RhTFIso05r01_CHX_23	RhTFIso05r01_CHX_23
4	6	435	680	124	0.01279009939905346	0.25465599999999999	0.013053805504291627	0.00018098698236188797	0.00037601988461314349	-9.2638327771466662e-07	0.036093656217790246	0.075328000000000006	83.500376979140484	107.21940185976376	101.11359638100025	66.781985230980595	90.583032800961703	87.427528765241291	82.0	106.0	100.0	67.0	91.0	88.0	RhTFIso05r01_CHX_23	RhTFIso05r01_CHX_23
5	6	558	677	124	0.0099181047336416202	0.26329599999999997	0.010238955384786344	0.00013152119214444245	0.00038225808998891016	-1.0162871376322281e-06	0.03282363689939756	0.080320000000000003	80.830092367525523	104.75960136120564	98.911278561011187	67.296064633828507	91.273130049517846	87.964729389279825	80.0	104.0	98.0	67.0	91.0	88.0	RhTFIso05r01_CHX_23	RhTFIso05r01_CHX_23
6	6	680	676	124	0.0084202107786867306	0.25747199999999998	0.0086997397768392194	0.00011727460218857909	0.00023726802868765152	-1.5579783590935426e-07	0.039036904523372912	0.072831999999999994	79.782500621426792	103.06562266964951	98.123539647029574	66.772022065161181	91.393035683502845	87.625409412170313	79.0	102.0	97.0	67.0	91.0	88.0	RhTFIso05r01_CHX_23	RhTFIso05r01_CHX_23
7	6	810	680	124	0.010844369044636244	0.260544	0.011112468632513858	0.00012994284524006411	0.0016946930238229175	-1.6247490986057718e-06	0.033432708917156335	0.079168000000000002	81.675264062883812	105.50012281994596	99.9813313682142	67.625843863597026	90.860913969188161	87.369049679764586	80.0	103.0	98.0	68.0	91.0	87.0	RhTFIso05r01_CHX_23	RhTFIso05r01_CHX_23
8	6	932	672	124	0.009135989776432955	0.248832	0.0093664147001388288	0.00013165438546332286	0.0003130431931343245	-1.3131226156902001e-06	0.039088815758900913	0.071552000000000004	80.721450617283949	104.27572016460906	97.577417695473244	67.654340972991392	90.88813154979978	87.374712447814602	80.0	103.0	97.0	68.0	91.0	87.0	RhTFIso05r01_CHX_23	RhTFIso05r01_CHX_23
9	6	1051	672	124	0.0079620242253735339	0.24729599999999999	0.0081620088544200192	0.00011820181756148813	0.00022857525896095412	2.0666317725537128e-07	0.054488266722345233	0.060415999999999997	79.225414078674945	103.07686335403727	97.759834368530022	67.37777399880963	91.226936484992777	87.582263412975081	79.0	102.0	97.0	67.0	91.0	88.0	RhTFIso05r01_CHX_23	RhTFIso05r01_CHX_23
10	6	1181	683	124	0.0070770828200087373	0.24563199999999999	0.0073315043277290106	0.00010492347735130306	0.00024422016299646405	-7.2850403171768117e-07	0.061163017432014577	0.056832000000000001	78.961177696717044	102.66727462219906	96.724075039082862	67.174599134639863	91.411046067701704	87.449987274115557	78.0	102.0	96.0	67.0	91.0	87.0	RhTFIso05r01_CHX_23	RhTFIso05r01_CHX_23
11	6	1305	680	124	0.0066927539011874537	0.23686399999999999	0.0069535443800531095	9.6217186767497251e-05	0.00025136161343321646	-4.7701337920516523e-07	0.060193722108642045	0.056256	78.868684139421774	102.99270467441232	96.514995947041342	67.986581683998665	92.033713518953377	88.120848708487088	78.0	102.0	96.0	68.0	92.0	88.0	RhTFIso05r01_CHX_23	RhTFIso05r01_CHX_23
12	6	1429	680	124	0.010139842662059509	0.29459793814432989	0.010328504484632827	0.00012944797259563555	0.00019953891866956509	-4.7373561584480322e-07	0.14364737643085806	0.046103092783505155	80.261198208286672	103.81466965285554	98.253919372900342	68.600140301648551	93.03589383841927	89.360809072839942	80.0	103.0	98.0	69.0	93.0	89.0	RhTFIso05r01_CHX_23	RhTFIso05r01_CHX_23
1	7	62	804	124	0.021569588125629372	0.279808	0.021950537130971424	0.00026727871321728268	0.0013409048853353473	-2.0889740920108444e-06	0.010718577989404425	0.144896	88.979185727355897	113.66834400731931	106.44602012808784	63.675553185817115	88.802008353328006	86.847951657335827	87.0	111.0	104.0	64.0	89.0	86.0	RhTFIso05r01_CHX_23	RhTFIso05r01_CHX_23
2	7	186	804	124	0.01272727784025846	0.26163199999999998	0.013220069143813981	0.00017998696583522035	0.00044643720658752486	-2.055031941362663e-06	0.02587609666918703	0.090176000000000006	82.439579256360076	106.60909980430529	101.50513698630137	64.746467885932219	89.471959781572338	87.020802635000436	82.0	106.0	101.0	64.0	89.0	87.0	RhTFIso05r01_CHX_23	RhTFIso05r01_CHX_23
3	7	302	802	124	0.012225838178756897	0.26547199999999999	0.012458708005476693	0.00017012641569938891	0.00033251594287588113	-6.8354305624970353e-07	0.03314771061684705	0.080255999999999994	81.389103182256505	106.09233365477338	101.34956605593057	66.767970724056809	91.03676919055502	88.134965583340588	81.0	105.0	100.0	67.0	91.0	88.0	RhTFIso05r01_CHX_23	RhTFIso05r01_CHX_23
4	7	435	796	124	0.0076872382722518789	0.25331199999999998	0.0079729529500381178	0.00011013460337833295	0.00023326549424780636	-4.9771086702454865e-07	0.058636277769682915	0.058944000000000003	78.970944921677614	103.36760990399192	98.241788782213234	67.207508356904086	91.460615410988254	88.205536984657584	79.0	103.0	98.0	67.0	91.0	88.0	RhTFIso05r01_CHX_23	RhTFIso05r01_CHX_23
5	7	562	797	124	0.013772104925128988	0.275584	0.014049499468392661	0.0001629071663089061	0.0012083611389240212	-9.6848456646371459e-07	0.023267204242055618	0.097600000000000006	84.029261495587548	108.01741755689736	102.26753367394333	67.560561887092504	91.317784256559762	87.985246046470536	82.0	106.0	100.0	68.0	91.0	88.0	RhTFIso05r01_CHX_23	RhTFIso05r01_CHX_23
6	7	681	795	124	0.011194685095763527	0.24806400000000001	0.01142356981640835	0.00016446464966383235	0.00045053571638576327	-2.6055479690001366e-07	0.017825754673350933	0.105792	83.013673890608871	106.81862745098039	100.84133126934985	67.537577666184362	91.267512128691806	87.840582177206571	82.0	106.0	100.0	67.0	91.0	88.0	RhTFIso05r01_CHX_23	RhTFIso05r01_CHX_23
7	7	799	804	124	0.049418454738691241	0.31308799999999998	0.04958983101669355	0.00056909784856210455	0.012415755598402991	-1.2492864683330848e-06	0.0041820776794513435	0.24537600000000001	112.53659035159444	136.47260834014719	124.26553556827473	67.976800521755337	91.449548122612498	87.445355445821292	109.0	133.0	120.0	68.0	91.0	88.0	RhTFIso05r01_CHX_23	RhTFIso05r01_CHX_23
8	7	927	797	124	0.0093502274712023575	0.260992	0.0095617759952199982	0.00012931432869849076	0.0002912149264081778	-5.6702005522262137e-07	0.039640229124736671	0.072767999999999999	80.218489455615497	103.87027954879844	97.899705738106917	67.357062440460723	91.124361305966914	87.631939031783148	79.0	103.0	97.0	67.0	91.0	88.0	RhTFIso05r01_CHX_23	RhTFIso05r01_CHX_23
9	7	1054	796	124	0.0078088789143651522	0.24940799999999999	0.0081247418469020186	0.00010908085393795067	0.00029186686255359653	-4.7799316769053059e-07	0.039961798723698573	0.070847999999999994	79.819091608929952	103.34308442391583	97.68385937900949	67.425051159618008	91.179484993178718	87.62704638472033	79.0	102.0	97.0	67.0	91.0	88.0	RhTFIso05r01_CHX_23	RhTFIso05r01_CHX_23
10	7	1175	795	124	0.0092780893790497549	0.245312	0.0095176461883532248	0.00013130542339405624	0.00035393920700425938	-1.2806035422350347e-06	0.036484519073109858	0.073536000000000004	80.438298982520223	104.5932689799113	98.209496477954602	67.591248303934876	90.923677069199456	87.310549525101763	79.0	103.0	97.0	68.0	91.0	87.0	RhTFIso05r01_CHX_23	RhTFIso05r01_CHX_23
11	7	1305	806	124	0.0088555352885189963	0.25036799999999998	0.009046738081366211	0.0001305162086151785	0.00021813185712461999	-4.1814463456863925e-07	0.062765669945894317	0.056640000000000003	81.038343558282207	104.1290899795501	97.741053169734158	67.963800904977376	91.83761632374285	88.166140186117985	81.0	104.0	97.0	68.0	92.0	88.0	RhTFIso05r01_CHX_23	RhTFIso05r01_CHX_23
12	7	1425	803	124	0.00038999087647639591	0.017980198019801979	0.00047020407845326792	8.1030518997129725e-05	0.00018244263303234163	1.4040215878068136e-06	0.17410681942502026	0.010138613861386139	76.268722466960355	100.36123348017621	96.832599118942724	68.261897080174222	92.613082755283116	89.233182771414747	76.0	99.0	95.0	68.0	93.0	89.0	RhTFIso05r01_CHX_23	RhTFIso05r01_CHX_23
1	8	62	930	124	0.03020045845901825	0.34543396226415096	0.030377488252070983	0.00032229034658515888	0.001177630567300422	-1.3751720584492108e-06	0.015172560343167364	0.14694339622641509	93.084116233340623	117.9099847061394	109.64758575486127	67.628156347284673	91.898766286175487	89.175487144010148	92.0	117.0	108.0	68.0	92.0	89.0	RhTFIso05r01_CHX_23	RhTFIso05r01_CHX_23
2	8	178	927	124	0.020772392302823878	0.33108256880733944	0.020950967800517115	0.00022360802435698101	0.00060611387330577007	-1.4853009096752942e-07	0.023115280914098209	0.11493577981651376	86.233429394812674	110.35202837508314	104.28951452006207	67.28044766293614	91.499670836076362	88.739631336405523	85.0	109.0	103.0	67.0	92.0	89.0	RhTFIso05r01_CHX_23	RhTFIso05r01_CHX_23
3	8	305	921	124	3.1978705086983893e-06	0.00069565217391304353	1.3436591276167169e-05	7.4933493897645583e-05	5.3621067333661762e-06	-1.9584944922783594e-07	0.31415926535897931	0.0013913043478260871	72.400000000000006	97.099999999999994	94.0	67.414966933518969	91.709363035154894	88.761642882004878	72.0	97.0	94.0	67.0	92.0	89.0	RhTFIso05r01_CHX_23	RhTFIso05r01_CHX_23
4	8	440	929	124	0.01363205223302006	0.31708411214953269	0.013836058399184505	0.00014918606867936755	0.00037729491954075574	-8.1430596276563648e-07	0.03574759332182121	0.09128971962616822	81.73567554821976	106.04149964630983	100.32798868191465	67.739982483030431	91.686555725859421	88.452485220056928	81.0	105.0	99.0	68.0	92.0	88.0	RhTFIso05r01_CHX_23	RhTFIso05r01_CHX_23
5	8	554	925	124	0.013877695927827623	0.30594594594594593	0.014078432184885191	0.00016452351537719654	0.00039663247249098515	-3.5746435804386472e-07	0.036314688141926912	0.087351351351351345	82.622614840989399	106.49022379269729	100.60565371024735	67.777050882658358	91.306749740394594	88.168431983385261	82.0	106.0	100.0	68.0	91.0	88.0	RhTFIso05r01_CHX_23	RhTFIso05r01_CHX_23
6	8	680	928	124	0.011940229259744183	0.30118518518518517	0.012149853499376397	0.0001398251735106063	0.00032299314766810484	-3.3554286713543096e-07	0.041246481723375701	0.082444444444444445	81.715199212985738	105.06591244466306	99.672159370388584	67.832308670765315	91.289590841636638	87.991096035615854	81.0	104.0	99.0	68.0	91.0	88.0	RhTFIso05r01_CHX_23	RhTFIso05r01_CHX_23
7	8	806	923	124	0.0087117139156090723	0.28304424778761061	0.0089767945597046921	0.00011000337177592466	0.00024012953536879528	-1.607166557176701e-06	0.062720077046544087	0.063362831858407076	79.014257128564282	103.36068034017009	97.665582791395693	67.444455416214083	91.442677989532925	87.944801026957634	78.0	103.0	97.0	67.0	91.0	88.0	RhTFIso05r01_CHX_23	RhTFIso05r01_CHX_23
8	8	933	929	124	0.01311512473930717	0.29659813084112152	0.013361462962128	0.00015701335056763344	0.0003739831560308144	-8.3070273129758872e-07	0.035381042611415038	0.088747663551401873	82.16284345853289	105.47012856062516	99.259137887572479	67.751594387755105	90.872874149659864	87.166560374149654	81.0	104.0	98.0	68.0	91.0	87.0	RhTFIso05r01_CHX_23	RhTFIso05r01_CHX_23
9	8	1058	925	124	0.010248231455954914	0.28237837837837837	0.010455383806298815	0.00012769919048402344	0.00030513935681985183	-5.8034323485840178e-09	0.043165004477425724	0.076972972972972967	80.608473711077082	104.64905564063298	98.704951505870341	67.266445716581302	91.445515717585621	87.658029526965947	80.0	104.0	98.0	67.0	91.0	88.0	RhTFIso05r01_CHX_23	RhTFIso05r01_CHX_23
10	8	1176	923	124	0.0094609422824680905	0.26520353982300887	0.0096729040999676604	0.00012732170928471783	0.00029777435311431822	-1.0685636901363124e-06	0.043606029267971129	0.073557522123893812	80.464228510411104	103.76081153230112	98.142819006940741	67.053666056460159	91.017439059639656	87.356007322478078	80.0	103.0	97.0	67.0	91.0	87.0	RhTFIso05r01_CHX_23	RhTFIso05r01_CHX_23
11	8	1305	922	124	0.010054535531753474	0.26182456140350879	0.010256995494976967	0.00013903639465591739	0.00032926260661011981	-1.9371306447609988e-06	0.046143873577032618	0.070736842105263154	80.825515947467167	104.75046904315197	98.827928169391583	67.432170358399091	91.793231295750545	88.033178058750835	80.0	104.0	98.0	67.0	92.0	88.0	RhTFIso05r01_CHX_23	RhTFIso05r01_CHX_23
12	8	1428	928	124	0.00036465693473604891	0.015778533635676491	0.00041194861323256182	8.4383283270832336e-05	0.00016498156708315718	7.4134873112144097e-07	0.28374579402352379	0.0081254724111866974	76.796407185628738	100.19161676646706	95.778443113772454	68.246808102140733	92.570029759047713	89.158778919074592	75.0	99.0	95.0	68.0	93.0	89.0	RhTFIso05r01_CHX_23	RhTFIso05r01_CHX_23
