Column	Row	x	y	Diameter	Intensity	Area	Trimmed	FeatureMedian	FeatureVariance	BackgroundMedian	Circularity	Perimeter	redMean	greenMean	blueMean	redMeanBack	greenMeanBack	blueMeanBack	redMedian	greenMedian	blueMedian	redMedianBack	greenMedianBack	blueMedianBack	Barcode	Filename
1	1	62	65	120	0.010994490838533403	0.251348951574346	0.011418336640513808	0.00015363830906850752	0.00057368108108640326	-1.8097643960832526e-06	0.054164375504630907	0.063110443275732536	78.641576086956519	102.45570652173913	101.99782608695652	60.119697107928111	83.563178542103827	88.402882948636076	77.0	101.0	101.0	60.0	84.0	88.0	RhTFIso05r01_3AT_16	RhTFIso05r01_3AT_16
2	1	175	60	120	0.013066661718990971	0.23229287616966054	0.013495830487676637	0.00021166300406959341	0.00073027816455522416	-2.1749768519389931e-06	0.051609982441052464	0.062154224438221432	82.191708321082032	106.17377241987651	105.76242281681859	62.18247330960854	85.545373665480426	88.803380782918154	81.0	105.0	105.0	62.0	85.0	89.0	RhTFIso05r01_3AT_16	RhTFIso05r01_3AT_16
3	1	304	60	120	0.00098239563668896961	0.030667304145891673	0.0012216884916265622	0.00011643759150455424	0.0010741375908778444	-6.6633844354746989e-07	0.11346096655567715	0.015231200054641077	77.545657015590194	100.24498886414254	100.59688195991092	64.254509582863591	87.353086245772261	89.784033258173622	74.0	97.0	98.0	64.0	87.0	90.0	RhTFIso05r01_3AT_16	RhTFIso05r01_3AT_16
4	1	426	60	120	0.032824124865980298	0.35161532682193841	0.033212489648736063	0.00028069648472485263	0.0062994407694494381	-1.5442646664928194e-06	0.012721997615099439	0.15401953418482345	94.709013209013207	117.64724164724164	111.15889665889667	65.904666596439483	89.066680712103661	89.58274518065943	88.0	112.0	107.0	66.0	89.0	90.0	RhTFIso05r01_3AT_16	RhTFIso05r01_3AT_16
5	1	543	60	120	0.013596466952702103	0.31179564237415475	0.014153659024531478	0.00015766601869816684	0.0029675833369419624	-1.91813360860776e-06	0.06383134141446975	0.064749675568608708	86.274041621029568	109.43110624315443	107.83001095290251	66.515680825724488	89.401548233425956	91.372270742358083	84.0	107.0	107.0	66.0	89.0	91.0	RhTFIso05r01_3AT_16	RhTFIso05r01_3AT_16
6	1	670	60	120	0.0020803626704396826	0.13796871798374427	0.0022798693727739878	3.216214917880962e-05	0.00055827770310768712	-2.065884076815146e-07	0.41946045080648964	0.01680213100198074	74.012871287128718	96.249009900990103	98.83613861386138	65.689010379526181	89.085967831392125	91.987401949132405	72.0	94.0	98.0	65.0	89.0	92.0	RhTFIso05r01_3AT_16	RhTFIso05r01_3AT_16
7	1	782	60	120	0.012434193433296912	0.32852947203059901	0.01272286287672972	0.00012923368494390829	0.00093981418409340098	-1.1003087222574567e-06	0.11531287707767547	0.049450174168431116	80.840124740124736	105.30124740124739	105.8047817047817	65.434238632895941	89.48316549689757	92.452649781304032	80.0	105.0	106.0	65.0	89.0	92.0	RhTFIso05r01_3AT_16	RhTFIso05r01_3AT_16
8	1	903	60	120	0.011285880714983291	0.35127382009425584	0.011663523088029579	7.9417374494680047e-05	0.001226170722905655	-1.7046003677676047e-06	0.20032249327281673	0.038795164264736018	80.554151273575741	104.62356601205522	104.66595372350768	65.717519477784791	89.860181090755944	92.577911139187194	80.0	105.0	105.0	66.0	90.0	92.0	RhTFIso05r01_3AT_16	RhTFIso05r01_3AT_16
9	1	1025	60	120	0.013986676752845432	0.37845775561778566	0.014242375230455991	0.00013288522404632342	0.00089902537488528971	-7.7905096388301732e-07	0.12150838684678653	0.051704118571135854	80.496661252481502	105.30517957047465	105.08716838115863	65.883956043956047	90.186153846153843	92.071318681318687	81.0	107.0	106.0	66.0	90.0	92.0	RhTFIso05r01_3AT_16	RhTFIso05r01_3AT_16
10	1	1148	60	120	0.048852017903619711	0.45481865992760057	0.049719922522513595	0.00034913897381964512	0.011281920124485933	-2.3559131500220019e-06	0.056221084332852549	0.083327641554538631	118.10406968013216	140.13740801922211	124.38324072683587	66.411049862189927	90.135680280631419	90.680030067652211	131.0	153.0	129.0	66.0	90.0	91.0	RhTFIso05r01_3AT_16	RhTFIso05r01_3AT_16
11	1	1274	60	120	0.012787576966328353	0.4509254832320197	0.013137514754412483	7.1022479451872015e-05	0.00095787520393255884	-8.1230946135651411e-07	0.19575975232715179	0.044464175944266104	80.450772493183877	105.46758558012723	104.90109057861254	66.410871999004854	91.623087448687642	92.451548700087073	81.0	106.0	105.0	67.0	92.0	92.0	RhTFIso05r01_3AT_16	RhTFIso05r01_3AT_16
12	1	1388	60	120	0.011217820899383613	0.36896386858821117	0.011730232941520247	0.00010232489411532387	0.00075438482592021805	-1.728751297964875e-06	0.21801985476409683	0.038112150809370943	77.059607552758237	104.18474639022584	106.29637171417993	65.980409135187784	91.186383807771406	95.077389327849332	77.0	104.0	107.0	66.0	91.0	95.0	RhTFIso05r01_3AT_16	RhTFIso05r01_3AT_16
1	2	62	180	120	0.00060101680101138906	0.015367802745714091	0.00079903645411494285	0.00016230513575664148	0.001226479825353131	-2.3632324805330833e-07	0.10512467981227	0.011201420667987159	78.102222222222224	102.55111111111111	101.24888888888889	61.234392341842394	85.105299667036633	89.168978912319645	75.0	100.0	99.0	61.0	85.0	89.0	RhTFIso05r01_3AT_16	RhTFIso05r01_3AT_16
2	2	187	180	120	0.015914215857510371	0.23714227170275254	0.01612054134782883	0.00024210550456768467	0.00067530941158149851	-9.6981700508246477e-07	0.048343976479839387	0.064886278259681712	84.170506912442391	107.78571428571429	105.27448156682027	63.502641239144062	86.541409257767029	88.790939206732915	83.0	106.0	104.0	63.0	86.0	89.0	RhTFIso05r01_3AT_16	RhTFIso05r01_3AT_16
3	2	302	180	120	0.020952762995915575	0.25244177310293014	0.021296729731737341	0.00031790882359346572	0.00092507626277784228	-1.3543043118885341e-06	0.028978400823750781	0.086469503449217944	88.637716450216445	113.16612554112554	109.38257575757575	63.837916857012331	87.165920511649148	88.921425308359986	88.0	113.0	109.0	64.0	87.0	89.0	RhTFIso05r01_3AT_16	RhTFIso05r01_3AT_16
4	2	426	180	120	0.061504874745901147	0.31521070965098014	0.061718235790320014	0.00082800533864676139	0.0041567414242811972	-1.191122104197036e-06	0.054771018864274788	0.070282084557065777	121.32741061755146	143.43120260021669	126.10985915492958	65.007281069220028	87.836624775583488	87.49561141033314	126.0	148.0	128.0	65.0	88.0	88.0	RhTFIso05r01_3AT_16	RhTFIso05r01_3AT_16
5	2	546	180	120	0.077753503767405696	0.37675022197937297	0.078047489211789875	0.00088517199985800675	0.0048077700673620025	-1.8270788138247068e-06	0.030160304295433229	0.10354483983334471	125.61856417693981	146.84010152284264	132.53299492385787	66.204383561643837	88.42202739726028	88.217863013698633	132.0	152.0	135.0	66.0	88.0	88.0	RhTFIso05r01_3AT_16	RhTFIso05r01_3AT_16
6	2	664	180	120	0.00068336247465545748	0.024451881702069529	0.00080729253930144067	8.5653172855148965e-05	0.0011034503760629726	-5.1563084828861374e-07	0.42405134130837818	0.0070350385902602283	76.653631284916202	99.229050279329613	99.081005586592184	64.688720856962817	88.540362668907093	90.551774837219071	74.0	97.0	97.0	64.0	88.0	91.0	RhTFIso05r01_3AT_16	RhTFIso05r01_3AT_16
7	2	788	174	120	0.016588911655523984	0.2454750358582064	0.016863880110465038	0.00024277739217408673	0.0007828387317501931	-6.10001692314667e-07	0.046173771944377912	0.06755003073560549	85.079577072899284	109.9852531997774	106.98441847523651	64.312664071693675	88.502308319000633	90.443016203494167	84.0	108.0	106.0	64.0	88.0	91.0	RhTFIso05r01_3AT_16	RhTFIso05r01_3AT_16
8	2	903	171	120	0.01479352891584698	0.24629465200464448	0.015059117922938644	0.00021992009718438087	0.00060444278714358497	-1.1448337220534355e-06	0.064992409100905979	0.057031623522983403	84.188574597892398	107.81059345535219	106.13422074320577	64.729859537834159	88.711372904395105	90.674218396012691	83.0	107.0	105.0	65.0	89.0	91.0	RhTFIso05r01_3AT_16	RhTFIso05r01_3AT_16
9	2	1025	183	120	0.025682680746443937	0.25367119732258725	0.025893519300188926	0.00039162494268681991	0.0015654132374096426	-1.520523868365373e-06	0.027787006352481738	0.088518543815313155	94.555196553581041	119.11820140010769	113.6661281637049	64.922760135444307	88.682437997620568	90.371739727281053	94.0	119.0	114.0	65.0	89.0	90.0	RhTFIso05r01_3AT_16	RhTFIso05r01_3AT_16
10	2	1147	182	120	0.021107128969007655	0.25435421077795234	0.021350198596316348	0.00031182754045994181	0.00087484261441468755	-1.4718033795410886e-06	0.041570836972814364	0.072467727614234007	89.012083780880772	113.70918367346938	108.92910848549947	64.424567188788131	88.563891178895304	89.967207108179906	88.0	113.0	108.0	64.0	88.0	90.0	RhTFIso05r01_3AT_16	RhTFIso05r01_3AT_16
11	2	1275	172	120	0.040114862446051607	0.2887097875828154	0.040216131514940717	0.00050399744567289557	0.0069681000152675325	-2.9087547130862133e-07	0.0052264341920234348	0.21774468957038454	104.88951975396262	128.88715400993613	118.8722498225692	65.979642788553875	89.685999615901665	89.466775494526601	102.0	126.0	116.0	66.0	90.0	90.0	RhTFIso05r01_3AT_16	RhTFIso05r01_3AT_16
12	2	1397	172	120	0.028526026408299685	0.43296222935591833	0.028385013963672833	0.00022966747243388855	0.0024517276114213631	-6.5501338304397269e-07	0.054951258350089127	0.082234820025954516	85.601514434453378	111.63795551348794	107.20665720145134	66.851842929414602	91.248735244519395	91.701999518188387	82.0	109.0	105.0	67.0	91.0	91.0	RhTFIso05r01_3AT_16	RhTFIso05r01_3AT_16
1	3	62	297	120	0.039192081302126154	0.25558363499760944	0.039400749469041561	0.00060014208051498597	0.0027765216543885027	-1.0168279924403958e-06	0.019983103049237713	0.10477426405300184	108.58097274184928	131.69588455371459	121.42704436130411	62.465455546380404	86.635746398752175	89.467382328654011	108.0	132.0	121.0	63.0	87.0	90.0	RhTFIso05r01_3AT_16	RhTFIso05r01_3AT_16
2	3	189	300	120	0.016236418688900561	0.231951369441978	0.016677375996400637	0.00026889530475702361	0.00076049562031903174	-1.6536251852179544e-06	0.050972432268940548	0.06249573116590397	86.650471142520615	110.79063604240282	106.69110718492344	63.589417518897285	86.955357936860821	88.835304579813254	85.0	110.0	106.0	63.0	87.0	89.0	RhTFIso05r01_3AT_16	RhTFIso05r01_3AT_16
3	3	295	293	120	0.015801665910064957	0.25442251212348882	0.016073889110456742	0.00023066511254652772	0.0005754270190236855	-1.5382310148448463e-06	0.058176990983804452	0.061266306946246844	83.792483221476516	108.55006711409396	104.83973154362415	63.453462806888972	86.833638695492851	88.608831073653349	83.0	108.0	104.0	63.0	87.0	89.0	RhTFIso05r01_3AT_16	RhTFIso05r01_3AT_16
4	3	429	307	120	0.061200675420742458	0.3151424083054436	0.061387960069965719	0.00080382022305743202	0.0031631498742808032	-1.1291936297345629e-06	0.032484376688979764	0.091250597636773442	119.73081924577373	142.16341569137407	127.56436931079324	64.815996808616731	87.102523187394041	87.256607160666206	123.0	145.0	129.0	65.0	87.0	87.0	RhTFIso05r01_3AT_16	RhTFIso05r01_3AT_16
5	3	547	300	120	0.062532513950550747	0.33413018236459258	0.062755444565819732	0.00081911082885589793	0.0049948786868102288	-1.2292849725626716e-06	0.034544956745078584	0.091113994945700424	119.73282910874897	141.63041700735894	127.43049877350776	65.022463842445376	88.282182787978257	87.991178582418712	126.0	148.0	131.0	65.0	88.0	88.0	RhTFIso05r01_3AT_16	RhTFIso05r01_3AT_16
6	3	668	300	120	0.02853703825419969	0.26330168704323476	0.028835726317417903	0.00039358637551148667	0.0021615562059575681	-1.4119223335291555e-06	0.017204827927549616	0.11460965781025886	95.637613488975362	120.09727626459144	114.99273670557717	64.555534952716485	88.118301501946974	89.454941590951236	93.0	118.0	113.0	64.0	88.0	90.0	RhTFIso05r01_3AT_16	RhTFIso05r01_3AT_16
7	3	794	299	120	0.010310166770172408	0.27573253193087904	0.010593198742447121	0.00014063595576577117	0.00046256122511621512	-9.5124200772949401e-07	0.085341418526259094	0.052660337408646951	77.13698290810008	102.27099331186524	101.53901411939559	64.707940399849107	88.604205960015094	90.143530743115804	76.0	101.0	101.0	65.0	88.0	90.0	RhTFIso05r01_3AT_16	RhTFIso05r01_3AT_16
8	3	908	293	120	0.019698316870161547	0.25865719554675226	0.019945818933715068	0.00029801964324856011	0.00065645501209708149	-1.0989408012702084e-06	0.054203332368885672	0.063998360767707124	87.256139424346443	111.66622656456298	108.12252442566675	64.554542104293347	88.23512069283214	90.126681407775934	87.0	112.0	108.0	64.0	88.0	90.0	RhTFIso05r01_3AT_16	RhTFIso05r01_3AT_16
9	3	1033	304	120	0.018841803586539484	0.24711426815108259	0.019109972572458344	0.00028049942001782756	0.00089989312909264057	-9.837087584857482e-07	0.040616929687529245	0.07226282357762448	86.967385295743512	111.75649530127141	108.13792150359315	63.965798784359976	87.890229520094351	89.69654359067404	86.0	110.0	107.0	64.0	88.0	90.0	RhTFIso05r01_3AT_16	RhTFIso05r01_3AT_16
10	3	1158	292	120	0.020463828185769823	0.24486032374837785	0.020740581397107858	0.0003188311887886717	0.00076646475048587452	-1.1816285582764951e-06	0.044603290663575296	0.068642852264189605	89.02482566248257	113.72803347280335	108.82845188284519	63.828780752532559	87.792782199710558	89.250994934876985	88.0	113.0	108.0	64.0	88.0	89.0	RhTFIso05r01_3AT_16	RhTFIso05r01_3AT_16
11	3	1268	300	120	0.015499179923840084	0.2464312546957175	0.015778854380206899	0.00022204590958906526	0.00077285044667229795	-7.0980840079832691e-07	0.042406781776099932	0.070623591284748308	84.339523281596456	108.65022172949003	104.5970066518847	64.503489531405776	88.137859149823257	88.677694190156799	83.0	107.0	103.0	64.0	88.0	89.0	RhTFIso05r01_3AT_16	RhTFIso05r01_3AT_16
12	3	1397	295	120	0.025514514255402042	0.34287275459326549	0.025368633626657817	0.0002456128113156667	0.0019539028820109283	-1.2489717236907027e-06	0.040308715767007848	0.085444983266170338	87.947011952191232	113.37330677290836	108.0211155378486	65.852302255482797	90.352769982330315	89.433634757301732	84.0	109.0	105.0	65.0	90.0	89.0	RhTFIso05r01_3AT_16	RhTFIso05r01_3AT_16
1	4	62	412	120	0.019791571923996543	0.29492521002663752	0.019986193613606849	0.00024663236789230114	0.00070199434347853517	-1.3596594301522905e-06	0.040117427142573069	0.079434464858957721	83.925428439092173	108.55303381194997	105.83001389532191	61.987600503729539	86.728373534825153	90.405889760728471	83.0	107.0	105.0	62.0	87.0	90.0	RhTFIso05r01_3AT_16	RhTFIso05r01_3AT_16
2	4	183	422	120	0.0167711418222476	0.23031213714910184	0.017086580220324186	0.00025462129834267192	0.00094984835225822388	-7.2619376811397588e-07	0.035994649885637095	0.074106959907110165	85.937129300118627	110.74555160142349	107.54893238434164	63.390629159641492	87.350874079332684	89.757476262312537	83.0	109.0	106.0	63.0	87.0	90.0	RhTFIso05r01_3AT_16	RhTFIso05r01_3AT_16
3	4	308	416	120	0.068058964288594009	0.31541561368758964	0.068334952793967646	0.00089474006651669492	0.0034013493352005666	-7.5600709251916644e-07	0.031983692484500822	0.092001912437675026	126.05262018189693	148.32330012992637	131.41100043308791	64.569589943130794	87.314975556220688	88.230569689713661	129.0	152.0	132.0	64.0	87.0	89.0	RhTFIso05r01_3AT_16	RhTFIso05r01_3AT_16
4	4	422	413	120	0.067608242105866634	0.32340687111536098	0.067874965935904183	0.00087247854912098392	0.0031004462611097872	-1.1519295538459302e-06	0.033088135201890405	0.091592104364455973	124.33812038014784	146.49799366420274	131.51847940865892	64.460226125580462	87.342923480718753	87.450333131435499	128.0	150.0	133.0	64.0	87.0	88.0	RhTFIso05r01_3AT_16	RhTFIso05r01_3AT_16
5	4	554	412	120	0.025585301268330331	0.2434942968376477	0.025749163365649717	0.00041185115085741084	0.0012420984484649306	-9.4377858554675839e-07	0.035271308064133998	0.076975616419643469	95.929873772791026	119.14726507713885	113.290603085554	64.705218490429758	88.214788732394368	89.263903936439149	95.0	119.0	113.0	64.0	88.0	90.0	RhTFIso05r01_3AT_16	RhTFIso05r01_3AT_16
6	4	668	421	120	0.050123322704481395	0.25947681169319037	0.05030743442911912	0.00079376973186782247	0.0027518622439476545	-1.0208463443756312e-06	0.030262156910492374	0.085786489993852882	118.84601210844959	142.39931560937089	128.64280073703605	64.308799114554503	88.225050728647858	89.123132263420032	122.0	145.0	130.0	64.0	88.0	89.0	RhTFIso05r01_3AT_16	RhTFIso05r01_3AT_16
7	4	793	421	120	0.013095465796098653	0.2977255651936343	0.013393141631795174	0.00016437626203306063	0.0004427824276815388	-8.3170209621396655e-07	0.12461481475716356	0.045283792090704184	79.283321862812571	103.98646478550125	102.68846065611379	64.391849834662523	88.836704921221553	90.572553977825322	79.0	103.0	102.0	64.0	89.0	90.0	RhTFIso05r01_3AT_16	RhTFIso05r01_3AT_16
8	4	905	412	120	0.021817217311883918	0.2648043166450379	0.022073765320648888	0.00031955954613170509	0.0008542354664642385	-7.5246378361515896e-07	0.039188255441992011	0.076156000273205376	88.128707763734852	113.54320350786691	109.92855300490069	63.917502787068003	88.413043478260875	89.96005202526942	88.0	113.0	110.0	64.0	88.0	90.0	RhTFIso05r01_3AT_16	RhTFIso05r01_3AT_16
9	4	1024	417	120	0.0016037526820319526	0.1305921726658015	0.0018454101068452718	4.0303793654309431e-05	0.00015766922224470746	-1.3046122251108298e-07	3.3255225764228009	0.0058056143706031009	71.828451882845187	96.229079497907946	97.221234309623426	64.240867310864957	88.614737999842873	90.618116112813254	71.0	95.0	97.0	64.0	88.0	90.0	RhTFIso05r01_3AT_16	RhTFIso05r01_3AT_16
10	4	1159	413	120	0.022053253315739808	0.24431391298408578	0.022279632199458235	0.00034271420815810527	0.00095398761603487816	-1.0331464052311165e-06	0.04092665390234649	0.071579810122259405	89.954431087503494	115.36566955549343	110.64383561643835	63.537780187997107	88.202187274041933	89.240419378163409	89.0	115.0	110.0	64.0	88.0	89.0	RhTFIso05r01_3AT_16	RhTFIso05r01_3AT_16
11	4	1275	415	120	0.056609852734940423	0.29547162079092959	0.056700000342171271	0.00079866776581677954	0.0036669234652564483	1.2652380378367155e-07	0.01578121495456191	0.12676729731575712	117.457928802589	140.3555247341655	124.17984281091077	64.942413960252054	88.663015026660204	87.753078041686862	121.0	143.0	126.0	65.0	89.0	88.0	RhTFIso05r01_3AT_16	RhTFIso05r01_3AT_16
12	4	1397	412	120	0.021939180663496767	0.31329827197595794	0.021820759722429157	0.00022554154042874372	0.0015348573779961725	-1.5671787567770935e-06	0.035907516969259444	0.086537804794754453	86.290167865707431	111.67865707434052	107.04730760845868	65.413168888004776	90.079669783170871	89.029441018500094	83.0	107.0	104.0	65.0	90.0	89.0	RhTFIso05r01_3AT_16	RhTFIso05r01_3AT_16
1	5	63	541	120	0.018338268872124551	0.23884980534116523	0.018495581468042865	0.00028077852978477234	0.00076029999419732004	-7.9792591954938368e-07	0.039036846641764725	0.072467727614234007	85.778381469831288	111.23791821561338	108.43237060337432	61.114680545585067	86.147613065326638	90.692031586503944	84.0	110.0	107.0	61.0	86.0	91.0	RhTFIso05r01_3AT_16	RhTFIso05r01_3AT_16
2	5	183	532	120	0.015512705851824283	0.23864490130455571	0.015788543337812485	0.00024411214412681963	0.00068467214313080462	-1.2442377317802976e-06	0.052101161147150132	0.062700635202513483	83.882655981682888	109.45048654836863	106.50143102461362	62.978828384318653	87.950121108818522	90.294159863640445	83.0	108.0	106.0	63.0	88.0	90.0	RhTFIso05r01_3AT_16	RhTFIso05r01_3AT_16
3	5	295	541	120	0.022560181594250616	0.24465541971176832	0.022827531156262033	0.00031757258826037136	0.0031603142605289296	-1.0073237751671491e-06	0.016043747664293891	0.11440475377364934	90.863204913456173	115.86208821887215	112.06867671691792	64.114115200289362	88.717334297856951	89.654579980106703	87.0	112.0	109.0	64.0	89.0	90.0	RhTFIso05r01_3AT_16	RhTFIso05r01_3AT_16
4	5	420	541	120	0.027136103965440635	0.27825968171572979	0.027361496209098859	0.00037406671870638742	0.0019073577290310796	-1.4817452910084369e-06	0.028299992472685158	0.091865309746602009	92.621993127147761	117.346588119784	112.42218949435444	64.610012302451025	88.064445916532605	88.942367748651463	91.0	117.0	112.0	65.0	88.0	89.0	RhTFIso05r01_3AT_16	RhTFIso05r01_3AT_16
5	5	546	546	120	0.075520497954488536	0.37832115292671264	0.075757576530373266	0.00084788039266736983	0.0038698673055964482	-1.3933298465220426e-06	0.016119447151314206	0.14193019602486168	120.56038996208702	144.33020400794368	132.25022567250406	64.662711491979778	88.602175346077786	87.785541639200176	125.0	149.0	136.0	64.0	88.0	88.0	RhTFIso05r01_3AT_16	RhTFIso05r01_3AT_16
6	5	663	538	120	0.019649910503512398	0.2746397104022949	0.019842267573082283	0.00027234470537686612	0.00059879581158910555	-9.9524284636940654e-07	0.057307670159084605	0.064134963458780142	85.08331260880378	110.73936831633922	107.04078587416066	64.152071563088512	88.562241054613935	89.648870056497174	84.0	110.0	107.0	64.0	89.0	90.0	RhTFIso05r01_3AT_16	RhTFIso05r01_3AT_16
7	5	786	544	120	0.012147423509721225	0.30196024861689774	0.012454172998336944	0.00015342857228316394	0.00039259040280425225	-1.5747516610591519e-06	0.12487592295175179	0.045556997472850212	77.750056548292235	103.25084822438362	102.07690567744854	64.2445205479452	89.227886497064574	90.674559686888458	77.0	103.0	102.0	64.0	89.0	91.0	RhTFIso05r01_3AT_16	RhTFIso05r01_3AT_16
8	5	914	532	120	0.017617977250320944	0.24561163854927942	0.017864809624338722	0.00026907351606062261	0.0006995234666561655	-1.0931628460214304e-06	0.05070905981717222	0.064476470186462673	86.143770856507231	111.42408231368186	107.23804226918799	64.106473517428697	88.689180624717068	90.209416025350833	85.0	111.0	106.0	64.0	89.0	90.0	RhTFIso05r01_3AT_16	RhTFIso05r01_3AT_16
9	5	1032	538	120	0.017108984064319703	0.24110374974386994	0.017347442643970163	0.00025336756915520691	0.00092992614605974099	-5.7351845208479288e-07	0.042387060720427125	0.069872276483846738	84.864872521246454	111.06033994334278	107.26487252124646	63.688416884168845	88.74160741607416	90.089370893708931	83.0	110.0	106.0	64.0	89.0	90.0	RhTFIso05r01_3AT_16	RhTFIso05r01_3AT_16
10	5	1145	535	120	0.018737437797317829	0.24950481524486032	0.018976915960789955	0.00027822031301544356	0.00074703336838340324	-9.5959001239758358e-07	0.044122406626541766	0.069667372447237211	87.13468382151656	112.13057760744593	107.91075828086504	64.070440480524212	88.525573352748452	89.723425555151067	86.0	111.0	107.0	64.0	88.0	90.0	RhTFIso05r01_3AT_16	RhTFIso05r01_3AT_16
11	5	1276	537	120	0.016051649985569637	0.24868519909842224	0.016319922634732024	0.00022794571103128391	0.00083495546960063493	-9.9136362059125918e-07	0.041421432179476345	0.071784714158868931	83.744575666025824	108.88299917605053	104.52595440812964	64.449363636363643	88.585545454545453	89.088181818181823	82.0	107.0	103.0	64.0	89.0	89.0	RhTFIso05r01_3AT_16	RhTFIso05r01_3AT_16
12	5	1397	536	120	0.021310241062899016	0.30783416433303734	0.02114585249632514	0.00023207272455130843	0.0016012947379281611	-4.7704145668704523e-07	0.044749931740378696	0.076839013728570452	86.365209673840695	111.38185045484802	106.90725538051919	65.828794158279067	90.293368857312018	89.726860074995059	83.0	108.0	104.0	66.0	90.0	89.0	RhTFIso05r01_3AT_16	RhTFIso05r01_3AT_16
1	6	65	658	120	0.028879406774239752	0.24943651389932381	0.029183555068223125	0.00043659154850500564	0.0012158563164327873	-5.6388941520116794e-07	0.02872410363651139	0.08633290075814494	94.980832420591454	120.82858707557503	116.25246440306681	60.772590772590775	86.22695422695422	90.186459186459189	94.0	120.0	115.0	61.0	86.0	90.0	RhTFIso05r01_3AT_16	RhTFIso05r01_3AT_16
2	6	183	656	120	0.0157482717588458	0.24677276142340004	0.015944048676214257	0.00022579860073385788	0.00077009072310129734	-7.7158086000739288e-07	0.048254115240386537	0.066252305170411863	83.222529753667317	109.31663437586494	106.2507611403266	63.605368153790351	88.062658686978594	90.460373594486768	82.0	108.0	105.0	64.0	88.0	91.0	RhTFIso05r01_3AT_16	RhTFIso05r01_3AT_16
3	6	304	652	120	0.062532194295893018	0.31404958677685951	0.062773101542034998	0.00082604813170554145	0.0034475768222572479	-8.8375757558682311e-07	0.037638838948085188	0.084625367119732259	121.65898216615921	145.13070900391475	130.93127446715962	64.275614856118693	88.628597032759131	88.431046500049789	125.0	149.0	132.0	64.0	88.0	89.0	RhTFIso05r01_3AT_16	RhTFIso05r01_3AT_16
4	6	419	661	120	0.069849922945463952	0.33474489447442113	0.070054020799975789	0.00084831766823553788	0.0028508550295332463	-1.0509355872217964e-06	0.044381705331310521	0.080458985042005327	124.08692103652317	146.65231585390737	131.16996531320137	64.859137577002059	88.264887063655024	87.705441478439425	127.0	149.0	132.0	65.0	88.0	88.0	RhTFIso05r01_3AT_16	RhTFIso05r01_3AT_16
5	6	540	661	120	0.07197852180973062	0.33993579673519569	0.072206549538034917	0.00086382216923212233	0.002849667688225116	-7.4084554484043181e-07	0.03914563630857535	0.08633290075814494	124.44384167168977	147.32790837854128	133.75708257986739	64.73758278145695	88.186775662251662	88.367860099337747	127.0	149.0	135.0	65.0	88.0	89.0	RhTFIso05r01_3AT_16	RhTFIso05r01_3AT_16
6	6	665	656	120	0.025715730684425484	0.24861689775288573	0.025898236334252162	0.00036851730324228876	0.0023753148653146172	-4.7330778297288727e-07	0.010072664024963526	0.14555016733829657	94.019505494505495	119.22252747252747	114.87417582417582	64.165075902190708	88.790200890828103	89.643486955731291	92.0	117.0	113.0	64.0	89.0	90.0	RhTFIso05r01_3AT_16	RhTFIso05r01_3AT_16
7	6	785	653	120	0.011148437126277184	0.29362748446144388	0.011479036608677272	0.00014967688339380579	0.00043914875971195962	-1.2578704244909053e-06	0.14566081107182649	0.041595519431732807	77.829030006978371	102.94766224703419	101.32170272156316	64.696190292013156	89.174144266099404	90.637400889576483	77.0	103.0	101.0	65.0	89.0	91.0	RhTFIso05r01_3AT_16	RhTFIso05r01_3AT_16
8	6	903	653	120	0.020663119911656341	0.25401270405026977	0.02093853000203421	0.00031909431217632599	0.00087289254367321572	-1.2931125361460097e-06	0.045542529851127604	0.069189263028481662	88.312718472707715	113.73218607152461	109.6837859639688	64.10877128731002	89.065097967405237	89.904504669474449	88.0	114.0	110.0	64.0	89.0	90.0	RhTFIso05r01_3AT_16	RhTFIso05r01_3AT_16
9	6	1040	652	120	0.018637294043709444	0.24308448876442865	0.018872424466298162	0.0003057274558189124	0.00067980996891479439	-1.0796394855096138e-06	0.06460872927911239	0.056826719486373883	86.697386906434389	112.70413037370048	108.43663950547906	64.019852012272153	88.783522829814117	90.143295434037171	86.0	113.0	109.0	64.0	89.0	90.0	RhTFIso05r01_3AT_16	RhTFIso05r01_3AT_16
10	6	1153	652	120	0.015931344174183584	0.24950481524486032	0.016094294911291405	0.00023812499684829069	0.00055768577761609981	-9.8956494196762059e-07	0.063686026870459461	0.0579878423604945	82.257596496030658	108.42211880646045	104.34218450588557	64.299144521295958	88.932653804149979	89.561976701856565	82.0	108.0	103.0	64.0	89.0	90.0	RhTFIso05r01_3AT_16	RhTFIso05r01_3AT_16
11	6	1271	661	120	0.015001871870396959	0.25380780001366027	0.015266630218317751	0.0002138891897702843	0.00062803011566728089	-1.2148100007552282e-06	0.055291012967634882	0.062768936548049992	82.491657696447788	108.30328310010765	104.66792249730894	64.359816933638442	89.253272311212811	89.28951945080091	82.0	107.0	104.0	64.0	89.0	90.0	RhTFIso05r01_3AT_16	RhTFIso05r01_3AT_16
12	6	1397	654	120	0.017195295275798474	0.27573253193087904	0.01740845477856056	0.00023171248792234033	0.00075849142807861891	-1.3044451440626385e-06	0.055160907064697416	0.065500990369510279	83.173396086202629	109.66534555362894	105.32350755511519	65.17559411542814	90.075160316861556	89.960298000754435	82.0	109.0	104.0	65.0	90.0	90.0	RhTFIso05r01_3AT_16	RhTFIso05r01_3AT_16
1	7	61	780	120	0.019834790276190038	0.24062564032511441	0.020146990388888536	0.00030531356191607962	0.00084684348434772697	-1.5020848548365572e-06	0.038452365635181049	0.073287343760672086	86.865171728640362	112.67839909168322	109.53079761566846	60.340438927864724	85.830724950530666	90.448372009354202	86.0	111.0	108.0	60.0	86.0	90.0	RhTFIso05r01_3AT_16	RhTFIso05r01_3AT_16
2	7	183	781	120	0.027482621431704157	0.25865719554675226	0.027591976335787548	0.00040646647332326125	0.0014975361270256633	-4.6864021596639337e-07	0.029975337312029594	0.086059695375998904	94.566939529970952	119.82968048587273	114.06707156060206	63.779159756771698	88.555187027823848	90.226552423069833	94.0	119.0	113.0	64.0	89.0	90.0	RhTFIso05r01_3AT_16	RhTFIso05r01_3AT_16
3	7	298	774	120	0.064853332820259901	0.31152243699200877	0.064948583142511701	0.00085254267350326387	0.0033636080275984861	-5.802066712873219e-08	0.036858446717731017	0.085171777884024316	123.14075860556895	146.68427976320982	131.50800263100197	64.431150793650787	88.626686507936512	88.152480158730157	127.0	149.0	132.0	64.0	89.0	88.0	RhTFIso05r01_3AT_16	RhTFIso05r01_3AT_16
4	7	426	778	120	0.060563840175116339	0.31179564237415475	0.060739264497821591	0.00080587828177910515	0.0029325387386322089	-4.9147760272361404e-07	0.037128584177297697	0.084898572501878281	119.88411829134721	143.65235487404163	129.75027382256297	64.718638348551011	88.341306073838822	87.977868201667334	123.0	146.0	132.0	65.0	88.0	88.0	RhTFIso05r01_3AT_16	RhTFIso05r01_3AT_16
5	7	547	781	120	0.01719539630876582	0.26173075609589508	0.01743059421990233	0.00023915107485430532	0.00085034496154461894	-1.0570083973818245e-06	0.035724892033156506	0.079297862167884703	83.889091858037574	109.68554279749478	105.45850730688936	64.218521602368398	88.464057729669719	89.315107780553248	82.0	108.0	104.0	64.0	88.0	90.0	RhTFIso05r01_3AT_16	RhTFIso05r01_3AT_16
6	7	660	784	120	0.025896277534741004	0.25496892288778089	0.026062912220533679	0.00037998194922804355	0.0019762772680736577	-1.0470898711148389e-06	0.01688094108955154	0.11385834300935728	93.074738815965716	119.07125636217519	113.62684168229306	64.446002933626701	89.087825449211593	89.676751008434181	91.0	118.0	112.0	64.0	89.0	90.0	RhTFIso05r01_3AT_16	RhTFIso05r01_3AT_16
7	7	783	781	120	0.039010818199211719	0.28536302165152655	0.039148618287264014	0.00056209246312832273	0.0034935175457074764	-2.9421053942813559e-07	0.019882526457483597	0.11098968649682399	103.81617999042604	129.06797510770704	120.25634274772618	64.820605944757716	89.690050654687951	89.541909586160756	106.0	131.0	122.0	65.0	90.0	90.0	RhTFIso05r01_3AT_16	RhTFIso05r01_3AT_16
8	7	917	774	120	0.065426772893777185	0.32361177515197048	0.065599752654334875	0.00083067297160659755	0.003778488922130402	-7.0639289537234084e-07	0.028318413303607019	0.099036951027935249	122.38898269311946	146.75960320810469	129.08336850991981	64.520751287488636	89.061294557204889	88.866303140462492	126.0	150.0	129.0	64.0	89.0	89.0	RhTFIso05r01_3AT_16	RhTFIso05r01_3AT_16
9	7	1028	777	120	0.0013405665143798049	0.12615258520592856	0.0016138693334425097	3.8768375751148002e-05	9.4856197089557796e-05	-1.0124291686273661e-06	8.5836118804443018	0.0035516699678983677	71.093665403356795	95.801840822956152	97.204114780725504	64.127325308738477	89.365327497264346	90.761763326559318	70.0	95.0	97.0	64.0	89.0	91.0	RhTFIso05r01_3AT_16	RhTFIso05r01_3AT_16
10	7	1148	773	120	0.015650886404891377	0.24533843316713339	0.015870024712001767	0.00023591519961448524	0.00057625283064456829	-1.558329466701753e-06	0.065051331332213289	0.056895020831910385	83.637806236080181	109.79092427616926	105.66035634743875	64.34220291429088	89.050411801973027	90.003620237125531	83.0	109.0	105.0	64.0	89.0	90.0	RhTFIso05r01_3AT_16	RhTFIso05r01_3AT_16
11	7	1274	774	120	0.030464891281460012	0.27183935523529812	0.030553562081898019	0.0003999609962330277	0.0033138842617235777	5.6414161730548107e-07	0.0085968298098282603	0.16474284543405504	96.537437185929647	122.28291457286433	114.45150753768844	65.177656880217612	89.797767564018386	89.689334959197069	94.0	120.0	112.0	65.0	90.0	90.0	RhTFIso05r01_3AT_16	RhTFIso05r01_3AT_16
12	7	1397	772	120	0.00061155082090215223	0.023222457482412404	0.00071767311139315148	8.9855526976759104e-05	0.00051562854859909916	-4.0290210930990242e-07	0.45409352841769779	0.0066252305170411861	74.391176470588235	99.479411764705887	98.479411764705887	65.181665617788966	89.496259002866935	90.931683099083983	72.0	97.5	97.0	65.0	89.0	91.0	RhTFIso05r01_3AT_16	RhTFIso05r01_3AT_16
1	8	62	898	120	0.021261366803555694	0.24622635065910797	0.02172186234743189	0.00031057697541306528	0.0011978545125948044	-1.3906882111911908e-06	0.030090264660969541	0.08380575097329418	87.762274618585295	113.9753120665742	110.49153952843274	60.595233780355201	86.006705328017404	89.918448713301927	86.0	112.0	109.0	61.0	86.0	90.0	RhTFIso05r01_3AT_16	RhTFIso05r01_3AT_16
2	8	187	900	120	0.020387990824188122	0.2473874735332286	0.020462597074575883	0.00030402098194594497	0.0011114576542759151	-3.6717578935877352e-07	0.033249612364094475	0.079912574277713269	87.170900055218112	113.54472667034787	109.15764770844837	64.19974589345675	88.951265995099376	90.184862510209641	86.0	112.0	108.0	64.0	89.0	90.0	RhTFIso05r01_3AT_16	RhTFIso05r01_3AT_16
3	8	305	897	120	0.071380344513167493	0.33010040297793869	0.071467366270843241	0.00089184325498333774	0.0039825809600459918	-1.1171893557888823e-06	0.031844856925659595	0.09432415818591626	124.60459342023587	148.63956134905857	132.38981998758535	64.241435562805876	88.920575040783035	88.481137846655798	129.0	151.0	133.0	64.0	89.0	89.0	RhTFIso05r01_3AT_16	RhTFIso05r01_3AT_16
4	8	430	900	120	0.065758388468448184	0.32402158322518954	0.065898221385204056	0.00084841744508606497	0.003695575831096446	-1.0933991740406787e-06	0.026460202278880442	0.10252031965029711	120.91441821247892	145.57567453625632	130.96332209106239	64.226735374355869	88.863797110235424	88.924724664039601	125.0	149.0	132.0	64.0	89.0	89.0	RhTFIso05r01_3AT_16	RhTFIso05r01_3AT_16
5	8	540	895	120	0.074419114730262428	0.34820025954511302	0.0745461371194822	0.00088721402670673816	0.0037818924094740066	-3.2638270130350863e-07	0.02984932026791369	0.10006147121098286	125.24735190270694	148.83209101608475	133.68458218909376	64.789374410562715	88.580320653882424	89.059205700513459	129.0	152.0	135.0	65.0	88.0	89.0	RhTFIso05r01_3AT_16	RhTFIso05r01_3AT_16
6	8	659	892	120	0.025552917982078156	0.25175875964756506	0.025783020160087891	0.00037663626465528886	0.0016601282088507575	-1.2554714219100646e-06	0.016809276413313944	0.11338023359060173	93.169289202387418	119.01899077590885	113.97042864894195	64.35280693747147	89.120036513007761	89.193884071200358	92.0	117.0	113.0	64.0	89.0	90.0	RhTFIso05r01_3AT_16	RhTFIso05r01_3AT_16
7	8	781	901	120	0.038692801312760768	0.27457140905675842	0.038828230823968447	0.00056748265896199653	0.0030194271546723746	5.5917315013603536e-08	0.022846200299354719	0.10156410081278601	103.71194029850746	129.20223880597015	119.38308457711443	64.780623293475188	89.72206006967329	89.326711232463992	105.0	130.0	120.0	65.0	90.0	90.0	RhTFIso05r01_3AT_16	RhTFIso05r01_3AT_16
8	8	911	899	120	0.059956255291896514	0.29540331944539305	0.060104929045165942	0.00082716520931652346	0.0037447168339237156	-6.6701458808952229e-07	0.028580343454470858	0.094187555494843242	120.30104046242775	145.60693641618496	127.83884393063583	64.120880186118654	89.119910818146565	88.497673516866996	123.0	147.0	128.0	64.0	89.0	89.0	RhTFIso05r01_3AT_16	RhTFIso05r01_3AT_16
9	8	1030	892	120	0.017043970145510071	0.24875350044395875	0.017229076704923435	0.0002567002638406653	0.00087921962304682267	-1.8718860950252388e-07	0.047556708737673391	0.067003619971313433	84.572487644151565	111.01537616694124	106.9945085118067	63.874534048549869	89.39767251568324	90.035821438312567	83.0	111.0	106.0	64.0	89.0	90.0	RhTFIso05r01_3AT_16	RhTFIso05r01_3AT_16
10	8	1161	898	120	0.016315668128519468	0.24697766546000957	0.016488341997191167	0.00024633726826824508	0.00076367523523616096	-3.8926484709584679e-07	0.052992732323146961	0.06324704596680554	83.939712389380531	109.69496681415929	105.81222345132744	64.468027210884358	89.336054421768708	90.392380952380947	83.0	109.0	105.0	64.0	89.0	91.0	RhTFIso05r01_3AT_16	RhTFIso05r01_3AT_16
11	8	1272	900	120	0.017360808999455177	0.2761423400040981	0.017602723150033493	0.00023932658079069789	0.00061409717818785106	-6.0367539631579733e-07	0.070485246821042333	0.0579878423604945	84.389809547365815	109.69997526589167	105.87336136532278	65.43357237214569	89.896301188903564	90.557841102094741	83.0	109.0	106.0	65.0	90.0	91.0	RhTFIso05r01_3AT_16	RhTFIso05r01_3AT_16
12	8	1397	901	120	0.00036850396819423432	0.035516699678983674	0.00056599631686404968	5.3764695439549408e-05	6.2621291258222221e-05	-3.1184733905333111e-07	54.004237350965035	0.0007513148009015778	71.246153846153845	95.780769230769238	97.069230769230771	65.596912399971671	90.634161886551951	92.217973231357547	70.0	95.0	96.0	66.0	91.0	92.0	RhTFIso05r01_3AT_16	RhTFIso05r01_3AT_16
