Column	Row	x	y	Diameter	Intensity	Area	Trimmed	FeatureMedian	FeatureVariance	BackgroundMedian	Circularity	Perimeter	redMean	greenMean	blueMean	redMeanBack	greenMeanBack	blueMeanBack	redMedian	greenMedian	blueMedian	redMedianBack	greenMedianBack	blueMedianBack	Barcode	Filename
1	1	66	66	123	0.034441585907461762	0.25356800000000002	0.034670065966765098	0.00052221124655177787	0.0024187194515346787	-3.9805665191254449e-08	0.0095356856626732309	0.14624000000000001	107.18753154972237	133.42529025744574	124.01716304896517	67.634399382663119	93.326931321272397	94.197976506902165	107.0	133.0	123.0	68.0	93.0	94.0	RhTFIso05r01_3AT_18	RhTFIso05r01_3AT_18
2	1	185	78	123	0.013972955199577211	0.22809599999999999	0.014205454389625989	0.00021415404547998895	0.00078693595079905017	-1.3424627202822923e-06	0.013029510487128939	0.118656	86.783108866442205	112.90347923681257	109.37261503928171	67.004560152557829	93.209435370201476	94.303623248486858	85.0	111.0	108.0	67.0	93.0	94.0	RhTFIso05r01_3AT_18	RhTFIso05r01_3AT_18
3	1	313	75	123	0.011982023759609986	0.224384	0.012240224053943732	0.00018561978524559537	0.00060498307794291711	-3.9539058824973952e-07	0.015049489098094688	0.109504	84.266400456360529	110.41129492298916	107.34227039361095	66.962455648155782	92.329152570344093	93.008086475781823	82.0	109.0	106.0	67.0	92.0	93.0	RhTFIso05r01_3AT_18	RhTFIso05r01_3AT_18
4	1	431	74	123	0.013236777292399948	0.235072	0.013536910845582738	0.0001920548458862747	0.0006377779310965992	-6.4444700034244309e-07	0.015297876673975254	0.111168	84.374897903621019	111.25946093111898	107.18840185134768	66.193022088353416	91.700803212851412	92.051790495314592	83.0	109.0	105.0	66.0	92.0	92.0	RhTFIso05r01_3AT_18	RhTFIso05r01_3AT_18
5	1	559	75	123	0.057906371657744045	0.294016	0.058213061379988162	0.00079391352846223788	0.0026143318485096004	-1.2243959739937566e-06	0.011115070061321871	0.14585600000000001	124.55768393556814	148.56181976491075	130.96451893774488	66.140059831384278	91.200707098177858	89.764209953766652	127.0	150.0	131.0	66.0	91.0	90.0	RhTFIso05r01_3AT_18	RhTFIso05r01_3AT_18
6	1	682	81	123	0.043722364318122188	0.269376	0.043897802527735827	0.00062432214791829888	0.00267383728063608	-1.4076095567540542e-06	0.0058417694646025094	0.192576	112.24423853646947	137.87099073414112	125.98194345450226	65.846881569726705	91.147424667133848	91.255255781359494	112.0	137.0	124.0	66.0	91.0	92.0	RhTFIso05r01_3AT_18	RhTFIso05r01_3AT_18
7	1	805	75	123	2.7751686366772611e-05	0.0012800000000000001	4.1147005153115162e-05	0.00012817738209442304	2.8501373172313739e-05	-2.8978655043924462e-08	0.0019942663145184167	0.022720000000000001	74.099999999999994	100.2	101.2	64.437680230695292	90.105863505286763	91.729637936558788	74.0	100.0	101.0	64.0	90.0	92.0	RhTFIso05r01_3AT_18	RhTFIso05r01_3AT_18
8	1	934	71	123	-2.9471542133048439e-06	0.00089599999999999999	2.6436297872051954e-05	0.00011159756278740973	3.5419762207175431e-06	5.5112202711282867e-07	0.0038777400560080322	0.013632	74.428571428571431	99.428571428571431	96.428571428571431	64.069630388828386	89.463967715072698	91.411056306450575	74.0	99.0	96.0	64.0	89.0	91.0	RhTFIso05r01_3AT_18	RhTFIso05r01_3AT_18
9	1	1048	78	123	7.9614911679408142e-05	0.002624	8.4056445234691803e-05	0.00011925752476509077	4.7143561686348893e-05	1.5356534088791018e-07	0.013411630445354176	0.012544	75.463414634146346	100.48780487804878	97.487804878048777	63.901822381930188	89.457648870636547	91.321740246406577	75.0	100.0	97.0	64.0	89.0	91.0	RhTFIso05r01_3AT_18	RhTFIso05r01_3AT_18
10	1	1168	71	123	5.0800663231918233e-05	0.003392	0.00010797952619578947	0.00012239040983724536	2.8199417171353572e-05	5.4947690101589919e-08	0.013760695094236284	0.014080000000000001	76.301886792452834	100.30188679245283	98.283018867924525	64.668700231184175	89.377279732853836	91.165746211148218	76.0	100.0	98.0	65.0	89.0	91.0	RhTFIso05r01_3AT_18	RhTFIso05r01_3AT_18
11	1	1305	79	123	0.0001833843459980997	0.0056959999999999997	0.00024013111048063062	0.00014499515881360816	0.0003595277384887246	-2.4953922972759829e-07	0.020600987026431993	0.014912	80.348314606741567	103.06741573033707	103.41573033707866	65.979016477857883	90.66271884654995	92.22579814624099	79.0	102.0	103.0	66.0	91.0	92.0	RhTFIso05r01_3AT_18	RhTFIso05r01_3AT_18
12	1	1422	66	123	0.00028949228522940696	0.012	0.00032934818358609303	0.00010214338162262075	0.00011197801505205032	-9.5133339471697555e-08	0.040336633773927821	0.017469387755102039	74.340136054421762	103.4625850340136	101.58503401360544	67.625134264232003	92.687515492026776	94.808477237048663	74.0	103.0	101.0	68.0	93.0	95.0	RhTFIso05r01_3AT_18	RhTFIso05r01_3AT_18
1	2	66	191	123	0.00043916360530709943	0.015296000000000001	0.00050657896000604681	9.2581764112409034e-05	0.00053293246460060111	-7.126905880259673e-07	0.029699800016137042	0.020351999999999999	77.853556485355654	103.69037656903765	102.17991631799163	68.048355647991684	94.116989470947615	95.729559339659431	76.0	101.0	100.0	68.0	94.0	96.0	RhTFIso05r01_3AT_18	RhTFIso05r01_3AT_18
2	2	195	192	123	0.012145565401851421	0.23155200000000001	0.012337435367962821	0.00018533727111324448	0.00063822329032145887	-1.2675676392974623e-06	0.016740329880125176	0.105472	84.447761194029852	111.33637368711996	108.52957435046987	67.608145248604984	93.722661780627973	95.233946864329141	83.0	110.0	107.0	68.0	94.0	95.0	RhTFIso05r01_3AT_18	RhTFIso05r01_3AT_18
3	2	313	200	123	0.062242524461201855	0.30355199999999999	0.062375918393023019	0.00085021881829811733	0.0036240346654960783	4.3442629480019062e-08	0.014127395715843963	0.13145599999999999	127.20662028252161	151.05017921146953	133.40206620282521	67.448906451020036	93.236353611468473	93.138945046866382	131.0	154.0	134.0	68.0	93.0	94.0	RhTFIso05r01_3AT_18	RhTFIso05r01_3AT_18
4	2	430	194	123	0.052365035191191442	0.29183999999999999	0.052632551320502326	0.00072307756510565371	0.0022971762488439053	-9.9681014794455566e-07	0.011308987308563355	0.144064	119.66447368421052	144.78728070175438	130.54978070175437	66.454676909173074	92.518481699051065	91.956800723000455	121.0	146.0	131.0	66.0	92.0	92.0	RhTFIso05r01_3AT_18	RhTFIso05r01_3AT_18
5	2	552	203	123	0.065509808172433015	0.31801600000000002	0.065726220045012482	0.00084438232504478413	0.003159466525881231	-6.4274196539460446e-07	0.013711659836579609	0.136576	127.50412557858724	151.32199637754076	133.6238679814852	66.49024024024024	91.783408408408405	91.395082582582589	131.0	154.0	133.0	66.0	92.0	92.0	RhTFIso05r01_3AT_18	RhTFIso05r01_3AT_18
6	2	677	196	123	1.3958337000594257e-05	0.0012160000000000001	3.6330949237407433e-05	0.00011292153905457646	3.2987556811794163e-05	-3.1388600512997332e-07	0.011675927511018841	0.0091520000000000004	70.368421052631575	101.42105263157895	100.89473684210526	65.956747404844293	90.86799948737665	92.469883378187873	70.0	101.0	100.0	66.0	91.0	92.0	RhTFIso05r01_3AT_18	RhTFIso05r01_3AT_18
7	2	805	202	123	-2.6067407192938272e-06	0.002944	9.8884460221793696e-05	0.00012567066810863919	5.6719509395427793e-05	-7.8749906307836523e-07	0.014451326206513048	0.012800000000000001	75.456521739130437	99.543478260869563	101.54347826086956	64.639257975479808	89.941780602092564	92.453623467488285	75.0	99.0	101.0	65.0	90.0	93.0	RhTFIso05r01_3AT_18	RhTFIso05r01_3AT_18
8	2	922	194	123	-3.9306933298336264e-05	0.0012160000000000001	3.5052810631035444e-05	0.00010958280861281003	4.4121117771215741e-06	2.1483194012019765e-07	0.0079775816657029729	0.011072	74.368421052631575	98.84210526315789	100.52631578947368	63.851275150583106	89.153274381648089	92.494617454825061	74.0	99.0	100.0	64.0	89.0	93.0	RhTFIso05r01_3AT_18	RhTFIso05r01_3AT_18
9	2	1057	196	123	0.00017343732320503167	0.0062719999999999998	0.00025213299595794629	0.00013627058414604319	0.00030721358598886206	-3.2289464854500347e-07	0.010528917617448093	0.021888000000000001	78.15306122448979	102.86734693877551	101.01020408163265	63.97417401944999	89.017711083918343	91.636375346171192	77.0	102.0	100.0	64.0	89.0	92.0	RhTFIso05r01_3AT_18	RhTFIso05r01_3AT_18
10	2	1169	193	123	0.00013606512630341423	0.0047999999999999996	0.00015458155299479868	0.00011082320660851867	0.00011023852231689485	3.325219231287885e-07	0.018452459003777469	0.014463999999999999	78.74666666666667	100.69333333333333	100.65333333333334	64.677620578778132	88.984180064308688	91.36559485530546	78.0	100.0	100.0	65.0	89.0	91.0	RhTFIso05r01_3AT_18	RhTFIso05r01_3AT_18
11	2	1297	189	123	0.00010012650970075435	0.0051200000000000004	0.00016517279380388108	0.00012047667901095376	0.00012815286375384631	-7.5411031070337863e-07	0.027557074892375039	0.012224	77.212500000000006	102.65000000000001	99.912499999999994	65.491990993888706	90.256223866194915	92.136185268575105	77.0	102.0	99.0	65.0	90.0	92.0	RhTFIso05r01_3AT_18	RhTFIso05r01_3AT_18
12	2	1419	193	123	0.00061081280343408843	0.017267326732673269	0.00068095090232370788	0.000106231380426195	0.0009406418522919578	-6.0870179275491158e-07	0.03596236076888127	0.02186138613861386	80.743119266055047	104.8302752293578	105.38990825688073	67.403884903683405	92.450793906665595	95.319900056419769	78.0	102.0	103.0	67.0	92.0	95.0	RhTFIso05r01_3AT_18	RhTFIso05r01_3AT_18
1	3	69	316	123	0.015193804625924357	0.241088	0.01539581533982841	0.00022958542654084527	0.0007878094069746546	-6.2704977252160057e-07	0.016019676098700121	0.110016	86.91133528006371	114.17308202813911	111.07087868330237	68.377466689155	94.631556754933385	96.191178950919209	86.0	113.0	110.0	69.0	95.0	96.0	RhTFIso05r01_3AT_18	RhTFIso05r01_3AT_18
2	3	189	321	123	0.024197003378170406	0.238592	0.024262156329628578	0.00032225655679396097	0.004258735041866077	-4.6910414284264986e-08	0.0075075960929401643	0.15987199999999999	97.233905579399135	122.87929184549357	118.55525751072962	68.665293771539041	94.352273682440952	95.384550727074057	92.0	118.0	114.0	69.0	94.0	96.0	RhTFIso05r01_3AT_18	RhTFIso05r01_3AT_18
3	3	306	321	123	0.00011822364554657247	0.0061440000000000002	0.00017212371301581216	8.6713106095927679e-05	0.00026390764196821044	-2.5049348633509328e-07	0.052908713608108442	0.0096640000000000007	75.364583333333329	101.29166666666667	102.53125	68.080752141155259	93.703522441882924	95.100650396033231	74.0	100.0	101.0	68.0	94.0	95.0	RhTFIso05r01_3AT_18	RhTFIso05r01_3AT_18
4	3	436	313	123	0.03418624963294175	0.25241599999999997	0.034370481048566125	0.00053590168001770716	0.0026865769873388721	-5.7515636264400742e-07	0.0049633237565126359	0.20224	105.55070993914808	133.00760649087221	123.82048681541582	67.460577005393375	93.123277116685216	93.623148703021997	106.0	134.0	124.0	68.0	93.0	94.0	RhTFIso05r01_3AT_18	RhTFIso05r01_3AT_18
5	3	559	321	123	0.047366760119341315	0.27500799999999997	0.047577431599040473	0.00072172235552275203	0.0033432776797459999	-7.4808557491899142e-07	0.0038728135621036012	0.23897599999999999	116.6094949965092	141.99837095648127	129.63020712124739	66.686087570621467	92.426730225988706	92.852401129943502	120.0	145.0	131.0	67.0	92.0	93.0	RhTFIso05r01_3AT_18	RhTFIso05r01_3AT_18
6	3	679	327	123	4.9228172329412164e-05	0.0034559999999999999	9.0246943867033119e-05	8.9644951145411073e-05	7.6138991711212792e-05	-9.2741503534183837e-07	0.014410669438199904	0.013887999999999999	73.166666666666671	100.48148148148148	100.22222222222223	65.717872968980799	91.010339734121118	93.720570290925437	74.0	100.5	100.0	66.0	91.0	94.0	RhTFIso05r01_3AT_18	RhTFIso05r01_3AT_18
7	3	799	318	123	5.1090344414720451e-05	0.0024320000000000001	7.6879898956881584e-05	0.00012003274798457798	4.3319193572513721e-05	-7.3985312488873439e-07	0.0089488968225042362	0.014784	76.078947368421055	100.81578947368421	99.15789473684211	64.864823250144354	89.772246102521336	93.437864887406178	76.0	101.0	99.0	65.0	90.0	94.0	RhTFIso05r01_3AT_18	RhTFIso05r01_3AT_18
8	3	929	317	123	0.00021017337210319816	0.0051200000000000004	0.00027315908873311588	0.00015446520862690262	0.0014233354818332709	3.6954462722650997e-07	0.010131616519513569	0.020160000000000001	81.012500000000003	105.22499999999999	104.9875	64.100160823415891	88.90672241878417	92.768028304921202	77.0	102.0	101.5	64.0	89.0	93.0	RhTFIso05r01_3AT_18	RhTFIso05r01_3AT_18
9	3	1043	321	123	1.941314972184824e-05	0.001152	5.774365195517241e-05	0.00019839928556072324	0.00036149620693412684	2.6174245858745661e-07	0.0055987394138379025	0.012864	80.666666666666671	103.16666666666667	101.83333333333333	63.918305888383415	88.652848080989301	92.581662074710067	81.0	103.0	101.5	64.0	89.0	93.0	RhTFIso05r01_3AT_18	RhTFIso05r01_3AT_18
10	3	1170	323	123	0.00011554361439012202	0.0051200000000000004	0.00021446095550332249	0.00014664010697836428	0.00023962974170276297	-6.9764764626067648e-09	0.0087478324166056151	0.021696	78.700000000000003	101.45	104.25	64.495014474107435	89.00733354776456	91.51000321646832	78.0	101.0	103.5	64.0	89.0	92.0	RhTFIso05r01_3AT_18	RhTFIso05r01_3AT_18
11	3	1297	316	123	0.00070343671123831953	0.014784	0.00076542823537431928	0.00016188064709514227	0.00095563320291293483	-7.3117353513682882e-08	0.021908824507283004	0.023296000000000001	86.233766233766232	107.25541125541126	104.77922077922078	65.509224373132383	90.346043913212938	92.289853189554378	84.0	105.0	103.0	65.0	90.0	92.0	RhTFIso05r01_3AT_18	RhTFIso05r01_3AT_18
12	3	1419	312	123	0.00033907423265236371	0.015287128712871287	0.00043038431299642236	0.00010284650888269214	0.00012049794871536271	-2.9114291225268748e-07	0.064441213959276225	0.015366336633663366	78.974093264248708	101.71502590673575	103.67875647668394	67.477155727155733	92.062339124839127	95.599581724581725	79.0	101.0	103.0	68.0	92.0	96.0	RhTFIso05r01_3AT_18	RhTFIso05r01_3AT_18
1	4	67	435	123	0.065882729523185912	0.34028799999999998	0.066103879619608841	0.00088042386815272828	0.0068496769274240706	-3.4887306926858847e-07	0.015413990038707822	0.13324800000000001	126.29038931728418	149.82189204438592	133.79518525484295	69.192762902599924	94.88736903376018	95.051998447807534	136.0	158.0	138.0	69.0	95.0	95.0	RhTFIso05r01_3AT_18	RhTFIso05r01_3AT_18
2	4	187	438	123	0.022733389824968461	0.244864	0.022824544242609986	0.00035535745623274092	0.0013862010993556208	-2.4573893978236144e-07	0.011983755263395022	0.128192	95.935441714584428	121.67511761630946	116.95007841087298	68.961691668785491	94.386134418171025	95.439867785405539	95.0	121.0	116.0	69.0	94.0	96.0	RhTFIso05r01_3AT_18	RhTFIso05r01_3AT_18
3	4	314	435	123	0.021117618238571913	0.25056	0.021248800721143567	0.00031700936675199383	0.0011658216554757024	4.9854145430539536e-08	0.012177258225097439	0.12864	92.95759897828863	120.03729246487867	115.56730523627076	68.592912040990612	94.153116994022199	95.030999146029032	92.0	119.0	115.0	69.0	94.0	95.0	RhTFIso05r01_3AT_18	RhTFIso05r01_3AT_18
4	4	427	438	123	0.035383199105176649	0.25081599999999998	0.035496087744531883	0.0005645359535518549	0.0031789426214875616	-2.654221604130713e-08	0.0045748058388389509	0.209984	108.84383771370247	134.5506506761929	124.8872161265629	68.151289936784551	93.666410387835299	94.728429865026484	109.0	135.0	124.0	68.0	94.0	95.0	RhTFIso05r01_3AT_18	RhTFIso05r01_3AT_18
5	4	562	440	123	0.017118576946443073	0.249664	0.01729784199831947	0.00024354507750975611	0.00083323989330999102	-1.0328529112085724e-06	0.013943868235837192	0.12	88.278133811843119	114.49192514739811	112.11125352473725	67.027209143636981	92.552285909245995	94.114551347662911	86.0	113.0	111.0	67.0	92.0	94.0	RhTFIso05r01_3AT_18	RhTFIso05r01_3AT_18
6	4	678	437	123	0.00019353328327183906	0.0056959999999999997	0.00018759104948172744	0.00011060869461826068	0.0001991405486620538	-5.3553682439731431e-07	0.019579611433237627	0.015296000000000001	76.550561797752806	100.67415730337079	103.96629213483146	65.892443357363547	90.860002574665288	93.933444902162719	76.0	100.0	103.0	66.0	91.0	94.0	RhTFIso05r01_3AT_18	RhTFIso05r01_3AT_18
7	4	805	436	123	-1.0991372576710859e-06	0.0027520000000000001	9.0749878514205957e-05	0.00012728175653542074	4.4298064856697041e-05	-2.7094657158505649e-07	0.010579409828832414	0.014463999999999999	75.139534883720927	100.76744186046511	104.13953488372093	65.028301886792448	89.272814786291875	93.575856757797453	75.0	101.0	104.0	65.0	89.0	94.0	RhTFIso05r01_3AT_18	RhTFIso05r01_3AT_18
8	4	923	445	123	0.00013496688793066547	0.0046080000000000001	0.00017418565185477227	0.0001140730951550438	0.00039771521549521958	6.7811631504914794e-07	0.01544940038648078	0.015488	76.333333333333329	102.27777777777777	103.01388888888889	64.354529672731942	88.492959557641612	93.110461004307851	75.0	100.5	101.0	64.0	88.0	93.0	RhTFIso05r01_3AT_18	RhTFIso05r01_3AT_18
9	4	1049	438	123	9.5723443522747789e-05	0.0046719999999999999	0.00019443997469662192	0.0001393730960890931	0.00035432948785511851	-5.5766420127818396e-07	0.0096701072572126373	0.019712	79.890410958904113	102.73972602739725	104.75342465753425	63.790252057613166	88.151941872427983	92.416280864197532	79.0	101.0	104.0	64.0	88.0	93.0	RhTFIso05r01_3AT_18	RhTFIso05r01_3AT_18
10	4	1166	439	123	0.00020793021658085879	0.0088319999999999996	0.00032266137405294017	0.00011834877513470459	0.00053902816044968716	3.2693436543020018e-07	0.020062926845082672	0.018815999999999999	79.630434782608702	101.23913043478261	102.07971014492753	64.4423710208562	88.546393749596433	91.967908568476787	78.0	100.0	101.0	64.0	89.0	92.0	RhTFIso05r01_3AT_18	RhTFIso05r01_3AT_18
11	4	1297	438	123	0.00010828250897215002	0.0069760000000000004	0.00020468756639112454	0.00010832639696149902	0.00011977595176472978	-2.1521208250602136e-07	0.040901024126284741	0.011712	77.376146788990823	102.29357798165138	99.321100917431195	65.541441093065217	89.779775715390571	92.264758958494454	77.0	102.0	99.0	65.0	90.0	92.0	RhTFIso05r01_3AT_18	RhTFIso05r01_3AT_18
12	4	1419	435	123	0.00042980371788009866	0.015049504950495049	0.00050488541917830237	0.00011430378614338939	0.00028642460354681232	-3.0521941343287504e-07	0.036718345509084857	0.020198019801980199	78.673684210526318	103.49473684210527	106.31578947368421	67.008122235625251	91.664173703256935	95.491274628065938	78.0	103.0	106.0	67.0	92.0	95.0	RhTFIso05r01_3AT_18	RhTFIso05r01_3AT_18
1	5	67	562	123	0.015602439862589334	0.26534400000000002	0.015778304364847763	0.00023188246567462057	0.0008951126484090916	-2.5100090939716467e-07	0.022025536249064923	0.098432000000000006	87.034732272069462	113.22793053545585	110.73854317414376	69.299503441066292	95.708946772366929	97.123704155414231	87.0	113.0	111.0	70.0	96.0	97.0	RhTFIso05r01_3AT_18	RhTFIso05r01_3AT_18
2	5	190	567	123	0.030007537971839044	0.26502399999999998	0.030180627467903225	0.0004430560659284953	0.002811233322848895	-7.3809901163507967e-07	0.0053905439096494255	0.198848	100.76817193914513	126.85341704902197	121.98406182081622	68.835336119818876	94.810518982932777	95.966736328805297	101.0	127.0	121.0	69.0	95.0	96.0	RhTFIso05r01_3AT_18	RhTFIso05r01_3AT_18
3	5	313	564	123	0.027132084034297899	0.258048	0.027213633290844592	0.00040070430219337199	0.0015326548258884195	2.7235819803019298e-07	0.011767770374125984	0.1328	98.826636904761898	125.18328373015873	119.49231150793651	68.754075735357546	94.371517294919343	95.488139394462181	98.0	125.0	119.0	69.0	94.0	96.0	RhTFIso05r01_3AT_18	RhTFIso05r01_3AT_18
4	5	429	567	123	0.013064375208483433	0.25203199999999998	0.013224915127778141	0.00018113885241312933	0.00063442795689543606	-4.2646547937918673e-07	0.014809254377369064	0.116992	83.823260538344343	110.15109192483494	108.12569832402235	68.005133909472065	93.59193976212886	95.640198511166247	83.0	108.0	107.0	68.0	94.0	96.0	RhTFIso05r01_3AT_18	RhTFIso05r01_3AT_18
5	5	550	571	123	0.017676243928366524	0.286912	0.01784969268978695	0.00021110633464713397	0.0008340750775543014	-2.5007104799006156e-07	0.013985688720314022	0.12844800000000001	86.280169529333037	113.02632165960294	111.78741913896944	67.1917070543888	92.988152934841139	95.442380183091004	84.0	111.0	110.0	67.0	93.0	96.0	RhTFIso05r01_3AT_18	RhTFIso05r01_3AT_18
6	5	682	566	123	0.00014346619399246632	0.0081279999999999998	0.00026634893211576952	0.00010470809691622034	0.00025896488527258872	9.5504363299504444e-08	0.018338742522535076	0.018880000000000001	77.905511811023615	101.85826771653544	103.29133858267717	65.811007871983477	90.760936895083233	94.760743321718934	77.0	100.0	102.0	66.0	91.0	95.0	RhTFIso05r01_3AT_18	RhTFIso05r01_3AT_18
7	5	805	562	123	0.00029880598918291892	0.010111999999999999	0.00042948792435910449	0.00013679160957334415	0.00041484185777205726	-4.5026307178467526e-07	0.014347659823886789	0.023807999999999999	80.170886075949369	103.17721518987342	104.87974683544304	64.891058382362445	89.454386758906054	93.888019654748817	79.0	101.0	102.0	65.0	89.0	94.0	RhTFIso05r01_3AT_18	RhTFIso05r01_3AT_18
8	5	928	559	123	8.5629484388450821e-05	0.0030079999999999998	0.00010476813934851478	0.000115980730763334	0.00017442628483094644	2.7615993664798945e-07	0.013018127330884109	0.013632	75.468085106382972	100.46808510638297	102.12765957446808	64.248491462318654	88.553922197971502	93.287906021312111	75.0	99.0	101.0	64.0	88.0	93.0	RhTFIso05r01_3AT_18	RhTFIso05r01_3AT_18
9	5	1047	558	123	0.00018201440464197521	0.0076800000000000002	0.00029147203934931187	0.0001272916300304702	0.00034478573800079195	-5.235158816550333e-07	0.014634606357887643	0.020544	80.091666666666669	102.625	103.64166666666667	63.906094808126412	87.853853595614325	92.39039019671074	80.0	101.0	103.0	64.0	88.0	92.0	RhTFIso05r01_3AT_18	RhTFIso05r01_3AT_18
10	5	1178	558	123	0.00022833843922614544	0.0068479999999999999	0.00030924226305414985	0.0001308851143157903	0.00076284377015122559	2.2503956694232722e-07	0.02051699303797045	0.016383999999999999	82.205607476635521	104.23364485981308	105.53271028037383	63.927954633329037	88.240108261373891	91.704987756154139	81.0	101.0	104.0	64.0	88.0	92.0	RhTFIso05r01_3AT_18	RhTFIso05r01_3AT_18
11	5	1297	558	123	0.00021682866996351472	0.0070400000000000003	0.00029414545850055956	0.00013483316033710603	0.00052067957291842355	-4.700410008977984e-07	0.027549042721211517	0.014336	81.299999999999997	103.47272727272727	105.16363636363636	65.276442152755394	89.406896551724131	92.132839187882695	80.0	101.5	103.0	65.0	89.0	92.0	RhTFIso05r01_3AT_18	RhTFIso05r01_3AT_18
12	5	1419	562	123	0.00075924503451490414	0.017029702970297031	0.00083813353741888296	0.0001473849482415571	0.001118810091060288	-7.5523407548661559e-07	0.033734591293276502	0.022415841584158415	84.88837209302325	107.84186046511628	106.03255813953488	67.004109589041093	90.861885576148268	95.09572925060435	82.0	104.0	104.0	67.0	91.0	95.0	RhTFIso05r01_3AT_18	RhTFIso05r01_3AT_18
1	6	66	685	123	0.017778614695698632	0.28864000000000001	0.017961536108839521	0.00024842373395272217	0.0011064290523927264	-9.1992712325770641e-08	0.022963286051876718	0.10054399999999999	87.573392461197344	114.1170731707317	111.47671840354768	70.147008547008554	95.724066576698149	97.129284750337376	88.0	115.0	111.0	70.0	96.0	97.0	RhTFIso05r01_3AT_18	RhTFIso05r01_3AT_18
2	6	190	690	123	0.063585284616494125	0.33017600000000003	0.06373405665770232	0.00084423313882030064	0.0055001242297247621	-4.0560654208200009e-07	0.013492557957827521	0.140288	125.30781159139369	148.30761775537894	133.13432835820896	69.680298108159761	94.848461685457679	95.300114656984519	133.0	155.0	135.0	70.0	95.0	96.0	RhTFIso05r01_3AT_18	RhTFIso05r01_3AT_18
3	6	310	691	123	0.045680370643590963	0.28320000000000001	0.045758200448569902	0.00068506329213318784	0.0034830629748540528	4.2991633021457777e-08	0.0083408567639127306	0.16524800000000001	114.1728813559322	140.05333333333334	128.23344632768362	68.969642857142858	94.468482142857141	94.759017857142851	118.0	144.0	130.0	69.0	94.0	95.0	RhTFIso05r01_3AT_18	RhTFIso05r01_3AT_18
4	6	428	688	123	0.014487463183964232	0.29120000000000001	0.014648420117848632	0.0001774860618127788	0.00052127305894465097	-5.2822326947382642e-07	0.019807720670551365	0.108736	84.099340659340655	110.21516483516484	108.18131868131869	68.56911963882618	94.032234762979684	95.372279909706549	83.0	109.0	107.0	69.0	94.0	95.0	RhTFIso05r01_3AT_18	RhTFIso05r01_3AT_18
5	6	563	685	123	0.017734197988648257	0.26451200000000002	0.01791549641558781	0.0002409508730647935	0.00085383383147616095	-3.2955322018529726e-07	0.014524199700478416	0.12102400000000001	87.700217759496738	114.8548270021776	112.21582385676264	67.93630351548903	93.094935607379043	95.79655412460842	86.0	113.0	111.0	68.0	93.0	96.0	RhTFIso05r01_3AT_18	RhTFIso05r01_3AT_18
6	6	682	690	123	0.00029716282399726491	0.011455999999999999	0.00035925686639101841	0.00010596237375750749	0.00021956979072413786	-1.8125243153457495e-08	0.039710831508549746	0.015232000000000001	78.586592178770957	103.28491620111731	100.79329608938548	66.723164573352321	91.428719409555868	94.96465104234106	77.0	102.0	100.0	67.0	91.0	95.0	RhTFIso05r01_3AT_18	RhTFIso05r01_3AT_18
7	6	811	682	123	0.00019681527897151506	0.0061440000000000002	0.00029687725142441202	0.00013771291542041795	0.0011699841188214592	-2.279191135255539e-07	0.015722498390158619	0.017728000000000001	79.833333333333329	104.88541666666667	105.08333333333333	65.606993367248378	89.750016098911715	94.00772747762251	76.0	103.0	102.5	66.0	90.0	94.0	RhTFIso05r01_3AT_18	RhTFIso05r01_3AT_18
8	6	922	685	123	2.8522870567829938e-05	0.0030720000000000001	8.738094510185277e-05	0.00011125266565130359	1.8934348182948939e-05	-3.7000682032199748e-07	0.012129457449159249	0.014272	72.729166666666671	101.91666666666667	98.291666666666671	65.087500802465172	88.897091866213003	92.94517557937985	73.0	102.0	98.0	65.0	89.0	93.0	RhTFIso05r01_3AT_18	RhTFIso05r01_3AT_18
9	6	1051	684	123	4.2352126980513036e-05	0.0041599999999999996	0.0001381053311288841	0.00012634935184208877	4.8941963304447323e-05	3.6831730047085127e-08	0.014917344034139567	0.014976	75.169230769230765	101.46153846153847	98.707692307692312	64.071529562982008	88.31503856041131	91.693508997429305	75.0	101.0	99.0	64.0	88.0	92.0	RhTFIso05r01_3AT_18	RhTFIso05r01_3AT_18
10	6	1168	683	123	0.00043704111657120255	0.010751999999999999	0.00056964384730266845	0.0001543612479079249	0.00093551943594261263	3.6675252294772928e-08	0.016942197298849531	0.022592000000000001	84.357142857142861	106.69642857142857	105.67261904761905	63.742576179077439	87.886588600634013	90.958594811412311	81.0	103.0	103.0	64.0	88.0	91.0	RhTFIso05r01_3AT_18	RhTFIso05r01_3AT_18
11	6	1290	690	123	0.0002796382468932293	0.011072	0.00039667625190102298	0.00012885964353665508	0.00017760332114372438	-2.5251848682046767e-07	0.020967382781182601	0.020608000000000001	79.809248554913296	101.53757225433526	103.93641618497109	63.890370178617651	87.803844162567955	91.756018638363969	79.0	101.0	103.0	64.0	88.0	92.0	RhTFIso05r01_3AT_18	RhTFIso05r01_3AT_18
12	6	1419	690	123	0.00051976573668694218	0.013940594059405941	0.00062378674515876237	0.00015799304631914133	0.00061980600528559464	-5.6527237780969793e-07	0.040048550984648511	0.018613861386138613	79.539772727272734	108.15340909090909	106.40909090909091	65.947947626315369	90.31440276327416	94.471282833962562	78.0	106.5	105.5	66.0	90.0	95.0	RhTFIso05r01_3AT_18	RhTFIso05r01_3AT_18
1	7	67	817	123	0.050041717487893357	0.40639999999999998	0.050241359232172399	0.00046288411200877383	0.010787031591914799	-3.4861418277389215e-07	0.005106577891104665	0.25299199999999999	105.97826771653543	129.86220472440945	122.47637795275591	71.147708894878704	96.30921832884097	97.010134770889493	104.0	129.0	118.0	71.0	96.0	97.0	RhTFIso05r01_3AT_18	RhTFIso05r01_3AT_18
2	7	190	813	123	0.038258458393689403	0.324544	0.038426691581996304	0.0005513853278062156	0.0045788191039363912	-3.804487660980804e-07	0.009205805150359167	0.16838400000000001	104.10136067836719	129.31295602445277	122.02524156971012	70.391131324616254	96.039511085844225	96.539795338260376	110.0	136.0	126.0	71.0	96.0	97.0	RhTFIso05r01_3AT_18	RhTFIso05r01_3AT_18
3	7	305	821	123	0.072276431856951845	0.36588799999999999	0.072477522250021006	0.00089577070395815831	0.0069770067530618577	-1.7788054910276144e-07	0.015716746721819212	0.13683200000000001	128.02203953122267	149.60661185936681	134.66590869337065	69.862333467904719	95.214876867178035	95.46437222446508	138.0	158.0	138.0	70.0	95.0	96.0	RhTFIso05r01_3AT_18	RhTFIso05r01_3AT_18
4	7	432	808	123	0.013801582970067774	0.24563199999999999	0.013923175026668108	0.00020853084429561995	0.00051363274389512245	-4.2058308250487836e-07	0.019945918846128764	0.099519999999999997	85.577123501823863	111.44658676393955	108.26263678999479	69.044455756341733	94.617544752693647	95.332569780266397	85.0	110.0	107.0	69.0	95.0	96.0	RhTFIso05r01_3AT_18	RhTFIso05r01_3AT_18
5	7	553	813	123	0.038701426658281524	0.27360000000000001	0.038812537634895602	0.00048435113971177031	0.0079151781495397609	4.5109765306486739e-07	0.0040257484896023092	0.233792	109.62081871345029	133.80116959064327	126.21777777777778	68.818149779735677	94.823876651982374	95.618414096916297	104.0	129.0	122.0	69.0	95.0	96.0	RhTFIso05r01_3AT_18	RhTFIso05r01_3AT_18
6	7	684	813	123	0.00047562253071190344	0.015296000000000001	0.00051322649851777923	8.9540466550460876e-05	0.00089835689257438452	1.9745795357353597e-07	0.037236691341398558	0.018176000000000001	80.410041841004187	104.07531380753139	102.89121338912133	68.337124658780709	92.961068503834653	95.707851293383598	79.0	101.0	101.0	68.0	93.0	96.0	RhTFIso05r01_3AT_18	RhTFIso05r01_3AT_18
7	7	805	813	123	0.0001955320654921335	0.0088959999999999994	0.0002744269759400899	0.00011957749171599293	7.7715961236727812e-05	1.4884164312462632e-07	0.030325095753401476	0.01536	79.352517985611513	101.4820143884892	101.38848920863309	67.13018209996126	91.372788324938654	95.205540488182876	79.0	102.0	101.0	67.0	91.0	95.0	RhTFIso05r01_3AT_18	RhTFIso05r01_3AT_18
8	7	926	816	123	0.0004430972389092228	0.011776	0.00054477579005643927	0.00014893001859892605	0.00088417038217063204	-2.8287444223440606e-07	0.033428446168689549	0.016832	82.733695652173907	104.76086956521739	106.02173913043478	65.887442523152643	90.348163979016903	93.395829285668029	81.5	103.0	105.0	66.0	90.0	93.0	RhTFIso05r01_3AT_18	RhTFIso05r01_3AT_18
9	7	1051	805	123	0.00014651236718919659	0.0042240000000000003	0.00017557565412673485	0.0001302472867075682	0.00049922708571037032	9.4458390021549666e-08	0.014765804279009871	0.015167999999999999	79.86363636363636	103.21212121212122	101.04545454545455	64.773250208882317	88.646828202326631	91.587377080789253	78.0	101.0	99.0	65.0	89.0	92.0	RhTFIso05r01_3AT_18	RhTFIso05r01_3AT_18
10	7	1177	812	123	0.00021259537037480927	0.0062719999999999998	0.00026030339192955492	0.00011225807108112433	0.00087834749507875504	-1.9553844706064779e-07	0.014744846448284849	0.018495999999999999	79.275510204081627	102.85714285714286	103.76530612244898	63.69633541572744	87.403426289688923	90.140658208282346	77.0	100.0	101.0	64.0	87.0	90.0	RhTFIso05r01_3AT_18	RhTFIso05r01_3AT_18
11	7	1290	810	123	0.00034815462521651879	0.0066559999999999996	0.00038809091129099878	0.00014899005592389349	0.0018473400418766172	-9.2052128475583639e-08	0.0078126179535832167	0.026176000000000001	85.355769230769226	105.99038461538461	105.03846153846153	64.032214419174025	87.506024096385545	90.748212099735838	80.0	101.0	100.0	64.0	87.0	91.0	RhTFIso05r01_3AT_18	RhTFIso05r01_3AT_18
12	7	1419	813	123	0.00025872062446425493	0.014178217821782179	0.00040640014422791819	0.0001037018957356609	0.00014525750842539343	-1.0849291728541117e-07	0.033274857100152246	0.020594059405940595	76.703910614525142	102.60893854748603	101.59217877094972	65.207456210830784	89.530371203599543	94.1347420858107	76.0	102.0	101.0	65.0	89.0	94.0	RhTFIso05r01_3AT_18	RhTFIso05r01_3AT_18
1	8	75	936	123	0.083933560891998507	0.52944000000000002	0.083905221816754541	0.00079419721831773895	0.009881613930101547	8.3089982340769184e-07	0.0051130516854736548	0.32263999999999998	117.52765185856754	140.11786038077969	129.69900271985495	71.108976538592316	96.56137368242095	96.97772866371983	130.0	152.0	137.0	71.0	96.0	98.0	RhTFIso05r01_3AT_18	RhTFIso05r01_3AT_18
2	8	181	936	123	0.040099150821350439	0.42752000000000001	0.040311287020686003	0.00039783862140924814	0.0039802555182474261	6.8885495968027669e-07	0.0071812715838176569	0.24464	96.330276946107787	122.64202844311377	118.21519461077844	70.704164337618778	96.320150922302957	97.770681945220787	98.0	124.0	119.0	71.0	96.0	98.0	RhTFIso05r01_3AT_18	RhTFIso05r01_3AT_18
3	8	305	936	123	0.018632507088894773	0.37919999999999998	0.018824300146694319	0.00018667467979033344	0.00088984384999364467	5.772761523218009e-07	0.02431977328014473	0.12520000000000001	84.056962025316452	110.87763713080169	109.60822784810127	70.092654639175251	96.091108247422682	97.641881443298971	84.0	110.0	109.0	70.0	96.0	98.0	RhTFIso05r01_3AT_18	RhTFIso05r01_3AT_18
4	8	428	936	123	0.091112914647912754	0.45911999999999997	0.091176920947775061	0.00087413414129912013	0.0058474984492147362	1.5434199251456033e-07	0.015630667858673973	0.17183999999999999	127.33002265202997	149.70099320439101	132.89405819829238	70.204407632007104	95.296553764236066	95.328945422274813	135.0	156.0	135.0	70.0	95.0	96.0	RhTFIso05r01_3AT_18	RhTFIso05r01_3AT_18
5	8	558	936	123	0.044983977810691501	0.37752000000000002	0.045132878711188651	0.0004945317205365988	0.0036885814130320359	2.6477672317193047e-07	0.0060491409790332873	0.25047999999999998	103.97880906971817	129.15024369569824	122.6533163805891	70.081994602236222	95.298804780876495	96.789615730625883	106.0	131.0	124.0	70.0	95.0	97.0	RhTFIso05r01_3AT_18	RhTFIso05r01_3AT_18
6	8	674	941	123	0.00050365865334748932	0.032926315789473685	0.00071021911772939416	6.4322443227030109e-05	0.00017448752769549502	-4.3014606057675281e-07	0.17408768814535278	0.014147368421052632	75.537084398976987	101.1611253196931	103.45780051150895	69.139498432601883	94.3950714036921	98.546934865900383	75.0	99.0	103.0	69.0	94.0	99.0	RhTFIso05r01_3AT_18	RhTFIso05r01_3AT_18
7	8	800	936	123	0.0010405583056813364	0.024400000000000002	0.0010953611244524772	0.00013540091118742422	0.0009232674938219708	2.2492007642148051e-07	0.030584626363589228	0.028320000000000001	83.321311475409843	105.74426229508197	106.9311475409836	68.281754817548176	93.164411644116441	97.158999589995901	81.0	103.0	105.0	68.0	93.0	97.0	RhTFIso05r01_3AT_18	RhTFIso05r01_3AT_18
8	8	928	933	123	0.00037227421635845678	0.010951456310679612	0.000449709973252468	0.00012671437856537503	0.00071554305630408272	4.1183139043186654e-07	0.014800513353475252	0.026873786407766991	79.702127659574472	104.17021276595744	104.45390070921985	66.038793780430339	90.833045390293705	94.225930579550806	78.0	102.0	102.0	66.0	91.0	94.0	RhTFIso05r01_3AT_18	RhTFIso05r01_3AT_18
9	8	1051	930	123	0.00037822113065986046	0.0090566037735849061	0.00050750114301574708	0.00013205998426937726	0.0032139458789565973	-6.545835055574429e-07	0.018565275145867657	0.021509433962264152	84.799999999999997	105.95	103.5	64.386747905559787	87.721553693830927	90.756740289413557	79.0	101.0	99.0	64.0	88.0	91.0	RhTFIso05r01_3AT_18	RhTFIso05r01_3AT_18
10	8	1173	936	123	1.9555735510552784e-05	0.00296	0.00012464907430393204	0.00013098689322958869	0.00037011691521926439	-1.0904026080284213e-07	0.0078740658221356733	0.019439999999999999	79.297297297297291	100.29729729729729	103.29729729729729	63.582845221856694	86.618149723180608	89.161197143544896	78.0	99.0	102.0	64.0	87.0	89.0	RhTFIso05r01_3AT_18	RhTFIso05r01_3AT_18
11	8	1288	933	123	0.00024871042170312492	0.0097087378640776691	0.00038269428970394957	0.00013256113295725302	0.00033687466137122171	-8.2310170142348739e-07	0.018172940982864736	0.022834951456310679	79.488	101.93600000000001	104.408	64.088235294117652	87.213254901960781	90.218509803921563	78.0	101.0	103.0	64.0	87.0	90.0	RhTFIso05r01_3AT_18	RhTFIso05r01_3AT_18
12	8	1416	936	123	0.0010795538540293401	0.018173076923076924	0.0012205054395303928	0.00023771411519122785	0.0010604106236437444	-3.6875997481762818e-07	0.021163234984307274	0.032211538461538458	84.735449735449734	111.05291005291005	112.02116402116403	63.766918029575947	88.144060327098231	93.704436392126141	82.0	109.0	110.0	64.0	88.0	94.0	RhTFIso05r01_3AT_18	RhTFIso05r01_3AT_18
