A01	0	0.0038079230145341295	Growth
A02	0	0.01725329902089176	Growth
A03	NA	0.0030574254778629054	Growth
A04	4	0.030203503458701788	Growth
A05	0	0.0067453653047360946	Growth
A06	0	0.0031170232099320102	Growth
A07	0	0.012939157669989099	Growth
A08	3	0.029686540257693371	Growth
A09	0	0.004478407558361399	Growth
A10	4	0.04502106721575079	Growth
A11	0	0.0023207677538966036	Growth
A12	4	0.04916016193600492	Growth
B01	0	0.016647515826774911	Growth
B02	4	0.065090987196371936	Growth
B03	0	0.0054419554840193941	Growth
B04	0	0.0049742195125228534	Growth
B05	4	0.065692191948163323	Growth
B06	0	0.0048258375719605427	Growth
B07	0	0.0062510531187684173	Growth
B08	0	0.0034933893774153112	Growth
B09	0	0.0023903149299744912	Growth
B10	0	0.0017177538047758961	Growth
B11	0	0.0021432752725110437	Growth
B12	0	0.0025915006274303109	Growth
C01	NA	0.0081076558669780762	Growth
C02	4	0.072380354913467337	Growth
C03	0	0.0075388669321066202	Growth
C04	0	0.0086263242327184117	Growth
C05	4	0.062840650172950333	Growth
C06	0	0.004017092282488228	Growth
C07	4	0.063316882079771694	Growth
C08	0	0.0043830769550959768	Growth
C09	2	0.025395742254376637	Growth
C10	1	0.010847508095683588	Growth
C11	0	0.0043494893077006087	Growth
C12	0	0.0033951969384580921	Growth
D01	4	0.083975032826974896	Growth
D02	0	0.0058595177543741732	Growth
D03	0	0.01109287720359668	Growth
D04	0	0.004275873705362465	Growth
D05	0	0.0033393521788974275	Growth
D06	0	0.0043956336790129833	Growth
D07	0	0.0023440212003360368	Growth
D08	0	0.0031103569116109689	Growth
D09	2	0.025382402996723528	Growth
D10	4	0.065408045152372613	Growth
D11	0	0.0017772846663503818	Growth
D12	NA	-3.0825624434155693e-05	Growth
E01	4	0.068544034625344197	Growth
E02	4	0.065566926651040511	Growth
E03	4	0.070508018702066494	Growth
E04	3	0.040037828183337107	Growth
E05	2	0.014906770986424036	Growth
E06	4	0.055576055567582293	Growth
E07	4	0.056961748381648893	Growth
E08	3	0.042296961327649651	Growth
E09	0	0.0016579550789696876	Growth
E10	0	0.0028202016774957813	Growth
E11	0	0.0031365409750581277	Growth
E12	0	0.0034286694084780175	Growth
F01	0	0.0058737960225855599	Growth
F02	1	0.021964164808991292	Growth
F03	NA	0.00041438020455063511	Growth
F04	0	0.0064040747922831974	Growth
F05	0	0.003645459747628955	Growth
F06	0	0.0042801111352022397	Growth
F07	4	0.047043355603185719	Growth
F08	4	0.056699998441965209	Growth
F09	0	0.0047598401120590231	Growth
F10	4	0.065133122061247314	Growth
F11	1	0.011717440880167516	Growth
F12	0	0.0035582540423618179	Growth
G01	0	0.0073787426808685037	Growth
G02	3	0.042143170943755207	Growth
G03	0	0.0066160394340304546	Growth
G04	0	0.0053177936670603136	Growth
G05	4	0.06218931532062609	Growth
G06	0	0.0041815934521846456	Growth
G07	2	0.013920217080275134	Growth
G08	0	0.0089189068379163898	Growth
G09	0	0.0032878160859827403	Growth
G10	0	0.0071000736366809069	Growth
G11	0	0.0029645793646677293	Growth
G12	NA	2.3646821379979617e-05	Growth
H01	0	0.014927841838189926	Growth
H02	0	0.0081917376233357521	Growth
H03	0	0.0061828452887993024	Growth
H04	0	0.0049375007497366877	Growth
H05	1	0.012054817670613885	Growth
H06	0	0.0055684402176822585	Growth
H07	0	0.0015524609172189296	Growth
H08	0	0.0056109273832612187	Growth
H09	4	0.074143177634611576	Growth
H10	0	0.00054753566379459474	Growth
H11	0	0.011615972315908822	Growth
H12	NA	0.0010973015704198029	Growth











I12	NA
