Column	Row	x	y	Diameter	Intensity	Area	Trimmed	FeatureMedian	FeatureVariance	BackgroundMedian	Circularity	Perimeter	redMean	greenMean	blueMean	redMeanBack	greenMeanBack	blueMeanBack	redMedian	greenMedian	blueMedian	redMedianBack	greenMedianBack	blueMedianBack	Barcode	Filename
1	1	62	70	124	0.0026360716793473399	0.148288	0.0029206028323098721	3.7860978347013083e-05	0.00076650005876934056	-1.328989634354237e-06	0.26257140666315143	0.021312000000000001	81.59300820025895	106.15494173500215	109.86447993094519	71.215509467989179	96.657499248572293	102.17891493838293	79.0	104.0	108.0	71.0	96.0	102.0	RhTFIso05r01_CHX_03	RhTFIso05r01_CHX_03
2	1	185	75	124	0.020655932045096904	0.22534399999999999	0.020911088048158031	0.00033700860885257244	0.0011303987643240332	-4.9942005943043637e-07	0.029437094952722714	0.078464000000000006	97.970462936665726	123.62908264697529	119.68986083499006	69.289738929279579	94.655155320555195	97.852362855254455	96.0	122.0	119.0	69.0	95.0	98.0	RhTFIso05r01_CHX_03	RhTFIso05r01_CHX_03
3	1	302	74	124	0.018205565734113981	0.22067200000000001	0.018600919388120737	0.00031121525064909436	0.0011078222297998071	-2.2520191508031486e-06	0.028454227649282241	0.078976000000000005	95.14588167053364	120.61397911832947	116.19373549883991	68.189537652952282	93.136651063480329	95.790835181079089	93.0	119.0	115.0	68.0	93.0	96.0	RhTFIso05r01_CHX_03	RhTFIso05r01_CHX_03
4	1	426	69	124	0.020828703145080719	0.232128	0.021222068212872845	0.00032074115546070159	0.0012153645270727093	-1.4943550349992445e-06	0.02722004676098741	0.082816000000000001	95.557485525227463	121.70057899090158	117.6696994761511	67.819386564427404	92.803467244540755	96.401900316719448	93.0	119.0	116.0	68.0	93.0	97.0	RhTFIso05r01_CHX_03	RhTFIso05r01_CHX_03
5	1	554	72	124	0.019870763328331646	0.23123199999999999	0.020250652772491044	0.00030421546435787809	0.0011165636035092728	-1.3005705626333037e-06	0.027798164330073455	0.081792000000000004	94.927484085247713	120.30085801273181	116.34016053141434	67.936729936729932	93.119880119880122	96.605477855477858	93.0	118.0	115.0	68.0	93.0	97.0	RhTFIso05r01_CHX_03	RhTFIso05r01_CHX_03
6	1	682	72	124	0.016969562015358319	0.24268799999999999	0.017393781803796953	0.00024162516519201651	0.00097119470193000326	-2.0426828080736519e-06	0.025992069763014113	0.086655999999999997	90.649261603375521	117.17352320675106	114.63765822784811	67.869010394659	93.020282261472161	95.727795149159135	88.0	115.0	113.0	68.0	93.0	96.0	RhTFIso05r01_CHX_03	RhTFIso05r01_CHX_03
7	1	798	72	124	0.017767096436844071	0.233984	0.018120674156365171	0.00026234712975383524	0.0011294235749066343	-1.5494436449984455e-06	0.023950605881008294	0.088639999999999997	91.536378555798692	117.96307439824945	114.58451859956236	67.464533377892892	92.747681510568967	95.154983707912109	89.0	116.0	112.0	67.0	93.0	95.0	RhTFIso05r01_CHX_03	RhTFIso05r01_CHX_03
8	1	932	72	124	0.019693882403723474	0.227328	0.020123404870784997	0.00031526600018173958	0.0012507180843191585	-1.5073184967626057e-06	0.022579388690920129	0.089983999999999995	94.885416666666671	121.15118243243244	117.43806306306307	66.972086473950142	92.347303901267296	93.981363372815366	93.0	119.0	116.0	67.0	92.0	94.0	RhTFIso05r01_CHX_03	RhTFIso05r01_CHX_03
9	1	1047	72	124	0.013993185113400124	0.22816	0.014470863790256767	0.00022301493632116736	0.0007908305770679317	-1.8589831869248834e-06	0.030447230599659533	0.077632000000000007	89.509396914446	114.32398316970547	111.08527349228612	67.78109452736318	92.206467661691548	93.526451077943619	88.0	112.0	109.0	67.0	92.0	94.0	RhTFIso05r01_CHX_03	RhTFIso05r01_CHX_03
10	1	1175	72	124	0.020069067485966052	0.23968	0.02056691444876756	0.00030681328056204519	0.0010669266344147357	-2.1489995313970515e-06	0.028858907857022904	0.081727999999999995	94.589052069425904	119.36769025367157	115.10547396528705	66.875420875420872	91.621632996632997	92.912710437710444	93.0	118.0	114.0	67.0	91.0	93.0	RhTFIso05r01_CHX_03	RhTFIso05r01_CHX_03
11	1	1290	64	124	0.0036102558432061435	0.12620799999999999	0.0043939279480244287	0.00012351688866284828	0.00034447627837855103	-3.1316865153677342e-06	0.040523156657001673	0.050048000000000002	82.15517241379311	108.36359026369168	106.18762677484787	67.640738299274886	92.491979784662718	93.432725408335159	82.0	107.0	105.0	67.0	92.0	93.0	RhTFIso05r01_CHX_03	RhTFIso05r01_CHX_03
12	1	1420	70	124	0.025437906819581944	0.3279111111111111	0.026005396723657707	0.00027518668283877827	0.0012238405712173786	-2.7625051066043545e-06	0.029955581774104761	0.11057777777777777	93.59392789373814	118.20466251016536	113.02060178910274	66.780187805845785	91.081867477846842	91.723449279195876	92.0	116.0	111.0	67.0	91.0	92.0	RhTFIso05r01_CHX_03	RhTFIso05r01_CHX_03
1	2	62	190	124	0.0040084267656552213	0.138624	0.0042749255697240472	4.2433163614044518e-05	0.001806784776820514	-8.7124264802027843e-07	0.13441362346025662	0.028799999999999999	83.402123730378577	109.39843028624192	112.07617728531856	71.230997845307968	97.384426777620916	102.49669366223345	79.0	104.0	109.0	71.0	97.0	102.0	RhTFIso05r01_CHX_03	RhTFIso05r01_CHX_03
2	2	193	189	124	0.030344472727831175	0.24736	0.030618489930724389	0.0003865987868109309	0.0056265448822527819	-6.9627668815217809e-07	0.015769035129422068	0.11232	106.72936610608021	132.25200517464424	127.50116429495472	70.160374149659859	94.90382653061225	98.487755102040822	99.0	126.0	122.0	70.0	95.0	99.0	RhTFIso05r01_CHX_03	RhTFIso05r01_CHX_03
3	2	311	187	124	0.020057759465718306	0.23391999999999999	0.020407677727806561	0.00032507196368691772	0.0011317144423932067	-1.276649007880664e-06	0.023135306586565214	0.090176000000000006	95.681532147742814	120.35759233926129	117.22407660738715	68.536925647451966	93.569507101086046	97.175355054302429	94.0	119.0	116.0	69.0	94.0	97.0	RhTFIso05r01_CHX_03	RhTFIso05r01_CHX_03
4	2	441	190	124	0.020339344236454372	0.212672	0.020698583922194109	0.00036369530038884475	0.0014448863850358288	-1.540573369603479e-06	0.023857257436467959	0.084671999999999997	97.385795967499249	124.03069515498044	120.3250075233223	68.654934157047634	93.633718094618757	97.494228580718584	96.0	123.0	119.0	69.0	94.0	98.0	RhTFIso05r01_CHX_03	RhTFIso05r01_CHX_03
5	2	561	198	124	0.017860897868930924	0.248	0.018241435147841541	0.0002534238051404398	0.00096528457859620367	-1.1619716973624913e-06	0.023001469576713451	0.093119999999999994	91.398193548387098	118.31948387096774	115.56258064516129	68.603063829787231	94.134978723404259	98.380425531914895	90.0	116.0	114.0	69.0	94.0	98.0	RhTFIso05r01_CHX_03	RhTFIso05r01_CHX_03
6	2	678	204	124	0.017280126795139988	0.24140800000000001	0.0175958967689036	0.00025441776557726293	0.0010244195059251791	-1.0807245677094775e-06	0.027080823066613649	0.084671999999999997	90.597826086956516	117.16940615058324	115.00821845174974	68.659664220028688	94.223656458280601	97.488230827638574	89.0	115.0	113.0	69.0	94.0	98.0	RhTFIso05r01_CHX_03	RhTFIso05r01_CHX_03
7	2	798	196	124	0.017394865323801779	0.23296	0.017795730494701047	0.00026109819083049824	0.0011897297578799463	-1.5162415431244279e-06	0.023708646221270276	0.088896000000000003	91.978571428571428	118.87307692307692	116.42115384615384	68.475260742594912	93.871422611597836	97.058239465999165	90.0	117.0	114.0	69.0	94.0	97.0	RhTFIso05r01_CHX_03	RhTFIso05r01_CHX_03
8	2	927	195	124	0.007631506566727439	0.212032	0.0080644176512901181	0.00011459704768400128	0.00074861451425955344	-2.0718893624028715e-06	0.047520346908754223	0.059903999999999999	84.133715665559919	110.09055236945366	109.33866586175671	68.239278752436647	94.067982456140356	96.160331384015592	82.0	108.0	108.0	68.0	94.0	96.0	RhTFIso05r01_CHX_03	RhTFIso05r01_CHX_03
9	2	1043	200	124	0.018262864673077694	0.24262400000000001	0.018620583396697081	0.0002713509421475863	0.0009147500731050553	-1.8519020138147902e-06	0.030833398163446997	0.079551999999999998	93.515431284621471	118.13611184384068	114.40253231337378	68.979043434172723	94.086361331755953	95.375274632415071	92.0	117.0	113.0	69.0	94.0	95.0	RhTFIso05r01_CHX_03	RhTFIso05r01_CHX_03
10	2	1177	196	124	0.013147755346660125	0.22944000000000001	0.013617366585761542	0.00019866066739033194	0.00082165553462064259	-2.174907439945e-06	0.03118100354960094	0.076927999999999996	88.848256624825666	114.07838214783821	110.78465829846583	68.018189368770763	93.091362126245841	94.440282392026575	87.0	112.0	109.0	68.0	93.0	95.0	RhTFIso05r01_CHX_03	RhTFIso05r01_CHX_03
11	2	1298	196	124	0.015128746814435802	0.232768	0.015514863512380786	0.0002345000966453405	0.0008996899191580309	-1.916490313014578e-06	0.037094302349179702	0.071040000000000006	89.965905966455864	115.15012372834754	111.12950233709101	67.534200867534196	92.745245245245243	93.805972639305978	89.0	113.0	109.0	68.0	93.0	94.0	RhTFIso05r01_CHX_03	RhTFIso05r01_CHX_03
12	2	1423	197	124	0.020243512921466894	0.32220689655172413	0.020747279673657429	0.00021637057459258737	0.00091373845303676705	-1.8346458694382263e-06	0.032554762553861978	0.10694252873563219	90.349600456621005	115.39954337899543	110.82420091324201	67.301858635191962	92.525573192239861	93.469949803283143	89.0	113.0	109.0	67.0	92.0	94.0	RhTFIso05r01_CHX_03	RhTFIso05r01_CHX_03
1	3	62	324	124	0.014664480883746613	0.31302400000000002	0.015203349461491279	0.00015695342298479456	0.0024828674070099337	-1.9710495948000073e-06	0.055430753786117101	0.067391999999999994	93.939889593130246	120.17685544878348	120.46759353915354	72.088317495807715	97.810881311719768	102.97969070244085	93.0	121.0	121.0	72.0	98.0	103.0	RhTFIso05r01_CHX_03	RhTFIso05r01_CHX_03
2	3	185	310	124	0.01857265139641338	0.230208	0.018695786413923988	0.00029595944142882073	0.0010649129651040029	-4.3541598081411459e-07	0.042114416805662136	0.066304000000000002	94.430358632193489	120.54350847928829	118.09674728940784	70.844030595277687	96.452194878616567	100.14033920851347	93.0	119.0	117.0	71.0	96.0	100.0	RhTFIso05r01_CHX_03	RhTFIso05r01_CHX_03
3	3	315	326	124	0.024652044461586232	0.24793599999999999	0.024913843812601501	0.00036604880839555265	0.0013637150777181944	-1.1046159616841252e-06	0.018012162401369367	0.105216	98.649716055756329	125.30691791430047	120.92540010325246	69.439111564973189	94.587949961705391	98.45630159135392	97.0	124.0	119.0	70.0	94.0	99.0	RhTFIso05r01_CHX_03	RhTFIso05r01_CHX_03
4	3	427	316	124	0.022543036370408994	0.22816	0.022761309244085665	0.00036073797012773127	0.0012774558556739692	-1.6092272106873672e-06	0.021755326028088454	0.091840000000000005	97.36886395511921	123.94081346423562	120.67882187938289	69.094610281923721	94.273963515754559	98.440298507462686	95.0	122.0	119.0	69.0	94.0	99.0	RhTFIso05r01_CHX_03	RhTFIso05r01_CHX_03
5	3	559	314	124	0.018112723742759806	0.23436799999999999	0.018410197144988805	0.0002839045160226277	0.00097147393679711475	-1.6909861960978216e-06	0.027021358576523123	0.083519999999999997	94.337247405789185	119.89568541780447	116.54259967231022	69.11652595502801	94.643734849118118	98.631781325754403	93.0	118.0	115.0	69.0	95.0	99.0	RhTFIso05r01_CHX_03	RhTFIso05r01_CHX_03
6	3	674	317	124	0.017726464820426439	0.22598399999999999	0.017950218201640614	0.00028154891918407083	0.0010650915226342735	-1.152275102626282e-06	0.029281375618946403	0.078784000000000007	93.476635514018696	119.49192863211555	116.82384593599546	69.310071109641143	94.696212998180911	98.944269885893831	92.0	118.0	115.0	69.0	95.0	99.0	RhTFIso05r01_CHX_03	RhTFIso05r01_CHX_03
7	3	796	323	124	0.022838453243030594	0.22809599999999999	0.023018492767088967	0.00038152859751296181	0.001426937480865231	-4.4719343254932652e-07	0.025587500903873555	0.084671999999999997	98.392536475869804	125.27777777777777	121.08417508417509	69.748859961860546	94.938893955725064	98.049747118812704	97.0	124.0	120.0	70.0	95.0	98.0	RhTFIso05r01_CHX_03	RhTFIso05r01_CHX_03
8	3	919	319	124	0.01692689969430948	0.229376	0.017241692133245157	0.00027504732429304733	0.00089814962257962901	-1.3943342466805857e-06	0.03290077601129613	0.074880000000000002	93.307756696428569	119.16127232142857	115.18666294642857	69.692052155136622	95.123411676771028	97.20405281953326	92.0	118.0	114.0	70.0	95.0	97.0	RhTFIso05r01_CHX_03	RhTFIso05r01_CHX_03
9	3	1043	326	124	0.013954656420863699	0.23494399999999999	0.014224166378492211	0.00021298356218607507	0.00069414302985763984	-1.3651849083311951e-06	0.040825143455539503	0.068031999999999995	89.795423590302363	115.2849359847453	112.04712612367203	70.205454241258153	95.406558474150913	96.919859461268189	88.0	114.0	111.0	70.0	95.0	97.0	RhTFIso05r01_CHX_03	RhTFIso05r01_CHX_03
10	3	1177	325	124	0.013443379926371761	0.231936	0.013828148832133392	0.00019226991152165109	0.00087334565131126358	-1.555939002380944e-06	0.034797336595339047	0.073216000000000003	89.196467991169982	114.13658940397352	110.91473509933775	69.388050995750348	94.436963586367796	95.824681276560284	87.0	112.0	109.0	69.0	94.0	96.0	RhTFIso05r01_CHX_03	RhTFIso05r01_CHX_03
11	3	1291	319	124	0.014276281566256625	0.23283200000000001	0.014643351378463357	0.00020841664875839971	0.00083356763089345489	-1.4429629565257407e-06	0.043175940764513907	0.065855999999999998	89.912589334799335	115.7913688840022	111.97223749312809	69.140318678568448	94.08851255526821	94.925252356719781	88.0	114.0	110.0	69.0	94.0	95.0	RhTFIso05r01_CHX_03	RhTFIso05r01_CHX_03
12	3	1420	317	124	0.018931722685351295	0.32133333333333336	0.019439847765909044	0.00019435942565291619	0.00087083027887510374	-2.4154345657592788e-06	0.038376059157139049	0.096711111111111109	89.951590594744118	114.81964038727524	110.99142461964038	68.295219384413883	93.688146692861821	94.033922724296005	88.0	112.0	109.0	68.0	94.0	94.0	RhTFIso05r01_CHX_03	RhTFIso05r01_CHX_03
1	4	62	443	124	0.012839107061119783	0.332096	0.013386015292388642	0.0001276192141465924	0.001653568421138279	-1.942455059960328e-06	0.081769363455104646	0.057152000000000001	89.410291000192714	116.6538832144922	117.85238003468876	72.526926025297044	98.393924875431196	103.94260252970487	89.0	117.0	118.0	73.0	98.0	104.0	RhTFIso05r01_CHX_03	RhTFIso05r01_CHX_03
2	4	185	436	124	0.018045148290306286	0.23455999999999999	0.018194013712761983	0.00027789921462355045	0.0011256664682778286	-7.5667810833774517e-07	0.035129572892680434	0.073279999999999998	94.935607094133701	120.60136425648022	118.28567530695771	71.413963210702335	96.698578595317727	100.73026755852842	93.0	119.0	117.0	71.0	97.0	101.0	RhTFIso05r01_CHX_03	RhTFIso05r01_CHX_03
3	4	309	438	124	0.0017076236747353907	0.02656	0.0018409338711705581	0.0002289178140439129	0.0016992819205160173	3.0947179189720384e-07	0.066045817618305955	0.017984	91.310843373493981	117.21686746987952	114.88192771084337	69.630571992110447	94.599408284023667	99.357593688362925	90.0	115.0	112.0	70.0	95.0	99.0	RhTFIso05r01_CHX_03	RhTFIso05r01_CHX_03
4	4	425	438	124	0.021773658272914116	0.22783999999999999	0.022001899022653405	0.00035010038809831022	0.0013475412859307414	-9.3172700150662091e-07	0.022694762718605495	0.089856000000000005	97.219662921348316	123.2876404494382	120.39887640449439	69.889763779527556	94.712971404890183	98.771073352673028	96.0	121.0	119.0	70.0	95.0	99.0	RhTFIso05r01_CHX_03	RhTFIso05r01_CHX_03
5	4	552	435	124	0.019396639347549729	0.22892799999999999	0.01961037623937309	0.000309213293061471	0.0010293625501341139	-7.2162173640780028e-07	0.027222157905532413	0.082239999999999994	96.017612524461839	121.86329326251048	118.93793681856305	69.887616201859231	94.900564409030551	99.482320717131472	95.0	120.0	118.0	70.0	95.0	100.0	RhTFIso05r01_CHX_03	RhTFIso05r01_CHX_03
6	4	674	443	124	0.019194433768122281	0.23161599999999999	0.019419244274980697	0.00029827931363187094	0.00097421988007910412	-3.8925974833045044e-07	0.030756102334394103	0.077824000000000004	94.743022934512297	120.54655982315556	117.05968499585521	69.526070298184237	95.283275029152094	99.379060469765122	93.0	119.0	115.0	70.0	95.0	100.0	RhTFIso05r01_CHX_03	RhTFIso05r01_CHX_03
7	4	804	442	124	0.00053695264866119956	0.018176000000000001	0.00076323832115139992	0.00015092846078420462	0.00037420141053666939	-7.3469235468514519e-07	0.092900074304404542	0.012544	83.943661971830991	108.78169014084507	108.98239436619718	69.886708819503298	95.378528127240727	98.800534515351018	83.0	108.0	108.0	70.0	95.0	99.0	RhTFIso05r01_CHX_03	RhTFIso05r01_CHX_03
8	4	918	443	124	0.01118686582214558	0.25945600000000002	0.011533123816848973	0.00014458977479312241	0.00062826766857530813	-1.6852536496666375e-06	0.044579808438170436	0.068416000000000005	85.417365564874203	111.88135175135669	110.80340404538727	69.962233169129718	95.83484573502723	98.187451387088416	84.0	110.0	109.0	70.0	96.0	98.0	RhTFIso05r01_CHX_03	RhTFIso05r01_CHX_03
9	4	1043	446	124	0.015058833354996169	0.256768	0.015285301978993686	0.00020462423751018677	0.00075209900574587632	-3.8561092815627059e-07	0.045991484201287347	0.067007999999999998	90.132103688933199	115.8227816550349	112.6530408773679	70.373030224748121	95.801429432532501	96.990872298286405	88.0	114.0	111.0	70.0	96.0	97.0	RhTFIso05r01_CHX_03	RhTFIso05r01_CHX_03
10	4	1171	439	124	0.012968409487663129	0.22847999999999999	0.013255999475190849	0.00019774161475091568	0.00076834602396321579	-1.741969153017296e-06	0.043460094291786384	0.065023999999999998	89.435014005602241	114.96414565826331	111.61988795518208	70.015346329323933	95.013023641642476	96.436250518457072	87.5	113.0	110.0	70.0	95.0	97.0	RhTFIso05r01_CHX_03	RhTFIso05r01_CHX_03
11	4	1292	442	124	0.013776011913833101	0.2336	0.014130108773905109	0.00020272286465681171	0.00076520033117711975	-2.5072220664526914e-06	0.043999854900575647	0.065343999999999999	90.261917808219181	115.54876712328767	111.74301369863014	69.972359081419626	94.878413361169109	95.732275574112734	88.0	113.0	110.0	70.0	95.0	96.0	RhTFIso05r01_CHX_03	RhTFIso05r01_CHX_03
12	4	1419	445	124	0.019657988594245442	0.32879120879120877	0.020137595647381074	0.00020657898054796399	0.00072363160455467767	-1.9104488028310407e-06	0.045799693907829321	0.089054945054945059	89.988235294117644	115.58181818181818	111.40427807486631	69.617288801571704	94.586509495743286	95.358349705304519	88.0	114.0	110.0	70.0	94.0	96.0	RhTFIso05r01_CHX_03	RhTFIso05r01_CHX_03
1	5	62	570	124	0.01677418135163081	0.34988799999999998	0.017032517931373836	0.00018342220146022427	0.0012353242521597123	-8.7475547053534516e-07	0.07485622463803504	0.061311999999999998	89.334369855496618	115.29284799707335	117.16133162612036	72.386296515062014	98.86936404804095	104.21884229178973	89.0	115.0	117.0	72.0	99.0	104.0	RhTFIso05r01_CHX_03	RhTFIso05r01_CHX_03
2	5	192	565	124	0.02007692913001928	0.241728	0.02030238244825525	0.00031428805407521476	0.0011377531234574578	-2.2996911793352768e-07	0.034436630842033522	0.075135999999999994	95.800105904156737	122.70399788191686	120.05692348424675	71.710921674544224	97.457207967589468	101.11385887913572	95.0	122.0	120.0	72.0	97.0	101.0	RhTFIso05r01_CHX_03	RhTFIso05r01_CHX_03
3	5	307	560	124	0.019136329349042653	0.23180799999999999	0.019396190330548489	0.00028736430519611054	0.0016092925672249998	-5.797247797951917e-07	0.027266744125080827	0.082687999999999998	96.150745444505802	122.34041965764771	118.84732192159028	70.438557027409814	95.827126551695414	99.684412230275768	94.0	120.0	117.0	70.0	96.0	100.0	RhTFIso05r01_CHX_03	RhTFIso05r01_CHX_03
4	5	426	567	124	0.017413422229107522	0.22739200000000001	0.01770749430861026	0.00027374808086609798	0.00095400491964399501	-1.1749857753297098e-06	0.035529888641877942	0.071744000000000002	93.061638052350133	119.27863777089783	117.11004784688996	70.276921802518217	95.133117958913189	99.64910536779324	91.0	118.0	116.0	70.0	95.0	100.0	RhTFIso05r01_CHX_03	RhTFIso05r01_CHX_03
5	5	554	574	124	0.015494171069312796	0.224832	0.015749069389307108	0.00025019791157851652	0.00084843929571975574	-1.4039082824000153e-06	0.032977770848253554	0.074048000000000003	92.105607742670088	118.27611727867919	115.23882721320808	70.359973579920734	95.940802509907527	99.81142668428005	91.0	117.0	114.0	70.0	96.0	100.0	RhTFIso05r01_CHX_03	RhTFIso05r01_CHX_03
6	5	673	570	124	0.017261728603308633	0.22233600000000001	0.01739310534307819	0.00028226494768445566	0.0009178186388556081	-8.1815141667057778e-07	0.028949625138120674	0.078591999999999995	93.655440414507765	119.10995970063328	116.86067933218192	70.655995391325817	95.930869887252072	99.850464982305979	92.0	118.0	115.0	71.0	96.0	100.0	RhTFIso05r01_CHX_03	RhTFIso05r01_CHX_03
7	5	807	561	124	0.021818234235415505	0.24019199999999999	0.021987196387582741	0.00033783915132835874	0.0010800380488832841	-5.3050320083500526e-08	0.024515203704649557	0.088768	96.930988542499335	122.4681588062883	118.99200639488409	71.204262129380055	96.420569407008088	98.300707547169807	96.0	121.0	118.0	71.0	96.0	98.0	RhTFIso05r01_CHX_03	RhTFIso05r01_CHX_03
8	5	927	559	124	0.015432118637176752	0.22860800000000001	0.015672230883809944	0.00024754704230910016	0.00087935285799445513	-8.1214678847043535e-07	0.044530122373544631	0.064255999999999994	92.971164613661813	117.49104143337065	113.50587905935051	70.596697917530904	96.193312868165606	97.778478387123542	92.0	116.0	113.0	71.0	96.0	98.0	RhTFIso05r01_CHX_03	RhTFIso05r01_CHX_03
9	5	1044	567	124	0.0186306131811875	0.22700799999999999	0.01876538728930802	0.00030401903537250608	0.00096447495375738459	-5.9708261422450291e-07	0.032011574669011771	0.075520000000000004	94.98111079785734	121.33464899915421	117.48153369044263	71.181652591488657	96.113843351548269	97.166583871501899	94.0	120.0	117.0	71.0	96.0	97.0	RhTFIso05r01_CHX_03	RhTFIso05r01_CHX_03
10	5	1177	570	124	0.015464714219163204	0.22611200000000001	0.01569889727099056	0.0002473743069287589	0.00085077110640015773	-7.2131232025886978e-07	0.037368056039500844	0.069760000000000003	91.581658647042175	116.63430512312482	112.46306255307104	71.213612305656639	95.634138273238506	97.145137280846839	90.0	115.0	111.0	71.0	96.0	97.0	RhTFIso05r01_CHX_03	RhTFIso05r01_CHX_03
11	5	1290	561	124	0.0036572331197087852	0.14176	0.0042493311071548062	9.5042255604883466e-05	0.0003551200146019761	-2.4931133919663793e-06	0.07731808586334879	0.038399999999999997	82.777878103837466	107.44424379232505	106.48081264108352	70.96316181953766	95.873154362416102	96.739149888143174	81.0	106.0	106.0	71.0	96.0	97.0	RhTFIso05r01_CHX_03	RhTFIso05r01_CHX_03
12	5	1423	564	124	0.024328767621917533	0.34262068965517239	0.024632226436424372	0.00025587100168549329	0.0008229813521021135	-1.2933834312397577e-06	0.037865451540019829	0.1022528735632184	92.940955448201819	117.67767042404724	113.59044551798175	70.280179046020422	95.297244369841934	95.27388445936495	91.0	116.0	113.0	70.0	95.0	96.0	RhTFIso05r01_CHX_03	RhTFIso05r01_CHX_03
1	6	62	690	124	0.011703351580145622	0.33158399999999999	0.012273086690078677	7.1793447191793655e-05	0.0017935080428940619	-9.844084181025904e-07	0.075438323501426791	0.059456000000000002	91.074696004632315	117.69137232194556	118.5020266357846	72.536576024511675	99.366813481424742	104.73075450019149	91.0	118.0	118.0	73.0	99.0	105.0	RhTFIso05r01_CHX_03	RhTFIso05r01_CHX_03
2	6	178	690	124	0.019602483108204206	0.248	0.019797863164639953	0.00030225086929798283	0.0012497535205100937	-1.2494471425219463e-06	0.039952450682171708	0.070655999999999997	95.874322580645156	121.66270967741936	119.45548387096774	71.489191489361701	98.050638297872339	102.06059574468085	95.0	121.0	119.0	71.0	98.0	102.0	RhTFIso05r01_CHX_03	RhTFIso05r01_CHX_03
3	6	309	682	124	0.018945981218564212	0.235904	0.019140410337974315	0.00029372416040375715	0.0010962071823869164	-1.2813808605416695e-06	0.034601782905397838	0.074048000000000003	94.768855127509497	120.87167661421596	116.85105805751492	70.327665633637665	96.252114917497281	99.821174302705415	93.0	119.0	116.0	70.0	96.0	100.0	RhTFIso05r01_CHX_03	RhTFIso05r01_CHX_03
4	6	434	690	124	0.02022853368360349	0.23750399999999999	0.020456242673048054	0.00032723100819861484	0.00099112417628977002	-1.0856166389938727e-06	0.031957069693960033	0.077312000000000006	95.95122608461331	121.98652654271086	118.55214227970897	71.006043310391135	96.216468020815853	99.638072855464159	95.0	121.0	118.0	71.0	96.0	100.0	RhTFIso05r01_CHX_03	RhTFIso05r01_CHX_03
5	6	556	686	124	0.017581153579223189	0.223552	0.017768781943211995	0.00028389451252670665	0.0010031555721242403	-4.6878720298173656e-07	0.038053962593028894	0.068736000000000005	95.398225021471518	120.30260521042084	117.50157457772688	71.135509396636991	96.745136828222883	100.08399274645565	94.0	119.0	117.0	71.0	97.0	100.0	RhTFIso05r01_CHX_03	RhTFIso05r01_CHX_03
6	6	671	690	124	0.018357305988314403	0.229824	0.018556231651641247	0.00030284188048371424	0.001061829365589303	-9.2653205766268308e-07	0.034722866171255612	0.072959999999999997	95.547201336675016	120.60651629072682	117.87774993038151	71.574455708824999	97.321838125311615	100.21140103041382	94.0	120.0	117.0	72.0	97.0	100.0	RhTFIso05r01_CHX_03	RhTFIso05r01_CHX_03
7	6	798	690	124	0.016994719298923756	0.23776	0.017105563184157846	0.00026258065035059586	0.00088759043722193916	-1.0273790162311041e-06	0.034337729988572978	0.074623999999999996	92.650605652759083	118.38061911170929	115.94051144010767	72.490596137699413	97.838371116708643	99.630310663308151	91.0	117.0	115.0	73.0	98.0	100.0	RhTFIso05r01_CHX_03	RhTFIso05r01_CHX_03
8	6	922	690	124	0.055753537867335785	0.30080000000000001	0.055869925921025257	0.00081714307462614965	0.0065302387490001473	-1.1716073963116346e-07	0.0058185688690090814	0.203904	125.09617021276595	147.76063829787233	136.55170212765958	72.749565217391307	97.66462242562929	98.24393592677346	131.0	154.0	139.0	73.0	98.0	98.0	RhTFIso05r01_CHX_03	RhTFIso05r01_CHX_03
9	6	1042	690	124	0.014223862109901238	0.23078399999999999	0.014441370261847407	0.00022191707056746043	0.00070433978789720452	-4.725357440231468e-07	0.04776586783620454	0.062336000000000003	91.762063227953405	116.81198003327788	113.60981697171381	72.432814710042436	97.1426907396622	98.734254097678672	90.0	116.0	112.0	72.0	97.0	99.0	RhTFIso05r01_CHX_03	RhTFIso05r01_CHX_03
10	6	1167	690	124	0.016542392162147493	0.23904	0.01673382804088978	0.00025781135239833419	0.00086452569104542704	-5.2990759594642636e-07	0.036306095090949363	0.072767999999999999	92.922088353413656	117.78768406961179	114.23078982597055	71.952733389402866	97.055508830950373	98.234314550042058	92.0	117.0	114.0	72.0	97.0	98.0	RhTFIso05r01_CHX_03	RhTFIso05r01_CHX_03
11	6	1298	690	124	0.017361731376484765	0.25465599999999999	0.017582748864621234	0.00024194987803622113	0.00076494080531446114	-1.1768155665542834e-06	0.04425040746651912	0.068031999999999995	92.492837396330742	117.89922090977633	113.25232470469967	71.728232869654818	96.705735874978529	96.917053065430196	91.0	116.0	112.0	72.0	97.0	97.0	RhTFIso05r01_CHX_03	RhTFIso05r01_CHX_03
12	6	1418	682	124	0.025093348349406176	0.34286956521739131	0.025383579377384741	0.00027045757204139894	0.00072125702079763152	-1.9034845500447559e-06	0.040653551752207237	0.096000000000000002	94.535632766928728	119.55363936089272	114.03474511793051	71.609898107714699	96.064311234616909	96.260288474262268	93.0	118.0	113.0	71.0	96.0	97.0	RhTFIso05r01_CHX_03	RhTFIso05r01_CHX_03
1	7	62	806	124	0.012960893924025935	0.35238399999999998	0.013592775609942112	8.5654143675910569e-05	0.0017950630657245165	-2.0977441959139619e-06	0.077315006774559408	0.060544000000000001	91.152197602615331	118.10134398837631	120.51598256447512	72.24725763415357	99.054550844945155	105.35764403597193	91.0	119.0	121.0	72.0	99.0	105.0	RhTFIso05r01_CHX_03	RhTFIso05r01_CHX_03
2	7	185	809	124	0.022207543653403047	0.25113600000000003	0.022294913474474393	0.00032600199226712293	0.0016525724942677979	-3.5560493943013207e-07	0.02578068796900353	0.088511999999999993	97.270387359836903	122.85830784913354	120.90978593272172	71.374412443380905	97.630715323476622	101.76514827792496	96.0	122.0	120.0	71.0	98.0	102.0	RhTFIso05r01_CHX_03	RhTFIso05r01_CHX_03
3	7	309	810	124	0.040848027938377919	0.256384	0.041033932629059758	0.00057396507066554867	0.0057660900095467685	-5.8903705065670489e-07	0.0059899662896119267	0.18553600000000001	116.40264603095358	140.4830254618073	131.71842236645031	70.589035200963934	96.254324812806615	98.33763662965832	113.0	137.0	128.0	71.0	96.0	99.0	RhTFIso05r01_CHX_03	RhTFIso05r01_CHX_03
4	7	436	813	124	0.018753096064317999	0.24127999999999999	0.019027165192007405	0.00029292720120438492	0.0010256880407676972	-1.3512753756518518e-06	0.038038451150529666	0.071424000000000001	94.985411140583551	120.49071618037135	117.19920424403183	71.069422184732176	96.460565162378742	99.314382117250105	94.0	119.0	117.0	71.0	96.0	100.0	RhTFIso05r01_CHX_03	RhTFIso05r01_CHX_03
5	7	550	806	124	0.016038565232153135	0.23264000000000001	0.016330647893001	0.00025364374039737878	0.0009801077400557706	-6.0397149474775285e-07	0.037207865656397512	0.070912000000000003	93.536726272352126	119.02145804676753	116.77909215955984	71.88023352793995	97.448707256046703	101.11317764804004	92.0	118.0	116.0	72.0	97.0	101.0	RhTFIso05r01_CHX_03	RhTFIso05r01_CHX_03
6	7	680	814	124	0.018380447428868699	0.27315200000000001	0.018530763845476823	0.00026169664006706848	0.0013130209735651949	1.2424466276484349e-06	0.04185442896503027	0.072447999999999999	93.038659793814432	117.98664479850046	116.45899718837863	73.295852778022365	99.194681694109363	102.2508585013648	93.0	118.0	116.0	74.0	99.0	103.0	RhTFIso05r01_CHX_03	RhTFIso05r01_CHX_03
7	7	795	817	124	0.02120876597473146	0.30380800000000002	0.021442393962625261	0.00028911877177089317	0.0018126988836829833	3.6163412323674056e-08	0.04156382040905892	0.076672000000000004	92.851906467242472	118.92374131030124	117.02127659574468	73.357050928479495	99.830391616105899	102.45651774223202	94.0	119.0	117.0	74.0	100.0	103.0	RhTFIso05r01_CHX_03	RhTFIso05r01_CHX_03
8	7	920	814	124	0.020331557427263027	0.31545600000000001	0.020558737490540165	0.00026498062085888373	0.0016790420913233703	5.0503917322456479e-07	0.061203001432929623	0.064383999999999997	92.205518360722252	117.84195577196186	115.10732400081153	73.97643979057591	99.70652580403889	101.95465594614809	92.0	119.0	115.0	74.0	100.0	102.0	RhTFIso05r01_CHX_03	RhTFIso05r01_CHX_03
9	7	1052	822	124	0.018492447490512289	0.276032	0.018695755004817207	0.0002540082224953267	0.0013269738921982749	-8.7050526135574854e-07	0.04681281738413226	0.068863999999999995	92.732668676095528	119.35149547878507	116.09135172733596	73.86421499292787	99.161598302687409	100.82248939179632	92.0	119.0	116.0	74.0	99.0	101.0	RhTFIso05r01_CHX_03	RhTFIso05r01_CHX_03
10	7	1177	814	124	0.017870683151351457	0.26969599999999999	0.018044701324994118	0.00025217773543448764	0.00094124464288398676	-5.5239642629462194e-07	0.051808627128206497	0.064703999999999998	93.067631703844327	118.2593735168486	114.37992406264831	73.347471737796866	98.586013495749711	99.784944351941107	92.0	118.0	114.0	73.0	99.0	100.0	RhTFIso05r01_CHX_03	RhTFIso05r01_CHX_03
11	7	1298	814	124	0.018881107499309217	0.255936	0.01900134089248904	0.00026846355711020441	0.00091594986173930057	4.1461847412910096e-07	0.058859602620385594	0.059136000000000001	94.847211802950739	119.74118529632408	115.52013003250812	72.84457250989162	97.98443144675727	98.945811113022529	93.0	118.0	115.0	73.0	98.0	99.0	RhTFIso05r01_CHX_03	RhTFIso05r01_CHX_03
12	7	1422	815	124	0.0007556694951686713	0.032545454545454544	0.00095005441496752397	9.5649008988419877e-05	0.00023598446419191438	-1.0279769685887551e-06	0.91811442447767022	0.0063636363636363638	83.265363128491614	107.17039106145252	105.51396648044692	72.569723736139821	97.933095282841578	98.699304641984583	82.0	106.0	104.5	73.0	98.0	99.0	RhTFIso05r01_CHX_03	RhTFIso05r01_CHX_03
1	8	64	938	124	0.020173784736328134	0.41515789473684211	0.020542944424776562	0.00020301384281620286	0.0029036062651987987	-2.5734149171710843e-07	0.047922101418575724	0.095747368421052637	92.629208924949296	120.00628803245436	123.0868154158215	71.562419006479487	98.486825053995673	105.32483801295896	90.0	117.0	122.0	72.0	98.0	105.0	RhTFIso05r01_CHX_03	RhTFIso05r01_CHX_03
2	8	186	938	124	0.02335501882193956	0.35141052631578945	0.023619140995846492	0.00023711816973733861	0.0009651742405411294	-1.8307942606125768e-06	0.048483232778957865	0.087578947368421048	92.015097052480229	118.82266954229571	118.11574406901509	71.089846793040763	97.28745780316801	101.54777979745521	90.0	117.0	117.0	71.0	97.0	102.0	RhTFIso05r01_CHX_03	RhTFIso05r01_CHX_03
3	8	308	938	124	0.019089368361670508	0.35031578947368419	0.019331400694399932	0.00018698882644071208	0.00093121235058991436	-1.4713445837044401e-06	0.051757235470145942	0.084631578947368419	88.51322115384616	115.00673076923077	113.07764423076924	70.138172391445238	95.648736228127021	98.564355152300706	87.0	113.0	112.0	70.0	95.0	99.0	RhTFIso05r01_CHX_03	RhTFIso05r01_CHX_03
4	8	426	938	124	0.020618170764264213	0.34197894736842105	0.020903714966797646	0.00021211270932041678	0.00089409973403357273	-2.3405379701674569e-06	0.043031560335732813	0.091705263157894734	89.733070672248218	115.19724205860625	113.00073873430189	70.395444074737654	95.381494753007416	98.687867929357566	88.0	114.0	112.0	70.0	95.0	99.0	RhTFIso05r01_CHX_03	RhTFIso05r01_CHX_03
5	8	556	938	124	0.018602562439291752	0.33473684210526317	0.018808159702401829	0.0001888473746311042	0.0010236461274114807	-2.0897576467803015e-07	0.067381503008922872	0.072505263157894739	88.751949685534598	114.93861635220125	114.50389937106918	72.04291139240506	97.426962025316456	101.60443037974683	86.0	113.0	113.0	72.0	97.0	102.0	RhTFIso05r01_CHX_03	RhTFIso05r01_CHX_03
6	8	675	938	124	0.024118007129558729	0.46762105263157894	0.024250754883765793	0.00020144218913232105	0.0011992028822059937	6.3693093190744415e-07	0.070768345205498392	0.083621052631578943	87.911579326490184	114.2375292634612	115.93174860435801	74.32647896235369	99.945428661815882	104.62116418854792	87.0	114.0	115.0	75.0	100.0	105.0	RhTFIso05r01_CHX_03	RhTFIso05r01_CHX_03
7	8	808	938	124	0.023917300920657761	0.55705263157894735	0.024044427040641241	0.00016686244884747204	0.001138706466316176	1.4487563561817975e-06	0.12891653437527381	0.067621052631578943	86.439002267573699	112.99501133786848	115.59909297052154	74.182699619771867	100.80608365019012	105.56121673003803	86.0	113.0	115.0	74.0	101.0	106.0	RhTFIso05r01_CHX_03	RhTFIso05r01_CHX_03
8	8	921	938	124	0.024873294965045544	0.49692631578947366	0.025001713150763015	0.00019298248536335456	0.0012148608680560484	-1.4283875050529452e-08	0.091142807797569184	0.075957894736842099	88.519572953736656	115.06456532791053	116.00050838840875	74.219618346166726	100.60344827586206	104.5975895547372	88.0	115.0	116.0	74.0	101.0	105.0	RhTFIso05r01_CHX_03	RhTFIso05r01_CHX_03
9	8	1051	938	124	0.017764705637176546	0.38197894736842103	0.017886922358699313	0.0001664812133325457	0.00076801612058018153	3.9698299407317201e-07	0.11056916284544116	0.060463157894736844	88.148809523809518	113.94907407407408	114.36750440917108	74.393786619430443	99.657991551982562	103.31489303719853	87.0	113.0	114.0	75.0	100.0	103.0	RhTFIso05r01_CHX_03	RhTFIso05r01_CHX_03
10	8	1176	938	124	0.023187528166342921	0.3800421052631579	0.023255963236707554	0.00022744029983046832	0.00090778435041382851	-1.0326131310926491e-06	0.088834495219466986	0.067284210526315794	91.718812319964542	117.40726789275426	115.19122534899181	73.142624286878572	99.425699538168971	101.36634066829666	91.0	117.0	115.0	73.0	99.0	102.0	RhTFIso05r01_CHX_03	RhTFIso05r01_CHX_03
11	8	1298	938	124	0.021458015809586693	0.34728421052631581	0.021435936743067343	0.00021710018466566291	0.00085405936785119558	8.6793386529082083e-07	0.1449192749902608	0.050357894736842108	90.680649854510179	117.52861299709021	115.42022308438409	72.996129531673333	98.56070184492323	100.85137401625596	89.0	116.0	115.0	73.0	98.0	101.0	RhTFIso05r01_CHX_03	RhTFIso05r01_CHX_03
12	8	1422	944	124	0.0020556196800035368	0.056690500510725231	0.002159077020046269	0.00011975443966651745	0.00064098331069370809	1.5696421168683406e-07	0.23834715505897189	0.019535240040858017	85.222972972972968	108.99099099099099	109.28378378378379	72.409447753113156	98.219951272333518	100.88440714672441	84.0	107.0	108.0	72.0	98.0	101.0	RhTFIso05r01_CHX_03	RhTFIso05r01_CHX_03
