Column	Row	x	y	Diameter	Intensity	Area	Trimmed	FeatureMedian	FeatureVariance	BackgroundMedian	Circularity	Perimeter	redMean	greenMean	blueMean	redMeanBack	greenMeanBack	blueMeanBack	redMedian	greenMedian	blueMedian	redMedianBack	greenMedianBack	blueMedianBack	Barcode	Filename
1	1	61	66	119	0.045128484739897119	0.29362748446144388	0.045727227723003867	0.00061375212356343863	0.0014708207264773907	-2.2968115286137483e-06	0.029774338239685803	0.092001912437675026	113.19213770644336	135.45568736915561	122.36217725052337	64.383001353703349	87.222200734867528	87.28089344420809	114.0	136.0	122.0	65.0	87.0	87.0	RhTFIso05r01_SCLW_34	RhTFIso05r01_SCLW_34
2	1	184	60	119	0.043433510746830703	0.29793046923024386	0.044139421879080022	0.00057404440444706276	0.0012366822858230985	-3.4485435488550896e-06	0.035649394263680224	0.084693668465268768	113.6767537826685	135.58092618065109	122.19646950939936	66.503064500437787	88.543340791905834	88.248856892693837	114.0	136.0	122.0	67.0	89.0	88.0	RhTFIso05r01_SCLW_34	RhTFIso05r01_SCLW_34
3	1	307	60	119	0.041674372496495284	0.2992281947954375	0.042193542938453323	0.00055169399187162793	0.0014400350177654197	-2.3282883576112751e-06	0.034677040603116362	0.086059695375998904	113.6651449440767	135.24081259986303	123.11937913718329	68.04025341130604	90.338206627680307	89.103703703703701	115.0	135.0	123.0	68.0	90.0	89.0	RhTFIso05r01_SCLW_34	RhTFIso05r01_SCLW_34
4	1	424	67	119	0.046092812154339094	0.32730004781094185	0.046589435098189948	0.00057581326617633433	0.0018460781569712308	-1.7881419491314444e-06	0.034929890261373123	0.089679666689433779	114.67675292153589	136.29444908180301	123.65734557595994	69.622601279317692	91.781906792567767	89.720073103868415	117.0	138.0	124.0	69.0	91.0	89.0	RhTFIso05r01_SCLW_34	RhTFIso05r01_SCLW_34
5	1	542	60	119	0.041593479820122431	0.31842087289119597	0.042203922232950997	0.00054731250054226019	0.0018892461227005709	-1.5347243085737975e-06	0.037978599140225278	0.084830271156341785	116.63041613041614	139.36765336765336	127.2895752895753	69.783645655877336	92.1429000901894	90.731736646958609	118.0	140.0	127.0	70.0	92.0	90.0	RhTFIso05r01_SCLW_34	RhTFIso05r01_SCLW_34
6	1	664	60	119	0.033012230991061819	0.3002527149784851	0.033898731474059342	0.00050610494682223884	0.0033525142925374348	-3.002105460613724e-06	0.04280661483702617	0.077590328529472036	115.98293903548681	138.76910828025478	126.86715195632394	69.628892142508548	92.251146900927282	90.989848706686189	118.0	139.0	127.0	69.0	92.0	90.0	RhTFIso05r01_SCLW_34	RhTFIso05r01_SCLW_34
7	1	797	60	119	0.044975708434182061	0.33221774468957038	0.045753882993522947	0.00058833331177625349	0.002857213491897128	-3.9109116762606902e-06	0.032613434314470856	0.093504542039478181	120.18153782894737	142.7578125	130.04029605263159	69.429579625652039	92.714227268078147	91.104735603968493	121.0	144.0	130.0	69.0	92.0	91.0	RhTFIso05r01_SCLW_34	RhTFIso05r01_SCLW_34
8	1	918	60	119	0.044773232374396427	0.33932108462536714	0.045792510034347013	0.00058489989832417411	0.0032941127963441127	-3.918902644802544e-06	0.034356717728944726	0.092070213783211535	120.53280998389694	143.36795491143317	130.4285426731079	69.274888865915429	92.540783624521865	91.685826527447531	123.0	145.0	131.0	69.0	92.0	91.0	RhTFIso05r01_SCLW_34	RhTFIso05r01_SCLW_34
9	1	1034	60	119	0.041509441132484018	0.32661703435557682	0.042252257021960928	0.00055711518874285908	0.0025473857363350742	-3.7456310654838198e-06	0.036850012649474906	0.087220818250119528	114.03701380175659	137.60121288163947	126.41886240066917	68.838624606958106	92.4266152753829	92.212597626534134	117.0	140.0	127.0	68.0	92.0	92.0	RhTFIso05r01_SCLW_34	RhTFIso05r01_SCLW_34
10	1	1153	60	119	0.034582862960021436	0.32518270609931016	0.035876191059062305	0.00047964071690628963	0.0031349061698520103	-4.5884256587886822e-06	0.050080392228147363	0.074653370671402222	114.71980676328502	138.84099978996008	127.94580970384374	67.444331983805668	92.238157894736844	91.497672064777333	118.0	141.0	129.0	67.0	92.0	91.0	RhTFIso05r01_SCLW_34	RhTFIso05r01_SCLW_34
11	1	1285	60	119	0.020709779812191027	0.30797076702411036	0.02233208885862762	0.00021763420889870164	0.0056735073125108084	-4.5118150154424931e-06	0.063989814688452384	0.064271566149853146	115.76801951652251	140.08050565535595	128.12153470836105	67.404066324516378	91.80527043031978	91.824318989340696	118.0	141.0	129.0	67.0	91.0	91.0	RhTFIso05r01_SCLW_34	RhTFIso05r01_SCLW_34
12	1	1407	60	119	0.042573991764936162	0.34125344352617082	0.044095574488389334	0.00061874526321355032	0.0056229356180566206	-4.9579415105321887e-06	0.04211010971730389	0.083746556473829198	122.95640766902119	146.35176589303734	134.50211907164481	63.870151594354418	88.449242028227914	91.659278619968632	123.0	146.0	133.0	63.0	88.0	91.0	RhTFIso05r01_SCLW_34	RhTFIso05r01_SCLW_34
1	2	61	180	119	0.045746185474341984	0.28857318489174238	0.046233983821488848	0.00063078044205137213	0.0015065267431384369	-2.1301528347905724e-06	0.032865895966282588	0.086811010176900488	117.39242603550296	138.30201183431953	122.26911242603551	66.457373271889395	88.756528417818743	86.651305683563749	119.0	139.0	121.0	66.0	89.0	87.0	RhTFIso05r01_SCLW_34	RhTFIso05r01_SCLW_34
2	2	177	179	119	0.043176348395028083	0.28993921180247251	0.043686339957547206	0.00058778870670421382	0.0014037142277338994	-2.5185936254056284e-06	0.027689086394058319	0.094802267604671808	115.40942285041226	137.34864546525324	121.9620730270907	67.281550596383227	89.669680646402469	87.405059638322427	116.0	138.0	122.0	67.0	89.0	87.0	RhTFIso05r01_SCLW_34	RhTFIso05r01_SCLW_34
3	2	306	183	119	0.046964759758879884	0.31384468274024996	0.047413626021482767	0.00060027652437460901	0.0013127229217510391	-2.416720430429449e-06	0.028515801281417962	0.097192814698449564	115.62763873775843	137.27290533188247	122.99238302502721	68.108799522197884	89.827593071869401	87.496416484172812	117.0	138.0	124.0	68.0	90.0	87.0	RhTFIso05r01_SCLW_34	RhTFIso05r01_SCLW_34
4	2	420	170	119	0.047684334311853933	0.30073082439724064	0.047968235545709496	0.00063933612333761313	0.0016819040303337055	-2.0434796835161163e-06	0.038875649879271605	0.081483505225052932	118.72723143311379	139.88303429479899	122.3334090392914	68.709611252197689	90.987595233444026	88.189001758155896	121.0	141.0	122.0	68.0	91.0	88.0	RhTFIso05r01_SCLW_34	RhTFIso05r01_SCLW_34
5	2	551	185	119	0.044472146758180155	0.29239806024178677	0.04488479626785577	0.00060480698482258237	0.0012834119834972339	-1.4890526568346845e-06	0.041322234981593257	0.077931835257154566	116.74772249474422	139.29175426302265	122.4846998364868	69.340830115830116	90.90386100386101	88.033204633204633	118.0	140.0	122.0	69.0	91.0	88.0	RhTFIso05r01_SCLW_34	RhTFIso05r01_SCLW_34
6	2	673	179	119	0.048678202156683455	0.31712314732600233	0.049142156961393783	0.00060891354467971571	0.0011377551589928313	-3.1291686859569984e-06	0.047440084660605085	0.075746192199986337	116.51798406202886	138.86861942709456	122.25608442817143	68.471594318863779	90.712742548509695	87.927885577115418	118.0	139.0	122.0	69.0	91.0	88.0	RhTFIso05r01_SCLW_34	RhTFIso05r01_SCLW_34
7	2	788	181	119	0.049908743278129553	0.313708080049177	0.050325070770672414	0.00063305145702561856	0.0012381038594306438	-2.0527611225132493e-06	0.041805226061929691	0.0802540810053958	118.25908991944263	139.92749836708035	122.94752884824733	68.049661624203821	90.400776273885356	87.550358280254784	119.0	141.0	122.0	68.0	90.0	88.0	RhTFIso05r01_SCLW_34	RhTFIso05r01_SCLW_34
8	2	913	179	119	0.056228866397267242	0.31650843521617378	0.05661539968553185	0.00070617679388308675	0.0017142755807652628	-1.113372289642596e-06	0.037629212778856454	0.084966873847414789	122.77341389728096	144.90828657747088	126.66681053085887	67.953932247426806	90.591186169681222	87.717497751573902	124.0	146.0	126.0	68.0	90.0	88.0	RhTFIso05r01_SCLW_34	RhTFIso05r01_SCLW_34
9	2	1036	173	119	0.045009641717333994	0.2801038180452155	0.045435330316027589	0.00063786210436730722	0.0013001217236654702	-1.8761945689564507e-06	0.04476104214302512	0.073287343760672086	117.63911241160693	140.00097537186053	124.39502560351134	67.46888045540797	90.804269449715363	88.509677419354844	119.0	140.0	124.0	67.0	91.0	88.0	RhTFIso05r01_SCLW_34	RhTFIso05r01_SCLW_34
10	2	1160	179	119	0.045796537003818256	0.29028071853015502	0.046312706281139898	0.00063163605793585867	0.001138979395814207	-3.1606794242733045e-06	0.040173547125848016	0.078751451403592646	116.5	138.76352941176469	124.10682352941177	66.576075449908572	90.218362044076599	87.724761813107492	117.0	139.0	124.0	67.0	90.0	87.0	RhTFIso05r01_SCLW_34	RhTFIso05r01_SCLW_34
11	2	1284	179	119	0.048735014128815778	0.29362748446144388	0.049274498699751479	0.00065941440300239284	0.0013497924304377345	-2.8355067766243046e-06	0.044809761141411344	0.074994877399084767	119.54035822284253	142.34542916957432	124.9539427773901	66.781860375169217	90.366466834268039	87.816863275962092	121.0	143.0	124.0	67.0	90.0	88.0	RhTFIso05r01_SCLW_34	RhTFIso05r01_SCLW_34
12	2	1399	172	119	0.05019473344686988	0.30011611228741208	0.050879432545595266	0.00066537059394940646	0.0012868426145706093	-3.6064870525114988e-06	0.042338718504340102	0.078000136602691075	119.83272644515247	142.67228038233955	126.16431497496586	65.494291012003515	89.629647701766373	89.366643895774374	121.0	143.0	126.0	65.0	89.0	89.0	RhTFIso05r01_SCLW_34	RhTFIso05r01_SCLW_34
1	3	61	299	119	-1.7727354140591531e-05	0.0	0.0			3.9190491228001505e-07	0.0	0.00020490403660952122				65.245679939894814	88.592650775220278	87.320674817293906				65.0	89.0	87.0	RhTFIso05r01_SCLW_34	RhTFIso05r01_SCLW_34
2	3	191	303	119	0.054186951052450499	0.33515470254764018	0.054642789758573326	0.00063833809436524382	0.0014477432908966757	-3.6529925816784794e-06	0.031505798640334058	0.095553582405573392	117.7546362339515	139.28021194212349	121.15630731607907	67.012430655434557	89.732689541812206	86.792377234436003	119.0	139.0	120.0	67.0	90.0	87.0	RhTFIso05r01_SCLW_34	RhTFIso05r01_SCLW_34
3	3	308	300	119	-3.1985917341871681e-06	0.0	0.0			-4.0151217200491792e-07	0.0	0.00027320538214602825				66.43398674953896	89.519636636841753	86.909500717164121				67.0	90.0	87.0	RhTFIso05r01_SCLW_34	RhTFIso05r01_SCLW_34
4	3	428	299	119	0.048561670300018532	0.31425449081346901	0.049041592128215614	0.00061300232632999305	0.0013000740352628948	-2.0087624068661962e-06	0.035124389505468145	0.087630626323338567	116.90697674418605	138.48989350141272	121.12845033688329	67.704183266932276	89.874402390438249	86.583266932270917	118.0	139.0	120.0	68.0	90.0	87.0	RhTFIso05r01_SCLW_34	RhTFIso05r01_SCLW_34
5	3	551	299	119	0.053693866037975865	0.32149443344033879	0.054211330719816299	0.00065959943407682534	0.001409979305925569	-3.9120083065295678e-06	0.037916582413593726	0.085308380575097334	120.50478011472275	141.67750159337157	122.77395368599957	67.912321320716728	90.011274411113348	86.67233742701832	121.0	142.0	121.0	68.0	90.0	87.0	RhTFIso05r01_SCLW_34	RhTFIso05r01_SCLW_34
6	3	673	299	119	0.038901297131680286	0.27231746465405371	0.039414403293371134	0.00056230233636661022	0.0010101424865797449	-2.7951764793775563e-06	0.044339375362908204	0.07260433030530701	114.46551291698019	135.27414095811386	120.0115374968648	67.843439083912145	89.700581941055006	86.632063074901438	115.0	135.0	119.0	68.0	89.0	87.0	RhTFIso05r01_SCLW_34	RhTFIso05r01_SCLW_34
7	3	789	295	119	0.047912850779877204	0.31322997063042141	0.048465918661302593	0.00059691946521483769	0.0011416245083343132	-3.2052445906046333e-06	0.037480083010829321	0.084693668465268768	115.11774967291757	137.06083733100741	120.29699084169211	67.154848334162111	89.37692690203879	86.485728493286928	115.0	137.0	120.0	67.0	89.0	86.0	RhTFIso05r01_SCLW_34	RhTFIso05r01_SCLW_34
8	3	918	299	119	-8.299445521770309e-05	0.0	0.0			2.0739443265160618e-07	0.0	0.00027320538214602825				66.689706987227652	89.313366573321488	86.867836896386862				67.0	89.0	87.0	RhTFIso05r01_SCLW_34	RhTFIso05r01_SCLW_34
9	3	1035	300	119	0.046519027212644178	0.30858547913393891	0.047106791711052518	0.00058983747270583569	0.0010285544132180595	-2.6409181409125346e-06	0.043917252375076085	0.077658629875008531	114.2220008853475	136.96525011066845	120.67729083665338	66.048108268299913	88.961770226217524	85.773980045441078	114.0	137.0	120.0	66.0	89.0	86.0	RhTFIso05r01_SCLW_34	RhTFIso05r01_SCLW_34
10	3	1161	299	119	0.048260865947155208	0.28843658220066937	0.04874296828224698	0.00066243150220560913	0.0012314327731972425	-2.1913609660175581e-06	0.045497070562790454	0.073765453179427634	119.0596732180914	140.63935590812218	122.9793985318494	65.466788251103864	88.465828373968137	85.399404876175851	120.0	141.0	122.0	65.0	88.0	85.0	RhTFIso05r01_SCLW_34	RhTFIso05r01_SCLW_34
11	3	1284	298	119	0.045148805038366289	0.28365548801311385	0.04572142108554527	0.00062468513035166635	0.0011625549156224387	-2.6000301709566437e-06	0.047336178831232333	0.071716412813332422	116.74091018540814	139.09053696123286	122.28822537924393	65.432780320366135	88.513253241800157	85.430873379099921	117.0	139.0	122.0	65.0	88.0	85.0	RhTFIso05r01_SCLW_34	RhTFIso05r01_SCLW_34
12	3	1400	299	119	0.053349104467273645	0.30558021993033263	0.053923808547778701	0.00069099911261622491	0.0013911028807559317	-2.6304703615803726e-06	0.039568841302646089	0.081415203879516423	121.91707644166294	143.36343316942333	124.4231113097899	65.244418215796202	88.282580898986922	86.362250418019087	124.0	144.0	123.0	65.0	88.0	86.0	RhTFIso05r01_SCLW_34	RhTFIso05r01_SCLW_34
1	4	61	420	119	0.047935119010434526	0.29267126562393281	0.048416282364657955	0.00064198013950438971	0.0015027095197939369	-2.6200391700802008e-06	0.032158230044342727	0.088381941124240151	118.04224037339557	140.02123687281212	122.59626604434072	66.441000386249513	89.365392043259945	86.750675936655085	119.0	140.0	121.0	66.0	89.0	87.0	RhTFIso05r01_SCLW_34	RhTFIso05r01_SCLW_34
2	4	188	414	119	0.04787052674050285	0.31650843521617378	0.04834940333802662	0.00059363304797156605	0.0012092020656625838	-2.8952285740922317e-06	0.036104260293223639	0.086742708831363979	113.71104876996115	136.40656020716443	120.93180837289599	67.128510042969921	90.158389127610675	87.02148496052763	114.0	136.0	120.0	67.0	90.0	87.0	RhTFIso05r01_SCLW_34	RhTFIso05r01_SCLW_34
3	4	311	418	119	0.049128507621087489	0.32340687111536098	0.049755163546165916	0.00059404111450558829	0.0011946172451632545	-3.2818289458640362e-06	0.039265735926284684	0.084078956355440201	116.5455121436114	139.18458289334743	122.04181626187962	67.718453462547956	89.970825762164338	86.941752473248542	117.0	139.0	121.0	68.0	90.0	87.0	RhTFIso05r01_SCLW_34	RhTFIso05r01_SCLW_34
4	4	422	409	119	0.042846685532076288	0.28406529608633291	0.043297983334511056	0.00058276437113370671	0.0012686791220385511	-2.4539596754949134e-06	0.035229315727362549	0.083191038863465613	114.64991584515508	137.77999519115173	120.26881461889877	67.505247090249952	89.785250906315582	86.683457355466516	115.0	137.0	118.0	67.0	90.0	87.0	RhTFIso05r01_SCLW_34	RhTFIso05r01_SCLW_34
5	4	551	412	119	0.046122213497866854	0.30202854996243428	0.046713866117259327	0.000598864356702292	0.0010355147871594747	-2.9400519655970915e-06	0.041510874662959642	0.079024656785738681	115.35526910900045	137.82587064676616	120.25802804161013	67.234660925726587	89.779724043448482	86.37440062628437	116.0	138.0	119.0	67.0	90.0	86.0	RhTFIso05r01_SCLW_34	RhTFIso05r01_SCLW_34
6	4	671	415	119	0.044802865173305874	0.29840857864899939	0.045327596221265566	0.00058810301213666665	0.0010331312515776316	-3.559773207372748e-06	0.043689863066806847	0.07656580834642443	113.970016021973	136.19089036392768	120.46898603799497	67.119353582554524	89.089661214953267	85.943633177570092	115.0	136.0	120.0	67.0	89.0	86.0	RhTFIso05r01_SCLW_34	RhTFIso05r01_SCLW_34
7	4	792	417	119	0.043931506835913334	0.28932449969264395	0.044355609583698836	0.00060197947487274051	0.0011454295082984434	-2.6000780505026142e-06	0.043281541809675451	0.075746192199986337	114.47025495750708	136.85741265344666	120.98984891406988	67.329264776549735	89.175300336376736	86.391446419990388	115.0	137.0	121.0	67.0	89.0	86.0	RhTFIso05r01_SCLW_34	RhTFIso05r01_SCLW_34
8	4	924	419	119	0.049121845353372301	0.31657673656171026	0.049787695234326378	0.00060722857934025678	0.0010473590035512323	-2.6878778178658634e-06	0.040046538862868332	0.08237142271702752	116.49708737864077	138.50960086299892	121.28716289104639	66.403158105136924	88.414051569058572	85.766640015990404	117.0	139.0	120.0	66.0	88.0	86.0	RhTFIso05r01_SCLW_34	RhTFIso05r01_SCLW_34
9	4	1037	409	119	0.050195512200173376	0.30783416433303734	0.050749025356016164	0.00063692999912578834	0.0011462069954311308	-1.7851964317023681e-06	0.041945479749524374	0.079366163513421212	115.78011981362326	139.16507654759263	121.05458176170401	65.589500690744032	88.160449970396684	85.181172291296619	116.0	139.0	120.0	66.0	88.0	85.0	RhTFIso05r01_SCLW_34	RhTFIso05r01_SCLW_34
10	4	1154	412	119	0.048490863129783561	0.29034901987569156	0.049043678460128255	0.00065461885082327201	0.0011575163795333437	-1.9572402670763716e-06	0.041104679502647616	0.077863533911618057	117.59774170783345	140.19430722183014	121.9792989884733	64.904427333974979	87.910202117420596	84.953512993262748	119.0	140.0	120.0	65.0	88.0	85.0	RhTFIso05r01_SCLW_34	RhTFIso05r01_SCLW_34
11	4	1278	411	119	0.046809311483813495	0.28269926917560279	0.047366812824999528	0.0006469523491876945	0.0012460971993364031	-2.4748758809501876e-06	0.039397188740830077	0.078478246021446624	117.72795361198357	139.67673351050979	121.8287025851655	64.981051228337463	88.094172538564081	85.008665016187393	119.0	140.0	120.0	65.0	88.0	85.0	RhTFIso05r01_SCLW_34	RhTFIso05r01_SCLW_34
12	4	1407	414	119	0.053790581937015046	0.30550964187327823	0.054405901363982136	0.00069369061841482386	0.0013315177945859248	-2.805647815483997e-06	0.040791753932167892	0.080509641873278234	120.98940486925157	142.65757439134356	123.32191163210099	64.951309004363353	88.008726695755655	85.147659658865535	121.0	143.0	122.0	65.0	88.0	85.0	RhTFIso05r01_SCLW_34	RhTFIso05r01_SCLW_34
1	5	61	537	119	0.048032345659715078	0.29526671675432004	0.048576080413268774	0.00063620583990269691	0.0014074847897735025	-3.3874598204700094e-06	0.038426549627454572	0.081210299842906911	117.47374508443211	140.46888734674994	123.0090215128383	64.922271758092648	89.089067648769145	86.245202558635398	118.0	140.0	122.0	65.0	89.0	86.0	RhTFIso05r01_SCLW_34	RhTFIso05r01_SCLW_34
2	5	184	540	119	0.043815026783053872	0.29342258042483438	0.044270887148044689	0.00057869568055321291	0.0012068703888642035	-2.0725285592461872e-06	0.037365018479521797	0.082098217334881499	113.98463687150839	137.13175046554935	120.65805400372439	66.759304011599809	90.228322861285648	86.999323344610929	114.0	137.0	120.0	66.0	90.0	87.0	RhTFIso05r01_SCLW_34	RhTFIso05r01_SCLW_34
3	5	297	532	119	0.047888722537270251	0.30243835803565328	0.048342777322718321	0.00061313997432586116	0.0012973376776709959	-2.2089855693555184e-06	0.038258052661225672	0.08237142271702752	116.25677506775068	139.22131887985546	122.44286359530263	67.519044355233532	90.640751982767057	87.339860961519634	116.0	139.0	121.0	68.0	91.0	87.0	RhTFIso05r01_SCLW_34	RhTFIso05r01_SCLW_34
4	5	422	541	119	0.049606667144504554	0.32306536438767841	0.050058693330636582	0.00059454899449225436	0.0011993660636983716	-3.0100097671235422e-06	0.041414971673656764	0.081825011952735463	115.8492600422833	138.68668076109935	122.00401691331923	67.66390878821511	89.974271012006866	86.789123196448386	116.0	139.0	121.0	68.0	90.0	87.0	RhTFIso05r01_SCLW_34	RhTFIso05r01_SCLW_34
5	5	546	530	119	0.04798725306796154	0.30298476879994535	0.048491109920172228	0.00061844760843800825	0.0012687536286710422	-2.9134877052895967e-06	0.041001930075184316	0.079639368895567247	119.10595130748422	139.16388638412985	122.20919747520288	67.399902008819211	89.535521803037724	86.520921117099462	119.0	139.0	121.0	67.0	89.0	86.0	RhTFIso05r01_SCLW_34	RhTFIso05r01_SCLW_34
6	5	676	534	119	0.053075835313004062	0.32545591148145619	0.053577560276256139	0.00063448189129083519	0.0012217851627956456	-2.1833983542698858e-06	0.04083047973907053	0.082712929444710065	116.44218258132214	138.91983210912906	121.47429171038824	66.876974483596598	88.882746051032811	86.022276225192385	117.0	139.0	120.0	67.0	89.0	86.0	RhTFIso05r01_SCLW_34	RhTFIso05r01_SCLW_34
7	5	796	532	119	0.045188361351927817	0.28242606379345675	0.045649026249373531	0.00061833398854039276	0.0012928508046057623	-2.3519714179261459e-06	0.044631603328155578	0.073697151833891125	116.04522370012091	138.71995163240629	121.68802902055623	66.579573577003615	89.301637159718254	86.243194365124694	116.0	138.0	120.0	66.0	89.0	86.0	RhTFIso05r01_SCLW_34	RhTFIso05r01_SCLW_34
8	5	910	535	119	0.046710175312070244	0.2889146916194249	0.047237928847435023	0.00063042517163056588	0.0011099518703929744	-2.1709720102207189e-06	0.042527183811767198	0.076360904309814903	116.32056737588653	139.34373522458628	121.40378250591017	65.65747766785131	88.502353280184423	85.748631255402941	117.0	139.0	120.0	66.0	88.0	86.0	RhTFIso05r01_SCLW_34	RhTFIso05r01_SCLW_34
9	5	1040	532	119	0.046065390964457255	0.28638754183457416	0.04656819494193614	0.00062447174285176028	0.0011989083515115111	-2.0230247880226807e-06	0.041929868582998651	0.07656580834642443	115.24159313140949	138.983067016456	121.42332458860005	65.113514548238896	88.504881316998464	85.469084992343028	116.0	139.0	120.0	65.0	88.0	85.0	RhTFIso05r01_SCLW_34	RhTFIso05r01_SCLW_34
10	5	1156	538	119	-1.5483924716250011e-05	0.0	0.0			-2.9538899471612187e-08	0.0	0.00027320538214602825				64.881155658766474	88.227716686018709	85.739088860050543				65.0	88.0	86.0	RhTFIso05r01_SCLW_34	RhTFIso05r01_SCLW_34
11	5	1281	540	119	0.051587221263610511	0.30735605491428181	0.05232788073857092	0.00065935451623116222	0.0012314769563216905	-4.1173832942351104e-06	0.039798789866318157	0.081415203879516423	120.25444444444445	142.25022222222222	123.49111111111111	65.172566808007105	88.188442954343756	84.657233014495617	121.0	142.0	122.0	65.0	88.0	85.0	RhTFIso05r01_SCLW_34	RhTFIso05r01_SCLW_34
12	5	1404	531	119	0.054469651364461323	0.31329827197595794	0.055082132279786249	0.00069045547635470587	0.0013265400384616468	-2.9361241802753261e-06	0.037976696908248599	0.08414725770097671	120.15107913669065	142.10922171353826	122.32744713320253	65.626815197931165	87.783170877262776	85.159538492142431	121.0	142.0	121.0	66.0	88.0	85.0	RhTFIso05r01_SCLW_34	RhTFIso05r01_SCLW_34
1	6	62	648	119	0.048624660769052752	0.29410559388019947	0.049175093070500664	0.00064242753883397342	0.0014049412907109989	-2.2859669245592392e-06	0.042602595378446281	0.076975616419643469	118.99489084997677	141.31862517417557	122.42568509057129	65.083502660861157	88.63754233188196	86.334397677793902	119.0	141.0	121.0	65.0	88.0	86.0	RhTFIso05r01_SCLW_34	RhTFIso05r01_SCLW_34
2	6	184	649	119	0.048210628176547345	0.3090635885526945	0.048621884695298601	0.00060607113471666839	0.0013035479346848527	-2.7305152944873668e-06	0.039291371895818265	0.082166518680418008	115.12685082872927	138.27624309392266	121.58342541436464	66.536575721629106	90.452846975088974	87.045670225385521	115.0	138.0	121.0	66.0	90.0	87.0	RhTFIso05r01_SCLW_34	RhTFIso05r01_SCLW_34
3	6	306	648	119	0.04758520162200764	0.31343487466703096	0.04802836847441256	0.00058119397992056866	0.0012436574241824758	-2.0882264865277599e-06	0.040314897728558854	0.081688409261662459	114.98016997167139	138.53541076487252	121.15864022662889	67.791086350974936	90.732391563867893	87.314166335057706	115.0	138.0	119.0	68.0	91.0	87.0	RhTFIso05r01_SCLW_34	RhTFIso05r01_SCLW_34
4	6	420	657	119	0.046321138369030734	0.29868178403114543	0.046797290581066291	0.00060426602930796415	0.0011806155983333682	-1.42760292660924e-06	0.043964864021006606	0.076360904309814903	115.82414818202606	137.96181111365195	121.29842213583352	67.49980522010128	89.996591351772494	86.778632645111031	116.0	138.0	120.0	67.0	90.0	87.0	RhTFIso05r01_SCLW_34	RhTFIso05r01_SCLW_34
5	6	549	654	119	0.047884228513386119	0.31309336793934839	0.048296072900153891	0.00059798550813490437	0.0011697388342474279	-8.7722721584855833e-07	0.042442662709736741	0.079571067550030739	114.94786212914485	137.32984293193718	120.07438917975567	66.76195684597792	89.777269563488119	86.606642139803128	115.0	137.0	119.0	67.0	90.0	87.0	RhTFIso05r01_SCLW_34	RhTFIso05r01_SCLW_34
6	6	668	652	119	0.046467397068791695	0.31432279215900555	0.046970328785165529	0.00056435482089449863	0.0011061392791382979	-1.8392864561879046e-06	0.03797748133468587	0.084283860392049728	113.79639287266406	135.96414602346806	120.81269013472404	66.295547365275425	89.592987349337577	86.368662217352323	113.0	135.0	120.0	66.0	89.0	86.0	RhTFIso05r01_SCLW_34	RhTFIso05r01_SCLW_34
7	6	796	652	119	0.042977814162307733	0.28748036336315824	0.043363810658986042	0.00057416966005619029	0.0011408231822497906	-1.7284737341495088e-06	0.039511368488556561	0.079024656785738681	113.29793300071276	136.26847232121645	120.07008790686623	66.812979294478524	89.660755368098165	86.253355061349694	113.0	135.0	119.0	67.0	89.0	86.0	RhTFIso05r01_SCLW_34	RhTFIso05r01_SCLW_34
8	6	920	648	119	0.051747548149455529	0.33385697698244654	0.052304604861767447	0.00060598717560671244	0.001097798711381747	-2.4383365843609815e-06	0.042372890174354888	0.082234820025954516	114.92021276595744	137.69987725040917	120.98179214402619	65.988516353942373	88.756280118937767	85.577360812057833	115.0	137.0	120.0	66.0	88.0	86.0	RhTFIso05r01_SCLW_34	RhTFIso05r01_SCLW_34
9	6	1032	656	119	0.044446705807706884	0.2876852673997678	0.045028908096564076	0.00060010137349594676	0.0011291498877301776	-2.6850038581248373e-06	0.043427025102788966	0.075404685472303806	115.12037037037037	138.22103513770182	120.87179487179488	65.508677725572923	88.363409722888107	85.478857033272604	115.0	138.0	120.0	65.0	88.0	85.0	RhTFIso05r01_SCLW_34	RhTFIso05r01_SCLW_34
10	6	1155	652	119	0.046797308552510172	0.29314937504268834	0.047397639564232014	0.00062198168746917563	0.0012191132268981532	-3.4738558771261738e-06	0.03745476574779831	0.081961614643808481	115.58737185461324	138.99184529356944	121.49184529356943	65.170161368248145	88.283119141946088	85.066769736206396	116.0	139.0	120.0	65.0	88.0	85.0	RhTFIso05r01_SCLW_34	RhTFIso05r01_SCLW_34
11	6	1280	652	119	0.047519838449044401	0.29301277235161532	0.048207738680341908	0.00063240194473883045	0.0011966717898798558	-3.0276979054083001e-06	0.039381788250128461	0.079912574277713269	117.85384615384615	140.5951048951049	121.21911421911422	64.917592503139787	88.161337068882233	84.500821176697897	118.0	140.0	120.0	65.0	88.0	85.0	RhTFIso05r01_SCLW_34	RhTFIso05r01_SCLW_34
12	6	1407	649	119	0.055273907988523323	0.31577134986225897	0.055923287683049307	0.00068893020969240291	0.0014257356618842185	-2.9247921151157672e-06	0.037960138505410905	0.084848484848484854	121.49923664122137	143.09029443838605	122.17797164667394	65.247408152994467	88.068142929038757	84.993658782083543	123.0	143.0	121.0	65.0	88.0	85.0	RhTFIso05r01_SCLW_34	RhTFIso05r01_SCLW_34
1	7	61	776	119	0.052081234017127574	0.30646813742230722	0.052663221570786428	0.00065839065467614068	0.0014452638908461063	-3.4472935780525645e-06	0.041759344938122001	0.079366163513421212	119.77624247827056	142.99331401827502	122.97058168041008	64.777230648020478	89.025014772503454	86.146937167618674	120.0	143.0	121.0	65.0	89.0	86.0	RhTFIso05r01_SCLW_34	RhTFIso05r01_SCLW_34
2	7	184	781	119	0.047600854939741505	0.30202854996243428	0.048036425590094078	0.00061477956387110473	0.0011931772211428186	-2.4885221966109759e-06	0.046514491584303222	0.074653370671402222	116.04002713704206	139.07869742198099	120.85119855269109	66.22967022213524	90.457774733339861	86.650944319405028	116.0	139.0	120.0	66.0	90.0	87.0	RhTFIso05r01_SCLW_34	RhTFIso05r01_SCLW_34
3	7	304	772	119	0.042828666712146635	0.32169933747694829	0.04323316107059319	0.00051225009580446019	0.0010195829110871105	-1.8083991926910219e-06	0.040829851211377152	0.082234820025954516	109.60233545647559	133.50339702760084	118.13694267515923	67.259691873930123	90.927600443057088	86.897190615245194	110.0	133.0	117.0	67.0	91.0	87.0	RhTFIso05r01_SCLW_34	RhTFIso05r01_SCLW_34
4	7	421	777	119	0.046871318253674604	0.3031896728365549	0.047272410681141332	0.00059333153018990793	0.001156592786231369	-8.6754647707341138e-07	0.041887398782578543	0.078819752749129154	115.50867312457761	138.59247578283396	120.94097769767966	67.076749656930019	90.089786316408549	86.420799843168012	116.0	138.0	119.0	67.0	90.0	86.0	RhTFIso05r01_SCLW_34	RhTFIso05r01_SCLW_34
5	7	544	767	119	0.044803957532050673	0.30032101632402158	0.045296651266047289	0.00057844323105473653	0.0010713061550012496	-2.8034793214208112e-06	0.044048414852788008	0.076497507000887921	113.9542870138731	136.74755515123948	119.82237889470093	66.884224912143694	89.675517376024985	86.211733697774307	114.0	137.0	118.0	67.0	89.0	86.0	RhTFIso05r01_SCLW_34	RhTFIso05r01_SCLW_34
6	7	670	780	119	0.049268296954744689	0.31760125674475786	0.049654292554298693	0.00059942967856278892	0.0011453921900255839	-1.8879475939899421e-06	0.038560859990965944	0.084078956355440201	114.48215053763441	137.49827956989247	119.90064516129033	66.328996096486833	89.649884896406761	85.963367030327291	114.0	137.0	118.0	66.0	89.0	86.0	RhTFIso05r01_SCLW_34	RhTFIso05r01_SCLW_34
7	7	795	768	119	0.042450837063552342	0.2918516494774947	0.0429000462068597	0.00056275571708595102	0.0010308892137530468	-1.8403152939696012e-06	0.043580960664845993	0.075814493545522846	112.8654341212263	136.51579686402997	119.51088228410953	66.596450617283949	89.822241512345684	86.536168981481481	113.0	136.0	119.0	67.0	89.0	86.0	RhTFIso05r01_SCLW_34	RhTFIso05r01_SCLW_34
8	7	910	774	119	0.047890861676168232	0.31077112219110714	0.048496633284454735	0.00059807913679134816	0.0010704005791952157	-2.9951235155460684e-06	0.042345669594039473	0.079366163513421212	114.38109890109889	137.86747252747253	120.15230769230769	65.673966901199094	88.923397086512736	85.410861163412946	115.0	138.0	118.0	66.0	89.0	85.0	RhTFIso05r01_SCLW_34	RhTFIso05r01_SCLW_34
9	7	1044	772	119	0.046491800350415016	0.29144184140427565	0.047051971751669877	0.00062287057816771225	0.0011660618985506106	-2.7564219308773069e-06	0.041844622397793851	0.077317123147326	115.91750644480899	138.71010077337709	120.56526833841106	65.410063620589938	88.372469635627525	85.29901677270098	116.0	138.0	119.0	65.0	88.0	85.0	RhTFIso05r01_SCLW_34	RhTFIso05r01_SCLW_34
10	7	1156	770	119	0.048323940962096662	0.28850488354620585	0.048871452731949164	0.00064825694999308631	0.0012112923626350068	-2.3094756038257887e-06	0.039927779543431061	0.078751451403592646	117.65293560606061	140.35511363636363	121.31889204545455	65.075453585485263	88.227032734952488	84.518191417874633	118.0	140.0	120.0	65.0	88.0	85.0	RhTFIso05r01_SCLW_34	RhTFIso05r01_SCLW_34
11	7	1281	780	119	0.051480094894807461	0.30715115087767231	0.052089022188027072	0.0006591268982965217	0.0012507080926201619	-3.1249571472595303e-06	0.039839073383974265	0.081346902533979915	118.2243718034245	140.83166555481432	121.41160773849232	65.449723974763401	88.244775236593057	84.758675078864357	119.0	141.0	120.0	65.0	88.0	85.0	RhTFIso05r01_SCLW_34	RhTFIso05r01_SCLW_34
12	7	1404	779	119	5.972303692689931e-06	0.0	0.0			4.4151744723042478e-07	0.0	0.00020490403660952122				64.84345331603032	88.174236732463626	85.549620927532274				65.0	88.0	85.0	RhTFIso05r01_SCLW_34	RhTFIso05r01_SCLW_34
1	8	61	898	119	0.05206198464441586	0.30913188989823098	0.052630915302270882	0.00064638943342157774	0.0014818938199121225	-3.2369179084310479e-06	0.042340652030803394	0.079161259476811699	119.80755634114009	142.65841802916484	122.98276623950508	64.707958477508654	88.847553138902626	85.923084527928822	120.0	142.0	121.0	64.0	89.0	86.0	RhTFIso05r01_SCLW_34	RhTFIso05r01_SCLW_34
2	8	184	898	119	0.049635252600781075	0.30366778225531044	0.049997918064256325	0.0006368944681342262	0.00132788411925116	-2.4637332575139225e-06	0.041023962857061683	0.079707670241103756	116.83850652271705	140.50922177237968	121.15294646873595	66.394997547817553	90.720058852378614	86.291417361451693	117.0	140.0	119.0	66.0	91.0	86.0	RhTFIso05r01_SCLW_34	RhTFIso05r01_SCLW_34
3	8	298	899	119	0.047261405849207905	0.30346287821870088	0.047680418637292714	0.00060026868601562294	0.0012012133640473225	-2.7270278729413723e-06	0.042364530830468532	0.078409944675910115	115.77492685122665	139.28651811838847	120.0245329732163	67.009805844283193	90.613453618356544	86.727495587370072	116.0	139.0	118.0	67.0	90.0	87.0	RhTFIso05r01_SCLW_34	RhTFIso05r01_SCLW_34
4	8	425	889	119	0.046611341890752479	0.29963800286865649	0.047045657323667694	0.00060322301530871399	0.0012375149248867816	-1.54257453938579e-06	0.041976697066961562	0.078273341984837097	115.24686573968543	138.41691360838843	119.56051971734671	66.542129900526618	90.216890969377801	86.098790715818211	115.0	138.0	118.0	66.0	90.0	86.0	RhTFIso05r01_SCLW_34	RhTFIso05r01_SCLW_34
5	8	542	894	119	0.047092833235092155	0.29909159210436448	0.047572668831116292	0.00061172814401786802	0.0012369487990893024	-1.8034115701846877e-06	0.041036252218761143	0.07909295813127519	116.73235898606988	139.86983329527288	120.48983786252569	66.486649775872152	89.954784642369901	86.057103878386286	117.0	140.0	119.0	66.0	90.0	86.0	RhTFIso05r01_SCLW_34	RhTFIso05r01_SCLW_34
6	8	671	890	119	0.053417453134718476	0.31336657332149442	0.053889501694540473	0.0006587617766056794	0.0014468460557335867	-2.8392099126083973e-06	0.039443974696722395	0.082576326753637047	120.39167393199651	142.93134263295553	123.21774193548387	66.33651646274744	89.584701084253453	85.993036904406651	120.0	142.0	121.0	66.0	89.0	86.0	RhTFIso05r01_SCLW_34	RhTFIso05r01_SCLW_34
7	8	788	891	119	0.050683083783590752	0.30243835803565328	0.051135740848831969	0.00065479089371986627	0.0014453079531578008	-2.5614733860592684e-06	0.04467752299590063	0.076224301618741885	118.49864498644986	141.09575429087624	121.85140018066848	66.505532164887882	89.624694017428766	86.051992558503869	118.0	141.0	120.0	66.0	89.0	86.0	RhTFIso05r01_SCLW_34	RhTFIso05r01_SCLW_34
8	8	916	889	119	0.047384042175191592	0.29915989344990096	0.048015401847279357	0.00062504275764393286	0.0011128730005459696	-3.9071463014164628e-06	0.043878111679602337	0.076497507000887921	116.07100456621005	139.32305936073058	120.38333333333334	65.40424909852841	88.974856251827305	85.1862391579768	116.0	139.0	119.0	65.0	89.0	85.0	RhTFIso05r01_SCLW_34	RhTFIso05r01_SCLW_34
9	8	1040	887	119	0.044694971273419912	0.29178334813195822	0.045257932420903285	0.00058645040566471717	0.0011010577380985928	-2.4693308264435332e-06	0.038751470058406623	0.080390683696468818	113.40987827715355	136.94475655430711	119.45973782771536	65.208313241392617	88.705950429163849	85.160381907609221	113.0	136.0	118.0	65.0	89.0	85.0	RhTFIso05r01_SCLW_34	RhTFIso05r01_SCLW_34
10	8	1165	887	119	0.045378852336521253	0.29157844409534867	0.04599997697110457	0.00061225440485146714	0.0011391207389684643	-2.8962606696189982e-06	0.044823046894227205	0.074721672016938731	114.9557273366128	138.31553056921996	119.69688451628016	65.061608175858083	88.276417277284992	84.58657925183185	116.0	138.0	118.0	65.0	88.0	85.0	RhTFIso05r01_SCLW_34	RhTFIso05r01_SCLW_34
11	8	1278	892	119	0.053388298098100501	0.31459599754115158	0.05399020260273197	0.00066816683315483406	0.0012540497626902266	-2.4207672454820649e-06	0.043014791208188428	0.079229560822348194	119.59335649153279	142.09009986973513	121.42227529309596	65.473143996013945	88.432087693074237	84.498953662182359	120.0	142.0	120.0	65.0	88.0	85.0	RhTFIso05r01_SCLW_34	RhTFIso05r01_SCLW_34
12	8	1400	896	119	3.2923285566523531e-06	0.0	0.0			3.5928608091924727e-07	0.0	0.00013660269107301413				64.761013591967767	88.50262960180315	85.693395259886614				65.0	89.0	86.0	RhTFIso05r01_SCLW_34	RhTFIso05r01_SCLW_34
