Column	Row	x	y	Diameter	Intensity	Area	Trimmed	FeatureMedian	FeatureVariance	BackgroundMedian	Circularity	Perimeter	redMean	greenMean	blueMean	redMeanBack	greenMeanBack	blueMeanBack	redMedian	greenMedian	blueMedian	redMedianBack	greenMedianBack	blueMedianBack	Barcode	Filename
1	1	66	69	123	0.011111433356140357	0.30086400000000002	0.011331480397499283	0.00012322138787774803	0.00036588086543118631	-1.8663074687506034e-07	0.013680722343081438	0.132992	85.786853860880669	109.41203999149117	103.32205913635397	73.049249359209085	97.519498352251929	93.778652508238736	84.0	108.0	102.0	73.0	98.0	94.0	RhTFIso05r01_CHX_36	RhTFIso05r01_CHX_36
2	1	186	64	123	0.0091999311333548044	0.261376	0.009395234745686161	0.00011980744832703714	0.00031461508639034298	-5.7538778342138912e-07	0.013538286310136665	0.124608	85.398139079333987	108.88956904995104	103.14911851126347	72.964647777488949	96.977384975305426	93.275885971752885	84.0	108.0	102.0	73.0	97.0	93.0	RhTFIso05r01_CHX_36	RhTFIso05r01_CHX_36
3	1	305	66	123	0.0071723162163456807	0.23718400000000001	0.0074298634536661386	0.00010497632312036619	0.00029915679868695589	-1.3925158958231383e-06	0.016325104872441116	0.108096	83.76875337290879	108.28197517539125	101.49757150566649	72.814078362278721	96.545096065106137	92.831697290041106	83.0	107.0	101.0	73.0	96.0	93.0	RhTFIso05r01_CHX_36	RhTFIso05r01_CHX_36
4	1	443	64	123	0.0077169341659287499	0.238592	0.0080405520781817365	0.00011149786222357748	0.00033803500119968021	-1.3649336164482444e-06	0.014081084339150927	0.11673600000000001	84.723980686695285	108.15075107296137	101.31410944206009	72.144322098007905	95.778851811381017	92.057829704967645	84.0	107.0	100.0	72.0	96.0	92.0	RhTFIso05r01_CHX_36	RhTFIso05r01_CHX_36
5	1	552	67	123	0.012324393465343832	0.24787200000000001	0.012597118814873461	0.00016672373731748148	0.0005620214430113778	-9.7649868039510738e-07	0.0093133282258651279	0.14630399999999999	88.323780015491863	112.02246320681643	104.07022979602375	71.413801906058538	95.629254594962561	91.570030633083732	87.0	110.0	102.0	71.0	96.0	92.0	RhTFIso05r01_CHX_36	RhTFIso05r01_CHX_36
6	1	685	66	123	0.0075419595936987239	0.25164799999999998	0.0078599021385145646	0.00010896171561583494	0.00022973388795828143	-2.3747230990727779e-06	0.0213582145624895	0.097344	84.240590030518817	107.33036622583927	99.947100712105794	71.277601984093053	94.961429915333966	90.994270076113921	83.0	106.0	99.0	71.0	95.0	91.0	RhTFIso05r01_CHX_36	RhTFIso05r01_CHX_36
7	1	804	55	123	0.00010967678179915902	0.0068474576271186438	0.00018078248131836956	9.4616996572087308e-05	5.9175608892676359e-05	7.536133152137663e-08	0.0044342857264399564	0.036271186440677963													RhTFIso05r01_CHX_36	RhTFIso05r01_CHX_36
8	1	938	71	123	6.3380542066539272e-05	0.0055040000000000002	0.00013521787404493216	8.7086123078772379e-05	3.9879725754026221e-05	2.067567856508802e-07	0.0027402426894470588	0.040191999999999999	79.011627906976742	103.61627906976744	96.616279069767444	70.621404208765043	93.943754424351638	90.204710727846063	79.0	103.5	96.0	70.0	94.0	90.0	RhTFIso05r01_CHX_36	RhTFIso05r01_CHX_36
9	1	1066	69	123	0.00010216491508278097	0.007424	0.00016551453709809521	8.702797487269832e-05	2.7980410596165466e-05	-5.4219055071420039e-07	0.0074278034092691639	0.028351999999999999	82.172413793103445	102.77586206896552	97.517241379310349	70.749951640982658	93.966406602617838	90.089818814881681	82.0	103.0	97.0	71.0	94.0	90.0	RhTFIso05r01_CHX_36	RhTFIso05r01_CHX_36
10	1	1185	64	123	0.00022019031566533604	0.0093439999999999999	0.00025365769700664344	9.6458083376363719e-05	0.00010467322080279816	-1.7542207886510795e-07	0.006785096559528251	0.033279999999999997	82.479452054794521	104.92465753424658	97.917808219178085	70.944247044382706	94.541960074940235	89.643194004780668	82.0	104.0	97.0	71.0	95.0	90.0	RhTFIso05r01_CHX_36	RhTFIso05r01_CHX_36
11	1	1308	69	123	0.00033663567963182841	0.01184	0.00038130741620741451	0.00012683908436561739	8.2024699078678652e-05	8.2619873872537954e-08	0.0077697481147172938	0.035007999999999997	84.108108108108112	106.11351351351351	96.583783783783787	72.259132124352334	95.647927461139901	90.68439119170985	85.0	106.0	96.0	72.0	96.0	91.0	RhTFIso05r01_CHX_36	RhTFIso05r01_CHX_36
12	1	1432	72	123	0.00062260828224243046	0.020666666666666667	0.00073025505587406923	0.0001398664062111047	0.00023511637232540136	6.9948097738992763e-08	0.024026324671789487	0.028296296296296295	84.003584229390682	107.92831541218638	101.65232974910394	72.82905982905983	97.035625141819835	93.099614250056732	84.0	109.0	101.0	73.0	97.0	93.0	RhTFIso05r01_CHX_36	RhTFIso05r01_CHX_36
1	2	63	182	123	0.011509379157573959	0.27404800000000001	0.011709256907096264	0.00014501632117381745	0.00038706626227565886	-1.441666233480914e-07	0.013837024368205067	0.12620799999999999	86.992993928071002	111.22279308734237	105.26342830453059	73.462840518381384	98.030944194657494	94.308648505686321	86.0	110.0	104.0	73.0	98.0	94.0	RhTFIso05r01_CHX_36	RhTFIso05r01_CHX_36
2	2	195	186	123	0.010613821766634548	0.25126399999999999	0.010843725558329442	0.00014853696808685173	0.00042665166593269577	-8.5558370839017471e-07	0.012031232076079649	0.12959999999999999	87.482170147733058	110.62251655629139	104.43606724401427	73.168732370288055	97.328062227540812	93.512864347380116	86.0	109.0	104.0	73.0	97.0	94.0	RhTFIso05r01_CHX_36	RhTFIso05r01_CHX_36
3	2	313	192	123	0.0075798710026714648	0.23814399999999999	0.0078499607985430438	0.00011236472597764348	0.00027011614828325589	-6.2783724878259e-07	0.015181521272077492	0.11232	84.438054286482128	108.46976619188391	102.49314700349369	72.561407930107521	97.127688172043008	93.189936155913983	84.0	108.0	102.0	73.0	97.0	93.0	RhTFIso05r01_CHX_36	RhTFIso05r01_CHX_36
4	2	436	179	123	0.0084742900201561968	0.24332799999999999	0.008697877493922021	0.00012049028418736996	0.0002917846072249363	-5.3982934109143967e-07	0.017234294141274094	0.10656	85.189374013677011	108.68253550762756	102.33456075749605	72.382051932673605	96.316501733908481	92.561870929544114	84.0	107.0	101.0	72.0	96.0	93.0	RhTFIso05r01_CHX_36	RhTFIso05r01_CHX_36
5	2	553	184	123	0.00014056245665807756	0.0067200000000000003	0.00016762721353224798	9.4711098075275259e-05	3.9870783849466932e-05	9.065996253377601e-08	0.0055179968070880984	0.031295999999999997	80.104761904761901	103.59999999999999	100.03809523809524	71.856507731958757	95.70592783505154	91.834085051546396	80.0	103.0	100.0	72.0	96.0	92.0	RhTFIso05r01_CHX_36	RhTFIso05r01_CHX_36
6	2	684	178	123	8.2970837789564909e-05	0.0055040000000000002	0.00013090451258049261	9.3188495418324125e-05	2.2266469962314856e-05	-5.1061093939468539e-07	0.0034338600628330768	0.035903999999999998	80.895348837209298	102.91860465116279	97.116279069767444	71.398931720187917	95.011776819615164	91.302271703455816	81.0	103.0	97.0	71.0	95.0	91.0	RhTFIso05r01_CHX_36	RhTFIso05r01_CHX_36
7	2	806	178	123	4.4293968599573206e-05	0.0052480000000000001	0.00010995879937853844	7.7236165818843496e-05	1.9943909703888118e-05	-3.2749505888440002e-07	0.0044724062082354687	0.030720000000000001	78.41463414634147	102.86585365853658	99.073170731707322	71.299942096120446	94.621887666473654	91.272405584507496	78.0	102.5	99.0	71.0	95.0	91.0	RhTFIso05r01_CHX_36	RhTFIso05r01_CHX_36
8	2	932	182	123	5.0572033454999916e-05	0.0056319999999999999	0.00013380284613642918	8.7187807276998644e-05	3.1106572891386487e-05	-5.2312351989996202e-07	0.0060367751226286523	0.027392	81.11363636363636	102.53409090909091	99.943181818181813	70.460964150093332	94.141661839479951	90.58891677930103	81.0	102.0	99.5	70.0	94.0	91.0	RhTFIso05r01_CHX_36	RhTFIso05r01_CHX_36
9	2	1050	180	123	0.00012149364924276865	0.0083840000000000008	0.00021908559663354953	9.9869927794858453e-05	3.6520916196096457e-05	-1.1375524692253167e-06	0.0050138566818071252	0.036672000000000003	81.412213740458014	104.41221374045801	98.412213740458014	70.761649670840328	93.958629146766484	90.411707757841739	81.0	104.0	98.0	71.0	94.0	90.0	RhTFIso05r01_CHX_36	RhTFIso05r01_CHX_36
10	2	1182	181	123	0.0002298100102824317	0.010624	0.00029940244339706911	0.00010609935464321359	0.00010749525755626229	-2.4407908151952575e-07	0.0078650863304123783	0.032960000000000003	81.897590361445779	105.10240963855422	100.23493975903614	71.232679992237536	94.191862345559215	90.447182870819589	81.0	105.0	100.0	71.0	94.0	91.0	RhTFIso05r01_CHX_36	RhTFIso05r01_CHX_36
11	2	1308	182	123	0.00026964558541545981	0.012416	0.00035184497143565135	0.00010732837984989324	8.2340978253842028e-05	-4.6162007616029345e-07	0.0086788034858870742	0.033919999999999999	82.798969072164951	106.32989690721649	95.778350515463913	72.3252543581103	95.326744864234328	91.16065063832545	83.0	106.0	96.0	72.0	95.0	91.0	RhTFIso05r01_CHX_36	RhTFIso05r01_CHX_36
12	2	1432	180	123	0.00069573366855623362	0.028148148148148148	0.00083433313566303867	9.57893212434096e-05	0.00029205003440235631	-2.5974800425026223e-07	0.016375928784144327	0.040000000000000001	82.294736842105266	106.60263157894737	100.46052631578948	72.849542682926824	97.058765243902442	93.168673780487808	81.0	105.0	100.0	73.0	97.0	93.0	RhTFIso05r01_CHX_36	RhTFIso05r01_CHX_36
1	3	56	306	123	0.00046193643353338403	0.035966386554621851	0.00064145661427523701	6.0726448629152336e-05	4.9325950205202776e-05	-7.1569303499354171e-07	0.016938796368561746	0.042352941176470586													RhTFIso05r01_CHX_36	RhTFIso05r01_CHX_36
2	3	185	306	123	0.0098649460695134934	0.25126399999999999	0.01002017120279876	0.00013330352597315943	0.00037468767952072551	-7.3986308280146013e-08	0.013203724414008475	0.123712	86.401171676006115	110.5509424350484	103.73000509424351	73.660911188990511	97.874775621848016	94.178733225061976	85.0	109.0	103.0	74.0	98.0	94.0	RhTFIso05r01_CHX_36	RhTFIso05r01_CHX_36
3	3	311	301	123	0.018940947753053588	0.25228800000000001	0.019058075021736877	0.00028365453727686042	0.0009284425695059922	5.2783891937903823e-07	0.0062291425182088248	0.18048	95.096651445966515	119.14814814814815	111.16793505834602	73.336728579988019	97.374989300693315	93.626551399469321	95.0	119.0	110.0	73.0	97.0	94.0	RhTFIso05r01_CHX_36	RhTFIso05r01_CHX_36
4	3	438	310	123	0.011163130311977626	0.25318400000000002	0.011358902769783429	0.00015073068572959929	0.00066201720136705008	-1.1905007248078611e-08	0.010393661792582156	0.13996800000000001	87.140040444893827	111.224216380182	104.23458038422649	72.68729111320593	96.756962893135665	92.907704173451023	85.0	109.0	103.0	73.0	97.0	93.0	RhTFIso05r01_CHX_36	RhTFIso05r01_CHX_36
5	3	564	301	123	0.0095818369388927915	0.24121600000000001	0.0098831975134974163	0.00013329314846681099	0.00041841056108244149	-1.7001522362126794e-06	0.013959078506438535	0.11788800000000001	86.286548156009545	110.29716105067658	103.51154152295038	71.483468286099864	96.143893387314435	92.049004723346826	85.0	109.0	102.0	72.0	96.0	92.0	RhTFIso05r01_CHX_36	RhTFIso05r01_CHX_36
6	3	680	304	123	0.00013495801916011313	0.0089599999999999992	0.00022261828970567021	9.6708000819872175e-05	4.924169860456848e-05	6.925120810439945e-07	0.0053211096741331843	0.036799999999999999	81.428571428571431	103.81428571428572	98.492857142857147	71.66102680012915	95.104294478527606	91.63538908621247	81.0	103.5	98.0	72.0	95.0	92.0	RhTFIso05r01_CHX_36	RhTFIso05r01_CHX_36
7	3	810	303	123	0.00013772956917976165	0.0088959999999999994	0.00023266851254162281	9.7044654669168541e-05	4.747537944137934e-05	1.3919018240698182e-07	0.0056912168651876245	0.035456000000000001	80.467625899280577	104.36690647482014	99.309352517985616	71.222329846312803	94.830233759524731	91.349218649102411	80.0	104.0	99.0	71.0	95.0	91.0	RhTFIso05r01_CHX_36	RhTFIso05r01_CHX_36
8	3	929	308	123	8.6653117390399293e-05	0.0078079999999999998	0.00019602943422804939	9.1204117102496716e-05	5.9438478214484833e-05	-4.4677991253972805e-07	0.0041201215129046467	0.039039999999999998	81.073770491803273	102.60655737704919	99.844262295081961	71.077404373347093	93.875959491711285	90.888537702380191	81.0	102.0	99.0	71.0	94.0	91.0	RhTFIso05r01_CHX_36	RhTFIso05r01_CHX_36
9	3	1058	301	123	0.00028099795633749049	0.0092160000000000002	0.00030825968547232459	0.0001100685917484269	0.00036860100113012977	1.8813614052607754e-07	0.0089759344867719939	0.028736000000000001	82.444444444444443	105.4375	99.979166666666671	70.638912214973189	94.176603578580199	90.735805180543892	81.5	104.0	99.0	71.0	94.0	91.0	RhTFIso05r01_CHX_36	RhTFIso05r01_CHX_36
10	3	1176	314	123	0.00026012305023240273	0.011072	0.00030628956499228007	0.00010468093385239954	6.532554592648524e-05	-4.655979897087687e-08	0.0085925090264936683	0.032191999999999998	83.375722543352595	104.67052023121387	98.080924855491332	71.157002329795489	94.314716541548023	90.808180170851671	83.0	105.0	98.0	71.0	94.0	91.0	RhTFIso05r01_CHX_36	RhTFIso05r01_CHX_36
11	3	1311	305	123	0.00068318346583778693	0.020736000000000001	0.00080920609047912292	0.00012199152233619297	0.00091842384257094598	3.2436010039673319e-08	0.011086887121775565	0.038783999999999999	87.771604938271608	108.76543209876543	99.697530864197532	72.577217175348011	95.469315730997977	91.516371478988304	86.0	107.0	99.0	73.0	96.0	92.0	RhTFIso05r01_CHX_36	RhTFIso05r01_CHX_36
12	3	1432	307	123	0.00081607321233865952	0.026444444444444444	0.00089215342454641129	0.00012729235124133451	0.00024840438154987045	-2.6985393048208537e-07	0.010053682252246012	0.04948148148148148	84.778711484593842	106.87114845938375	102.53781512605042	72.961576504603215	96.804610819447618	93.2811382484973	85.0	107.0	102.0	73.0	97.0	93.0	RhTFIso05r01_CHX_36	RhTFIso05r01_CHX_36
1	4	66	428	123	0.014632911292417221	0.32991999999999999	0.014806678698150591	0.00017137358824548057	0.00044626734334952598	4.2931849872644742e-07	0.017963402627036468	0.12153600000000001	86.936760426770121	111.47914645974782	105.04966052376334	74.091212989493798	98.614326647564468	94.895988538681948	87.0	111.0	105.0	74.0	99.0	95.0	RhTFIso05r01_CHX_36	RhTFIso05r01_CHX_36
2	4	178	428	123	0.014968578549605113	0.26956799999999997	0.015139751170499028	0.0001972167678199167	0.00074888914389222808	5.2385194144043428e-07	0.010128514972203437	0.14630399999999999	89.986942070275404	114.38888888888889	107.51709401709402	73.806098308945934	98.25286953474108	94.619644265311493	89.0	113.0	106.0	74.0	98.0	95.0	RhTFIso05r01_CHX_36	RhTFIso05r01_CHX_36
3	4	311	430	123	0.0097839190277047797	0.27948800000000001	0.009972652700504233	0.00012786368357015342	0.00029934994795599243	3.8136614668112331e-07	0.018042640453016668	0.11161600000000001	85.695443095946871	108.78681016716281	104.07396381955576	73.818084917392071	97.773050275359751	94.254308047610593	85.0	108.0	104.0	74.0	98.0	94.0	RhTFIso05r01_CHX_36	RhTFIso05r01_CHX_36
4	4	436	438	123	0.0082903895649626223	0.24435200000000001	0.0085466163400827883	0.00011817152392940427	0.00036683442662715349	-5.892652713841029e-07	0.016446369956789414	0.10931200000000001	85.696699842849654	109.00052383446831	103.28103719224725	72.84246633353095	97.332260523418313	93.565596679935638	85.0	108.0	102.0	73.0	97.0	94.0	RhTFIso05r01_CHX_36	RhTFIso05r01_CHX_36
5	4	560	429	123	0.0094465573254575892	0.23788799999999999	0.0097048649144440228	0.00013903894486220006	0.00040285269100273901	-1.5572111931244507e-06	0.012500826196349847	0.123712	86.71859026096314	110.08313155770783	103.38122141511973	72.253275109170303	96.451797111185755	92.60975814578434	86.0	109.0	103.0	72.0	96.0	93.0	RhTFIso05r01_CHX_36	RhTFIso05r01_CHX_36
6	4	678	430	123	0.00020238681622197001	0.011967999999999999	0.00032307761399701671	0.00010399481410198464	4.7781637469058933e-05	6.6773823915501104e-07	0.010547935690557515	0.030207999999999999	81.224598930481278	104.18716577540107	99.871657754010698	71.838580126959457	95.244979919678713	91.937168026946495	81.0	104.0	100.0	72.0	95.0	92.0	RhTFIso05r01_CHX_36	RhTFIso05r01_CHX_36
7	4	810	438	123	0.00012472680200902118	0.008064	0.00018599753820955868	8.688806579839966e-05	2.9101306709312744e-05	2.0998108522364123e-07	0.0078890440519832974	0.028672	81.111111111111114	103.49206349206349	98.166666666666671	71.491773662816954	94.819149622556296	91.657655332602104	81.0	103.0	98.0	72.0	95.0	92.0	RhTFIso05r01_CHX_36	RhTFIso05r01_CHX_36
8	4	925	434	123	0.00020032746310452042	0.010304000000000001	0.00029354500771453743	0.00011067900886497183	4.1688617284515581e-05	8.5793026304327667e-07	0.0044012531846046995	0.043392	81.422360248447205	104.04347826086956	99.055900621118013	71.094154164511124	94.18197102948784	91.170460424211072	82.0	104.0	99.0	71.0	94.0	91.0	RhTFIso05r01_CHX_36	RhTFIso05r01_CHX_36
9	4	1053	433	123	0.0016214965869315733	0.029760000000000002	0.0018351666785434248	0.00013785701772708607	0.0025477617180447013	-6.2291245305644216e-08	0.0049912381873755173	0.069248000000000004	90.28602150537634	113.46881720430108	104.91397849462365	71.288588390501317	94.234234828496042	91.162796833773086	84.0	107.0	100.0	71.0	94.0	91.0	RhTFIso05r01_CHX_36	RhTFIso05r01_CHX_36
10	4	1181	437	123	0.00022690807664930033	0.010432	0.00029446501241642297	0.00011105659112691532	5.0952324331247598e-05	-6.9284428243230955e-08	0.00456297262227789	0.042880000000000001	82.907975460122699	104.8159509202454	97.668711656441715	71.508989781399563	94.23586858103738	91.069007890311738	83.0	105.0	97.0	72.0	94.0	91.0	RhTFIso05r01_CHX_36	RhTFIso05r01_CHX_36
11	4	1308	431	123	0.00043831726883920857	0.017472000000000001	0.00053409556463531621	0.00010916261314223551	0.00016474763994063176	-1.2189091257985032e-07	0.0067293960284507022	0.045696000000000001	85.15384615384616	105.46153846153847	99.179487179487182	72.430302240750393	95.513418447107867	91.775403856175089	84.0	105.0	98.0	73.0	96.0	92.0	RhTFIso05r01_CHX_36	RhTFIso05r01_CHX_36
12	4	1432	440	123	0.0010818393041419183	0.025333333333333333	0.0011150621916069417	0.00017166539256848081	0.00053496519338537617	-2.1888760630658466e-07	0.013902291386673945	0.041185185185185186	86.517543859649123	109.07309941520468	102.67836257309942	72.740614075087393	96.593327253381972	93.233242134062934	86.0	109.0	101.5	73.0	97.0	93.0	RhTFIso05r01_CHX_36	RhTFIso05r01_CHX_36
1	5	64	560	123	0.010925217131727109	0.30015999999999998	0.011179022642459362	0.00013158766248137053	0.00044883343710965559	5.4269608150278537e-09	0.018250995268917099	0.115008	86.112579957356076	109.73837953091684	104.71855010660981	74.796250571559213	98.560951074531317	95.528486511202559	85.0	109.0	104.0	75.0	99.0	96.0	RhTFIso05r01_CHX_36	RhTFIso05r01_CHX_36
2	5	187	562	123	0.010471442339007764	0.27385599999999999	0.010686952205610787	0.00014528296593002349	0.00038337182717210541	-3.0677583784083736e-07	0.015951693513784733	0.117504	86.41855573732181	110.51437251694321	104.98083664407572	74.474264057817734	98.384805217697874	95.02018332451965	86.0	110.0	104.0	75.0	98.0	95.0	RhTFIso05r01_CHX_36	RhTFIso05r01_CHX_36
3	5	311	555	123	0.0006340123396093428	0.028351999999999999	0.00076511158372863407	6.7813717748160462e-05	0.00063824288585719263	-3.1360288389494005e-07	0.01731599582617481	0.036288000000000001	83.352144469525953	105.49887133182844	100.13995485327314	73.266565669872222	97.7975233829535	94.379330786457643	80.0	103.0	99.0	73.0	98.0	94.0	RhTFIso05r01_CHX_36	RhTFIso05r01_CHX_36
4	5	436	550	123	0.0089202805674549069	0.267648	0.0091693749366978609	0.00011804319898935776	0.00028692627620996106	-1.1821233573796743e-06	0.015109017360650923	0.11935999999999999	84.947154471544721	108.82735533237685	103.41774270683884	73.484400943808438	97.286550729703748	93.782050161670895	84.0	108.0	103.0	73.0	97.0	94.0	RhTFIso05r01_CHX_36	RhTFIso05r01_CHX_36
5	5	560	557	123	0.009348032118139487	0.27526400000000001	0.0095863250200123682	0.00011496484388848817	0.00032979214454663961	-1.0041041128446574e-06	0.013566200540449337	0.127744	85.365031388049289	108.84073471285747	102.88700302255289	73.002384316495935	96.293889085128924	93.123719533733663	84.0	108.0	102.0	73.0	96.0	93.0	RhTFIso05r01_CHX_36	RhTFIso05r01_CHX_36
6	5	681	551	123	0.00045407060978267807	0.015807999999999999	0.00055178779205668823	0.00011085946384427612	0.00066011411844393462	6.4531687934858552e-07	0.0071255590949189981	0.04224	84.275303643724698	106.5506072874494	101.4493927125506	71.927168682533491	95.320002601118475	92.221550266614642	83.0	105.0	100.0	72.0	95.0	92.0	RhTFIso05r01_CHX_36	RhTFIso05r01_CHX_36
7	5	806	555	123	0.00015003422047418129	0.010048	0.0002609158561344117	0.00010032624499951537	5.364838809121418e-05	-3.3736201782141448e-08	0.01395512807304203	0.024063999999999999	82.554140127388536	104.43312101910828	100.45222929936305	71.487781225756407	94.829066459787953	91.984096198603567	83.0	104.0	100.0	72.0	95.0	92.0	RhTFIso05r01_CHX_36	RhTFIso05r01_CHX_36
8	5	929	550	123	0.00024589512541539713	0.011776	0.00033604326630252876	0.00011244265657042447	4.2466768440928629e-05	-7.5233673033804717e-07	0.008684169344698664	0.033023999999999998	83.309782608695656	104.01086956521739	100.80978260869566	71.034000388575876	94.280940353604038	91.29175571530341	83.0	104.0	101.0	71.0	94.0	91.0	RhTFIso05r01_CHX_36	RhTFIso05r01_CHX_36
9	5	1050	550	123	0.00036910549084250341	0.013311999999999999	0.00044347793464843662	0.0001175975567217678	0.00016892861851255543	-5.1262805845567662e-07	0.0082170322411684142	0.036096000000000003	83.79807692307692	106.08173076923077	97.918269230769226	70.785755983654411	94.220146591425049	91.254199909191158	83.0	105.0	98.0	71.0	94.0	91.0	RhTFIso05r01_CHX_36	RhTFIso05r01_CHX_36
10	5	1183	558	123	0.00030004350935334612	0.014976	0.00043442205952770379	0.00010347126421668835	0.00018634939409467848	-1.3296452463248788e-06	0.0082504390286441878	0.038207999999999999	82.183760683760681	106.58547008547009	100.1068376068376	71.068026768890917	94.24761224092002	90.968682996556424	82.0	106.0	99.0	71.0	94.0	91.0	RhTFIso05r01_CHX_36	RhTFIso05r01_CHX_36
11	5	1309	560	123	0.00051051459761432586	0.017215999999999999	0.0005416151842601273	0.00011096937763871841	0.00024170316078987822	-9.0990939640730371e-08	0.012453364433753993	0.033343999999999999	84.847583643122675	106.05576208178438	99.605947955390334	72.253386298515238	95.361617608752283	92.017061734826783	84.0	106.0	99.0	72.0	95.0	92.0	RhTFIso05r01_CHX_36	RhTFIso05r01_CHX_36
12	5	1432	550	123	0.00090638844134311402	0.025259259259259259	0.00099055189739074667	0.00012821247172278486	0.00065598626958385156	-7.1266405776425298e-07	0.012063455417257323	0.044148148148148145	85.413489736070375	108.83870967741936	103.00879765395895	72.025457861539635	96.454213846036936	93.031765331712137	84.0	107.0	102.0	72.0	96.0	93.0	RhTFIso05r01_CHX_36	RhTFIso05r01_CHX_36
1	6	68	682	123	0.014379607415978867	0.34918399999999999	0.014652101441792542	0.00014879721257936288	0.00071196849763562053	-1.1685345485725648e-07	0.013861641411859109	0.14233599999999999	87.444648093841636	111.10740469208211	105.63453079178886	75.083587373389719	98.825548234831345	95.821713049464051	87.0	110.0	105.0	75.0	99.0	96.0	RhTFIso05r01_CHX_36	RhTFIso05r01_CHX_36
2	6	195	676	123	0.011988667911042543	0.29113600000000001	0.012267866128476756	0.0001526885854441043	0.00050177590264744256	4.76486711363927e-07	0.01826712224147993	0.113216	87.345570455045063	111.008573312816	105.21367333479886	74.226706392199347	98.591368725171549	94.949981942939687	87.0	110.0	105.0	74.0	99.0	95.0	RhTFIso05r01_CHX_36	RhTFIso05r01_CHX_36
3	6	308	688	123	0.01178775193470144	0.28383999999999998	0.011987851985361937	0.00014200427053904314	0.00065049717355037491	-6.2393337609326226e-07	0.013300494957335762	0.13100800000000001	87.066516347237879	111.33776775648252	104.50620067643743	74.0058981233244	98.515102770330657	94.758623771224308	85.0	110.0	104.0	74.0	99.0	95.0	RhTFIso05r01_CHX_36	RhTFIso05r01_CHX_36
4	6	435	678	123	0.0096165575987923035	0.26707199999999998	0.0097926642209466477	0.00012356141928418873	0.00037398108281869706	-4.0398827701592934e-08	0.014932037627103243	0.119936	85.816678648454356	109.32830098250659	103.53846153846153	74.013360111770865	97.656042612644086	94.180754453370596	85.0	108.0	103.0	74.0	98.0	94.0	RhTFIso05r01_CHX_36	RhTFIso05r01_CHX_36
5	6	560	673	123	0.012880765457468257	0.26988800000000002	0.013146704381722121	0.0001701843153633594	0.00063656717446483276	-2.4835370315982925e-07	0.009207738336289668	0.15353600000000001	89.025373488261792	112.0882143704055	105.20607066635048	73.584852734922862	96.748685133239832	93.396826788218789	88.0	111.0	104.0	74.0	97.0	93.0	RhTFIso05r01_CHX_36	RhTFIso05r01_CHX_36
6	6	676	671	123	0.00052689192732238406	0.017215999999999999	0.00059814730236310975	0.00013458011993140216	0.00018857714018327045	7.8047097127910503e-08	0.016044891068784643	0.029375999999999999	84.107806691449809	106.16728624535315	102.17843866171003	72.648345923417551	95.934423026829904	92.787900494920549	84.0	106.0	102.0	73.0	96.0	93.0	RhTFIso05r01_CHX_36	RhTFIso05r01_CHX_36
7	6	810	682	123	0.00047637823799610125	0.016256	0.00057065806987043055	0.00013210317198707885	0.00026232453378225308	-5.4623879464285223e-07	0.0091693712612675379	0.037760000000000002	84.980314960629926	106.64566929133858	101.29133858267717	72.317936373690713	95.679526380847051	92.489493201483313	85.0	106.0	101.0	72.0	96.0	92.0	RhTFIso05r01_CHX_36	RhTFIso05r01_CHX_36
8	6	932	678	123	0.00044040675906185906	0.016448000000000001	0.00048838696575529089	0.00011405929578896159	0.0001049439314179518	8.5097601745870976e-07	0.0091840364906207814	0.037952	83.116731517509734	106.28793774319067	100.67704280155642	72.029802186361266	95.396082769390944	92.16384695471109	83.0	106.0	100.0	72.0	95.0	92.0	RhTFIso05r01_CHX_36	RhTFIso05r01_CHX_36
9	6	1055	680	123	0.00056293103711651128	0.018624000000000002	0.00067333645257400916	0.00012556224644555294	0.00045073886093458161	-3.5315431551249934e-07	0.0078620192653540109	0.043647999999999999	85.347079037800682	107.60481099656357	100.47766323024055	71.919851310812575	94.969544802399895	91.862919003521583	85.0	106.0	100.0	72.0	95.0	92.0	RhTFIso05r01_CHX_36	RhTFIso05r01_CHX_36
10	6	1176	681	123	0.00040864774791260191	0.014016000000000001	0.00046461240509952802	0.00012818804893504777	0.00011311673054305044	-2.1772424245053778e-07	0.0085301625562408841	0.036352000000000002	85.242009132420094	106.76255707762557	98.671232876712324	71.182526288459044	94.761716214461899	91.483902375697781	85.0	107.0	99.0	71.0	95.0	92.0	RhTFIso05r01_CHX_36	RhTFIso05r01_CHX_36
11	6	1312	674	123	0.00057107882747456894	0.018367999999999999	0.00068367295123275269	0.00014882784913704264	0.00018118934800865971	-4.2802799413320893e-07	0.0055378946705808112	0.051647999999999999	85.620209059233446	107.57142857142857	101.71428571428571	71.389294562524455	94.731320902334076	91.691159212413609	86.0	108.0	101.0	72.0	95.0	92.0	RhTFIso05r01_CHX_36	RhTFIso05r01_CHX_36
12	6	1432	686	123	0.0010105606496916954	0.024148148148148148	0.0011192746351127798	0.00017403711364753045	0.00051716266795594039	3.4492129122843269e-08	0.009877697668591803	0.047703703703703706	86.969325153374228	110.27300613496932	103.24233128834356	71.73736146956125	95.965082738727801	92.831638074996206	86.0	110.0	103.0	72.0	96.0	93.0	RhTFIso05r01_CHX_36	RhTFIso05r01_CHX_36
1	7	64	803	123	0.016798881936201552	0.47072000000000003	0.017078463509923886	0.00014030294167488225	0.0008728179424882306	6.6458782976295641e-07	0.022517162345727586	0.129664	85.792386131883077	109.62556084296396	105.47287559483344	75.912938331318017	99.463724304715839	96.51499395405078	85.0	109.0	105.0	76.0	100.0	97.0	RhTFIso05r01_CHX_36	RhTFIso05r01_CHX_36
2	7	194	808	123	0.014783534065640433	0.36915199999999998	0.015049851287480716	0.00016764629238051363	0.00083050877296464432	4.4533676609910265e-07	0.017606418538783426	0.129856	87.512135922330103	110.94712205270457	105.68585298196949	75.413005985593998	99.349700720300291	96.277366338642594	88.0	112.0	106.0	75.0	100.0	96.0	RhTFIso05r01_CHX_36	RhTFIso05r01_CHX_36
3	7	304	797	123	0.005031512208916066	0.29593599999999998	0.0053261563475260074	5.177385274914994e-05	0.00026771402080651255	-1.573416959852257e-07	0.04318289069619264	0.07424	81.084991349480973	104.65311418685121	101.11916089965398	74.987001181710752	98.8234705935824	95.662848831924364	80.0	103.0	100.0	75.0	99.0	96.0	RhTFIso05r01_CHX_36	RhTFIso05r01_CHX_36
4	7	436	803	123	0.023544534400658238	0.29683199999999998	0.023742728990971344	0.00032953927443412192	0.0017305402956629065	-2.6735442817788051e-07	0.0051258450822239468	0.215808	97.141440275981026	120.98900388098318	112.91203104786545	74.168016747064712	98.367252207153911	94.86010739965414	99.0	122.0	113.0	74.0	98.0	95.0	RhTFIso05r01_CHX_36	RhTFIso05r01_CHX_36
5	7	551	803	123	0.011325584404812379	0.27827200000000002	0.011530607856128024	0.00014956687506011157	0.00041674822702875738	2.7690862983513919e-07	0.014107472463695985	0.12595200000000001	87.585556577736895	110.56393744250229	104.02828886844526	74.789039638201643	97.984215660193314	94.472732109603612	87.0	110.0	103.0	75.0	98.0	95.0	RhTFIso05r01_CHX_36	RhTFIso05r01_CHX_36
6	7	677	794	123	0.00050290425021151869	0.022527999999999999	0.00065303078895237053	0.00010416626590069429	0.00017194584540658266	3.3699308584442511e-07	0.015454144313929351	0.03424	83.340909090909093	105.77272727272727	100.45454545454545	74.120408564132788	96.588031166110127	93.301446997970274	83.0	105.0	100.0	74.0	97.0	93.0	RhTFIso05r01_CHX_36	RhTFIso05r01_CHX_36
7	7	803	803	123	0.00053522618540946098	0.024704	0.00063472797712080665	9.5033886641222718e-05	0.00014004628588356517	-2.0222878136854724e-07	0.021053034102181598	0.030720000000000001	82.038860103626945	105.73316062176166	99.987046632124347	73.59026182820395	97.025723472668815	93.844084257497215	82.0	106.0	99.0	74.0	97.0	94.0	RhTFIso05r01_CHX_36	RhTFIso05r01_CHX_36
8	7	929	803	123	0.00067835521625776891	0.025791999999999999	0.00077941098778178943	9.9965077270716676e-05	0.00028764841136909514	4.736046038185868e-07	0.018165487824217841	0.033792000000000003	83.607940446650119	106.78908188585608	100.8014888337469	73.223558008146099	97.035803442386026	93.80127447116017	83.0	106.0	100.0	73.0	97.0	94.0	RhTFIso05r01_CHX_36	RhTFIso05r01_CHX_36
9	7	1056	802	123	0.00072446099622141906	0.0224	0.00083620069497226707	0.00014626347652135538	0.00029007463634067755	-3.6691652299694878e-08	0.013442679700186165	0.036608000000000002	84.159999999999997	109.90571428571428	101.10857142857142	72.536497545008189	96.970409165302783	93.559607201309333	84.0	110.0	100.0	73.0	97.0	94.0	RhTFIso05r01_CHX_36	RhTFIso05r01_CHX_36
10	7	1183	805	123	0.00052724439350711693	0.017791999999999999	0.00062975550775017553	0.0001301747456959395	0.00024286911578625097	-5.899790040341908e-08	0.010529547136597735	0.036864000000000001	81.776978417266193	108.15827338129496	102.27338129496403	71.534176060467843	96.318042614191697	92.907408614061382	81.0	108.0	102.0	72.0	96.0	93.0	RhTFIso05r01_CHX_36	RhTFIso05r01_CHX_36
11	7	1302	808	123	0.00071020201728704425	0.018495999999999999	0.00078056766324478854	0.00016374075663209026	0.00029672614824980629	-1.2166331531297166e-07	0.0093568919291003791	0.039871999999999998	85.512110726643598	109.41176470588235	102.24567474048443	71.981351069379244	95.665949400104324	92.818270735524251	85.0	109.0	102.0	72.0	96.0	93.0	RhTFIso05r01_CHX_36	RhTFIso05r01_CHX_36
12	7	1432	803	123	0.00098480371118283335	0.026222222222222223	0.00110029020869782	0.00016804514036842727	0.00040498957293316133	5.0565973201244167e-07	0.014813306507682707	0.04059259259259259	87.508474576271183	110.08474576271186	103.20338983050847	71.663928191084736	95.815228966986155	93.573938840712003	88.0	110.0	103.0	72.0	96.0	93.0	RhTFIso05r01_CHX_36	RhTFIso05r01_CHX_36
1	8	66	927	123	0.017174387240847588	0.60594495412844041	0.01733879797088312	9.9934146982775122e-05	0.00054173611306972493	8.7191990969723441e-07	0.031493888787848229	0.13321100917431192	83.469597868217051	108.07158430232558	105.55704941860465	75.577574967405482	99.910597876699569	98.274911529148824	82.0	107.0	105.0	76.0	100.0	98.0	RhTFIso05r01_CHX_36	RhTFIso05r01_CHX_36
2	8	195	927	123	0.013202446094887679	0.47860550458715595	0.013428892932679522	9.5076260800043219e-05	0.00048714836779380948	-9.4307091369376865e-07	0.03637162290484388	0.1101651376146789	83.168839135101976	108.17083269437202	105.13602208250268	74.944960585585591	99.815315315315317	97.894847972972968	82.0	107.0	105.0	75.0	100.0	98.0	RhTFIso05r01_CHX_36	RhTFIso05r01_CHX_36
3	8	305	927	123	0.011291977089841747	0.38664220183486236	0.011516787476721557	0.00010093262940334065	0.00039885739018259139	5.0960219032471597e-07	0.035425713104986503	0.10033027522935779	83.78796507213363	108.18432042520881	105.167046317388	74.603087232260378	99.447170037094651	97.484982649276063	83.0	107.0	105.0	75.0	100.0	97.0	RhTFIso05r01_CHX_36	RhTFIso05r01_CHX_36
4	8	436	927	123	0.011619612611856941	0.35273394495412846	0.01186031785561076	0.00012318257887613884	0.00040339686909525067	2.390783896434963e-07	0.022871091947023973	0.11926605504587157	84.455472326258842	108.91073657927591	105.37598834789846	74.399705181993426	98.816305703594509	95.961787050686013	83.0	108.0	105.0	74.0	99.0	96.0	RhTFIso05r01_CHX_36	RhTFIso05r01_CHX_36
5	8	554	927	123	0.012106618312674634	0.3368807339449541	0.012379120879370731	0.00013364506276400341	0.00037567742749082598	-2.069410138758764e-07	0.017280068305799375	0.13409174311926605	85.419172113289761	109.75468409586057	105.39237472766885	74.674709463198667	98.337244050913114	95.53325954620918	85.0	109.0	105.0	75.0	98.0	96.0	RhTFIso05r01_CHX_36	RhTFIso05r01_CHX_36
6	8	689	927	123	0.068625171422732126	0.44866055045871561	0.068798459022684333	0.00065871596817457744	0.0020985506623321876	4.1707212875490568e-07	0.016680337150714004	0.1575045871559633	126.79273679044658	144.85718959594308	80.952723703582535	75.019435569755061	97.80338125665601	91.718450479233226	132.0	150.0	80.0	75.0	98.0	92.0	RhTFIso05r01_CHX_36	RhTFIso05r01_CHX_36
7	8	808	927	123	0.00099815823519579737	0.038899082568807336	0.0011479226215430278	7.5913329345408872e-05	0.00043382894757790832	-5.5516430374656139e-07	0.036872949069123112	0.031192660550458717	83.398113207547169	106.70188679245283	103.14528301886793	73.58953799159984	97.950057273768607	95.515082092401684	81.0	104.0	101.0	74.0	98.0	95.0	RhTFIso05r01_CHX_36	RhTFIso05r01_CHX_36
8	8	927	927	123	0.0012445664314732351	0.041247706422018346	0.0013580348185514173	8.0312017776999205e-05	0.00054421545650899772	-7.1449716968355771e-07	0.025236831934097773	0.038825688073394496	83.45017793594306	106.8202846975089	103.03914590747331	73.400137793768664	97.859526908060928	95.7744775319605	80.5	104.0	101.5	73.0	98.0	95.0	RhTFIso05r01_CHX_36	RhTFIso05r01_CHX_36
9	8	1059	927	123	0.00097581153729213801	0.028403669724770642	0.0010395166246540335	0.00011676730170877527	0.00046519452594794757	-5.1888753796842984e-07	0.013970656213033611	0.043302752293577981	84.542635658914733	108.04392764857882	105.2609819121447	72.789469708415169	97.126680767487542	95.57448255023418	82.0	107.0	104.0	73.0	97.0	95.0	RhTFIso05r01_CHX_36	RhTFIso05r01_CHX_36
10	8	1175	920	123	0.00082292792641218914	0.024827586206896551	0.00087154374235580651	0.0001123214694396672	0.00037862595117540049	-1.1007741182783173e-06	0.011883436141231562	0.042551724137931034	82.361111111111114	108.48611111111111	104.06666666666666	72.511881188118807	96.893069306930698	94.980693069306938	81.0	107.0	103.0	72.0	97.0	95.0	RhTFIso05r01_CHX_36	RhTFIso05r01_CHX_36
11	8	1299	927	123	0.00084187862046221514	0.022678899082568808	0.00092181439026707318	0.00015089850793685396	0.00034162296266338101	-6.1645129796744044e-08	0.010822178644532719	0.043963302752293577	84.967637540453069	108.74757281553399	105.18446601941747	71.821568038449982	96.348753379393216	94.639606488434964	85.0	108.0	105.0	72.0	96.0	94.0	RhTFIso05r01_CHX_36	RhTFIso05r01_CHX_36
12	8	1432	927	123	0.0010450719988748945	0.024804621134896364	0.0011832032245831165	0.00018071620876832932	0.00039045054735200728	8.1352193370428669e-08	0.0068481072505018033	0.06218144750254842	82.547945205479451	112.36986301369863	107.5582191780822	70.117857142857147	94.745034843205573	95.130487804878044	82.0	112.0	107.0	70.0	95.0	95.0	RhTFIso05r01_CHX_36	RhTFIso05r01_CHX_36
