Column	Row	x	y	Diameter	Intensity	Area	Trimmed	FeatureMedian	FeatureVariance	BackgroundMedian	Circularity	Perimeter	redMean	greenMean	blueMean	redMeanBack	greenMeanBack	blueMeanBack	redMedian	greenMedian	blueMedian	redMedianBack	greenMedianBack	blueMedianBack	Barcode	Filename
1	1	55	58	123	-3.1745429212754804e-05	0.0	0.0			4.8255250014967825e-07	0.0	0.0													RhTFIso05r01_CHX_11	RhTFIso05r01_CHX_11
2	1	185	62	123	0.024803579311559978	0.263936	0.025383424931056716	0.00035371124176563338	0.001577673944545337	-2.2591446146461379e-06	0.020396323262743928	0.102016	98.186469447138705	122.42386032977691	114.24660523763336	64.375271715503004	89.016259455699497	86.933831840709502	96.0	121.0	113.0	64.0	89.0	87.0	RhTFIso05r01_CHX_11	RhTFIso05r01_CHX_11
3	1	300	62	123	0.014408146682475051	0.256832	0.014951115488839151	0.00019923979342030361	0.00062219221162598077	-1.6010206531541319e-06	0.039774272306931716	0.072064000000000003	85.728382756042862	109.91004236232246	104.41465237976576	65.186617292456077	89.398380985187742	86.772046159145717	85.0	108.0	103.0	65.0	89.0	87.0	RhTFIso05r01_CHX_11	RhTFIso05r01_CHX_11
4	1	426	67	123	0.01495108937008101	0.26816000000000001	0.015534939237765577	0.00018921935108009289	0.000796028517831673	-1.4538037015293883e-06	0.034023824243290583	0.079616000000000006	86.21599045346062	110.56109785202864	105.22458233890215	65.202973327503273	89.46908613904678	87.030345430695235	84.0	108.0	103.0	65.0	89.0	87.0	RhTFIso05r01_CHX_11	RhTFIso05r01_CHX_11
5	1	546	70	123	0.01356842273694514	0.259328	0.014026299430750662	0.00017688934781776277	0.00064435559061073967	-1.645808409419724e-06	0.037971887186668225	0.074111999999999997	84.157699901283323	109.40572556762093	104.19693978282329	65.166249027909785	89.950056165212132	87.034822431521647	82.0	107.0	102.0	65.0	90.0	87.0	RhTFIso05r01_CHX_11	RhTFIso05r01_CHX_11
6	1	678	66	123	0.012911787620819567	0.26463999999999999	0.013476189257277322	0.00017062238241404045	0.00067033676661594206	-2.5646105648211537e-06	0.04062189395265739	0.072384000000000004	84.48174123337364	109.39226118500605	104.48827085852479	65.379721496953877	89.657702349869453	87.163881636205403	83.0	108.0	103.0	65.0	90.0	87.0	RhTFIso05r01_CHX_11	RhTFIso05r01_CHX_11
7	1	800	68	123	0.013905151069006298	0.263872	0.01435007628703338	0.00018656838434917504	0.00051625926561979453	-1.7767407342525753e-06	0.042975260568978595	0.070272000000000001	84.9461557118603	108.99951491632306	104.18845500848896	66.177186576247607	90.421665797252658	87.770039993044691	84.0	107.0	103.0	66.0	90.0	88.0	RhTFIso05r01_CHX_11	RhTFIso05r01_CHX_11
8	1	923	66	123	0.013198433281244317	0.25440000000000002	0.013677295812375798	0.00018293218248368196	0.00061467388541394685	-2.6494888494283559e-06	0.034458313920429764	0.077055999999999999	84.771320754716982	109.33761006289308	104.48251572327044	65.545407725321894	90.032961373390563	87.278369098712446	83.0	108.0	103.0	65.0	90.0	87.0	RhTFIso05r01_CHX_11	RhTFIso05r01_CHX_11
9	1	1041	65	123	0.013954293838189033	0.25254399999999999	0.014342644333444543	0.00019174745815679959	0.00065392681726726503	-1.5317001455924215e-06	0.035075448723094087	0.076095999999999997	84.071718195641154	109.70628484541308	104.78484541307654	65.67685589519651	90.225190512886371	87.365185375460229	82.0	108.0	103.0	66.0	90.0	87.0	RhTFIso05r01_CHX_11	RhTFIso05r01_CHX_11
10	1	1172	69	123	0.013384871967130025	0.24985599999999999	0.01377160471656699	0.00018320099896991008	0.00075450401996471144	-2.1936741647037698e-06	0.030901430384516385	0.080640000000000003	87.007428278688522	110.13652663934427	104.33990778688525	66.108693797457562	90.791997269857518	87.736967835508921	85.0	108.0	103.0	66.0	91.0	88.0	RhTFIso05r01_CHX_11	RhTFIso05r01_CHX_11
11	1	1292	68	123	0.013271296535130827	0.24806400000000001	0.013605546765424352	0.00019384506806624245	0.00066842571195065603	-1.3532205228413732e-06	0.037347490423946798	0.073088	85.688338493292051	110.24535603715171	104.27992776057792	66.789428887564895	91.659885947740236	88.535790280023832	85.0	109.0	103.0	67.0	92.0	88.0	RhTFIso05r01_CHX_11	RhTFIso05r01_CHX_11
12	1	1416	62	123	0.01368113725280711	0.28256880733944956	0.014023400597999718	0.00017296367587384633	0.00049761247262994097	-1.7973253314447694e-06	0.068566506328348667	0.061651376146788991	83.563116883116876	109.00207792207792	103.93766233766233	67.890332480818415	92.713554987212277	90.012685421994888	83.0	108.0	103.0	68.0	93.0	90.0	RhTFIso05r01_CHX_11	RhTFIso05r01_CHX_11
1	2	62	179	123	0.021774865335748825	0.267648	0.022460503023647584	0.00029103427515939756	0.0011560004378961346	-2.4008462432986808e-06	0.023419103490568669	0.095871999999999999	90.725729316116684	115.71664275466284	108.88091822094691	61.194179847941975	85.978851699729091	86.789565673337407	89.0	114.0	107.0	61.0	86.0	87.0	RhTFIso05r01_CHX_11	RhTFIso05r01_CHX_11
2	2	185	192	123	0.026787526836271263	0.27135999999999999	0.027282801563470026	0.00035859576065817584	0.0014666839577946878	-1.7786074324637805e-06	0.015771925119938905	0.117632	95.870754716981139	120.80613207547169	113.09716981132075	63.490645586297759	88.203074220465524	87.105928853754946	94.0	119.0	111.0	63.0	88.0	87.0	RhTFIso05r01_CHX_11	RhTFIso05r01_CHX_11
3	2	310	192	123	0.015343725134596014	0.265984	0.015863622363214418	0.00019798845006706729	0.00082650227996685505	-2.2753790962693156e-06	0.0288696044959449	0.086080000000000004	86.188883541867185	110.76876804619826	105.38185755534167	64.778446246403348	89.345365768593595	87.16034527857704	84.0	109.0	103.0	65.0	89.0	87.0	RhTFIso05r01_CHX_11	RhTFIso05r01_CHX_11
4	2	435	180	123	0.015551835600112054	0.262208	0.015958606759893756	0.00020041895747435016	0.00077169248861987312	-1.5149408822682595e-06	0.037610066774073733	0.074880000000000002	86.690505247742252	110.82108860141567	105.30461313155968	65.358865371269957	89.73265093684941	87.359646079111727	85.0	108.0	103.0	65.0	90.0	87.0	RhTFIso05r01_CHX_11	RhTFIso05r01_CHX_11
5	2	554	182	123	0.01281704052807226	0.262208	0.013212218403400365	0.00016389913976977107	0.00061588567912873268	-1.8497600117678167e-06	0.046432181202560159	0.067391999999999994	83.615328288991947	108.71759824261655	104.32194288503783	65.517262317834835	90.124306037473971	87.267262317834835	82.0	107.0	103.0	65.0	90.0	87.0	RhTFIso05r01_CHX_11	RhTFIso05r01_CHX_11
6	2	680	182	123	0.013316582285919989	0.25817600000000002	0.013702862590302465	0.00017666469759894713	0.00066622891647367477	-1.275707581598695e-06	0.041516544754059005	0.070720000000000005	85.222359940505697	109.66757560733762	104.7835894893406	65.271331205245446	90.01363126563713	87.471486498145111	83.0	108.0	103.0	65.0	90.0	87.0	RhTFIso05r01_CHX_11	RhTFIso05r01_CHX_11
7	2	803	181	123	0.010437614372752211	0.23955199999999999	0.01092994591112334	0.00016054745610870691	0.00060419585745842769	-2.1624172548667857e-06	0.026195102032494085	0.085760000000000003	83.191290408763024	108.47261554902485	104.31605663905958	65.922908601245581	90.68826796835549	88.007406160579023	82.0	107.0	103.0	66.0	91.0	88.0	RhTFIso05r01_CHX_11	RhTFIso05r01_CHX_11
8	2	923	182	123	0.015620888833587742	0.255104	0.01602565428796391	0.00023684213489241903	0.00034855140753119163	-1.9332878120108929e-06	0.051313692722421755	0.063231999999999997	87.264676367285503	112.08881083793277	105.73181133968892	65.938654523584503	90.512415155941227	87.96494544204829	87.0	112.0	105.0	66.0	90.0	88.0	RhTFIso05r01_CHX_11	RhTFIso05r01_CHX_11
9	2	1039	183	123	0.012361521506895486	0.24736	0.012712119443155711	0.00017407148472451731	0.00066278707123492992	-1.4606692872794247e-06	0.038649878863174288	0.071744000000000002	84.540232858990947	109.09159120310478	103.84217335058214	66.381547619047623	90.933673469387756	88.106972789115645	83.0	108.0	102.0	66.0	91.0	88.0	RhTFIso05r01_CHX_11	RhTFIso05r01_CHX_11
10	2	1172	183	123	0.013762040812776039	0.24371200000000001	0.014054104795257946	0.00020135351490360346	0.00075186517453158135	-1.0284725946874065e-06	0.039547718429322087	0.070400000000000004	86.573792016806721	110.52704831932773	104.56827731092437	66.723449268003719	91.443090462892442	88.282474401286279	85.0	109.0	103.0	67.0	91.0	88.0	RhTFIso05r01_CHX_11	RhTFIso05r01_CHX_11
11	2	1292	185	123	0.011165904784421905	0.23974400000000001	0.011454799629160722	0.00016810028735933066	0.00054320521641445033	-1.9104877455872446e-06	0.049316075594758736	0.062528	84.123598505072081	108.43780032034169	103.35424452749599	67.654684737772541	92.413250273592055	89.332435390184358	83.0	107.0	102.0	67.0	92.0	89.0	RhTFIso05r01_CHX_11	RhTFIso05r01_CHX_11
12	2	1416	182	123	0.014968699034655492	0.28851376146788993	0.015227847930410316	0.00018100760397621635	0.00063443974138052651	-1.2991283701256681e-06	0.054850486380812268	0.069651376146788985	85.547443398626299	110.32866954973289	105.58560162808446	68.486383329894778	93.644831854755523	91.049412007427279	85.0	108.0	104.0	68.0	94.0	91.0	RhTFIso05r01_CHX_11	RhTFIso05r01_CHX_11
1	3	66	305	123	0.019993490363252858	0.26163199999999998	0.020550505562176396	0.00027479490094246953	0.0010487311004484887	-1.9589182060547587e-06	0.024500989682616284	0.092672000000000004	89.349804305283755	114.26663405088063	107.8236301369863	61.491462251885238	85.900754095518764	86.867989945393077	87.0	112.0	106.0	61.0	86.0	87.0	RhTFIso05r01_CHX_11	RhTFIso05r01_CHX_11
2	3	185	311	123	0.025389438752967699	0.26611200000000002	0.025903875670738621	0.00033862040354037763	0.0013171444539559476	-1.7237367704310727e-06	0.017869077327897623	0.10944	94.230158730158735	119.14718614718615	112.06782106782107	63.552542077265194	87.787825935292574	87.747536408825326	92.0	117.0	110.0	63.0	88.0	88.0	RhTFIso05r01_CHX_11	RhTFIso05r01_CHX_11
3	3	300	307	123	0.014785415137375035	0.26547199999999999	0.015220146557421599	0.00019568981662534743	0.00076755571058992019	-2.0441037619748392e-06	0.033900432692743142	0.07936	85.427675988428163	110.02434908389586	104.46938283510126	64.412825651302612	89.11283436438093	87.892742005750634	84.0	108.0	103.0	64.0	89.0	88.0	RhTFIso05r01_CHX_11	RhTFIso05r01_CHX_11
4	3	430	307	123	0.015597428679912347	0.263488	0.015960957292397139	0.00020706284291604449	0.00075255869982808401	-1.6135041933538217e-06	0.037408999013227064	0.075263999999999998	85.927860092300222	110.81782851590964	105.1921301918873	65.377042057698986	89.915884602015993	88.219151894334374	84.0	109.0	103.0	65.0	90.0	88.0	RhTFIso05r01_CHX_11	RhTFIso05r01_CHX_11
5	3	546	318	123	0.014552089932038357	0.267648	0.01495352802824987	0.0001864514921247949	0.00072428259634812499	-1.7316267285331886e-06	0.029843657472419419	0.084928000000000003	85.727881396461029	110.27450980392157	105.32639885222382	66.380232456523643	90.589181158787028	88.152320195752864	84.0	108.0	103.0	66.0	90.0	88.0	RhTFIso05r01_CHX_11	RhTFIso05r01_CHX_11
6	3	675	316	123	0.01381540696111727	0.26335999999999998	0.014175140189074854	0.00018175251305095356	0.00066000909743788635	-1.5476989007811146e-06	0.037710814567306551	0.074943999999999997	85.280680437424053	109.42503037667072	104.94434993924666	66.286185925282368	90.827280625543011	88.374370112945272	84.0	108.0	103.0	66.0	91.0	88.0	RhTFIso05r01_CHX_11	RhTFIso05r01_CHX_11
7	3	792	302	123	0.009846350272720102	0.24179200000000001	0.010197511363405663	0.00014960471170549482	0.00051587595579759467	-1.7222025674127137e-06	0.048734611942126013	0.063168000000000002	82.186341979883537	106.81656961355215	102.55796717840127	66.682451253481901	91.2163416898793	88.425255338904364	81.0	106.0	102.0	67.0	91.0	88.0	RhTFIso05r01_CHX_11	RhTFIso05r01_CHX_11
8	3	930	303	123	0.016151524378432505	0.26060800000000001	0.016474398224251816	0.00023495270798357861	0.00043800690075586693	-3.7798811140488338e-07	0.042059742400122425	0.070592000000000002	88.157416502946958	112.30304518664047	105.87892927308448	66.917510603306496	91.220289102397643	88.577945122479008	88.0	112.0	105.0	67.0	91.0	88.0	RhTFIso05r01_CHX_11	RhTFIso05r01_CHX_11
9	3	1049	303	123	0.011715338409226674	0.24857599999999999	0.012074573927703631	0.00016990951843019638	0.00055760723213080265	-2.2249138701514078e-06	0.053740695661649497	0.060991999999999998	83.52239958805356	108.80329557157569	103.22348094747683	67.169491525423723	91.737586236266083	88.631888254833484	82.0	107.0	102.0	67.0	92.0	89.0	RhTFIso05r01_CHX_11	RhTFIso05r01_CHX_11
10	3	1169	305	123	0.013386926593745038	0.244864	0.013671852429228103	0.00019296013082555706	0.00069533978716186152	-1.3142886818488329e-06	0.041449893890521054	0.068928000000000003	86.3170412963931	110.78044955567172	104.4553058024046	67.530553436731921	92.135096194592762	88.981947622679883	85.0	109.0	103.0	67.0	92.0	89.0	RhTFIso05r01_CHX_11	RhTFIso05r01_CHX_11
11	3	1297	310	123	0.013544005526844576	0.25164799999999998	0.013742503221911919	0.00019262276399836936	0.00068475444801564063	-1.191124643343384e-06	0.047585540342578607	0.065215999999999996	86.376144455747706	111.25254323499492	103.84511698880976	69.01231506029248	93.248097152142307	90.007440348926707	85.0	110.0	103.0	69.0	93.0	90.0	RhTFIso05r01_CHX_11	RhTFIso05r01_CHX_11
12	3	1416	308	123	0.012164835860400326	0.28051376146788992	0.012352466394831386	0.00015744327647386038	0.00048251094288948216	-1.3706985626254969e-06	0.083812498561345997	0.055559633027522932	83.299058084772369	107.95656724228152	103.50052328623757	69.011119045190242	94.256656125675818	91.182087116188924	82.0	107.0	103.0	69.0	94.0	91.0	RhTFIso05r01_CHX_11	RhTFIso05r01_CHX_11
1	4	62	441	123	0.021679277536244063	0.30380800000000002	0.0226235984072716	0.00026350197269523493	0.0012379126615716253	-4.8885646823374364e-06	0.021543807100867274	0.10649599999999999	89.728460080050553	113.65009479671372	107.5725721508321	62.345284059569771	87.973800330943192	87.998437212722934	88.0	112.0	106.0	61.0	87.0	88.0	RhTFIso05r01_CHX_11	RhTFIso05r01_CHX_11
2	4	190	436	123	0.015707919563059128	0.26412799999999997	0.016343041558984018	0.00020871950888492691	0.00076467656568276891	-2.5374711238846448e-06	0.031802593518273303	0.081727999999999995	85.598255391325424	110.36321783377757	105.58444390598498	62.118020525308751	86.841624630370504	87.621499391198469	84.0	108.0	104.0	62.0	87.0	88.0	RhTFIso05r01_CHX_11	RhTFIso05r01_CHX_11
3	4	308	443	123	0.018138931070260121	0.29254400000000003	0.018767305890099301	0.0002138324758599731	0.0008946695771921534	-2.3022258256644111e-06	0.022835720529982468	0.101504	87.159483701597026	112.2870269087727	106.64427915117042	63.289487968156322	87.863307400036192	87.334268138230499	85.0	110.0	104.0	63.0	88.0	88.0	RhTFIso05r01_CHX_11	RhTFIso05r01_CHX_11
4	4	431	436	123	-9.3331706467862256e-05	0.0	0.0			-1.0338861857093697e-06	0.0	0.0012800000000000001				64.640063999999995	89.349440000000001	88.361791999999994				65.0	89.0	88.0	RhTFIso05r01_CHX_11	RhTFIso05r01_CHX_11
5	4	553	434	123	0.015244197054526837	0.26400000000000001	0.015589480466123448	0.00020226947273285938	0.00074243976079001043	-1.4853396493795285e-06	0.030957455993678822	0.082816000000000001	86.198060606060608	110.88145454545455	105.97575757575757	66.211565217391311	90.987217391304341	88.255652173913049	85.0	109.0	104.0	66.0	91.0	88.0	RhTFIso05r01_CHX_11	RhTFIso05r01_CHX_11
6	4	673	432	123	0.013857707797778495	0.26003199999999999	0.014191343578202091	0.0001878111226558154	0.00065637907853313931	-1.0366362556357529e-06	0.033259374216196194	0.079296000000000005	84.968250061530895	110.16244154565592	104.6642874723111	66.794585711814563	91.328057429510466	88.782477080089947	84.0	108.0	103.0	67.0	91.0	89.0	RhTFIso05r01_CHX_11	RhTFIso05r01_CHX_11
7	4	794	438	123	0.013910731512468731	0.27200000000000002	0.014280533797561747	0.00018130674059123903	0.00063196347628190826	-1.7537445226470258e-06	0.030558770985502231	0.084608000000000003	85.382823529411766	109.42870588235294	104.28164705882352	66.549186813186807	91.427516483516484	88.921934065934067	84.0	108.0	103.0	67.0	91.0	89.0	RhTFIso05r01_CHX_11	RhTFIso05r01_CHX_11
8	4	922	433	123	0.012935714326710654	0.25235200000000002	0.013239191032314305	0.00018124628478147198	0.00069374105549410638	-1.1942355953873028e-06	0.034011211410666597	0.077247999999999997	84.346183109307631	110.08445346183109	104.40400710119198	67.06651258346173	91.789933230611197	88.880414312617702	83.0	109.0	103.0	67.0	92.0	89.0	RhTFIso05r01_CHX_11	RhTFIso05r01_CHX_11
9	4	1041	437	123	0.012366563858279358	0.25382399999999999	0.012709282039823095	0.00017330198772854172	0.00052677785435291716	-1.326282984247016e-06	0.041414204029177511	0.070208000000000007	84.040090771558241	109.15103378719112	103.74533535047907	67.474140149240924	92.197701346599189	89.012522514795435	83.0	108.0	102.0	67.0	92.0	89.0	RhTFIso05r01_CHX_11	RhTFIso05r01_CHX_11
10	4	1161	439	123	0.018159011081873226	0.26335999999999998	0.018421031447747958	0.00027071791713083451	0.00043524502404084533	-1.1911240214811897e-07	0.052974371689103246	0.063231999999999997	89.70328068043743	114.07582017010935	106.50741190765493	67.873848827106869	92.711294526498691	89.445178105994785	90.0	114.0	106.0	68.0	93.0	89.0	RhTFIso05r01_CHX_11	RhTFIso05r01_CHX_11
11	4	1296	430	123	0.01371928348604399	0.25024000000000002	0.013931931867070504	0.00019940968902488888	0.00059224281493755243	-1.1036465760590836e-06	0.052328594161146595	0.062016000000000002	87.132480818414322	110.71892583120204	103.77212276214834	69.170721297481862	93.633461374306449	90.177806231327352	86.0	110.0	103.0	69.0	94.0	90.0	RhTFIso05r01_CHX_11	RhTFIso05r01_CHX_11
12	4	1416	436	123	0.025149805154597273	0.31552293577981649	0.025330923508730729	0.00029768910435254301	0.0010713117681141358	-1.0562561812922115e-06	0.031193602280518751	0.096587155963302751	93.168643870667594	118.37357525005815	111.25913003023959	69.639716920437493	95.096718850525406	91.692472657087706	93.0	117.0	110.0	70.0	95.0	92.0	RhTFIso05r01_CHX_11	RhTFIso05r01_CHX_11
1	5	66	552	123	0.02235420520451863	0.26905600000000002	0.02299359883927082	0.000300105118920024	0.0010730190273756557	-2.5780055732173935e-06	0.024648495617388338	0.093696000000000002	90.603710751665076	115.82730732635585	109.60133206470029	61.637072060239909	87.49995622099641	88.05393573242273	89.0	114.0	108.0	62.0	87.0	88.0	RhTFIso05r01_CHX_11	RhTFIso05r01_CHX_11
2	5	179	556	123	0.0159350207840455	0.26284800000000003	0.016595735626055534	0.00021716577750801927	0.00089476589675974009	-3.0913766381560865e-06	0.026482789608240655	0.089344000000000007	85.660579498417334	111.11395178962746	105.89554419284148	62.028911269317589	87.277478728945994	87.684754297621112	84.0	109.0	104.0	62.0	87.0	88.0	RhTFIso05r01_CHX_11	RhTFIso05r01_CHX_11
3	5	307	556	123	0.015080672933520453	0.26201600000000003	0.015588175862747394	0.00020010305879433152	0.00073791479353613849	-2.5723248112428518e-06	0.033351433908211554	0.079488000000000003	85.282852955544698	110.28334147532975	105.63287738153396	63.323475847714853	88.053247766889257	87.846500737143359	84.0	109.0	104.0	63.0	88.0	88.0	RhTFIso05r01_CHX_11	RhTFIso05r01_CHX_11
4	5	431	556	123	0.014550343085636399	0.26988800000000002	0.014926424421534891	0.000185704042453137	0.00069667631503411991	-1.9138289575398316e-06	0.036923242187697797	0.076672000000000004	85.545648565330808	110.09698838036519	105.42542091534266	66.325823983169713	90.696967040673215	88.627191444600285	84.0	108.0	104.0	66.0	91.0	89.0	RhTFIso05r01_CHX_11	RhTFIso05r01_CHX_11
5	5	554	552	123	0.014538332847197981	0.26636799999999999	0.014829110679555219	0.00019296767756462417	0.00068381033972524455	-1.1991717223758516e-06	0.035081698515779268	0.078144000000000005	85.354877462758296	110.34142239308025	105.72609322441134	66.801186425891999	91.661868620779899	88.863561022419958	84.0	109.0	104.0	67.0	92.0	89.0	RhTFIso05r01_CHX_11	RhTFIso05r01_CHX_11
6	5	677	555	123	0.013893969849934129	0.26342399999999999	0.014107399599936473	0.00018249034948760622	0.00063577359161170403	-1.41094727348371e-06	0.040940449595925799	0.071936	85.215986394557817	109.80199222546162	104.38896987366375	67.133286992788257	91.8198800938396	88.797723520722911	84.0	108.0	103.0	67.0	92.0	89.0	RhTFIso05r01_CHX_11	RhTFIso05r01_CHX_11
7	5	798	553	123	0.013434604830045596	0.25516800000000001	0.013686074500393601	0.00018563850253101109	0.00065563326495073255	-9.269107265507149e-07	0.036537792874811958	0.074943999999999997	84.601203912716329	109.76398294456985	104.83396037120642	66.922581199518817	92.071146245059282	89.064615913387186	83.0	108.0	104.0	67.0	92.0	89.0	RhTFIso05r01_CHX_11	RhTFIso05r01_CHX_11
8	5	918	558	123	0.011498031521492997	0.24979199999999999	0.011737626172716923	0.00015967107202484928	0.00064779722301644459	-7.265428874417824e-07	0.039735647783553749	0.071104000000000001	83.371509095567518	108.51293876505252	103.60389444017423	67.325541716430649	92.463743388500262	89.267787067053405	82.0	107.0	102.0	67.0	92.0	89.0	RhTFIso05r01_CHX_11	RhTFIso05r01_CHX_11
9	5	1046	560	123	0.012548686356899288	0.25286399999999998	0.012815354013636043	0.00017699269032680692	0.00061546858382091553	-1.3331095579001822e-07	0.040588840009068643	0.070784	84.767653758542139	110.17717033662365	103.79827891672994	67.978670549940034	92.883073496659236	89.677659756724339	84.0	109.0	103.0	68.0	93.0	90.0	RhTFIso05r01_CHX_11	RhTFIso05r01_CHX_11
10	5	1162	553	123	0.016137157673682758	0.25087999999999999	0.0163779399909754	0.00025553777095420978	0.00041115148785558455	-2.9558528891443318e-07	0.057572152296026829	0.059200000000000003	88.972448979591832	113.89311224489796	105.86454081632652	68.10568133276378	93.144639043143954	89.679196924391292	89.0	114.0	106.0	68.0	93.0	90.0	RhTFIso05r01_CHX_11	RhTFIso05r01_CHX_11
11	5	1292	559	123	0.013362104279819466	0.25516800000000001	0.013549722578080346	0.00019166485514400839	0.00062068154477708595	-1.6130745651597765e-07	0.049212311829265082	0.064575999999999995	85.853774767995986	110.65086531226486	104.36995234512165	69.209572091424647	94.056452998797042	90.680443375150375	85.0	110.0	103.0	69.0	94.0	91.0	RhTFIso05r01_CHX_11	RhTFIso05r01_CHX_11
12	5	1416	560	123	0.014202026385968144	0.29541284403669726	0.014399797636354779	0.0001839257432957836	0.00035719610772559797	-3.844406319635898e-07	0.13031657444508313	0.045724770642201838	85.063850931677024	110.33689440993788	105.30757763975156	69.798749999999998	95.209374999999994	92.51614583333334	85.0	110.0	105.0	70.0	95.0	92.0	RhTFIso05r01_CHX_11	RhTFIso05r01_CHX_11
1	6	70	684	123	0.021605688978624846	0.27155200000000002	0.022100237543105569	0.00028159783842694226	0.00096292056750889267	-1.7348303488562269e-06	0.024507491188383093	0.094399999999999998	90.935187367428711	115.93565873202922	109.4343624793778	63.011772974872606	89.036021788789313	89.295466526093833	89.0	114.0	108.0	63.0	89.0	90.0	RhTFIso05r01_CHX_11	RhTFIso05r01_CHX_11
2	6	191	688	123	0.017414201571827805	0.27078400000000002	0.018012459963046512	0.00022717413598619623	0.0008600094137169857	-1.9408250701574929e-06	0.027165484827237293	0.089536000000000004	86.889860553060743	112.23186008035925	107.02623493264004	63.455853958223628	88.864665613480781	88.513515885553801	85.0	110.0	105.0	63.0	89.0	89.0	RhTFIso05r01_CHX_11	RhTFIso05r01_CHX_11
3	6	308	683	123	0.016363170028256144	0.26566400000000001	0.016747353952836792	0.00021466523730920021	0.00074674625444061729	-1.815649169552602e-06	0.030629617545370694	0.083519999999999997	85.5885328836425	111.37171765839557	106.06408094435076	64.525797455115921	89.984748126198355	88.148161059787341	84.0	110.0	104.0	65.0	90.0	88.0	RhTFIso05r01_CHX_11	RhTFIso05r01_CHX_11
4	6	431	677	123	0.015354616134807217	0.271424	0.015602171272485187	0.00019891557948698103	0.00071799371578705365	-1.4121970060561445e-06	0.036581675777995697	0.077247999999999997	86.326573921244986	111.30582409809007	105.73567554821976	67.196855235418127	91.633784258608571	89.659785664089952	85.0	110.0	104.0	67.0	92.0	90.0	RhTFIso05r01_CHX_11	RhTFIso05r01_CHX_11
5	6	554	680	123	0.01449282110641462	0.26547199999999999	0.014726869029396693	0.00019312879817522981	0.0006774995100954685	-1.0562905526759753e-06	0.030513880182784742	0.083648	86.058341369334613	110.53495660559305	105.71070395371264	67.72222706282129	92.466149690685725	89.809880630826868	85.0	109.0	104.0	68.0	92.0	90.0	RhTFIso05r01_CHX_11	RhTFIso05r01_CHX_11
6	6	672	686	123	0.014023820916084775	0.26841599999999999	0.014281175599537293	0.00018408029509287932	0.00064866003755460733	-1.6617375264576048e-06	0.032522317315285543	0.081472000000000003	84.601335240820219	109.92179303767287	104.33547925608012	67.648412212404864	92.632840521389198	89.631440818825993	83.0	108.0	103.0	68.0	93.0	90.0	RhTFIso05r01_CHX_11	RhTFIso05r01_CHX_11
7	6	795	678	123	0.015258694373254814	0.26118400000000003	0.015607948377468858	0.00022736502001893992	0.00040623315593948424	-1.8034850750170611e-06	0.053289107182439628	0.062784000000000006	87.465327125704491	111.64028424405782	106.00441068365596	67.603690228690226	92.593381843381849	89.625952875952876	87.0	111.0	106.0	68.0	93.0	90.0	RhTFIso05r01_CHX_11	RhTFIso05r01_CHX_11
8	6	926	685	123	0.012012167800843103	0.25600000000000001	0.012277952500051795	0.00016468424898418118	0.00063382787471604016	-5.0241723693112828e-07	0.041541721039203873	0.070400000000000004	84.604749999999996	108.97075	103.97675	68.325935483870964	92.844129032258067	89.898064516129025	83.0	107.0	103.0	68.0	93.0	90.0	RhTFIso05r01_CHX_11	RhTFIso05r01_CHX_11
9	6	1038	677	123	0.011809693943812496	0.24985599999999999	0.012038425080422624	0.00016425329130708832	0.00054286671835491128	-5.6278538792605834e-07	0.0459747133354933	0.066112000000000004	84.974897540983605	109.80174180327869	104.15983606557377	68.526576230697046	93.193840116031055	90.221909393396473	83.0	108.0	103.0	68.0	93.0	90.0	RhTFIso05r01_CHX_11	RhTFIso05r01_CHX_11
10	6	1173	690	123	0.01311055574605524	0.242368	0.01332168808249431	0.00019478674624511623	0.00055310161188244864	-4.8255959383846553e-07	0.052841208833410341	0.060735999999999998	85.742012146818055	111.19250066015316	103.96672828096118	68.542152390606518	93.734076702145629	90.142845075181611	85.0	110.0	103.0	69.0	94.0	90.0	RhTFIso05r01_CHX_11	RhTFIso05r01_CHX_11
11	6	1292	692	123	0.014417148197957761	0.24096000000000001	0.014577512589430438	0.00021645705792305443	0.00078824978793930124	-2.0422559423840939e-07	0.038888735298737952	0.070592000000000002	88.110491367861883	112.77503320053121	105.66826029216467	69.685413153456992	94.516863406408092	91.015682967959535	86.0	112.0	104.0	70.0	95.0	91.0	RhTFIso05r01_CHX_11	RhTFIso05r01_CHX_11
12	6	1416	678	123	0.021057893695809227	0.30921100917431193	0.021227689298766228	0.00024845287239361484	0.0013167688079926156	1.2427534451759952e-06	0.032414521539606826	0.093798165137614672	89.498219795869929	116.20769048184192	109.40137669119392	70.286867828304295	95.736294092647682	92.667658308542286	88.0	115.0	108.0	70.0	96.0	93.0	RhTFIso05r01_CHX_11	RhTFIso05r01_CHX_11
1	7	68	813	123	0.025938035305374793	0.29343999999999998	0.02627837048475716	0.00031913297739421674	0.0012016071298093919	-1.3706274616816382e-06	0.023079958847475084	0.10112	94.012213740458009	118.90599781897492	112.17579062159214	65.000996376811599	90.524456521739125	90.990307971014488	93.0	117.0	111.0	65.0	90.0	91.0	RhTFIso05r01_CHX_11	RhTFIso05r01_CHX_11
2	7	178	810	123	0.0189584339329254	0.27679999999999999	0.019353597465589029	0.00024770706620970558	0.00085112590637451179	-1.2437769794521789e-06	0.029733264387573646	0.086527999999999994	88.415260115606941	114.00369942196532	108.49757225433525	65.522477876106194	90.811946902654867	90.396548672566368	87.0	112.0	107.0	65.0	91.0	91.0	RhTFIso05r01_CHX_11	RhTFIso05r01_CHX_11
3	7	308	813	123	0.019076654055995793	0.28697600000000001	0.019263594772052049	0.00023113566232831702	0.00082974371696651608	-1.2088323770254273e-06	0.027632428380561309	0.091392000000000001	87.786574487065124	113.27542372881356	107.70383586083854	67.744636926667269	93.159231666816268	90.730993627142979	86.0	111.0	106.0	68.0	93.0	91.0	RhTFIso05r01_CHX_11	RhTFIso05r01_CHX_11
4	7	437	806	123	0.016434252161373609	0.271424	0.016689368229674539	0.00021345452871524931	0.00072807342346787078	-1.2628328871722213e-06	0.032075416305600263	0.082496	87.62414524876209	112.4913935392596	107.29214807828342	68.096011946591702	93.413826423049898	90.316145467322556	86.0	111.0	105.0	68.0	93.0	90.0	RhTFIso05r01_CHX_11	RhTFIso05r01_CHX_11
5	7	546	803	123	0.014859803711384432	0.26879999999999998	0.015079842457158382	0.00019527267460369305	0.00060506716435887854	-1.125991994658968e-06	0.042913710009593223	0.070975999999999997	86.387142857142862	111.34928571428571	105.91833333333334	68.535579868708965	93.382319474835882	90.354835886214445	85.0	110.0	104.0	68.0	93.0	90.0	RhTFIso05r01_CHX_11	RhTFIso05r01_CHX_11
6	7	684	806	123	0.015150606105866537	0.26649600000000001	0.015341257416336644	0.00019550140480876141	0.00073429573437656275	-8.4625440439317336e-07	0.034586798359568773	0.078719999999999998	86.75096061479347	111.83453410182517	105.96517771373679	68.404240467672977	93.441497251548725	90.392112381118579	85.0	110.0	104.0	68.0	93.0	90.0	RhTFIso05r01_CHX_11	RhTFIso05r01_CHX_11
7	7	802	803	123	0.01593203297858585	0.26668799999999998	0.016139657397229251	0.00023247918866497981	0.00042237152463505946	-1.0032686354139802e-06	0.061199785361618318	0.059200000000000003	87.5003599712023	112.93808495320374	106.43484521238301	68.371356257636592	93.390556816198284	90.306859835922495	88.0	113.0	106.0	68.0	93.0	90.0	RhTFIso05r01_CHX_11	RhTFIso05r01_CHX_11
8	7	925	806	123	0.012679146864718818	0.25945600000000002	0.012797954026770935	0.00017700001569804149	0.00048915597005175953	-1.9103912723328161e-07	0.052614253328264519	0.062976000000000004	84.013566847557968	108.60631475086335	103.90848544647262	68.595972690346557	93.476881859821972	90.346037507562002	83.0	107.0	103.0	69.0	93.0	90.0	RhTFIso05r01_CHX_11	RhTFIso05r01_CHX_11
9	7	1037	808	123	0.016351859040442677	0.264768	0.016555026860471639	0.00024088114187434401	0.00045572948693592104	4.5743824083181364e-07	0.055711022842487107	0.061823999999999997	88.586415276770609	113.27556200145033	106.03529127386996	68.603934540389972	93.932799442896936	90.54186977715878	89.0	113.0	106.0	69.0	94.0	91.0	RhTFIso05r01_CHX_11	RhTFIso05r01_CHX_11
10	7	1175	803	123	0.011193768518877661	0.24691199999999999	0.011440210166197458	0.00016369661131629496	0.00046490657838473839	-1.892254077304073e-06	0.055456041442646556	0.059839999999999997	84.529808190772414	109.27579056505962	102.98289269051322	68.931503356845411	93.963117192147536	90.588680207359559	84.0	108.0	102.0	69.0	94.0	91.0	RhTFIso05r01_CHX_11	RhTFIso05r01_CHX_11
11	7	1298	810	123	0.014385627068342174	0.26355200000000001	0.014565290557883326	0.00019866889018066574	0.00069262130241281943	-3.8942743197209711e-07	0.046405383908268649	0.067584000000000005	87.181884409907724	111.86425449247207	105.71806702282662	69.975058659946114	94.945424524202664	91.31128878074216	86.0	111.0	105.0	70.0	95.0	91.0	RhTFIso05r01_CHX_11	RhTFIso05r01_CHX_11
12	7	1408	807	123	0.00040407894917994562	0.022974358974358976	0.00047718124922016731	5.7295588849897329e-05	0.00016192370371591043	8.6274563206227572e-07	8.7237614182328151	0.0015042735042735042	76.199404761904759	101.84821428571429	98.601190476190482	70.427321716005324	95.709216880117566	92.644971656519004	75.0	100.0	97.0	71.0	96.0	93.0	RhTFIso05r01_CHX_11	RhTFIso05r01_CHX_11
1	8	67	932	123	0.032204000314651357	0.35295049504950493	0.032400856678685232	0.00033872323987397932	0.0010946246990517282	-1.8469377673103905e-06	0.03118497853507712	0.10613861386138614	95.450852782764812	120.58078994614003	113.47845601436266	67.503366385114461	92.691639123515728	92.913820541069896	94.0	119.0	112.0	67.0	93.0	93.0	RhTFIso05r01_CHX_11	RhTFIso05r01_CHX_11
2	8	185	931	123	0.026002013967205879	0.34298039215686277	0.026068707946424814	0.00026828105910079207	0.001047856351839943	-8.1126680856326923e-07	0.029235762944409417	0.10752941176470589	91.416876286302312	116.03109993139721	109.43036816830551	68.729378058970994	93.90079980900083	92.115554494449086	90.0	114.0	107.0	69.0	94.0	92.0	RhTFIso05r01_CHX_11	RhTFIso05r01_CHX_11
3	8	308	931	123	0.022690903044861824	0.34392156862745099	0.022906213163754355	0.00023076057494035904	0.00090004647804316619	-7.9443271936819301e-07	0.030235135881462264	0.10588235294117647	89.089167616875713	114.69167616875713	109.04880273660206	69.154692169754938	94.249611476389717	92.220203227734615	88.0	113.0	107.0	69.0	94.0	92.0	RhTFIso05r01_CHX_11	RhTFIso05r01_CHX_11
4	8	427	933	123	0.019320395698315132	0.3372	0.019431515309228785	0.00020176624729102572	0.0006936369004792081	-9.9377532802610491e-07	0.045159646087160769	0.086639999999999995	87.58410438908659	112.08398576512455	107.16654804270463	69.30271575135788	94.30138805069403	91.567652383826186	86.0	111.0	106.0	69.0	94.0	91.0	RhTFIso05r01_CHX_11	RhTFIso05r01_CHX_11
5	8	556	932	123	0.018620329789401088	0.32902970297029704	0.018833289504955834	0.00019877992731686948	0.00062000534981351222	-9.1634567989288106e-07	0.047347576899816779	0.083168316831683173	87.062831006259032	112.01179585941262	106.41165142031777	68.74276944870735	94.026561208830131	91.213552118994215	86.0	111.0	105.0	69.0	94.0	91.0	RhTFIso05r01_CHX_11	RhTFIso05r01_CHX_11
6	8	677	931	123	0.019112831459648167	0.32768627450980392	0.019275243345288694	0.00021377596143084719	0.00066318723513894421	-8.8325810712165082e-07	0.044109161136565753	0.085568627450980386	86.744135950215409	112.32575394925802	107.56941120153184	69.20881941203919	94.13684087727485	91.083761082594492	86.0	111.0	106.0	69.0	94.0	91.0	RhTFIso05r01_CHX_11	RhTFIso05r01_CHX_11
7	8	795	932	123	0.018077535424849477	0.3272871287128713	0.018251310474309519	0.00020004741339391216	0.00059139869385322317	-1.1121864328573979e-06	0.046475086018006817	0.083722772277227728	86.60116166505324	111.60987415295257	105.78170377541143	69.45661132697515	94.079359472506766	91.106322854115149	86.0	110.0	104.0	69.0	94.0	91.0	RhTFIso05r01_CHX_11	RhTFIso05r01_CHX_11
8	8	917	931	123	0.015539917190057715	0.31756862745098041	0.015744122642374656	0.00017685507802637257	0.00045670036087960749	-5.9873262593253124e-07	0.059338377537727346	0.072627450980392153	84.35959496171894	109.68560138305754	104.35959496171894	69.051373405355704	93.97011837719802	90.875991265371795	83.0	108.0	103.0	69.0	94.0	91.0	RhTFIso05r01_CHX_11	RhTFIso05r01_CHX_11
9	8	1045	931	123	0.019979468974974969	0.3195294117647059	0.02015903635827301	0.00024523644084483229	0.00048692414337790294	-3.3998776704539733e-07	0.073076875915005182	0.065647058823529406	89.18630338733432	113.73465881197841	106.61708394698086	69.198478561549095	94.429806362378983	91.010834485938219	89.0	114.0	106.0	69.0	94.0	91.0	RhTFIso05r01_CHX_11	RhTFIso05r01_CHX_11
10	8	1165	932	123	0.015936619263436015	0.30994059405940594	0.016077717503119773	0.00018028561413071099	0.0004720774838132411	-9.5928738044228972e-07	0.058476455529787454	0.072633663366336629	84.78839764886277	110.1523128034756	103.71965244058268	69.420339761248854	94.204086317722684	90.76664370982553	83.0	109.0	102.0	70.0	94.0	91.0	RhTFIso05r01_CHX_11	RhTFIso05r01_CHX_11
11	8	1292	930	123	0.020057384114948073	0.31347572815533981	0.020185227831834962	0.00023655170927536703	0.00076717090084858644	-1.824507477623155e-07	0.051643267510066503	0.076970873786407767	89.132061446977204	114.02775024777007	105.95564915758176	70.292453897499712	95.097635479126595	91.662744654372673	88.0	113.0	105.0	70.0	95.0	92.0	RhTFIso05r01_CHX_11	RhTFIso05r01_CHX_11
12	8	1410	933	123	0.00026541817770830121	0.024695652173913042	0.00036585603912024157	4.8109524558287333e-05	5.224461608838833e-05	3.7858687860879128e-07	13.940817400304708	0.0013913043478260871	74.978873239436624	99.964788732394368	97.197183098591552	70.490281740370904	95.779422253922974	93.017207560627668	74.0	99.0	96.0	71.0	96.0	93.0	RhTFIso05r01_CHX_11	RhTFIso05r01_CHX_11
