A01	1	0.044354815783424942	Growth
A02	1	0.035667164461359362	Growth
A03	1	0.054816232253860522	Growth
A04	1	0.059244770275957807	Growth
A05	1	0.060283746173966576	Growth
A06	1	0.065403300710625861	Growth
A07	1	0.06445073805236648	Growth
A08	1	0.066343593013713467	Growth
A09	1	0.065899143933749446	Growth
A10	1	0.071247091737945203	Growth
A11	1	0.063365707584333658	Growth
A12	1	0.058413437120314979	Growth
B01	NA	5.3967104961247085e-05	Growth
B02	1	0.046173782219923847	Growth
B03	1	0.038521140945820605	Growth
B04	1	0.044741964284761238	Growth
B05	1	0.037711370424126957	Growth
B06	1	0.043328894483083746	Growth
B07	1	0.044171259065714209	Growth
B08	1	0.044113543512136644	Growth
B09	1	0.044419206985485175	Growth
B10	1	0.044323311820632601	Growth
B11	1	0.052458703954086784	Growth
B12	NA	-8.7646189556748262e-06	Growth
C01	1	0.042893246401413364	Growth
C02	3	0.020905580774152006	Growth
C03	1	0.041730998124417128	Growth
C04	1	0.035800346282047299	Growth
C05	1	0.041918237953176715	Growth
C06	1	0.035603983405596278	Growth
C07	1	0.046355959519099335	Growth
C08	1	0.038678073754829019	Growth
C09	1	0.044770818359444811	Growth
C10	1	0.044476251679194632	Growth
C11	1	0.043142075299772986	Growth
C12	1	0.054553083410422691	Growth
D01	1	0.044415180759919605	Growth
D02	1	0.040656835181870521	Growth
D03	1	0.041339393122848317	Growth
D04	1	0.045909669746851407	Growth
D05	1	0.043367572905087921	Growth
D06	1	0.043489296183848718	Growth
D07	1	0.041122047014260782	Growth
D08	1	0.051541543493464702	Growth
D09	1	0.043113414636778015	Growth
D10	1	0.044445497151287247	Growth
D11	1	0.0500678353073803	Growth
D12	1	0.040919716219670395	Growth
E01	1	0.044898598611498489	Growth
E02	1	0.045081761046508941	Growth
E03	1	0.0455588265346272	Growth
E04	NA	3.2590407118137059e-05	Growth
E05	1	0.047440655186683188	Growth
E06	1	0.048075675461093204	Growth
E07	1	0.045629680145487024	Growth
E08	1	0.038895356453098689	Growth
E09	1	0.037392603951824865	Growth
E10	1	0.044387079995347703	Growth
E11	1	0.047096919234761558	Growth
E12	1	0.050765696490813153	Growth
F01	1	0.045312927692105688	Growth
F02	1	0.044809798340459547	Growth
F03	1	0.042521928738172093	Growth
F04	1	0.047627475631257507	Growth
F05	1	0.042015865110038846	Growth
F06	1	0.044169332137635742	Growth
F07	1	0.045180739728387001	Growth
F08	1	0.041973437073226122	Growth
F09	1	0.045062844786134738	Growth
F10	1	0.042598233991470343	Growth
F11	1	0.044178770233275301	Growth
F12	1	0.054218821325502015	Growth
G01	1	0.049373558939434001	Growth
G02	1	0.044655703463786063	Growth
G03	1	0.044691366970823793	Growth
G04	1	0.044702049459540497	Growth
G05	1	0.045907627833626279	Growth
G06	1	0.047129163352707761	Growth
G07	1	0.040824412637076597	Growth
G08	1	0.04420902057144712	Growth
G09	1	0.049307286953331662	Growth
G10	1	0.048759471089939187	Growth
G11	1	0.055831087933011905	Growth
G12	NA	-2.6184215583102719e-05	Growth
H01	1	0.054016750029897552	Growth
H02	1	0.050824536598912104	Growth
H03	1	0.048852950923549091	Growth
H04	1	0.052712810872812182	Growth
H05	1	0.049482550611578947	Growth
H06	1	0.051571030519665981	Growth
H07	1	0.050389252807310207	Growth
H08	1	0.048635511681790783	Growth
H09	1	0.055828872046217538	Growth
H10	NA	-2.8607342815213255e-05	Growth
H11	1	0.062607409366694747	Growth
H12	NA	-2.037477409179075e-05	Growth











I12	0
