db_orfid	db_src_plt	db_src_pos	db_hub_plt	db_hub_pos
100356	Y8DhTFIso4208	26	RhTFIso05_HubDB01	1
100356	Y8DhTFIso4208	26	RhTFIso05_HubDB01	2
100356	Y8DhTFIso4208	26	RhTFIso05_HubDB01	3
100877	Y8DhTFIso4209	77	RhTFIso05_HubDB01	4
100877	Y8DhTFIso4209	77	RhTFIso05_HubDB01	5
100373	Y8DhTFIso4207	74	RhTFIso05_HubDB01	6
100373	Y8DhTFIso4207	74	RhTFIso05_HubDB01	7
100373	Y8DhTFIso4207	74	RhTFIso05_HubDB01	8
100373	Y8DhTFIso4207	74	RhTFIso05_HubDB01	9
100398	Y8DhTFIso4203	48	RhTFIso05_HubDB01	10
100398	Y8DhTFIso4203	48	RhTFIso05_HubDB01	11
100531	Y8DhTFIso4205	12	RhTFIso05_HubDB01	12
100531	Y8DhTFIso4205	12	RhTFIso05_HubDB01	13
100404	Y8DhTFIso4206	70	RhTFIso05_HubDB01	14
100404	Y8DhTFIso4206	70	RhTFIso05_HubDB01	15
100404	Y8DhTFIso4206	70	RhTFIso05_HubDB01	16
100924	Y8DhTFIso4209	49	RhTFIso05_HubDB01	17
100924	Y8DhTFIso4209	49	RhTFIso05_HubDB01	18
100413	Y8DhTFIso4203	50	RhTFIso05_HubDB01	19
100413	Y8DhTFIso4203	50	RhTFIso05_HubDB01	20
100471	Y8DhTFIso4204	17	RhTFIso05_HubDB01	21
100471	Y8DhTFIso4204	17	RhTFIso05_HubDB01	22
100471	Y8DhTFIso4204	17	RhTFIso05_HubDB01	23
100478	Y8DhTFIso4204	62	RhTFIso05_HubDB01	24
100478	Y8DhTFIso4204	62	RhTFIso05_HubDB01	25
100479	Y8DhTFIso4204	66	RhTFIso05_HubDB01	26
100479	Y8DhTFIso4204	66	RhTFIso05_HubDB01	27
100496	Y8DhTFIso4205	76	RhTFIso05_HubDB01	28
100496	Y8DhTFIso4205	76	RhTFIso05_HubDB01	29
100497	Y8DhTFIso4202	53	RhTFIso05_HubDB01	30
100497	Y8DhTFIso4202	53	RhTFIso05_HubDB01	31
100497	Y8DhTFIso4202	53	RhTFIso05_HubDB01	32
100497	Y8DhTFIso4202	53	RhTFIso05_HubDB01	33
100377	Y8DhTFIso4203	54	RhTFIso05_HubDB01	34
100377	Y8DhTFIso4203	54	RhTFIso05_HubDB01	35
100508	Y8DhTFIso4207	28	RhTFIso05_HubDB01	36
100508	Y8DhTFIso4207	28	RhTFIso05_HubDB01	37
100512	Y8DhTFIso4204	16	RhTFIso05_HubDB01	38
100512	Y8DhTFIso4204	16	RhTFIso05_HubDB01	39
100512	Y8DhTFIso4204	16	RhTFIso05_HubDB01	40
100019	Y8DhTFIso4206	73	RhTFIso05_HubDB01	41
100019	Y8DhTFIso4206	73	RhTFIso05_HubDB01	42
100019	Y8DhTFIso4206	73	RhTFIso05_HubDB01	43
100027	Y8DhTFIso4202	30	RhTFIso05_HubDB01	44
100027	Y8DhTFIso4202	30	RhTFIso05_HubDB01	45
100027	Y8DhTFIso4202	30	RhTFIso05_HubDB01	46
100128	Y8DhTFIso4203	19	RhTFIso05_HubDB01	47
100128	Y8DhTFIso4203	19	RhTFIso05_HubDB01	48
100558	Y8DhTFIso4204	63	RhTFIso05_HubDB01	49
100558	Y8DhTFIso4204	63	RhTFIso05_HubDB01	50
100560	Y8DhTFIso4207	26	RhTFIso05_HubDB01	51
100560	Y8DhTFIso4207	26	RhTFIso05_HubDB01	52
100055	Y8DhTFIso4205	15	RhTFIso05_HubDB01	53
100055	Y8DhTFIso4205	15	RhTFIso05_HubDB01	54
100063	Y8DhTFIso4203	52	RhTFIso05_HubDB01	55
100063	Y8DhTFIso4203	52	RhTFIso05_HubDB01	56
100578	Y8DhTFIso4202	91	RhTFIso05_HubDB01	57
100578	Y8DhTFIso4202	91	RhTFIso05_HubDB01	58
100584	Y8DhTFIso4203	49	RhTFIso05_HubDB01	59
100584	Y8DhTFIso4203	49	RhTFIso05_HubDB01	60
100586	Y8DhTFIso4203	71	RhTFIso05_HubDB01	61
100586	Y8DhTFIso4203	71	RhTFIso05_HubDB01	62
100083	Y8DhTFIso4202	29	RhTFIso05_HubDB01	63
100083	Y8DhTFIso4202	29	RhTFIso05_HubDB01	64
100083	Y8DhTFIso4202	29	RhTFIso05_HubDB01	65
100567	Y8DhTFIso4204	64	RhTFIso05_HubDB01	66
100567	Y8DhTFIso4204	64	RhTFIso05_HubDB01	67
100622	Y8DhTFIso4207	72	RhTFIso05_HubDB01	68
100622	Y8DhTFIso4207	72	RhTFIso05_HubDB01	69
100622	Y8DhTFIso4207	72	RhTFIso05_HubDB01	70
100622	Y8DhTFIso4207	72	RhTFIso05_HubDB01	71
100124	Y8DhTFIso4202	31	RhTFIso05_HubDB01	72
100124	Y8DhTFIso4202	31	RhTFIso05_HubDB01	73
100124	Y8DhTFIso4202	31	RhTFIso05_HubDB01	74
100640	Y8DhTFIso4203	72	RhTFIso05_HubDB01	75
100640	Y8DhTFIso4203	72	RhTFIso05_HubDB01	76
100132	Y8DhTFIso4208	36	RhTFIso05_HubDB01	77
100132	Y8DhTFIso4208	36	RhTFIso05_HubDB01	78
100135	Y8DhTFIso4203	51	RhTFIso05_HubDB01	79
100135	Y8DhTFIso4203	51	RhTFIso05_HubDB01	80
100140	Y8DhTFIso4204	28	RhTFIso05_HubDB01	81
100140	Y8DhTFIso4204	28	RhTFIso05_HubDB01	82
100144	Y8DhTFIso4206	71	RhTFIso05_HubDB01	83
100144	Y8DhTFIso4206	71	RhTFIso05_HubDB01	84
100144	Y8DhTFIso4206	71	RhTFIso05_HubDB01	85
100657	Y8DhTFIso4204	65	RhTFIso05_HubDB01	86
100657	Y8DhTFIso4204	65	RhTFIso05_HubDB01	87
100147	Y8DhTFIso4208	12	RhTFIso05_HubDB01	88
100147	Y8DhTFIso4208	12	RhTFIso05_HubDB01	89
100150	Y8DhTFIso4205	75	RhTFIso05_HubDB01	90
100150	Y8DhTFIso4205	75	RhTFIso05_HubDB01	91
100685	Y8DhTFIso4202	90	RhTFIso05_HubDB01	92
100685	Y8DhTFIso4202	90	RhTFIso05_HubDB01	93
100697	Y8DhTFIso4204	68	RhTFIso05_HubDB01	94
100697	Y8DhTFIso4204	68	RhTFIso05_HubDB02	1
100216	Y8DhTFIso4208	23	RhTFIso05_HubDB02	2
100216	Y8DhTFIso4208	23	RhTFIso05_HubDB02	3
100216	Y8DhTFIso4208	23	RhTFIso05_HubDB02	4
100738	Y8DhTFIso4202	54	RhTFIso05_HubDB02	5
100738	Y8DhTFIso4202	54	RhTFIso05_HubDB02	6
100738	Y8DhTFIso4202	54	RhTFIso05_HubDB02	7
100738	Y8DhTFIso4202	54	RhTFIso05_HubDB02	8
100231	Y8DhTFIso4203	73	RhTFIso05_HubDB02	9
100231	Y8DhTFIso4203	73	RhTFIso05_HubDB02	10
100239	Y8DhTFIso4202	32	RhTFIso05_HubDB02	11
100239	Y8DhTFIso4202	32	RhTFIso05_HubDB02	12
100239	Y8DhTFIso4202	32	RhTFIso05_HubDB02	13
100240	Y8DhTFIso4204	27	RhTFIso05_HubDB02	14
100240	Y8DhTFIso4204	27	RhTFIso05_HubDB02	15
100276	Y8DhTFIso4204	26	RhTFIso05_HubDB02	16
100276	Y8DhTFIso4204	26	RhTFIso05_HubDB02	17
100286	Y8DhTFIso4205	13	RhTFIso05_HubDB02	18
100286	Y8DhTFIso4205	13	RhTFIso05_HubDB02	19
100804	Y8DhTFIso4205	14	RhTFIso05_HubDB02	20
100804	Y8DhTFIso4205	14	RhTFIso05_HubDB02	21
100320	Y8DhTFIso4202	33	RhTFIso05_HubDB02	22
100320	Y8DhTFIso4202	33	RhTFIso05_HubDB02	23
100320	Y8DhTFIso4202	33	RhTFIso05_HubDB02	24
100845	Y8DhTFIso4209	74	RhTFIso05_HubDB02	25
100845	Y8DhTFIso4209	74	RhTFIso05_HubDB02	26
