A01	NA	0.001676945	Growth
A02	1	0.04024735	Growth
A03	1	0.040104669	Growth
A04	1	0.039886514	Growth
A05	1	0.041990318	Growth
A06	1	0.038203726	Growth
A07	1	0.0329479	Growth
A08	1	0.038175257	Growth
A09	1	0.036135198	Growth
A10	1	0.031530466	Growth
A11	1	0.034777773	Growth
A12	1	0.041001161	Growth
B01	1	0.027816096	Growth
B02	1	0.039717607	Growth
B03	1	0.029285413	Growth
B04	1	0.039641263	Growth
B05	1	0.039992809	Growth
B06	1	0.038277328	Growth
B07	1	0.036035103	Growth
B08	1	0.036812415	Growth
B09	1	0.032126757	Growth
B10	1	0.028307131	Growth
B11	1	0.031534434	Growth
B12	1	0.043148849	Growth
C01	1	0.02063227	Growth
C02	1	0.043123897	Growth
C03	1	0.040335084	Growth
C04	1	0.035452212	Growth
C05	1	0.032417159	Growth
C06	1	0.03613609	Growth
C07	1	0.039092416	Growth
C08	1	0.03708789	Growth
C09	1	0.033523135	Growth
C10	1	0.032733293	Growth
C11	1	0.026035782	Growth
C12	1	0.042171708	Growth
D01	1	0.030515444	Growth
D02	1	0.035957744	Growth
D03	1	0.039040074	Growth
D04	1	0.03446842	Growth
D05	1	0.032670555	Growth
D06	1	0.033704703	Growth
D07	1	0.037815261	Growth
D08	1	0.037688019	Growth
D09	1	0.033146852	Growth
D10	1	0.033162348	Growth
D11	1	0.032218417	Growth
D12	1	0.03843735	Growth
E01	1	0.024948007	Growth
E02	1	0.038183459	Growth
E03	1	0.045465195	Growth
E04	1	0.048219313	Growth
E05	1	0.042275263	Growth
E06	1	0.037186831	Growth
E07	1	0.038000744	Growth
E08	1	0.034086106	Growth
E09	1	0.032921325	Growth
E10	1	0.036324248	Growth
E11	1	0.03178569	Growth
E12	1	0.047892258	Growth
F01	1	0.025191651	Growth
F02	1	0.0404645	Growth
F03	1	0.041675711	Growth
F04	1	0.040832878	Growth
F05	1	0.037452462	Growth
F06	1	0.042227281	Growth
F07	1	0.034965869	Growth
F08	1	0.038998325	Growth
F09	1	0.032805241	Growth
F10	1	0.037027489	Growth
F11	1	0.039487629	Growth
F12	1	0.04766671	Growth
G01	1	0.024741606	Growth
G02	1	0.041288469	Growth
G03	1	0.048998265	Growth
G04	1	0.043271319	Growth
G05	1	0.042785559	Growth
G06	1	0.040889577	Growth
G07	1	0.040097099	Growth
G08	1	0.03337229	Growth
G09	1	0.040639737	Growth
G10	1	0.036983854	Growth
G11	1	0.034266587	Growth
G12	NA	-1.60E-06	Growth
H01	1	0.037978203	Growth
H02	1	0.06574849	Growth
H03	1	0.063715169	Growth
H04	NA	0.004077204	Growth
H05	1	0.06745658	Growth
H06	1	0.061103708	Growth
H07	1	0.064243757	Growth
H08	1	0.065247057	Growth
H09	1	0.056858025	Growth
H10	1	0.057192181	Growth
H11	1	0.056908153	Growth
H12	NA	-1.51E-05	Growth