A01	1	0.03647307590076368	Growth
A02	1	0.039755608625305403	Growth
A03	1	0.022809027528333869	Growth
A04	1	0.032069623473871905	Growth
A05	1	0.027918281431741628	Growth
A06	1	0.027584669499551816	Growth
A07	1	0.026108031244738004	Growth
A08	1	0.030966639725761688	Growth
A09	1	0.025046983263388237	Growth
A10	1	0.023551222872976958	Growth
A11	1	0.028669505400526801	Growth
A12	1	0.034629386755158156	Growth
B01	NA	-3.0612850568250399e-05	Growth
B02	1	0.050947492494490737	Growth
B03	NA	2.7166836885866147e-06	Growth
B04	1	0.054439176512016768	Growth
B05	1	0.055880973273337367	Growth
B06	1	0.042199545582128906	Growth
B07	1	0.043812682093946211	Growth
B08	1	0.050264203490478658	Growth
B09	1	0.041667320735691113	Growth
B10	1	0.040604790710549836	Growth
B11	1	0.046152858050723701	Growth
B12	1	0.062545461474441261	Growth
C01	1	0.047738268623237018	Growth
C02	1	0.050343466545763008	Growth
C03	NA	0.0032786528191432987	Growth
C04	1	0.053960543378439682	Growth
C05	1	0.051887545282288734	Growth
C06	1	0.034740944850378708	Growth
C07	1	0.053244226968481245	Growth
C08	1	0.051618485739197438	Growth
C09	1	0.045848058228863557	Growth
C10	1	0.042065363606034557	Growth
C11	1	0.043664231327315499	Growth
C12	1	0.063338726710567936	Growth
D01	1	0.048723453166863724	Growth
D02	1	0.049188284750813632	Growth
D03	1	0.049107562460980012	Growth
D04	1	0.060088578886606403	Growth
D05	1	0.049468024141798225	Growth
D06	1	0.035561736822513602	Growth
D07	1	0.049725944667673404	Growth
D08	1	0.048869546416926778	Growth
D09	1	0.042533007673529008	Growth
D10	1	0.040422871066046216	Growth
D11	1	0.046495800464997877	Growth
D12	1	0.063366088781716734	Growth
E01	1	0.05348486636818052	Growth
E02	NA	0.00065614916631797054	Growth
E03	1	0.046688023777845221	Growth
E04	1	0.060037109344720362	Growth
E05	1	0.038638450546769315	Growth
E06	1	0.041875332153513509	Growth
E07	1	0.051621180745154559	Growth
E08	1	0.052557522078553638	Growth
E09	1	0.047147785609889151	Growth
E10	1	0.04652665795893348	Growth
E11	1	0.043730632170337666	Growth
E12	1	0.06401145278485143	Growth
F01	1	0.047114268916535994	Growth
F02	1	0.044747285936042901	Growth
F03	1	0.053972264506901874	Growth
F04	1	0.055189789551828274	Growth
F05	1	0.037660978905880799	Growth
F06	1	0.03741077651234169	Growth
F07	1	0.050284374947656897	Growth
F08	1	0.056326235958294585	Growth
F09	1	0.051113436306214684	Growth
F10	1	0.042885614490538536	Growth
F11	1	0.050029599060126786	Growth
F12	1	0.072716879454540639	Growth
G01	1	0.052138488685622021	Growth
G02	1	0.051461290430033189	Growth
G03	1	0.055410597352525445	Growth
G04	1	0.055000787630162855	Growth
G05	1	0.041639810433023894	Growth
G06	1	0.044521205925827374	Growth
G07	1	0.056118698903846249	Growth
G08	1	0.046392396085332216	Growth
G09	1	0.042335783561589499	Growth
G10	1	0.044778467249504288	Growth
G11	1	0.046643238871260387	Growth
G12	NA	0.0002046527953904687	Growth
H01	NA	3.7420841801354934e-06	Growth
H02	1	0.054087331412714552	Growth
H03	1	0.053444289151040741	Growth
H04	1	0.054642856495952123	Growth
H05	1	0.044590068363967464	Growth
H06	1	0.045872847363363889	Growth
H07	1	0.052826212614194422	Growth
H08	1	0.051055994054829835	Growth
H09	1	0.053035067888834657	Growth
H10	1	0.052185271791876618	Growth
H11	1	0.059154337063198253	Growth
H12	NA	0.00020815180717672819	Growth











I12	0
