A01	1	0.046096065460159028	Growth
A02	1	0.04822912312329946	Growth
A03	1	0.05365729367231805	Growth
A04	NA	1.8224956270716499e-05	Growth
A05	1	0.05150620079105634	Growth
A06	1	0.039982293942937779	Growth
A07	1	0.047898026095489335	Growth
A08	1	0.042461711336236739	Growth
A09	1	0.044794387562595281	Growth
A10	1	0.0442781882162437	Growth
A11	1	0.048001308708907738	Growth
A12	1	0.070875598293022687	Growth
B01	NA	1.7824473177608174e-05	Growth
B02	1	0.051434424222092032	Growth
B03	1	0.044814080786443208	Growth
B04	1	0.062478934053282711	Growth
B05	1	0.05909788386974605	Growth
B06	1	0.044150454572175875	Growth
B07	1	0.046297071416434916	Growth
B08	1	0.039115775541262533	Growth
B09	1	0.042265530805842548	Growth
B10	1	0.042424664511944751	Growth
B11	1	0.047293629322508635	Growth
B12	1	0.060457008244509162	Growth
C01	1	0.049349479509423248	Growth
C02	NA	-9.9558573933184121e-06	Growth
C03	1	0.044339199687967644	Growth
C04	1	0.045250155495455996	Growth
C05	1	0.039679416737676575	Growth
C06	1	0.04302458377584454	Growth
C07	1	0.05091209255960942	Growth
C08	NA	-7.0895356449723309e-06	Growth
C09	1	0.050026957627452767	Growth
C10	1	0.045007280873959506	Growth
C11	1	0.047113922506927246	Growth
C12	NA	6.6034999379956989e-05	Growth
D01	1	0.051850012646920546	Growth
D02	1	0.051336601434586744	Growth
D03	1	0.044336519126262568	Growth
D04	1	0.045422988249674223	Growth
D05	1	0.045083469227655701	Growth
D06	1	0.042217235163472026	Growth
D07	1	0.047052494170823141	Growth
D08	1	0.047995253935649282	Growth
D09	1	0.047034503287775462	Growth
D10	1	0.04466342261775031	Growth
D11	1	0.047385717704456015	Growth
D12	1	0.059759756382144431	Growth
E01	1	0.039272036324606026	Growth
E02	1	0.052374404733914713	Growth
E03	1	0.045528114047625412	Growth
E04	1	0.043524617792040594	Growth
E05	1	0.047656545841635471	Growth
E06	1	0.048417644431135484	Growth
E07	1	0.035560932939000103	Growth
E08	1	0.041170838372097646	Growth
E09	1	0.050834361340257338	Growth
E10	1	0.042508494867540325	Growth
E11	NA	-3.0489372918005862e-05	Growth
E12	1	0.060364238701492393	Growth
F01	1	0.05249094963597891	Growth
F02	NA	4.785514862958973e-05	Growth
F03	1	0.056764849215010189	Growth
F04	1	0.051909339965703946	Growth
F05	1	0.047238619035260512	Growth
F06	1	0.059998821602222953	Growth
F07	1	0.047565251409351299	Growth
F08	1	0.04441217667897765	Growth
F09	1	0.054636037053210143	Growth
F10	NA	1.655368769211992e-05	Growth
F11	1	0.052047483504225521	Growth
F12	1	0.069419078592296402	Growth
G01	1	0.05393200428298827	Growth
G02	1	0.056564327590572915	Growth
G03	1	0.050326906440311708	Growth
G04	1	0.054649016390709709	Growth
G05	1	0.051172871050975767	Growth
G06	1	0.039903260353869728	Growth
G07	1	0.048266965453383763	Growth
G08	1	0.048110448787590826	Growth
G09	1	0.049082720101159952	Growth
G10	1	0.051402402924644874	Growth
G11	1	0.05779277696825643	Growth
G12	NA	0.00018660435776245051	Growth
H01	1	0.076416840650415513	Growth
H02	1	0.071693962108461629	Growth
H03	1	0.068221650688134128	Growth
H04	1	0.073234312514043248	Growth
H05	1	0.075183306127131005	Growth
H06	1	0.081643762235475703	Growth
H07	1	0.073782324437188074	Growth
H08	1	0.071807155927378435	Growth
H09	1	0.070195016914716579	Growth
H10	1	0.071618587515233159	Growth
H11	1	0.082942139703899534	Growth
H12	NA	4.4677448478422462e-05	Growth











I12	0
