Column	Row	x	y	Diameter	Intensity	Area	Trimmed	FeatureMedian	FeatureVariance	BackgroundMedian	Circularity	Perimeter	redMean	greenMean	blueMean	redMeanBack	greenMeanBack	blueMeanBack	redMedian	greenMedian	blueMedian	redMedianBack	greenMedianBack	blueMedianBack	Barcode	Filename
1	1	62	67	124	0.0061586692656870751	0.4592	0.0066545793905749282	2.8320585395600928e-05	0.0010107780781827154	-8.3155922934249727e-07	0.092930721387334964	0.063039999999999999	89.481254355400694	115.92459930313589	115.24529616724739	77.758343195266278	103.82627218934911	104.561775147929	89.0	116.0	115.0	78.0	104.0	105.0	RhTFIso05r01_CHX_39	RhTFIso05r01_CHX_39
2	1	177	71	124	0.019463057396820194	0.26214399999999999	0.019572350006188767	0.0002852692376779176	0.00089820419654046966	1.1980033995221256e-07	0.034077368156992013	0.078656000000000004	99.18701171875	124.150146484375	118.8193359375	77.275219012923927	102.86529620955851	102.56527018822101	99.0	124.0	119.0	77.0	103.0	103.0	RhTFIso05r01_CHX_39	RhTFIso05r01_CHX_39
3	1	318	72	124	0.014933475124458018	0.24460799999999999	0.015136430792669808	0.00022246796542043732	0.00063005779584924203	-1.8471241582014994e-07	0.033187099090788381	0.076992000000000005	95.389063317634751	120.52485609628467	115.9774986917844	75.817504024400577	101.22841650427857	100.31500465983224	94.0	119.0	115.0	76.0	101.0	100.0	RhTFIso05r01_CHX_39	RhTFIso05r01_CHX_39
4	1	433	71	124	0.01306192334708918	0.23801600000000001	0.013317893346095041	0.00019643920785546349	0.00051105773466300229	-6.9475065375613417e-07	0.03841360068419826	0.070592000000000002	92.845926324280725	118.98279107286905	114.44447432105405	75.547791029732906	100.62111540399799	100.53737611288426	92.0	118.0	113.0	76.0	101.0	101.0	RhTFIso05r01_CHX_39	RhTFIso05r01_CHX_39
5	1	551	71	124	0.013821153470280314	0.24224000000000001	0.014109995861244446	0.00020771158564833925	0.00057663857623336547	-1.1031614353611806e-06	0.035044825121368577	0.074560000000000001	94.119154557463673	118.78044914134742	115.19682959048878	75.283361486486484	100.37896959459459	100.19822635135135	93.0	118.0	114.0	75.0	100.0	101.0	RhTFIso05r01_CHX_39	RhTFIso05r01_CHX_39
6	1	676	76	124	0.019841168395155272	0.246528	0.020048466436764108	0.000300008248029152	0.00089587661790012081	-1.7336630107292817e-06	0.018331137365779515	0.104	98.771028037383175	124.90576323987538	119.28686396677051	74.812707041535717	100.0567399983012	99.958124522211847	98.0	124.0	118.0	75.0	100.0	101.0	RhTFIso05r01_CHX_39	RhTFIso05r01_CHX_39
7	1	806	70	124	0.012487284350654691	0.24140800000000001	0.012819325320891852	0.00017480093455011123	0.00066950316711813444	-2.1286742542337752e-06	0.029249923918277798	0.081472000000000003	91.943531283138924	117.24178154825026	113.01590668080594	74.33915464439383	99.558170927191426	98.293427824179531	90.0	115.0	111.0	74.0	99.0	98.0	RhTFIso05r01_CHX_39	RhTFIso05r01_CHX_39
8	1	927	72	124	0.010979531325358085	0.24038399999999999	0.011351540382189941	0.00015675048236316993	0.00056287247974416644	-8.9007282181502711e-07	0.035198027708076465	0.074111999999999997	90.895899893503724	116.00798722044729	111.40042598509052	73.860898138006576	98.932681776055276	96.96267587833853	89.0	114.0	110.0	74.0	99.0	96.0	RhTFIso05r01_CHX_39	RhTFIso05r01_CHX_39
9	1	1050	78	124	0.010155090566267636	0.23865600000000001	0.010550488048580001	0.00014971635616759717	0.00049630249565705469	-1.3110044920156487e-06	0.040399020992617093	0.068928000000000003	89.871547331724329	115.32931080718691	110.63743631000268	73.846839273705442	98.631556825823807	95.881136516476133	88.0	114.0	109.0	74.0	99.0	96.0	RhTFIso05r01_CHX_39	RhTFIso05r01_CHX_39
10	1	1180	71	124	0.0080163695110771708	0.23488000000000001	0.0083831283554626559	0.0001226983334875463	0.00038104628864565513	-1.1450420070131981e-06	0.052083082702732368	0.060224	88.157220708446872	113.69945504087194	108.62615803814714	73.390129652864914	98.446675031367633	95.610455876202423	87.0	113.0	108.0	73.0	98.0	95.0	RhTFIso05r01_CHX_39	RhTFIso05r01_CHX_39
11	1	1305	65	124	0.0098587346048829537	0.241344	0.010310856389302419	0.00013885208837014791	0.00064739146434948094	-2.2160458217654359e-06	0.03258155297775113	0.077184000000000003	89.534075841951733	115.04322460885707	109.14054627419783	73.23890669816096	98.284123502615145	95.155896743715203	87.0	113.0	108.0	73.0	98.0	95.0	RhTFIso05r01_CHX_39	RhTFIso05r01_CHX_39
12	1	1432	63	124	0.014629582689545985	0.32602150537634411	0.015112581080552379	0.00014841857161472773	0.00071233678459806484	-2.0045772422376873e-06	0.032529570813756757	0.10408602150537634	91.697097625329818	116.46358839050131	109.46833773087072	73.492661135928529	97.558264199106574	94.599234205488187	90.0	114.0	108.0	73.0	97.0	94.0	RhTFIso05r01_CHX_39	RhTFIso05r01_CHX_39
1	2	62	188	124	0.0048445730693999932	0.43487999999999999	0.0053567919309752939	1.6573356362493353e-05	0.0012065544467495433	-1.3875692739980734e-06	0.10001275313966494	0.059136000000000001	90.189109639440758	116.57512877115526	115.9336276674025	77.448924122310302	103.73941109852774	104.91970554926387	90.0	117.0	116.0	77.0	103.0	105.0	RhTFIso05r01_CHX_39	RhTFIso05r01_CHX_39
2	2	178	187	124	0.014498074319534917	0.25657600000000003	0.014640892903372433	0.0002066666071687094	0.00053853826174288472	-1.8016125460148012e-07	0.047857631211280512	0.065664	93.604888999750557	120.53878772761287	116.40284360189574	77.096332644628106	102.87258953168045	103.12577479338843	93.0	120.0	116.0	77.0	103.0	104.0	RhTFIso05r01_CHX_39	RhTFIso05r01_CHX_39
3	2	310	187	124	0.013359138690085636	0.23948800000000001	0.013603248392949104	0.00019995420315734925	0.00052891396724397642	-1.1410189598181212e-06	0.039651341732655061	0.069695999999999994	93.296900053447359	119.18492784607162	114.84981293425976	75.620886981402009	101.3234031810149	100.78465034082302	93.0	118.0	114.0	76.0	101.0	101.0	RhTFIso05r01_CHX_39	RhTFIso05r01_CHX_39
4	2	430	192	124	0.013681668426789121	0.241536	0.013860983176523442	0.0002049685367705136	0.00055716540480028344	-6.3048167523578195e-07	0.038215661209698916	0.071295999999999998	93.538155802861681	119.00026497085321	115.2927927927928	75.574550670829467	100.879841363598	101.07079571344191	92.0	118.0	114.0	76.0	101.0	101.0	RhTFIso05r01_CHX_39	RhTFIso05r01_CHX_39
5	2	555	194	124	0.012520243549970602	0.24576000000000001	0.012783382723982467	0.00018647310799048243	0.0005108092510554016	-9.3851069430660362e-07	0.043027802663744834	0.067776000000000003	92.428906249999997	117.51692708333333	113.93307291666666	75.247178616885876	100.62638947815019	101.2594823928723	91.0	116.0	113.0	75.0	101.0	102.0	RhTFIso05r01_CHX_39	RhTFIso05r01_CHX_39
6	2	674	186	124	0.012830186262858721	0.24563199999999999	0.013080765106257627	0.00018168920223925216	0.00052313037907981551	-1.8206672804888639e-06	0.041120455915189334	0.069311999999999999	92.695674830640954	117.64095883272537	113.72798332464825	75.00975651141087	100.17349622465429	100.37711037583779	91.0	116.0	112.0	75.0	100.0	101.0	RhTFIso05r01_CHX_39	RhTFIso05r01_CHX_39
7	2	804	187	124	0.01243717303092174	0.24563199999999999	0.012789304897670658	0.00017529341250212068	0.00061981978631579261	-1.1023856056408668e-06	0.030768489533621927	0.080128000000000005	92.162845231891609	117.87806149035956	113.90229286086503	74.615678289641124	100.12751336217868	99.470009332315257	91.0	116.0	112.0	75.0	100.0	100.0	RhTFIso05r01_CHX_39	RhTFIso05r01_CHX_39
8	2	930	197	124	0.015789137958397637	0.25062400000000001	0.01608935189611703	0.0001898273109914428	0.0025526373480912563	-1.7638506509083582e-06	0.014678303340589633	0.117184	95.204545454545453	121.16317671092952	115.80107252298264	73.916816124348784	99.563668972585191	98.419335553847475	91.0	117.0	112.0	74.0	99.0	98.0	RhTFIso05r01_CHX_39	RhTFIso05r01_CHX_39
9	2	1049	195	124	0.010198764723380674	0.23865600000000001	0.010486779596708478	0.00014195574851891529	0.00059195957146531352	-1.1297988244607435e-06	0.034645179669906198	0.074431999999999998	89.735585947975324	115.31322070260123	111.10136765888979	74.50411903160726	99.426193678547406	96.9161062542031	88.0	113.0	109.0	74.0	99.0	97.0	RhTFIso05r01_CHX_39	RhTFIso05r01_CHX_39
10	2	1179	189	124	0.0095310000003406628	0.24179200000000001	0.009917633065120007	0.00013225799867914051	0.00054190041608869312	-1.3129857870032505e-06	0.034504504361089094	0.075072	90.136050820539964	114.77130757014294	110.06034939121228	73.702625137165526	98.787625559213296	96.127796066514733	88.0	113.0	109.0	74.0	99.0	96.0	RhTFIso05r01_CHX_39	RhTFIso05r01_CHX_39
11	2	1305	196	124	0.019493816954427052	0.25267200000000001	0.019824926349460533	0.00028852092804678396	0.00086115097223265406	-1.5721130329583481e-06	0.022376781053217221	0.095296000000000006	98.238348530901717	123.76747720364742	116.59371833839919	73.505266763723554	98.567954097799088	95.607604692986214	97.0	123.0	116.0	73.0	98.0	95.0	RhTFIso05r01_CHX_39	RhTFIso05r01_CHX_39
12	2	1433	190	124	0.014011319189433033	0.32182608695652176	0.01448913315597773	0.00014079183325695397	0.00068000699659888819	-2.1086685564835411e-06	0.028789746975434755	0.11052173913043478	90.824912185895698	115.20129694677114	109.33747635774115	73.466726503397865	97.784715989229383	95.085780228234384	89.0	113.0	107.0	73.0	98.0	95.0	RhTFIso05r01_CHX_39	RhTFIso05r01_CHX_39
1	3	62	316	124	-0.00081855053720743232	0.27590399999999998	-0.00040270239639822144	-4.09649615968307e-06	0.00041126765272741437	-8.4801580918568003e-07	0.31304100244142008	0.026623999999999998	83.919972164231041	109.1431222454187	110.63929482718626	77.802987449178005	103.14512992752343	105.31279830298745	83.0	108.0	110.0	78.0	103.0	105.0	RhTFIso05r01_CHX_39	RhTFIso05r01_CHX_39
2	3	177	315	124	0.016803717640194671	0.26662400000000003	0.016964166676260873	0.00023922953974164264	0.00080072427131246409	-1.0061962373879983e-06	0.037983321177630827	0.075135999999999994	95.724915986557846	122.21987518002881	117.71891502640422	77.222532507199574	102.9113360677197	103.61532419931932	95.0	122.0	117.0	77.0	103.0	104.0	RhTFIso05r01_CHX_39	RhTFIso05r01_CHX_39
3	3	310	314	124	0.019773124173573724	0.24454400000000001	0.019948694871785948	0.00030709496050187747	0.00089708022011268304	-5.2735385871419959e-07	0.025508133365703491	0.087807999999999997	101.45276105731485	125.89924103637792	121.54305155718399	76.402405964079975	101.67866824805151	101.90850559132497	101.0	125.0	121.0	76.0	102.0	102.0	RhTFIso05r01_CHX_39	RhTFIso05r01_CHX_39
4	3	433	317	124	0.016059824601758789	0.251776	0.016294233910665985	0.00023194674719294173	0.00059948111942131237	-4.0842894311321388e-07	0.031689788658397645	0.079935999999999993	94.738688357905446	120.99898322318251	116.90467717336045	75.533145154392273	100.86716277478402	101.57249166025147	94.0	120.0	116.0	76.0	101.0	102.0	RhTFIso05r01_CHX_39	RhTFIso05r01_CHX_39
5	3	555	327	124	0.01209925574365058	0.23968	0.012406797145117986	0.00018293932476599119	0.00045840249387504623	-9.742957760401382e-07	0.045411529551351797	0.065152000000000002	92.262483311081439	117.8026702269693	114.41201602136182	75.567760942760941	100.52920875420875	101.5733164983165	91.0	117.0	114.0	76.0	101.0	102.0	RhTFIso05r01_CHX_39	RhTFIso05r01_CHX_39
6	3	683	316	124	0.012106522712773611	0.24268799999999999	0.012396668542328699	0.00017559698306156304	0.00053123099855604888	-1.6790806335290973e-06	0.04177684966268462	0.068351999999999996	92.608649789029542	117.31039029535864	113.82594936708861	75.226654271951318	100.17882193864615	100.57255133947434	91.0	116.0	113.0	75.0	100.0	101.0	RhTFIso05r01_CHX_39	RhTFIso05r01_CHX_39
7	3	807	318	124	0.010698057830728507	0.23904	0.010994737845212148	0.00015000431460410914	0.00056993409946620667	-1.1470258244245616e-06	0.033937967285499901	0.075263999999999998	91.028112449799195	116.16947791164658	113.19518072289156	75.036417157275025	100.0861227922624	99.698570227081575	90.0	114.0	112.0	75.0	100.0	100.0	RhTFIso05r01_CHX_39	RhTFIso05r01_CHX_39
8	3	926	311	124	0.011314157159376999	0.24038399999999999	0.011597834670996062	0.00016895175114303596	0.00050833683234018567	-1.6894912390654752e-06	0.038795774178501927	0.070592000000000002	90.734291799787002	116.7510649627263	112.26996805111821	74.798298087454711	99.973291768472492	98.946836296233883	89.0	115.0	111.0	75.0	100.0	99.0	RhTFIso05r01_CHX_39	RhTFIso05r01_CHX_39
9	3	1055	326	124	0.016782831995925226	0.248448	0.017020898866305055	0.00024544149978757536	0.00073140070520714235	-6.3203867715834673e-07	0.02855710773133326	0.083648	96.574188562596603	121.90623390005152	116.50231839258115	75.550881376138975	100.24440091969684	97.838967895767695	95.0	120.0	116.0	75.0	100.0	98.0	RhTFIso05r01_CHX_39	RhTFIso05r01_CHX_39
10	3	1182	317	124	0.0079323272548030531	0.240064	0.0083501703731973867	0.00011101041975327811	0.00037590366015847126	-1.5201691176735938e-06	0.052118978389521085	0.060864000000000001	88.273260463876298	113.43508397760597	109.30445214609438	74.545056425804276	98.985261916792993	97.143254168772103	87.0	112.0	108.0	74.0	99.0	97.0	RhTFIso05r01_CHX_39	RhTFIso05r01_CHX_39
11	3	1304	322	124	0.012228910083219205	0.246144	0.012544256717179037	0.00016805568785118282	0.00065258083468595809	-1.0385539666356133e-06	0.030249973325855089	0.080895999999999996	91.943057722308893	117.09152366094644	111.17264690587623	74.017828338568634	98.664742338059256	96.317853807623734	90.0	115.0	109.0	74.0	99.0	96.0	RhTFIso05r01_CHX_39	RhTFIso05r01_CHX_39
12	3	1428	320	124	0.014768032866266406	0.3148041237113402	0.015259621038715828	0.00016151896096529294	0.00065468035371640853	-2.4922305270390193e-06	0.031397500965512096	0.10193814432989691	91.599423631123926	116.37018600995546	110.81189415771549	73.400457390467025	98.441622532498798	95.452696196437174	90.0	114.0	109.0	73.0	98.0	95.0	RhTFIso05r01_CHX_39	RhTFIso05r01_CHX_39
1	4	62	435	124	0.01039725263341473	0.436224	0.010792686623008849	9.4236033087940316e-05	0.00095755501348963315	-1.1720977962831777e-06	0.072892170336964462	0.069375999999999993	89.437940140845072	115.22725938967136	115.40390258215963	77.369508457259627	103.57339085026678	105.66352593938018	90.0	116.0	115.0	77.0	103.0	105.0	RhTFIso05r01_CHX_39	RhTFIso05r01_CHX_39
2	4	178	446	124	0.013352275438103021	0.245312	0.013529837372102251	0.00019772222344202386	0.00056692169378539411	-5.1339867485558828e-07	0.043772132672397344	0.067136000000000001	93.210279154709099	119.76937124967388	116.42290633968172	77.460905698778831	102.39001017639077	103.69140094979647	92.0	119.0	115.0	77.0	102.0	104.0	RhTFIso05r01_CHX_39	RhTFIso05r01_CHX_39
3	4	315	447	124	0.014411414024268387	0.24230399999999999	0.014641532289068091	0.00021903940310373529	0.00056890197683641115	-1.0044230831277968e-06	0.039970628066787445	0.069823999999999997	95.205493924986797	120.23877443211833	116.38298996302166	76.378156938930658	101.44851761128474	102.02559337781908	94.0	119.0	116.0	76.0	101.0	102.0	RhTFIso05r01_CHX_39	RhTFIso05r01_CHX_39
4	4	435	447	124	0.015502431986715293	0.24876799999999999	0.015697233236073332	0.00022427347352504577	0.00063484730859783903	-8.4471460339558701e-07	0.034667535324066114	0.075967999999999994	95.005402624131719	120.62438898893748	116.69436583483406	75.64065428522747	100.83361731129665	101.31555631283013	94.0	119.0	115.0	76.0	101.0	102.0	RhTFIso05r01_CHX_39	RhTFIso05r01_CHX_39
5	4	554	436	124	0.013536948800050883	0.24959999999999999	0.013783290009686876	0.00019913217271352754	0.00051688668462237825	-1.5212154830921348e-06	0.038043699971667046	0.072639999999999996	92.665897435897435	118.79641025641025	114.98897435897436	75.722473347547975	100.67940298507463	101.64059701492538	92.0	118.0	114.0	76.0	101.0	102.0	RhTFIso05r01_CHX_39	RhTFIso05r01_CHX_39
6	4	681	441	124	0.012114925929362544	0.24563199999999999	0.012405827485742198	0.00017201420062203776	0.00050700629828213527	-1.078955322085367e-06	0.03481464000097486	0.075328000000000006	91.132881709223554	117.50286607608129	113.98071912454404	75.474420972257576	100.08560278272674	101.12946466446084	90.0	116.0	113.0	76.0	100.0	101.0	RhTFIso05r01_CHX_39	RhTFIso05r01_CHX_39
7	4	803	448	124	0.01290816394275038	0.24127999999999999	0.013080962010556189	0.00018669474574830997	0.00057824693817380506	3.0802687945699902e-08	0.034139773331777319	0.075392000000000001	92.671352785145885	118.04005305039787	114.19496021220159	75.607254323070435	99.98102066638549	100.61940109658372	91.0	116.0	113.0	76.0	100.0	101.0	RhTFIso05r01_CHX_39	RhTFIso05r01_CHX_39
8	4	932	438	124	0.01140548657594867	0.24326400000000001	0.011715714728603414	0.00016812269673566061	0.00053630402328693361	-7.2260904671954662e-07	0.040276523229776026	0.069695999999999994	90.222309918442519	116.54248881873191	112.7232307287556	74.830006765899867	99.926759133964822	98.592608254397831	89.0	115.0	112.0	75.0	100.0	98.0	RhTFIso05r01_CHX_39	RhTFIso05r01_CHX_39
9	4	1051	435	124	0.011753067462997481	0.24435200000000001	0.012055856581886924	0.00016270355117432061	0.00075198025540241685	-1.2996501428745829e-06	0.037178265570465399	0.072704000000000005	92.156626506024097	117.16579360921949	112.37454164484024	75.474464300838491	99.724739561277204	98.349114931820111	90.0	115.0	111.0	75.0	100.0	98.0	RhTFIso05r01_CHX_39	RhTFIso05r01_CHX_39
10	4	1180	440	124	0.0094732267429135791	0.238592	0.0098554809433342664	0.00013696695282485033	0.00047252472857606216	-2.1956213223099554e-06	0.04031329030460018	0.068991999999999998	89.538626609442062	115.12982832618026	110.77145922746782	74.994536437757418	99.168529881482726	97.126502479616704	88.0	114.0	110.0	75.0	99.0	97.0	RhTFIso05r01_CHX_39	RhTFIso05r01_CHX_39
11	4	1305	437	124	0.0099851186666336574	0.244032	0.01031707718215541	0.00013946972766340943	0.00050732156195411251	-9.0356883786784036e-07	0.043049860652322747	0.067519999999999997	90.175976921059529	114.83031733543142	110.0786782061369	74.350914324415854	98.856586522180834	96.455384354893326	89.0	113.0	109.0	74.0	99.0	96.0	RhTFIso05r01_CHX_39	RhTFIso05r01_CHX_39
12	4	1434	436	124	0.01616600418551262	0.32958241758241758	0.016567568027794261	0.0001676516861283318	0.00053157051214673494	-1.9197171928707513e-06	0.037758867340525193	0.098197802197802192	92.128300880234733	116.71379034409176	110.7455321419045	73.977314450563867	98.680304222397069	95.710070810385517	90.0	115.0	109.0	74.0	98.0	96.0	RhTFIso05r01_CHX_39	RhTFIso05r01_CHX_39
1	5	62	568	124	0.01295788121716741	0.41536000000000001	0.013544585562047101	0.00015034700557982415	0.0013402255167432289	-2.4841683509874135e-06	0.061241094412916142	0.073856000000000005	89.80292758089368	116.77827426810478	116.21941448382127	76.847071702244122	103.40919540229885	105.80623973727423	90.0	118.0	116.0	77.0	103.0	105.0	RhTFIso05r01_CHX_39	RhTFIso05r01_CHX_39
2	5	188	562	124	0.012739053009688682	0.25356800000000002	0.012863898617804789	0.00018353819328312786	0.0004534088485085163	-5.7963058956303552e-08	0.060655186144480795	0.057984000000000001	91.852347299343762	118.24987380111055	115.32786471479051	76.730172339878251	102.42364743205007	103.25319386092772	91.0	118.0	114.0	77.0	102.0	103.0	RhTFIso05r01_CHX_39	RhTFIso05r01_CHX_39
3	5	305	568	124	0.015735232750573477	0.25984000000000002	0.015963762381738491	0.00022074182359201882	0.00061984453892303579	-1.277154825189037e-06	0.034165948804312	0.078208	95.100246305418722	120.3847290640394	116.38990147783251	76.330998702983138	101.53852140077821	102.37578901859058	94.0	119.0	116.0	76.0	101.0	103.0	RhTFIso05r01_CHX_39	RhTFIso05r01_CHX_39
4	5	440	560	124	0.045073607876326915	0.28595199999999998	0.045305310879989992	0.00059396172766668445	0.0071388401935344112	-1.2933939306112903e-06	0.0038882648133626578	0.2432	120.07318710832587	144.45165622202327	135.75134288272159	75.709688984494036	100.64345254100564	100.82701443040244	118.0	143.0	133.0	76.0	101.0	101.0	RhTFIso05r01_CHX_39	RhTFIso05r01_CHX_39
5	5	554	561	124	0.013556274000224777	0.244864	0.013779803877717732	0.00019829409851310686	0.00046078822088825897	-8.6005285886058496e-07	0.03536370254004851	0.074623999999999996	93.168322007318352	119.1466283324621	115.54208050182959	76.019577930333085	100.62251038223579	101.65183490126282	92.0	118.0	114.0	76.0	101.0	102.0	RhTFIso05r01_CHX_39	RhTFIso05r01_CHX_39
6	5	674	568	124	0.014907105070622147	0.248	0.015221910313825724	0.00021398660693191886	0.00069737775269491486	-7.9569956088329438e-07	0.036884297262796947	0.073536000000000004	95.14245161290323	120.03432258064517	116.79793548387097	75.260340425531922	100.45097872340426	101.27565957446808	94.0	118.0	116.0	75.0	100.0	102.0	RhTFIso05r01_CHX_39	RhTFIso05r01_CHX_39
7	5	811	568	124	0.011218866701056885	0.23904	0.011495462411937746	0.00016359723998824233	0.00048800320433662594	-8.6921286128133706e-07	0.045738464370519392	0.064832000000000001	91.416331994645248	116.99062918340027	113.49986613119144	75.575777964676192	100.19116904962154	100.60555088309503	90.0	116.0	112.0	76.0	100.0	101.0	RhTFIso05r01_CHX_39	RhTFIso05r01_CHX_39
8	5	923	562	124	0.013074213230088942	0.245888	0.013314011910873783	0.00018882335202087885	0.00051061094145357427	-5.4642767506503031e-07	0.041087400005078857	0.069375999999999993	93.057522123893804	117.54424778761062	113.58719416970328	75.220741746584068	99.905372146312487	99.754391920563521	92.0	116.0	112.0	75.0	100.0	100.0	RhTFIso05r01_CHX_39	RhTFIso05r01_CHX_39
9	5	1060	574	124	0.012966517440103938	0.24332799999999999	0.013243692686573764	0.00019044350278565872	0.00052781921049049028	-8.8220907780206672e-07	0.035752491196670275	0.073983999999999994	93.521304576538668	117.90005260389269	113.98921620199894	75.575826778313456	99.62243085511291	98.444726380783223	92.0	116.0	113.0	75.0	100.0	98.0	RhTFIso05r01_CHX_39	RhTFIso05r01_CHX_39
10	5	1178	560	124	0.011772722452589906	0.24249599999999999	0.012013898337431685	0.00017224861687496429	0.00045509404270633816	-1.5463407935986911e-06	0.043187281866491525	0.067199999999999996	91.35787806809185	116.53470572710478	111.91712852995514	75.00245015207841	99.399543764785406	97.410358229131461	90.0	115.0	111.0	75.0	99.0	97.0	RhTFIso05r01_CHX_39	RhTFIso05r01_CHX_39
11	5	1299	565	124	0.010657762100128651	0.23916799999999999	0.010992192527958747	0.00015504847068825034	0.00049203084613112086	-1.6943230285245071e-06	0.038669608290042047	0.070527999999999993	91.299438051913299	115.68397109981268	110.99357773615199	74.739485195154785	98.80366756393002	96.626430013458943	90.0	114.0	110.0	75.0	99.0	96.0	RhTFIso05r01_CHX_39	RhTFIso05r01_CHX_39
12	5	1428	562	124	0.014690848959794783	0.30705154639175258	0.01512329861892092	0.00016527852630467547	0.0004990343170612544	-2.1875327853989839e-06	0.039741423939569073	0.089484536082474225	92.303787268331988	116.21649207628256	110.71555197421435	74.865270173768153	98.625684360866458	96.323970483218275	91.0	115.0	109.0	75.0	98.0	96.0	RhTFIso05r01_CHX_39	RhTFIso05r01_CHX_39
1	6	62	693	124	0.0128218840151599	0.39705600000000002	0.013411910682135354	0.00015324759866999714	0.0011279769840419609	-2.7727098857670153e-06	0.051868144585825539	0.078464000000000006	90.646034816247578	116.65425531914893	115.89764667956157	77.486041821462692	103.32077274174716	104.79895977072498	91.0	118.0	115.0	77.0	103.0	104.0	RhTFIso05r01_CHX_39	RhTFIso05r01_CHX_39
2	6	193	689	124	0.013845899059989515	0.25369599999999998	0.014108694427449666	0.00020375646049623344	0.00044242898202350009	-1.2321805537206308e-06	0.053938235422172055	0.061504000000000003	93.477295660948542	119.75756811301716	116.2497477295661	76.334791184289514	101.63322185061315	102.38538718806278	93.0	119.0	116.0	76.0	102.0	103.0	RhTFIso05r01_CHX_39	RhTFIso05r01_CHX_39
3	6	305	693	124	0.015402026145641838	0.24998400000000001	0.015659809559356336	0.00022738644098139145	0.00052127390543395312	-1.3864482756960682e-06	0.045556190038356453	0.066432000000000005	95.376088069636452	120.54505888376856	116.16717869943676	75.498336035497914	100.64314361293626	101.27801006911852	94.0	120.0	115.0	75.0	101.0	101.0	RhTFIso05r01_CHX_39	RhTFIso05r01_CHX_39
4	6	426	686	124	0.014745594944077407	0.24838399999999999	0.015043452683698897	0.00021479203398585086	0.00056984214805202581	-1.3126461385326236e-06	0.037725289169471071	0.072767999999999999	94.591342437516104	119.84952331873228	115.76191703169286	75.386920980926433	100.62304155313352	101.33574591280654	94.0	118.0	115.0	75.0	101.0	102.0	RhTFIso05r01_CHX_39	RhTFIso05r01_CHX_39
5	6	554	691	124	0.013110065693390264	0.240704	0.013327482071082209	0.00019689611313034641	0.00045902228641643832	-8.274005359827894e-07	0.041904837797252854	0.067968000000000001	93.550651422494013	118.71496942302579	115.19303376761499	75.868762643290623	100.6507923128793	101.72210047201618	93.0	118.0	114.0	76.0	101.0	102.0	RhTFIso05r01_CHX_39	RhTFIso05r01_CHX_39
6	6	677	693	124	0.015078568306942043	0.24665599999999999	0.015250712050270487	0.00022205191234552307	0.00057046305181832004	3.2977396216667612e-08	0.035561482872495664	0.074688000000000004	94.49896211728074	120.08718214841723	116.07524649714583	75.8286466740294	100.95845722538442	101.47464106702914	93.0	119.0	115.0	76.0	101.0	102.0	RhTFIso05r01_CHX_39	RhTFIso05r01_CHX_39
7	6	798	693	124	0.015901441602770492	0.240704	0.01610844904071216	0.00024750516855633536	0.00053005020825718906	-1.14500675832098e-06	0.036112798823142979	0.073216000000000003	95.946024993352836	120.71204466897102	116.71842595054507	76.140509103169251	100.74291975724881	101.09423465947404	95.0	120.0	116.0	76.0	101.0	102.0	RhTFIso05r01_CHX_39	RhTFIso05r01_CHX_39
8	6	925	693	124	0.012355355099824846	0.24435200000000001	0.012572304177517325	0.00018105892164515494	0.00038671013840542418	-1.026991954094295e-06	0.046296720915103111	0.065152000000000002	93.402304871660562	117.91828182294395	113.62833944473546	76.054374523587697	101.04692131786229	99.935207927500642	93.0	117.0	113.0	76.0	101.0	100.0	RhTFIso05r01_CHX_39	RhTFIso05r01_CHX_39
9	6	1054	693	124	0.021930991504198156	0.25337599999999999	0.022185602477096774	0.00032144585922797686	0.00095011627662995449	-1.3878235289171174e-06	0.024227186638081804	0.091712000000000002	103.20459712048498	126.81485223541299	119.96211164435464	76.239842276701523	100.49554260243443	98.931510372021265	102.0	126.0	119.0	76.0	100.0	98.0	RhTFIso05r01_CHX_39	RhTFIso05r01_CHX_39
10	6	1174	693	124	0.000135097849342505	0.0064640000000000001	0.00020755731391223256	0.00012102644515896654	0.00015452271715756419	-8.7859465634369752e-07	0.46937996747421468	0.0033279999999999998	87.950495049504951	109.95049504950495	107.95049504950495	75.738405050244779	99.573434681783041	97.953426951816539	88.0	110.0	108.0	76.0	100.0	98.0	RhTFIso05r01_CHX_39	RhTFIso05r01_CHX_39
11	6	1304	693	124	0.012768238341119877	0.240064	0.013009479845351418	0.00018829367105136651	0.00045860905166846254	-1.289178844820233e-06	0.045573776937066199	0.065087999999999993	93.658491069048253	117.3207144761397	112.24660090642496	75.425130537308405	99.596597608219639	96.98399865251811	92.0	116.0	111.0	75.0	99.0	97.0	RhTFIso05r01_CHX_39	RhTFIso05r01_CHX_39
12	6	1428	686	124	0.017680224511453922	0.31265979381443298	0.018157636496148134	0.00019979633147321381	0.00057901994877697317	-3.1677621468010281e-06	0.028363096683429796	0.10688659793814433	94.694012134001582	118.47269849643894	112.68003165391717	75.310535157187431	99.114590832733384	96.579313654907608	93.0	117.0	111.0	75.0	99.0	96.0	RhTFIso05r01_CHX_39	RhTFIso05r01_CHX_39
1	7	62	816	124	0.015986207526405175	0.44096000000000002	0.016341791856513417	0.00016211061078266094	0.000940781602319006	-3.8741329401929719e-07	0.069643301520589354	0.071360000000000007	89.901161103047897	116.45486211901306	116.38722786647315	77.490784201488268	103.30990269032627	106.13817973669147	90.0	118.0	116.0	78.0	103.0	106.0	RhTFIso05r01_CHX_39	RhTFIso05r01_CHX_39
2	7	186	810	124	0.017113142849082181	0.25452799999999998	0.017346996235735525	0.00024988873365270719	0.00064758638157180087	-5.2915856696284437e-07	0.036508478291552654	0.074880000000000002	96.013326628111642	122.05556952476741	118.32788534070907	75.346840659340657	100.99785370879121	102.15564903846153	95.0	121.0	118.0	75.0	101.0	102.0	RhTFIso05r01_CHX_39	RhTFIso05r01_CHX_39
3	7	310	814	124	0.015637657314210369	0.252224	0.015948416124901915	0.0002285048124983646	0.00048676710437587257	-1.6572759345719916e-06	0.039978451665475562	0.071232000000000004	95.137274803349399	120.0182694747526	116.17863486424766	74.452327969873338	99.424426566244435	99.900205409106476	94.0	119.0	115.0	74.0	99.0	100.0	RhTFIso05r01_CHX_39	RhTFIso05r01_CHX_39
4	7	442	812	124	0.014466746847934588	0.24345600000000001	0.014775119688123766	0.00021764537294799175	0.00056354759614761604	-2.1884567420642795e-06	0.031959314700070865	0.078271999999999994	94.060199789695062	119.94269190325973	115.49605678233438	75.177480754589297	99.669063531004142	99.839184502157181	93.0	119.0	115.0	75.0	100.0	100.0	RhTFIso05r01_CHX_39	RhTFIso05r01_CHX_39
5	7	556	821	124	0.0130154880321799	0.23974400000000001	0.013274463259879696	0.00019735463227929731	0.00047630750684883187	-1.6143361544992345e-06	0.037459882592872161	0.071744000000000002	94.220768820074753	118.41457554725039	114.91884676988788	75.636753935516452	100.28453573533126	100.87928276790976	94.0	117.0	114.0	76.0	100.0	101.0	RhTFIso05r01_CHX_39	RhTFIso05r01_CHX_39
6	7	677	823	124	0.015068146878716297	0.25228800000000001	0.015286885831435861	0.00021714554248281948	0.00060893463521166809	-8.6993537180679212e-07	0.036624107873094724	0.074431999999999998	95.383815322171486	120.45712836123795	117.04464738711314	76.751519301549266	101.43011212873405	102.43045450654797	94.0	120.0	116.0	77.0	101.0	103.0	RhTFIso05r01_CHX_39	RhTFIso05r01_CHX_39
7	7	807	817	124	0.01277257506500586	0.25702399999999997	0.012991589256043927	0.00018588542195278196	0.00037601492849204593	-6.4758828485355204e-07	0.051491219658469992	0.06336	92.635956175298801	118.37724103585657	114.82370517928287	76.841330002584201	102.25997071237833	102.56499267809458	92.0	118.0	114.0	77.0	102.0	103.0	RhTFIso05r01_CHX_39	RhTFIso05r01_CHX_39
8	7	923	817	124	0.013562061706013371	0.255936	0.013742097802864115	0.00019369824451106679	0.00049819896910364135	-8.6806225620514533e-07	0.052754757716783056	0.062463999999999999	92.910477619404858	118.28157039259816	114.81170292573144	76.845432650954763	102.4449509719594	102.01152589024601	92.0	117.0	114.0	77.0	102.0	102.0	RhTFIso05r01_CHX_39	RhTFIso05r01_CHX_39
9	7	1054	817	124	0.014132982551147281	0.25919999999999999	0.014247284303933707	0.00019809607382109643	0.00052861247571649173	-2.5512883428907687e-07	0.044955375682057569	0.068096000000000004	93.763703703703698	118.40592592592593	114.43580246913581	77.189546436285099	101.7348596112311	100.73062634989201	93.0	117.0	114.0	77.0	102.0	100.0	RhTFIso05r01_CHX_39	RhTFIso05r01_CHX_39
10	7	1178	817	124	0.013157222616026009	0.25145600000000001	0.013349122564733588	0.00018930090229435237	0.00043878324738730714	-5.3012021706762116e-07	0.047642696824368815	0.065152000000000002	93.602443369814196	118.1061338763044	113.68414354797659	76.719134746922023	101.09105677154582	99.797623119015043	93.0	117.0	113.0	77.0	101.0	99.0	RhTFIso05r01_CHX_39	RhTFIso05r01_CHX_39
11	7	1304	814	124	0.014619596653825359	0.25312000000000001	0.014884095030054974	0.00021358829325002476	0.00048962277905633636	-1.2176716029206803e-06	0.039620532349960561	0.071679999999999994	94.496333754740832	119.08874841972187	114.18407079646018	75.792116538131964	100.28097686375321	98.644558697514995	94.0	118.0	113.0	76.0	100.0	98.0	RhTFIso05r01_CHX_39	RhTFIso05r01_CHX_39
12	7	1428	810	124	0.00034671310790830351	0.011298969072164948	0.00039050934545298304	0.00013552341328208219	0.0001301427692972109	-2.990488123751844e-07	0.38351364984789632	0.0055257731958762886	87.467153284671539	111.27007299270073	109.14598540145985	75.638304971638306	99.621788455121788	98.283366700033369	87.0	111.0	109.0	76.0	100.0	98.0	RhTFIso05r01_CHX_39	RhTFIso05r01_CHX_39
1	8	62	941	124	0.014765627775310475	0.39306122448979591	0.015094822720728186	0.00013622615439851145	0.00051622108366392852	-1.1526243272071858e-06	0.14321201067015246	0.053061224489795916	88.035721703011419	115.47268951194185	119.08369678089305	76.316341627437794	102.29172831203766	107.54297242770679	87.0	115.0	119.0	77.0	102.0	107.0	RhTFIso05r01_CHX_39	RhTFIso05r01_CHX_39
2	8	186	941	124	0.016962742688669999	0.33053061224489794	0.017223284437515682	0.00018388244130337428	0.00049970119590782389	-1.2877045129123375e-06	0.050076800888074265	0.082285714285714281	92.337861200296373	117.82761175598914	115.57421585576685	75.577124740885253	100.44640897451531	102.12364345811487	91.0	117.0	115.0	76.0	100.0	102.0	RhTFIso05r01_CHX_39	RhTFIso05r01_CHX_39
3	8	310	944	124	0.00070234977619344785	0.016168421052631578	0.0008356528183756049	0.00019856293163397288	0.00043815605686790799	-5.739272766426679e-07	0.06683499052512358	0.016	90.098958333333329	114.85416666666667	112.82291666666667	73.017118890695883	97.46811606607892	98.861251390909871	90.0	115.0	113.0	73.0	97.0	99.0	RhTFIso05r01_CHX_39	RhTFIso05r01_CHX_39
4	8	435	941	124	0.0099448891969868471	0.29346938775510206	0.010543501196386926	0.0001167158593251516	0.00045099068031102059	-3.065602335630121e-06	0.064949626426371462	0.068081632653061219	88.791098748261476	113.06648122392211	110.42837273991655	74.422068168688625	98.095667244367419	99.359098786828426	88.0	112.0	109.0	74.0	98.0	99.0	RhTFIso05r01_CHX_39	RhTFIso05r01_CHX_39
5	8	563	941	124	0.030792772475221199	0.32930612244897961	0.0311318607762473	0.00034909526806694077	0.001502432431374679	-1.4850866145546424e-06	0.013679943075277423	0.15714285714285714	102.62270699058007	127.43480416460089	122.27069905800694	74.776290165530668	99.679771178188901	100.64155306718598	101.0	126.0	121.0	75.0	100.0	101.0	RhTFIso05r01_CHX_39	RhTFIso05r01_CHX_39
6	8	683	941	124	0.011729465704529547	0.32489795918367348	0.012034951806506815	0.00012736496125637475	0.00033662610879903703	-1.1714335970377854e-06	0.11377998686247098	0.054122448979591835	88.546231155778898	114.48969849246231	113.21532663316583	76.781257557436518	102.21983071342201	103.84957678355502	88.0	114.0	112.0	77.0	102.0	104.0	RhTFIso05r01_CHX_39	RhTFIso05r01_CHX_39
7	8	809	941	124	0.014030742243572598	0.34987755102040818	0.014220744799953812	0.00014798454205976669	0.00040938209036241343	-1.012166281184812e-06	0.098090198810637061	0.060489795918367346	89.861175921605223	116.03103126458237	115.50559962669155	77.899673530889004	103.21772978402812	105.27297840281265	89.0	115.0	115.0	78.0	103.0	105.0	RhTFIso05r01_CHX_39	RhTFIso05r01_CHX_39
8	8	931	941	124	0.014960552779578605	0.35224489795918368	0.015120911015102727	0.00015808211915972371	0.00037566972710284546	2.9891626798359842e-07	0.085363855362502461	0.065061224489795913	89.060950173812287	116.10057937427578	116.28435689455388	77.715311909262766	103.00189035916824	104.95374921235035	88.0	116.0	116.0	78.0	103.0	105.0	RhTFIso05r01_CHX_39	RhTFIso05r01_CHX_39
9	8	1061	941	124	0.015156443236025567	0.32848979591836736	0.015428060492827753	0.00016466903201541302	0.00044644833411389622	-5.7516666799907305e-07	0.071665356224746748	0.068571428571428575	91.5462226640159	117.48931411530815	115.33747514910537	77.264405543398979	101.74775103330902	103.24799416484318	90.0	116.0	114.0	77.0	102.0	103.0	RhTFIso05r01_CHX_39	RhTFIso05r01_CHX_39
10	8	1180	941	124	0.014022659571524982	0.32685714285714285	0.014277417977933931	0.00015231358462844131	0.00037829603673861906	4.2111994917418948e-09	0.072338888514935001	0.068081632653061219	90.693306693306695	115.62687312687312	113.72402597402598	76.860902255639104	101.58731506184817	102.28243997089498	89.0	115.0	113.0	77.0	102.0	103.0	RhTFIso05r01_CHX_39	RhTFIso05r01_CHX_39
11	8	1304	941	124	0.059822299736299323	0.36742857142857144	0.06002834816215373	0.0006799934445755483	0.0027422566300626945	-1.2438572673958473e-06	0.0085104603154625546	0.21044897959183673	122.44234614530104	146.62697178404798	134.27105087758275	75.825913021034978	100.78010065814944	99.556846044650925	125.0	149.0	135.0	76.0	101.0	99.0	RhTFIso05r01_CHX_39	RhTFIso05r01_CHX_39
12	8	1428	932	124	0.00022993844214277002	0.0083823104345312656	0.00030266544795577878	0.00012548916337106405	0.00016035663491819818	-3.1189399154439273e-07	0.32499234347480616	0.0055882069563541765	85.287356321839084	111.9080459770115	112.9080459770115	74.946463272444618	99.671492421298097	100.16362223085892	84.0	111.0	112.0	75.0	100.0	101.0	RhTFIso05r01_CHX_39	RhTFIso05r01_CHX_39
