Column	Row	x	y	Diameter	Intensity	Area	Trimmed	FeatureMedian	FeatureVariance	BackgroundMedian	Circularity	Perimeter	redMean	greenMean	blueMean	redMeanBack	greenMeanBack	blueMeanBack	redMedian	greenMedian	blueMedian	redMedianBack	greenMedianBack	blueMedianBack	Barcode	Filename
1	1	82	63	119	0.0023269470491664723	0.090840789563554403	0.0025504015383751529	6.784431896900889e-05	0.0010491513259317195	-8.4023851529080608e-07	0.31321138878764826	0.015777610818933134	78.042105263157893	100.67744360902256	106.63834586466166	65.728194726166322	89.209375704304705	98.882878822026896	76.0	98.0	104.0	66.0	89.0	99.0	RhTFIso05r01_3AT_07	RhTFIso05r01_3AT_07
2	1	204	59	119	0.020384947679180657	0.40041322314049588	0.020604676495199401	0.00021896548707809474	0.0014340826783685089	-8.0410293426860072e-07	0.13023306331340626	0.05158402203856749													RhTFIso05r01_3AT_07	RhTFIso05r01_3AT_07
3	1	318	59	119	0.056967118977797444	0.37293388429752067	0.057277483959614441	0.00076909365176778492	0.0080157451646170191	-9.7101537193406692e-07	0.072770502996778841	0.06659779614325069													RhTFIso05r01_3AT_07	RhTFIso05r01_3AT_07
4	1	452	59	119	0.062401748498199565	0.3162534435261708	0.062768529290568087	0.00081168080706840793	0.0031759274504064836	-1.9576316043458486e-06	0.043406336094563312	0.079407713498622592													RhTFIso05r01_3AT_07	RhTFIso05r01_3AT_07
5	1	564	59	119	0.015241924271822466	0.2497245179063361	0.015554172731668018	0.00020923579410933374	0.00081040280510237268	-1.3297877218192467e-06	0.071196343511978677	0.055096418732782371													RhTFIso05r01_3AT_07	RhTFIso05r01_3AT_07
6	1	688	59	119	0.061991076878913011	0.33457300275482094	0.062404112455297513	0.00077364217484965055	0.0037940501105742834	-1.4838817252499634e-06	0.035736844244929671	0.090013774104683197													RhTFIso05r01_3AT_07	RhTFIso05r01_3AT_07
7	1	816	59	119	0.012397076052001046	0.32093663911845732	0.012802982649186776	0.0001481647253444815	0.00069798802217692823	-1.7011068424258858e-06	0.18344204577621975	0.038911845730027546													RhTFIso05r01_3AT_07	RhTFIso05r01_3AT_07
8	1	923	59	119	0.0012674056092870534	0.24352617079889807	0.0016111226863286319	1.6429182825117084e-05	0.00019516329471616474	-1.6094654479629747e-06	2.6292713900813038	0.0089531680440771352													RhTFIso05r01_3AT_07	RhTFIso05r01_3AT_07
9	1	1050	59	119	0.0091794840981915798	0.29793388429752066	0.0095889139415560685	0.0001091922437003703	0.00070574277928689194	-2.094339179035984e-06	0.29400821675347638	0.029614325068870524													RhTFIso05r01_3AT_07	RhTFIso05r01_3AT_07
10	1	1171	59	119	0.031872152143799841	0.27121212121212124	0.032748560259589637	0.00047680270001923173	0.0044659350772417771	-3.3431229001050154e-06	0.0075510204283670687	0.17630853994490359													RhTFIso05r01_3AT_07	RhTFIso05r01_3AT_07
11	1	1292	59	119	0.034506611110338335	0.26687327823691459	0.035284929840273822	0.00051986201763406148	0.0015403665824096195	-2.7429755448438786e-06	0.043419983156773756	0.072933884297520665													RhTFIso05r01_3AT_07	RhTFIso05r01_3AT_07
12	1	1413	59	119	0.016136774900923568	0.22515290519877676	0.017221129460910211	0.00022023831253607128	0.0044075737451298681	-3.1108208618132102e-06	0.010176390809035396	0.14579510703363915													RhTFIso05r01_3AT_07	RhTFIso05r01_3AT_07
1	2	82	172	119	0.022174434772973647	0.29793046923024386	0.022457702242633139	0.00028605577513423784	0.0015372865342991311	-1.2732791576623764e-06	0.056496697796732422	0.067276825353459468	89.178358551123338	115.01421366345713	116.40692342961944	66.869539838505688	90.271329895904273	97.786457826636834	88.0	115.0	116.0	67.0	90.0	98.0	RhTFIso05r01_3AT_07	RhTFIso05r01_3AT_07
2	2	203	172	119	0.026380500600959714	0.24001092821528583	0.026586631232231005	0.00041102842567596412	0.0017581150717061332	-1.4086860870994362e-06	0.026535800936757486	0.088108735742094116	97.826124075128064	122.68298235628913	118.56175298804781	64.983373775501036	88.828794823402532	93.333153590365782	96.0	121.0	117.0	65.0	89.0	93.0	RhTFIso05r01_3AT_07	RhTFIso05r01_3AT_07
3	2	319	178	119	0.056172070290278597	0.27183935523529812	0.056498241804759826	0.00084373216682189867	0.0025522599285190384	-1.704871659230884e-06	0.050014155045149507	0.068301345536507074	126.25427135678392	148.59597989949748	135.5753768844221	64.520589062939692	87.739705468530161	90.640840446487189	129.0	151.0	137.0	64.0	88.0	91.0	RhTFIso05r01_3AT_07	RhTFIso05r01_3AT_07
4	2	437	178	119	0.034471713810142142	0.24636295335018099	0.034794371670132718	0.0005401096461353066	0.0016492773835253376	-1.6110306539787159e-06	0.028370164791045066	0.08633290075814494	106.28112004435819	129.85500415858053	123.55863598558359	63.632499546855172	87.360431393873483	90.474261373935107	105.0	129.0	123.0	63.0	87.0	91.0	RhTFIso05r01_3AT_07	RhTFIso05r01_3AT_07
5	2	567	178	119	0.045001280262287224	0.27252236869066321	0.045275420465179045	0.00068476992013506352	0.0024106266446413879	-1.2747869532380676e-06	0.026792335008684883	0.093436240693941672	114.85588972431077	137.93984962406014	129.35914786967419	63.97962632616656	87.596469815040848	90.440803680405594	117.0	141.0	131.0	64.0	87.0	91.0	RhTFIso05r01_3AT_07	RhTFIso05r01_3AT_07
6	2	678	178	119	0.059638900230178239	0.3035994809097739	0.060040474495533347	0.00079700446530110258	0.0023595279603610647	-1.5351849741797519e-06	0.043899889798069233	0.077043917765179978	123.67784026996625	145.7570303712036	133.7835770528684	63.284327187132206	86.96390741467242	89.543546488819146	126.0	148.0	135.0	63.0	87.0	90.0	RhTFIso05r01_3AT_07	RhTFIso05r01_3AT_07
7	2	809	178	119	0.06681327649083306	0.3178744621269039	0.067226484620091245	0.00085275774953055318	0.0024352672861167003	-2.091102772761849e-06	0.040546206525943609	0.08202991598934499	128.18693596905888	150.08057584873228	135.61108723678555	63.973765895664364	86.613797937318509	88.8492039651547	131.0	152.0	137.0	64.0	86.0	89.0	RhTFIso05r01_3AT_07	RhTFIso05r01_3AT_07
8	2	925	178	119	0.012395518167862624	0.23092684925893039	0.012922376041580922	0.00019037583009612804	0.00063862516342090754	-2.2930742585137315e-06	0.0840457647598188	0.048562256676456528	82.91659272404614	107.6181603076013	107.6332446021887	63.173889875666077	86.696447602131443	89.566163410301954	81.0	106.0	107.0	63.0	87.0	90.0	RhTFIso05r01_3AT_07	RhTFIso05r01_3AT_07
9	2	1046	172	119	0.039289849212640018	0.26439450857181884	0.03960359241111186	0.00059938500688460261	0.0017892596375000266	-1.9201016971765333e-06	0.024226648309834037	0.096783006625230511	108.71015241539654	133.03358305347456	124.02996641694652	63.360259981429898	86.701114206128139	87.995821727019504	109.0	134.0	125.0	63.0	86.0	88.0	RhTFIso05r01_3AT_07	RhTFIso05r01_3AT_07
10	2	1173	173	119	0.030022050471481206	0.2484119937162762	0.03054000169514599	0.00046787396954494129	0.0030595769192965417	-1.9396463468341015e-06	0.0076017263805064263	0.16747489925551534	101.00164971130052	125.14187517184493	118.40912840252956	62.884133042529989	85.552708106143214	87.335059978189747	100.0	124.0	117.0	63.0	85.0	87.0	RhTFIso05r01_3AT_07	RhTFIso05r01_3AT_07
11	2	1296	186	119	0.05590725415608775	0.29417389522573595	0.056502058200430472	0.00075688410193684567	0.0017750751738131575	-2.3751012013239308e-06	0.046660923415178822	0.073560549142818107	120.9008590666357	143.05804504295332	128.06431390759229	61.571027675633829	84.010934778401392	85.15531256047997	123.0	144.0	128.0	61.0	84.0	85.0	RhTFIso05r01_3AT_07	RhTFIso05r01_3AT_07
12	2	1413	178	119	0.020111559865352849	0.25998938509363861	0.020736995932371202	0.00028206371628918203	0.0011717485342128786	-3.052457972500214e-06	0.03763654890089755	0.081128212904693311	87.638086905803448	112.59317585301837	108.38874307378245	60.191803278688525	83.484323770491798	86.697336065573765	85.0	111.0	106.0	60.0	84.0	87.0	RhTFIso05r01_3AT_07	RhTFIso05r01_3AT_07
1	3	82	297	119	0.025999669072561214	0.35830885868451606	0.026540782471615159	0.00029200664796538803	0.0016338833162373625	-2.1570033599169825e-06	0.030259756943493466	0.10081278601188444	88.679565383149068	113.98799085017156	113.92279832253145	66.800638637573172	91.123576370409793	96.096221394358707	88.0	114.0	114.0	67.0	91.0	96.0	RhTFIso05r01_3AT_07	RhTFIso05r01_3AT_07
2	3	206	297	119	0.066128725872089539	0.35345946315142407	0.066616402614640968	0.00084841799141034246	0.0052275175091450708	-2.5861059927333559e-06	0.024779365923376283	0.11064817976914146	122.75014492753623	143.86956521739131	130.9559420289855	65.628037185717304	88.610923304458055	91.007077963236853	131.0	152.0	135.0	65.0	88.0	91.0	RhTFIso05r01_3AT_07	RhTFIso05r01_3AT_07
3	3	324	302	119	0.016095525459043001	0.24308448876442865	0.016624821727362789	0.00023811965602773405	0.00088933066315572697	-2.7318235207925959e-06	0.041750064661022941	0.070691892630284817	86.966001685866814	111.0078673784771	108.69935375105366	64.105125428622998	87.214582205378093	90.14356614329543	85.0	109.0	108.0	64.0	87.0	90.0	RhTFIso05r01_3AT_07	RhTFIso05r01_3AT_07
4	3	445	300	119	0.059906339530516328	0.29226145755071375	0.060393696900622906	0.00083676554294643906	0.0024096829872931975	-1.8647204931196396e-06	0.044682647261939122	0.074926576053548258	126.74877307782192	148.72236503856041	134.85814442626781	63.205751785369621	86.088882455124491	88.274753908511869	130.0	151.0	137.0	63.0	86.0	88.0	RhTFIso05r01_3AT_07	RhTFIso05r01_3AT_07
5	3	563	297	119	0.0058094253707083919	0.10545727750836692	0.0062764273068303782	0.00017911876583530481	0.0020040956417445399	-2.6455899056023741e-06	0.01454431230941741	0.078888054094665663	84.616580310880835	108.07189119170984	107.78950777202073	63.089715201954647	86.755440177139803	90.508513400015275	81.0	104.0	104.0	63.0	86.0	91.0	RhTFIso05r01_3AT_07	RhTFIso05r01_3AT_07
6	3	683	291	119	0.014907461630299101	0.23577624479202242	0.01531457419196147	0.00022560111688875602	0.00081796973308049007	-1.651345012950389e-06	0.054887964967105601	0.060719896181954787	86.084009269988414	109.91570104287369	108.46205098493627	62.985700241308429	87.13879703280007	90.132272767897035	85.0	108.0	107.0	63.0	87.0	90.0	RhTFIso05r01_3AT_07	RhTFIso05r01_3AT_07
7	3	804	300	119	0.013903314870154207	0.26371149511645381	0.014499916138447843	0.00018731519680396431	0.00060128438092906325	-3.462816743923794e-06	0.064845142760587754	0.059080663889078615	82.115773115773109	107.14737114737115	105.81740481740482	62.015398886827455	86.315306122448973	88.852226345083494	80.0	105.0	105.0	62.0	86.0	89.0	RhTFIso05r01_3AT_07	RhTFIso05r01_3AT_07
8	3	920	297	119	0.01397918231245434	0.28310907724882178	0.014666629716312409	0.00017604861041308335	0.00062598338735022642	-3.6675174633673573e-06	0.077465208501663843	0.056007103339935797	82.582870928829919	106.75392038600724	105.24077201447527	62.481326219512198	86.042873475609753	88.670445884146346	81.0	105.0	104.0	62.0	86.0	89.0	RhTFIso05r01_3AT_07	RhTFIso05r01_3AT_07
9	3	1044	300	119	0.025682183735095176	0.28720715798101221	0.02620695968281549	0.00033193031859415478	0.0011130091263940477	-1.9724014120251658e-06	0.034036099101961148	0.085103476538487807	91.823305588585015	116.29845422116529	112.35695600475624	62.744921425833653	85.824166347259492	87.905711000383292	91.0	115.0	111.0	62.0	86.0	88.0	RhTFIso05r01_3AT_07	RhTFIso05r01_3AT_07
10	3	1178	300	119	0.011622032676376619	0.23482002595451129	0.012074008387659176	0.00017331269996896531	0.00062686521406778194	-1.8461515335617421e-06	0.076397659737449844	0.051362611843453317	81.981384525887137	105.95404304828389	103.45346131471786	62.372935820762294	85.26689279657235	87.168437025796663	81.0	104.0	102.0	62.0	85.0	87.0	RhTFIso05r01_3AT_07	RhTFIso05r01_3AT_07
11	3	1292	297	119	0.057384727354570245	0.28946110238371697	0.057970064813534582	0.00078741255567719461	0.0019340849412414513	-2.3485822982332748e-06	0.0477576534733469	0.072126220886551462	121.76616328456819	144.48371873525247	129.75318546484192	60.835239834663078	83.81409208882053	84.916081899452081	123.0	145.0	130.0	61.0	84.0	85.0	RhTFIso05r01_3AT_07	RhTFIso05r01_3AT_07
12	3	1413	301	119	0.016010917414523429	0.256198347107438	0.016676872634860427	0.00022149105543710243	0.00097492496867538725	-3.4639832668339398e-06	0.048055416824263966	0.071271514140571687	84.572358686001778	109.12222551050607	105.52530334418466	59.339551478083585	83.333639143730892	85.753720693170237	82.0	107.0	104.0	59.0	83.0	86.0	RhTFIso05r01_3AT_07	RhTFIso05r01_3AT_07
1	4	82	416	119	0.03687484576431737	0.43425995492111197	0.037393054343284632	0.00038647327523744896	0.0027582291812143448	-2.8113699892079853e-06	0.024550329265249318	0.12321562734785875	92.744888329663411	117.89304812834224	115.94227744573766	67.560787154412651	91.905106845345884	95.326572497887241	96.0	122.0	119.0	68.0	92.0	95.0	RhTFIso05r01_3AT_07	RhTFIso05r01_3AT_07
2	4	203	416	119	0.061111532671738411	0.34621952052455435	0.061802591763995739	0.00079925270214813897	0.0047136746968816975	-3.9444254956105411e-06	0.025842400358710958	0.1072331124923161	120.65851252712567	142.89859932925626	130.39475241665022	65.44274968658587	89.045967404931048	90.279669870455493	129.0	151.0	135.0	65.0	89.0	90.0	RhTFIso05r01_3AT_07	RhTFIso05r01_3AT_07
3	4	319	422	119	0.022291852070435055	0.25797418209138723	0.022860924548832748	0.00032180585914673692	0.001494532193776455	-3.1785321189583644e-06	0.020788728153450734	0.10320333310566218	92.535345512311352	116.67911040508341	113.40296531638867	63.791697349042707	87.545655375552286	89.910438144329902	90.0	115.0	112.0	64.0	87.0	90.0	RhTFIso05r01_3AT_07	RhTFIso05r01_3AT_07
4	4	444	412	119	0.057495936780613793	0.2822211597568472	0.057977484229562497	0.00082302097111388857	0.0025739581645924563	-1.9323476296697811e-06	0.036544133272805909	0.081415203879516423	124.31534365924492	147.30808325266216	133.59486931268151	62.665905414406701	85.747264249690744	88.699400513845276	126.0	149.0	134.0	62.0	85.0	89.0	RhTFIso05r01_3AT_07	RhTFIso05r01_3AT_07
5	4	566	420	119	0.011043909449957555	0.15490745167679804	0.011585671571062864	0.00023386693297190077	0.0031033355009748341	-2.040587650749245e-06	0.008964998637460796	0.1217812990915921	88.589506172839506	112.56834215167548	111.9863315696649	62.387779843206985	86.461973652307449	90.570758910530998	85.0	108.0	108.0	62.0	86.0	91.0	RhTFIso05r01_3AT_07	RhTFIso05r01_3AT_07
6	4	678	420	119	0.045432598746911412	0.26036472918516496	0.045851279059059002	0.0006879646522664365	0.0021596370158164509	-1.7722537973145713e-06	0.035477295053291974	0.079366163513421212	116.14296956977964	140.94333683105981	129.349685204617	62.673838766275743	86.598300858805061	88.894911810878199	117.0	141.0	129.0	62.0	86.0	89.0	RhTFIso05r01_3AT_07	RhTFIso05r01_3AT_07
7	4	808	415	119	0.041105514816709057	0.2849532135783075	0.041490568631213053	0.00057964027693720437	0.0031165148284118755	-1.9310546323946083e-06	0.0065925881750297354	0.19260979441294993	105.53403643336529	130.32646212847555	124.11241610738254	62.502722323048999	86.064762632534155	88.265450377304418	107.0	131.0	124.0	62.0	86.0	88.0	RhTFIso05r01_3AT_07	RhTFIso05r01_3AT_07
8	4	927	408	119	0.074986007810918576	0.36554880131138584	0.07552137100719368	0.00082664071141423309	0.0023968073917952173	-3.4054557142004867e-06	0.037288416719688973	0.091728707055528991	126.43385650224215	148.49028400597908	136.50429745889386	62.487027667133169	85.864140381095922	87.446872645064047	129.0	150.0	138.0	62.0	86.0	88.0	RhTFIso05r01_3AT_07	RhTFIso05r01_3AT_07
9	4	1041	408	119	0.034948847729863779	0.29048562256676458	0.035397728041435442	0.00046543095147010065	0.0013865554049261094	-9.0119254232559692e-07	0.029898020285018121	0.091318898982309951	100.18716200329179	124.89066541264989	119.29320479661415	62.745956873315365	85.88226800154024	87.871486330381202	100.0	124.0	119.0	63.0	86.0	88.0	RhTFIso05r01_3AT_07	RhTFIso05r01_3AT_07
10	4	1164	416	119	0.055171280928117281	0.29888668806775492	0.055743919754852704	0.00073945382915172368	0.001855394228435161	-3.0792038761934053e-06	0.045117915918757003	0.075404685472303806	119.95383912248629	142.43053016453382	129.00845521023766	62.452605942523135	85.356941061860695	86.734145153434	122.0	143.0	129.0	62.0	85.0	87.0	RhTFIso05r01_3AT_07	RhTFIso05r01_3AT_07
11	4	1292	416	119	0.056520173076504927	0.28249436513899323	0.057175976379738765	0.00079093818707655535	0.0019519538930933889	-2.3456559654109673e-06	0.046083065442551932	0.072536028959770502	122.38249516441006	144.70986460348163	131.57446808510639	59.763921941932416	82.861113755354594	85.009043312708229	124.0	145.0	131.0	59.0	83.0	85.0	RhTFIso05r01_3AT_07	RhTFIso05r01_3AT_07
12	4	1413	409	119	0.064576648917270413	0.32792478580635376	0.065295995361612028	0.00077848851837390752	0.0020781916538387831	-3.5077806759320666e-06	0.040321022453914897	0.088027902039578443	121.18497109826589	144.11907514450868	130.10543352601155	59.295803249097474	83.166854693140792	84.868118231046935	123.0	145.0	129.0	59.0	83.0	85.0	RhTFIso05r01_3AT_07	RhTFIso05r01_3AT_07
1	5	82	526	119	0.052933888404015486	0.37982378252851579	0.053412632431021671	0.0007066632960248901	0.006647430763095194	-2.3542405064717237e-06	0.039034671802531583	0.09138720032784646	108.82593058802374	133.53497572379069	125.26721812623629	67.310022026431724	91.801872246696036	93.981277533039645	120.0	145.0	133.0	67.0	92.0	94.0	RhTFIso05r01_3AT_07	RhTFIso05r01_3AT_07
2	5	203	535	119	0.069309286367093562	0.35639642100949387	0.069893809467040935	0.00085385386789368369	0.0048338263589585463	-3.9686179918414647e-06	0.030888358929780761	0.099515060446690798	124.51590647757762	146.91126868532004	133.52568033729398	65.631433725989595	88.628992889737873	90.207364958081286	132.0	153.0	137.0	65.0	88.0	90.0	RhTFIso05r01_3AT_07	RhTFIso05r01_3AT_07
3	5	321	526	119	0.022162179267178849	0.2908271292944471	0.022637435355889059	0.00026981655829950041	0.0012006887139278358	-2.2620691568236043e-06	0.031371058113185558	0.089201557270678231	89.11906998590888	113.4631282292156	111.9725223109441	64.040065491669068	87.310411249157269	89.791197149186175	87.0	111.0	111.0	64.0	87.0	90.0	RhTFIso05r01_3AT_07	RhTFIso05r01_3AT_07
4	5	440	535	119	0.018619251393731627	0.24294788607335566	0.018973991842711837	0.00027285943436387025	0.00096993545275937676	-1.3783691987884836e-06	0.049841806087222114	0.064681374223072199	88.371661512510542	113.15996626370537	111.74247961765533	63.292132804041863	86.947672320461933	91.203446409238538	87.0	111.0	110.0	63.0	87.0	91.0	RhTFIso05r01_3AT_07	RhTFIso05r01_3AT_07
5	5	563	535	119	0.0060106097876604422	0.13967625162215697	0.0066075644479963343	0.00015722251996508005	0.00095752258619948634	-2.5043671044902235e-06	0.023577740258478027	0.071306604740113383	81.277750611246944	105.59364303178484	107.28215158924205	63.415766910130202	87.643537630993961	92.004207684979363	79.0	104.0	105.0	63.0	87.0	92.0	RhTFIso05r01_3AT_07	RhTFIso05r01_3AT_07
6	5	687	535	119	0.066249321916421633	0.32600232224574827	0.066677443718869522	0.00083380979129486202	0.0031337818957412173	-1.9233887642475428e-06	0.039709784720049532	0.083942353664367184	125.64152524617641	148.56400586633146	135.852922690132	63.311714633157685	87.493109039319009	89.165180381029586	129.0	151.0	137.0	63.0	87.0	89.0	RhTFIso05r01_3AT_07	RhTFIso05r01_3AT_07
7	5	802	535	119	0.01543099642097843	0.24103544839833344	0.015844006687895467	0.00023289631870416802	0.0008059542685014664	-7.4043480613189402e-07	0.065155881576600211	0.056348610067618335	84.24454519693964	109.93879285916691	107.63162368943043	61.902267818574515	86.336573074154074	89.905867530597547	83.0	109.0	106.0	62.0	86.0	90.0	RhTFIso05r01_3AT_07	RhTFIso05r01_3AT_07
8	5	928	532	119	0.015627324561900108	0.24861689775288573	0.016028753060229634	0.00021681239743622009	0.00083046039746751744	-1.2193486331846791e-06	0.056849462330482742	0.061266306946246844	83.910164835164835	109.72417582417583	107.06428571428572	62.346059449140988	86.340514498681941	89.353604217798377	82.0	107.0	105.0	62.0	86.0	89.0	RhTFIso05r01_3AT_07	RhTFIso05r01_3AT_07
9	5	1043	540	119	0.024015919333529683	0.2570179632538761	0.024463448942762187	0.00035466512146045773	0.0013840019893102478	-1.9797020612995875e-06	0.03171850829285857	0.083395942900075126	92.195322880680308	118.08397555142174	113.98272654796705	62.490807133664276	85.959183673469383	88.793344364772935	91.0	117.0	113.0	62.0	86.0	89.0	RhTFIso05r01_3AT_07	RhTFIso05r01_3AT_07
10	5	1164	535	119	0.069324467397051143	0.35612321562734783	0.069807893723248415	0.00077991142015630731	0.0020375914102483007	-3.0205992744970318e-06	0.041799610325248752	0.085513284611706847	121.6150747986191	144.90103567318758	130.34445723053318	62.68271984724727	85.585552137477464	86.879282910788163	123.0	146.0	131.0	62.0	85.0	87.0	RhTFIso05r01_3AT_07	RhTFIso05r01_3AT_07
11	5	1292	543	119	0.015449130046947059	0.25148555426541902	0.016137773903082176	0.00021158269203913396	0.00095867911616493795	-2.9125133034129215e-06	0.039303766571445964	0.074106959907110165	83.559750135795767	108.71537208039109	106.06599674090168	59.905283328770871	83.512820512820511	87.01350488183229	81.0	107.0	104.0	60.0	83.0	87.0	RhTFIso05r01_3AT_07	RhTFIso05r01_3AT_07
12	5	1413	540	119	0.015313861954032171	0.27105921601334443	0.015868587094308158	0.00019444922655813756	0.00085357946836495363	-2.6912739105166676e-06	0.056588802284390283	0.067556296914095079	82.079720279720277	107.18265734265734	105.28391608391608	58.964426877470359	83.332119825254836	87.016538381526942	81.0	105.0	103.0	59.0	83.0	87.0	RhTFIso05r01_3AT_07	RhTFIso05r01_3AT_07
1	6	82	656	119	0.068242592572013691	0.38931766955809027	0.068484692798007216	0.00077845821732286011	0.0052713678995430406	-9.6519565249003587e-07	0.045550132718425299	0.085649887302779865	119.10877192982456	143.50315789473683	131.70438596491229	66.152667486858292	90.909294262386751	92.91063639413936	126.0	150.0	136.0	66.0	91.0	93.0	RhTFIso05r01_3AT_07	RhTFIso05r01_3AT_07
2	6	199	651	119	0.017321832745907092	0.24622635065910797	0.0175560211523197	0.00025193834903854248	0.0008860995703892726	-1.7177839845850315e-06	0.058499181385285141	0.060105184072126221	87.433287101248268	112.22108183079057	111.33453536754507	64.849673794853203	89.050289960130485	92.224447263501276	86.0	111.0	110.0	65.0	89.0	92.0	RhTFIso05r01_3AT_07	RhTFIso05r01_3AT_07
3	6	323	655	119	0.021019884839055446	0.24567993989481593	0.021309127248668347	0.00029358948121923967	0.0016031696692679384	-1.4253470095266291e-06	0.03186594328711484	0.081346902533979915	90.389213233249933	115.814011676397	113.94578815679733	64.065918145599426	88.103404563563927	91.438065918145597	87.0	113.0	112.0	64.0	88.0	92.0	RhTFIso05r01_3AT_07	RhTFIso05r01_3AT_07
4	6	445	656	119	0.016259958150315189	0.23919131206884775	0.016528935610618401	0.00023483502683945687	0.00083103372240259002	-1.5882345216019805e-06	0.056570346063993172	0.060241786763199238	85.367789834380361	111.50513992004569	110.33352370074243	63.771703025406232	87.842355687225066	92.324535416105576	83.0	109.0	109.0	64.0	88.0	92.0	RhTFIso05r01_3AT_07	RhTFIso05r01_3AT_07
5	6	562	646	119	0.0058150607651422442	0.14459394850078547	0.0061838141991360437	0.00013330159229737101	0.00093660852049313168	-9.2568902858501209e-07	0.027927437380952668	0.066662113243630902	79.468115257439777	105.0859707132735	107.57439773264053	64.026908335994889	88.683008623442987	92.897396997764289	77.0	102.0	105.0	64.0	88.0	93.0	RhTFIso05r01_3AT_07	RhTFIso05r01_3AT_07
6	6	678	654	119	0.052010876804507972	0.2736151902192473	0.0522030288719951	0.00075190244418108475	0.0021874226657813312	-1.3795704187061264e-06	0.04276232723661394	0.074106959907110165	120.46979530703945	144.47204193709436	131.96754867698453	64.209590973201699	88.276445698166427	89.954395862717448	122.0	145.0	132.0	64.0	88.0	90.0	RhTFIso05r01_3AT_07	RhTFIso05r01_3AT_07
7	6	808	650	119	0.040239127585130777	0.26145755071374904	0.04054482978954705	0.00058307163801669633	0.0023189557438546989	-1.633168486760108e-06	0.022567117053746911	0.099719964483300325	107.83699059561128	132.95454545454547	125.59926854754441	62.361231850550261	86.750115601590679	89.117451216128728	107.0	131.0	124.0	62.0	87.0	89.0	RhTFIso05r01_3AT_07	RhTFIso05r01_3AT_07
8	6	922	646	119	0.01563747267368646	0.2358445461375589	0.016056930215361975	0.00023522874950005027	0.00091437808984619784	-2.238632355333544e-06	0.052399079496899197	0.062154224438221432	84.511728931364033	110.96495800752969	109.20532869968143	62.228190918841619	86.462191633893454	89.884966035037536	82.0	109.0	108.0	62.0	86.0	90.0	RhTFIso05r01_3AT_07	RhTFIso05r01_3AT_07
9	6	1050	653	119	0.014130089728438624	0.27580083327641552	0.014644629665899798	0.00017401602694879569	0.00078201558686140892	-2.4972808369778654e-06	0.056701416156133472	0.064613072877535691	81.306339772164435	106.92694403169887	106.47052996532938	60.373384891068568	85.159577478072251	88.457134773177401	79.0	105.0	105.0	60.0	85.0	88.0	RhTFIso05r01_3AT_07	RhTFIso05r01_3AT_07
10	6	1171	654	119	0.020588943048278921	0.26726316508435216	0.021266673276321976	0.00026662473905943222	0.0012839449547136176	-3.1924413329541823e-06	0.026980635508360735	0.092206816474284539	86.475338614873493	112.37004855609507	109.46383848709431	59.49170395227442	83.69183445190157	86.991517524235647	84.0	110.0	107.0	59.0	84.0	87.0	RhTFIso05r01_3AT_07	RhTFIso05r01_3AT_07
11	6	1292	645	119	0.010086451911477676	0.22976572638480977	0.01072429967015673	0.00014387273272960241	0.00092026931706927755	-2.7768377354560239e-06	0.043926624984495691	0.067003619971313433	80.030321046373359	105.31212841854935	104.40368608799049	60.130885873902635	84.102332180544465	87.574354881617452	78.0	103.0	103.0	60.0	84.0	87.0	RhTFIso05r01_3AT_07	RhTFIso05r01_3AT_07
12	6	1413	648	119	0.019375242179403691	0.26620668739100767	0.020135222360401973	0.00026680113156673401	0.0011449959154396535	-3.8800054730508778e-06	0.039866601392075075	0.079763439229661087	86.200797493591566	111.61634861862717	108.40216462546283	58.000619962802233	82.48047117172969	87.208617482951027	85.0	110.0	107.0	58.0	82.0	87.0	RhTFIso05r01_3AT_07	RhTFIso05r01_3AT_07
1	7	82	773	119	0.019546687022149709	0.30264326207226283	0.019827884403179948	0.00025731021660644775	0.0013481467811719335	-7.9549154158827589e-07	0.079861720667253028	0.057031623522983403	87.039043105393816	112.84766418415707	112.9119837508463	67.086679725759055	92.091185112634676	95.566699314397653	87.0	113.0	113.0	67.0	92.0	96.0	RhTFIso05r01_3AT_07	RhTFIso05r01_3AT_07
2	7	203	773	119	0.020186355471928173	0.32811966395737996	0.020629666614665303	0.00024179785421100532	0.0011301526117823378	-2.6716584026791466e-06	0.04501898964579322	0.07909295813127519	86.09575353871773	110.98230641132389	109.54954204829309	66.600081325607405	90.709362610551992	93.672969401240209	85.0	111.0	110.0	66.0	91.0	94.0	RhTFIso05r01_3AT_07	RhTFIso05r01_3AT_07
3	7	324	769	119	0.020417030608408483	0.26097944129499351	0.020792916224922856	0.00028228227403396871	0.0010737179126631146	-1.7644013753184878e-06	0.04948965664404277	0.067276825353459468	89.922009945040571	114.9523684899241	113.24129808950536	65.087707948243988	88.70665434380777	92.052402957486137	88.0	113.0	112.0	65.0	89.0	92.0	RhTFIso05r01_3AT_07	RhTFIso05r01_3AT_07
4	7	441	770	119	0.016268579326131443	0.2396011201420668	0.01649350287736721	0.00024155630295608148	0.00084327365480635472	-1.1125575078848217e-06	0.053942688487709466	0.061744416365002393	85.984606613454957	111.65307867730901	110.95068415051311	64.115242971346447	88.512620138327492	92.283661187460709	84.0	110.0	110.0	64.0	88.0	93.0	RhTFIso05r01_3AT_07	RhTFIso05r01_3AT_07
5	7	559	764	119	0.029389323742247505	0.25490062154224441	0.02957942323063506	0.00041877051173448059	0.0018856259095429303	-7.4558902182925223e-07	0.022336479708662947	0.09896864968239874	97.861736334405151	124.29903536977491	120.80144694533762	63.933449445412045	88.777156476303972	92.015216793473286	96.0	122.0	119.0	64.0	89.0	92.0	RhTFIso05r01_3AT_07	RhTFIso05r01_3AT_07
6	7	687	766	119	0.053371572252254779	0.28331398128543134	0.053690018377908828	0.00075232179778732093	0.0022899615986753086	-2.0557750213577039e-06	0.040821759972090102	0.077180520456252982	120.34594985535198	145.38645130183221	132.44648023143685	63.602592204326697	88.088535213952156	89.953874011245588	122.0	147.0	132.0	63.0	88.0	90.0	RhTFIso05r01_3AT_07	RhTFIso05r01_3AT_07
7	7	808	764	119	0.05806234552087132	0.29280786831500583	0.058511469276002259	0.00079033467969167204	0.0022346747124222526	-2.2689089433768631e-06	0.043177451130656574	0.076292602964278394	121.74574294378353	146.34849545136458	132.98460461861441	62.322001158972377	86.544330693451812	88.616959629128843	123.0	147.0	133.0	62.0	86.0	89.0	RhTFIso05r01_3AT_07	RhTFIso05r01_3AT_07
8	7	926	780	119	3.906283151041315e-05	0.0012977255651936343	3.9966675329035379e-05	0.00011316973762469896	1.7355676151568667e-05	8.302871552474339e-08	0.0	0.0	72.368421052631575	97.05263157894737	100.0	61.737313636985363	86.245520448639041	89.043496101764461	72.0	97.0	98.0	62.0	86.0	89.0	RhTFIso05r01_3AT_07	RhTFIso05r01_3AT_07
9	7	1050	774	119	0.061153202036551974	0.29868178403114543	0.06158254826219392	0.0008212551849236812	0.0021025523165854108	-1.894866913071379e-06	0.044520622023438525	0.075882794891059355	124.2819574662703	147.74273953807455	133.67733821175395	60.756525126606931	85.36560186988703	86.645890144137127	127.0	149.0	134.0	60.0	85.0	87.0	RhTFIso05r01_3AT_07	RhTFIso05r01_3AT_07
10	7	1171	780	119	0.047261641094639907	0.25476401885117139	0.047856853621484147	0.00072271980371624582	0.0019952888638169867	-2.2485764702421595e-06	0.028878846333480201	0.087015914213510001	114.74691689008043	139.986327077748	127.21233243967828	57.584731005407384	82.295389973421322	85.689945926129596	115.0	140.0	127.0	57.0	82.0	86.0	RhTFIso05r01_3AT_07	RhTFIso05r01_3AT_07
11	7	1298	768	119	0.011286517005265768	0.22751178198210506	0.011995089940711769	0.00017304745461871928	0.0010037087575974022	-3.3161468307040218e-06	0.045704674587656265	0.065364387678437261	81.758330831582114	106.67247072951066	104.83608525968178	58.368435013262598	82.707957559681702	87.235809018567636	80.0	105.0	103.0	58.0	82.0	87.0	RhTFIso05r01_3AT_07	RhTFIso05r01_3AT_07
12	7	1409	773	119	-5.2252754690603914e-06	0.00065823155123235578	2.9435047428355899e-05	0.00017885389643907158	7.3578107490679617e-06	-4.9848237791149427e-07	0.0	0.0	74.777777777777771	96.666666666666671	97.333333333333329	56.544203747072601	80.957625878220142	86.58752927400468	75.0	97.0	97.0	57.0	81.0	87.0	RhTFIso05r01_3AT_07	RhTFIso05r01_3AT_07
1	8	82	884	119	0.063969687947471293	0.34888327300047811	0.064174770835615694	0.000814424774837399	0.005883158865959387	-6.973047028093712e-07	0.051446330855002047	0.076292602964278394	122.79404855129209	147.25117462803445	133.34083790133124	66.566872967586278	92.169726214203294	94.186824714150845	131.0	154.0	137.0	67.0	92.0	94.0	RhTFIso05r01_3AT_07	RhTFIso05r01_3AT_07
2	8	203	896	119	0.02588052094124316	0.27586913462195206	0.026132282183744786	0.00034350184903904455	0.0017757609055621567	-8.2757044326489543e-07	0.030265244055035969	0.08845024246977666	93.594454072790299	119.33721218123299	115.97647932656598	65.940388605923417	90.673646481795885	93.267779664214302	91.0	117.0	114.0	66.0	91.0	93.0	RhTFIso05r01_3AT_07	RhTFIso05r01_3AT_07
3	8	324	889	119	0.000177751085225323	0.0085376681920633843	0.00034647730836259374	0.0001349466789031156	0.00035289428388116486	-2.1893711073752748e-08	0.84953830545965192	0.002936957858069804	77.784000000000006	103.06399999999999	102.464	64.304698263984562	88.728230917608158	91.655896941306139	77.0	102.0	101.0	64.0	89.0	92.0	RhTFIso05r01_3AT_07	RhTFIso05r01_3AT_07
4	8	436	891	119	0.056867735478126326	0.28720715798101221	0.057106461394374745	0.00080118452422953677	0.0032793323674708374	-8.1926296736536698e-07	0.03880021678226369	0.079707670241103756	123.19881093935791	147.34411414982165	133.32746730083235	64.447776926025298	88.884725948639328	90.480835569183597	126.0	149.0	134.0	64.0	89.0	91.0	RhTFIso05r01_3AT_07	RhTFIso05r01_3AT_07
5	8	566	884	119	0.038870558698855605	0.25660815518065705	0.039044688413566134	0.00059224424788828728	0.0026062278699658819	-1.2279224904488067e-06	0.020761005142400309	0.10299842906905265	108.06760713335107	134.88022358264573	127.49640670747937	63.862458654906284	88.745773612642409	91.477857405365668	108.0	135.0	127.0	64.0	89.0	92.0	RhTFIso05r01_3AT_07	RhTFIso05r01_3AT_07
6	8	694	882	119	0.017099490929048295	0.27948910593538695	0.017420701962956496	0.00020961828366021116	0.00082303126227603314	-1.8748716297748161e-06	0.05343274358993947	0.067003619971313433	83.881476050830884	110.3998044965787	109.32771260997067	63.859891932884636	88.586311498720264	90.95961702531045	82.0	108.0	108.0	64.0	88.0	91.0	RhTFIso05r01_3AT_07	RhTFIso05r01_3AT_07
7	8	808	886	119	0.065120612955215942	0.31322997063042141	0.065502817118388429	0.00083722852879651924	0.0026256518660702755	-2.2794764318273476e-06	0.041883974854408305	0.080117478314322796	125.41125163541213	148.69276057566506	134.5691234191016	62.637493784186972	86.942715067130777	88.408552958727	127.0	150.0	135.0	62.0	87.0	88.0	RhTFIso05r01_3AT_07	RhTFIso05r01_3AT_07
8	8	929	897	119	0.017526401612509419	0.24171846185369852	0.017935731034320151	0.00025567126968498795	0.00094901922476667354	-1.2938994150594855e-06	0.044383574072498044	0.068369646882043569	86.62164453235377	113.00084769708957	109.70641424131111	61.890290037831022	86.633849756800572	88.6555575571969	84.0	111.0	108.0	62.0	86.0	89.0	RhTFIso05r01_3AT_07	RhTFIso05r01_3AT_07
9	8	1042	883	119	0.067652490991686701	0.32484119937162764	0.068123427633588543	0.00084245845462322885	0.0024286954368700603	-2.1664377034021376e-06	0.039762233341422669	0.083737449627757671	125.27859545836837	148.98023549201008	135.62741799831792	60.936570561456755	85.608396560445115	86.691350531107744	128.0	151.0	137.0	61.0	86.0	87.0	RhTFIso05r01_3AT_07	RhTFIso05r01_3AT_07
10	8	1171	884	119	0.060526867624722869	0.27853288709787583	0.061071982551329479	0.00084763494026826505	0.0023638232445332449	-2.6550802044902394e-06	0.035059400351620293	0.082576326753637047	121.79475232957331	146.90510053948015	130.69347719470329	57.598693552967909	82.680867177885077	85.297074694689002	122.0	147.0	130.0	57.0	82.0	86.0	RhTFIso05r01_3AT_07	RhTFIso05r01_3AT_07
11	8	1292	891	119	0.011157860557215698	0.22628235776244793	0.011797700255975348	0.000167579294137799	0.0010612939603590879	-3.6956298341242689e-06	0.045457696460193694	0.065364387678437261	81.055840627829767	107.02988228191971	105.12979172955026	58.84171963276836	84.066649011299432	87.674081920903959	79.0	105.0	103.0	59.0	84.0	88.0	RhTFIso05r01_3AT_07	RhTFIso05r01_3AT_07
12	8	1404	891	119	-2.9718005494533311e-05	0.00014007564084605686	6.1236530812633416e-06	0.0001714382719495647	1.0586360572463863e-09	4.9129077809241445e-08	0.51291308630037435	0.00049026474296119909	71.0	96.0	101.0	56.206780610815358	80.942490893807786	86.421686746987959	71.0	96.0	101.0	56.0	81.0	86.0	RhTFIso05r01_3AT_07	RhTFIso05r01_3AT_07
