A01	NA	1.6961094767540385e-05	Growth
A02	1	0.042347634166408236	Growth
A03	NA	-0.00010844843221323877	Growth
A04	1	0.046756448051160832	Growth
A05	1	0.045888850024192747	Growth
A06	1	0.046787323234890404	Growth
A07	1	0.039923296231057129	Growth
A08	1	0.037287773771442122	Growth
A09	1	0.033299993891054799	Growth
A10	1	0.033049525008211213	Growth
A11	1	0.042647318126137167	Growth
A12	1	0.054882238359135485	Growth
B01	1	0.052530384032078846	Growth
B02	1	0.050049708007784299	Growth
B03	1	0.042839383683591657	Growth
B04	1	0.043897786300540247	Growth
B05	1	0.04208762196910118	Growth
B06	1	0.039212334778936458	Growth
B07	1	0.039268324211348758	Growth
B08	1	0.043304052931051461	Growth
B09	1	0.041835232852293402	Growth
B10	1	0.036632718065328918	Growth
B11	1	0.045535145040774334	Growth
B12	1	0.058290816398757779	Growth
C01	NA	-9.1219447082902121e-05	Growth
C02	1	0.045708577337837127	Growth
C03	1	0.04212544348976436	Growth
C04	1	0.045962479997516584	Growth
C05	1	0.039382713081893721	Growth
C06	1	0.042711912040248892	Growth
C07	1	0.03771794336726788	Growth
C08	1	0.031359890659890186	Growth
C09	1	0.042453194520007648	Growth
C10	1	0.03838330456519843	Growth
C11	1	0.038389641806110417	Growth
C12	1	0.047129817074688843	Growth
D01	1	0.048707504687791836	Growth
D02	1	0.045011756960905452	Growth
D03	1	0.044158846317801433	Growth
D04	1	0.039170047195086898	Growth
D05	1	0.044654943121968826	Growth
D06	1	0.037454748119538195	Growth
D07	1	0.045261785351743834	Growth
D08	1	0.042511000344849441	Growth
D09	1	0.032479995212820127	Growth
D10	1	0.033351345726636804	Growth
D11	1	0.038099312475069959	Growth
D12	1	0.060957692996958128	Growth
E01	1	0.046411032342474477	Growth
E02	1	0.046224744856092098	Growth
E03	1	0.044267154323464043	Growth
E04	1	0.043736110965651331	Growth
E05	1	0.041808337952899809	Growth
E06	1	0.035243081372773176	Growth
E07	1	0.044415424457215379	Growth
E08	NA	-0.00016634953884051069	Growth
E09	1	0.042004120064279962	Growth
E10	1	0.041638352687337662	Growth
E11	1	0.042711745707116479	Growth
E12	3	0.015635995766149428	Growth
F01	1	0.046031738437156695	Growth
F02	1	0.046155175352178626	Growth
F03	1	0.041785485368956259	Growth
F04	1	0.047918390873101034	Growth
F05	1	0.043492754248117708	Growth
F06	1	0.040363140131468092	Growth
F07	1	0.053018004035665485	Growth
F08	1	0.044418923143815736	Growth
F09	1	0.034043163991535112	Growth
F10	1	0.038302091456652448	Growth
F11	1	0.04088244230122394	Growth
F12	1	0.050562789035093897	Growth
G01	1	0.049734168700398582	Growth
G02	1	0.041864430169673991	Growth
G03	1	0.045574030429178049	Growth
G04	1	0.044064931791099868	Growth
G05	1	0.046358534082950618	Growth
G06	1	0.043166086967765201	Growth
G07	1	0.055078761552146985	Growth
G08	NA	-5.3596372750927719e-05	Growth
G09	1	0.046011466344540605	Growth
G10	1	0.038952033600088684	Growth
G11	1	0.044222904524025448	Growth
G12	NA	-2.7184490245947763e-05	Growth
H01	1	0.054253345557619841	Growth
H02	1	0.049719141610257596	Growth
H03	1	0.04676916695362536	Growth
H04	1	0.046271163166246368	Growth
H05	1	0.047348698202409563	Growth
H06	1	0.042309835326418875	Growth
H07	NA	-3.0861403113885596e-05	Growth
H08	1	0.043963830649718726	Growth
H09	1	0.041981560690966813	Growth
H10	1	0.045452409664939429	Growth
H11	1	0.039882665920313948	Growth
H12	NA	1.6769562160846463e-05	Growth











I12	0
