Column	Row	x	y	Diameter	Intensity	Area	Trimmed	FeatureMedian	FeatureVariance	BackgroundMedian	Circularity	Perimeter	redMean	greenMean	blueMean	redMeanBack	greenMeanBack	blueMeanBack	redMedian	greenMedian	blueMedian	redMedianBack	greenMedianBack	blueMedianBack	Barcode	Filename
1	1	74	75	122	0.023301434243627933	0.25408156520589598	0.024209676223575553	0.00032409055369165906	0.0021562109888587492	-2.8959836950097084e-06	0.011219074731681617	0.13715381056249587	99.542663891779398	126.53069719042664	120.06347554630594	62.766770048737264	88.119450598139125	89.891094373061591	96.0	123.0	118.0	63.0	88.0	90.0	RhTFIso05r01_3AT_24	RhTFIso05r01_3AT_24
2	1	190	77	122	0.0035073519337721661	0.087315751206292549	0.0045334401891129169	0.00020016562262234681	0.00051852509232182546	-2.8733175499229242e-06	0.012105950435823073	0.07740101791261815	88.648750946252832	113.97123391370174	112.5442846328539	64.026578794901511	89.327129200463503	91.347479721900342	88.0	113.0	112.0	63.0	87.0	90.0	RhTFIso05r01_3AT_24	RhTFIso05r01_3AT_24
3	1	312	77	122	0.052581228937415424	0.27556348734219049	0.053472209992123508	0.00075245711316921813	0.0017598795221950442	-3.5124520062217024e-06	0.024476713637351034	0.096701698724304314	128.95370592468217	152.95634444710961	137.27128807867595	62.34397810218978	87.146532846715331	87.958120437956211	131.0	154.0	136.0	62.0	87.0	88.0	RhTFIso05r01_3AT_24	RhTFIso05r01_3AT_24
4	1	432	77	122	6.9378668255626832e-05	0.00046268755370480535	5.345384481498286e-05	0.00051636035114773404	0.0010387524392355618	8.77474352627075e-07	0.041571169329165505	0.0030405182100601493	95.142857142857139	120.14285714285714	117.14285714285714	61.38969713000926	86.184697791297452	87.656923687342939	99.0	124.0	121.0	61.0	86.0	88.0	RhTFIso05r01_3AT_24	RhTFIso05r01_3AT_24
5	1	548	77	122	0.058341686143738955	0.3000859276885452	0.059396732994117837	0.00078037222771708996	0.0017713084480953736	-5.5736664743301402e-06	0.029570674133122813	0.091810430299424942	131.51718061674009	153.86343612334801	136.63788546255506	62.383983378978186	86.57266975162905	87.337897818490887	133.0	155.0	136.0	62.0	86.0	87.0	RhTFIso05r01_3AT_24	RhTFIso05r01_3AT_24
6	1	684	76	122	0.0065124178303113114	0.097693172053671756	0.0075107511284789128	0.00024603239336252043	0.0020888633286106541	-1.9185342781385347e-06	0.0051179299586039933	0.12591711282966489	95.67117726657645	120.71109607577807	116.66508795669824	63.111347154054648	87.992528019925274	89.115522672331693	92.0	117.0	112.0	62.0	87.0	88.0	RhTFIso05r01_3AT_24	RhTFIso05r01_3AT_24
7	1	792	84	122	0.040150205231905038	0.22949302663758345	0.040934011424485481	0.00068017105436348716	0.0013895159532549737	-2.9212289799616796e-06	0.029604123483205982	0.080243241456804809	123.24107142857143	147.4801267281106	132.77188940092165	62.394526893711934	87.037917131337394	87.811186411598186	124.0	147.0	132.0	62.0	87.0	88.0	RhTFIso05r01_3AT_24	RhTFIso05r01_3AT_24
8	1	917	75	122	0.038408478359899537	0.22843545508625818	0.039271470191298272	0.00066517648087657344	0.0014415530221179057	-3.1548719615803356e-06	0.023138886910983696	0.090554564082226188	121.25839120370371	145.77170138888889	130.65190972222223	62.116336845712325	87.034695451040861	87.196264884776838	122.0	146.0	130.0	62.0	87.0	88.0	RhTFIso05r01_3AT_24	RhTFIso05r01_3AT_24
9	1	1044	82	122	0.057195819523607479	0.30352303523035229	0.058291836644224937	0.00076035415893261791	0.0015447929823900453	-4.4491485490588511e-06	0.029909369079140963	0.091810430299424942	131.07317073170731	153.28832752613241	134.57208188153311	62.698111416911836	87.430388156021635	87.350384359874724	133.0	155.0	134.0	62.0	87.0	88.0	RhTFIso05r01_3AT_24	RhTFIso05r01_3AT_24
10	1	1158	78	122	0.00065456919641628669	0.034106682530239935	0.0014422565028881882	0.0001606493570076942	0.00015817512008930131	-3.1591733642261918e-06	0.018501892454030465	0.039130147399034969	85.920542635658919	109.81007751937985	107.50775193798449	64.855950181345378	89.599260932046803	89.982891945527953	85.0	109.0	107.0	63.0	88.0	89.0	RhTFIso05r01_3AT_24	RhTFIso05r01_3AT_24
11	1	1288	84	122	0.0020891213471051569	0.063983078855178802	0.0029054628269447151	0.00016452448787616667	0.00036456561362099296	-3.0926905258000839e-06	0.022034722922602303	0.049110978914667196	87.029958677685954	113.01446280991736	109.17561983471074	66.261775298354635	91.209095402867035	92.02895275757362	85.0	111.0	108.0	65.0	90.0	91.0	RhTFIso05r01_3AT_24	RhTFIso05r01_3AT_24
12	1	1410	77	122	0.0025135188027843904	0.086867355160038087	0.0032248380590483385	0.00012249698982232075	0.0005942901572373344	-2.5126799250795351e-06	0.072948721261600249	0.033106277008716031	85.511804384485671	112.33220910623946	111.63237774030354	68.148311542472129	94.474292131226434	95.769150557471718	83.0	110.0	110.0	67.0	93.0	94.0	RhTFIso05r01_3AT_24	RhTFIso05r01_3AT_24
1	2	61	214	122	3.1757170483836108e-05	6.609822195782933e-05	4.0695229421664388e-06	0.00024144240232171001	0.0	-3.7276351021917278e-07	0.0034906585039886592	0.0039658933174697604	80.0	106.0	105.0	62.651837652035958	88.278886832363824	92.077736647276566	80.0	106.0	105.0	63.0	88.0	92.0	RhTFIso05r01_3AT_24	RhTFIso05r01_3AT_24
2	2	190	207	122	0.043831797281411081	0.24172119769978187	0.044767261023635999	0.00071557031843115005	0.0014981741973108548	-3.0241535483623508e-06	0.032180961353415728	0.078987375239606056	128.03910308996444	151.49521465682253	135.98988241728193	63.275714783821478	87.705369595536965	90.060320781032075	129.0	152.0	135.0	63.0	87.0	90.0	RhTFIso05r01_3AT_24	RhTFIso05r01_3AT_24
3	2	307	205	122	0.037792270239487176	0.21924780223411991	0.038564877408822237	0.0006851019521326116	0.0014961705148318868	-2.6092259427972916e-06	0.019527871277832062	0.096569502280388658	121.34941211938499	146.91498341875189	133.65601447090745	62.441076870978662	87.574754486962405	88.596596681341012	122.0	148.0	133.0	62.0	87.0	89.0	RhTFIso05r01_3AT_24	RhTFIso05r01_3AT_24
4	2	426	214	122	0.064524651541589095	0.32672351113755038	0.065480774776455433	0.0007759154554308719	0.0015741315560673036	-3.5452791050822771e-06	0.02946234032036053	0.095974618282768195	130.78130689864454	154.52741250252882	137.85090026299818	62.932161790693108	87.035637149028076	88.076575692126454	132.0	155.0	136.0	62.0	87.0	88.0	RhTFIso05r01_3AT_24	RhTFIso05r01_3AT_24
5	2	549	206	122	0.00123598251928383	0.049904157578161149	0.0021437171611015612	0.00016083447183604617	0.00017096357000056053	-3.4296749045431323e-06	0.019755605558452332	0.045806067816775729	83.924503311258277	110.55761589403974	108.46490066225165	63.505774314734936	88.563308751913183	90.127869764853202	83.0	109.0	108.0	62.0	87.0	89.0	RhTFIso05r01_3AT_24	RhTFIso05r01_3AT_24
6	2	671	211	122	0.055477989352839985	0.2861392028554432	0.056386413086745975	0.000767890992095346	0.0014840529110670105	-3.0766427675694523e-06	0.03204118860811838	0.086125983211051624	130.47978747978749	153.7073227073227	136.83691383691382	62.94638888888889	87.364074074074068	88.476296296296297	132.0	154.0	137.0	62.0	87.0	89.0	RhTFIso05r01_3AT_24	RhTFIso05r01_3AT_24
7	2	794	198	122	0.00071692177890120756	0.033049110978914664	0.0013979235688210616	0.00016015034098090721	0.00015768857606718062	-2.9914214978061016e-06	0.016504772418377167	0.040782602947980702	84.688000000000002	110.29000000000001	108.226	64.11771139517397	89.121265978535789	90.509057351835395	84.0	110.0	108.0	63.0	87.0	89.0	RhTFIso05r01_3AT_24	RhTFIso05r01_3AT_24
8	2	923	210	122	0.00077685709880517047	0.0236631634609029	0.0012419822944165634	0.0002001124537712455	0.0002483173963856589	-3.215554692947379e-06	0.01212993030093368	0.040253817172318067	87.72346368715084	111.85754189944134	109.89385474860335	63.750253875837792	89.032496107237151	91.005416017872861	87.0	111.0	109.0	62.0	88.0	90.0	RhTFIso05r01_3AT_24	RhTFIso05r01_3AT_24
9	2	1037	200	122	0.00080242110189188891	0.03589133452310133	0.0014954927056928513	0.00016053226674894725	0.00014675977655207039	-3.5863218279288393e-06	0.017356997941126273	0.041443585167558993	84.208103130755063	110.25414364640883	107.88581952117863	64.396338955162491	89.173933909228026	90.401617989853278	84.0	109.0	107.0	63.0	88.0	89.0	RhTFIso05r01_3AT_24	RhTFIso05r01_3AT_24
10	2	1161	204	122	0.00070584071738623278	0.034899861193733887	0.001295595778794718	0.00014451957034282358	0.00014214133238328624	-2.2827020944362329e-06	0.044996769777978812	0.025381717231806464	84.744318181818187	109.48863636363636	107.21590909090909	64.995822203958639	89.379426066707765	90.364701047873439	84.0	108.0	107.0	63.0	88.0	89.0	RhTFIso05r01_3AT_24	RhTFIso05r01_3AT_24
11	2	1288	208	122	0.050915382946122141	0.27457201401282305	0.051747091516526407	0.00074322584486811994	0.0014628052745252907	-3.9676148755187448e-06	0.033785791604051395	0.082160089893581867	128.33100625902745	152.02936928261917	132.49494463168031	65.328656036446475	88.947152619589971	88.80719817767654	130.0	153.0	132.0	65.0	89.0	89.0	RhTFIso05r01_3AT_24	RhTFIso05r01_3AT_24
12	2	1410	214	122	0.050670844848170228	0.31187284845821434	0.051305349575825193	0.00072001450584704822	0.0041517350641121263	-2.5555599173092419e-06	0.0050877015098000737	0.23753021313996925	124.1747299201503	147.97017379051198	134.8914983560357	67.327088877062266	92.234912187333691	92.94156466205429	130.0	154.0	139.0	67.0	92.0	93.0	RhTFIso05r01_3AT_24	RhTFIso05r01_3AT_24
1	3	68	321	122	0.0019177474931920306	0.061471346420781281	0.0027570504958177944	0.00016942847381392779	0.00027325547836131396	-2.8790345598474874e-06	0.016721693458474553	0.055258113556745321	85.389247311827958	111.80537634408603	112.19677419354839	65.009859849285164	90.493133319247832	93.956334953165722	85.0	111.0	112.0	64.0	89.0	93.0	RhTFIso05r01_3AT_24	RhTFIso05r01_3AT_24
2	3	181	330	122	3.2068441136422007e-05	0.000198294665873488	9.9995097551497568e-06	0.000183148345406348	3.0440414475560969e-05	-6.2045512588344825e-07	0.0081529221113921975	0.0044946790931323947	82.0	105.66666666666667	108.66666666666667	63.625942086473621	88.571201904006344	92.237471902684121	81.0	106.0	110.0	64.0	88.0	92.0	RhTFIso05r01_3AT_24	RhTFIso05r01_3AT_24
3	3	317	330	122	0.039211259546334615	0.22797276753255338	0.039935383860772576	0.00069482242347624907	0.001755174508599325	-2.5807904729215245e-06	0.01366391713168125	0.11772093330689404	122.50478399536098	147.31951290229051	134.66801971585966	63.71155821917808	88.383133561643831	89.884845890410958	124.0	149.0	135.0	63.0	88.0	90.0	RhTFIso05r01_3AT_24	RhTFIso05r01_3AT_24
4	3	428	330	122	0.048011043158775024	0.25546962786701038	0.048852797433473212	0.00074654614855173965	0.0014349297549955007	-3.1847923567015701e-06	0.031792334616637212	0.081697402339877059	129.62457956015524	152.67787839586029	137.02483829236741	63.493696732954547	87.83238636363636	88.900301846590907	130.0	154.0	137.0	63.0	87.0	89.0	RhTFIso05r01_3AT_24	RhTFIso05r01_3AT_24
5	3	554	331	122	0.00043998878532241066	0.023068279463282437	0.00098147785864666649	0.00016586627192006299	9.095850968307395e-05	-2.2393525359284489e-06	0.012684712806039588	0.038865754511203651	83.300859598853862	108.756446991404	107.82521489971347	63.989918809201626	88.895737483085256	90.764411366711769	83.0	108.0	108.0	63.0	87.0	90.0	RhTFIso05r01_3AT_24	RhTFIso05r01_3AT_24
6	3	680	327	122	0.00068558417405647197	0.028290038997950955	0.0012195650897027716	0.0001664384328995216	0.00014607840390847519	-2.4684919733618374e-06	0.018932118536605522	0.035230352303523033	84.55140186915888	109.50467289719626	107.63084112149532	64.343378001496504	89.081627100197267	91.35745867628053	84.0	109.0	107.0	63.0	88.0	90.0	RhTFIso05r01_3AT_24	RhTFIso05r01_3AT_24
7	3	800	323	122	0.028801445496977062	0.23259964306960143	0.029676587362381587	0.00045818415240810571	0.0026862812421889074	-2.4316036919759972e-06	0.0065718733807645082	0.17145878775860929	107.86643932935493	133.59022449559535	126.50184711565785	63.181739879414295	87.449612403100772	89.75254091300603	105.0	131.0	124.0	63.0	87.0	90.0	RhTFIso05r01_3AT_24	RhTFIso05r01_3AT_24
8	3	913	321	122	-1.3820248176702377e-05	0.00072708044153612273	4.4408776776158294e-05	0.00022424148576608892	0.00023012469591870708	-7.1418485246474515e-07	0.022720262451997188	0.0051556613127106878	86.090909090909093	111.0	108.27272727272727	62.91751554438418	87.149622966000791	90.62210609869031	85.0	110.0	107.0	63.0	87.0	91.0	RhTFIso05r01_3AT_24	RhTFIso05r01_3AT_24
9	3	1038	326	122	0.0027689673291578878	0.087712340538039529	0.0038662092959819579	0.00016598854659148358	0.00044225967199734603	-3.5328113709603255e-06	0.015358377884378762	0.06887434728005816	86.733986435568951	112.37000753579503	111.18387339864356	65.093754528329228	89.716128097377194	92.08947978553833	86.0	111.0	110.0	63.0	87.0	91.0	RhTFIso05r01_3AT_24	RhTFIso05r01_3AT_24
10	3	1162	324	122	0.05294370207086186	0.29149315883402738	0.053906421374287201	0.00071954316492330494	0.0015054854162126223	-3.5924027374782587e-06	0.029742889028069049	0.090224072972437036	128.9265306122449	151.40272108843538	132.84399092970523	63.784308237708743	87.438100569082934	87.928164940759402	131.0	152.0	132.0	63.0	87.0	88.0	RhTFIso05r01_3AT_24	RhTFIso05r01_3AT_24
11	3	1288	330	122	0.044472419767852607	0.26531826293872696	0.045282361835166297	0.0006634937194150742	0.0011852940063802489	-3.4182114145779766e-06	0.032647127467179175	0.082160089893581867	123.7085201793722	146.87742899850522	130.36397608370703	64.515879442195228	89.225371120107965	89.367251461988303	125.0	148.0	130.0	64.0	89.0	90.0	RhTFIso05r01_3AT_24	RhTFIso05r01_3AT_24
12	3	1410	330	122	2.1648498690660585e-05	0.0046876144437120043	0.00013304793818033473	0.00010596614309199806	3.8542463138038728e-05	-1.488957423031991e-07	4.1033046904029948	0.0010254156595620009	80.5625	108.65625	111.9375	66.701523290897043	92.047979983810436	94.928545146809924	80.0	108.0	111.5	67.0	92.0	95.0	RhTFIso05r01_3AT_24	RhTFIso05r01_3AT_24
1	4	68	453	122	0.061665749091657028	0.31000066098221957	0.062494484324302109	0.00078353914643849846	0.0019455861908410524	-3.5328936660844523e-06	0.028343415670053208	0.095313636063189905	133.17697228144991	156.41087420042643	139.72366737739873	64.744132579749021	89.328862917904019	91.500622665006233	134.0	156.0	139.0	64.0	89.0	92.0	RhTFIso05r01_3AT_24	RhTFIso05r01_3AT_24
2	4	181	450	122	0.001553095685688635	0.046268755370480537	0.0022714032632062372	0.0001857394618845274	0.00029472773871482824	-2.7455043402301912e-06	0.012892816734065716	0.054597131337167031	86.331428571428575	111.88285714285715	111.64428571428572	65.767412849123289	90.766096056552769	93.984960842747242	86.0	111.0	111.0	64.0	89.0	93.0	RhTFIso05r01_3AT_24	RhTFIso05r01_3AT_24
3	4	309	454	122	0.00099022228781705081	0.033181307422830326	0.0015064369502118453	0.0001679954604976244	0.00017412100520922236	-2.9166683584076542e-06	0.016097740224990317	0.041377486945601165	85.039840637450197	109.84462151394422	109.66733067729083	65.829014835578036	90.734463663088803	93.505435154166946	84.0	109.0	110.0	64.0	89.0	93.0	RhTFIso05r01_3AT_24	RhTFIso05r01_3AT_24
4	4	434	449	122	0.0097530851501173906	0.14839050829532685	0.010602133946345165	0.00023382377611158624	0.0024196876847536516	-1.9985516562355097e-06	0.006421605955463228	0.13854187322361028	94.50200445434298	121.03251670378619	116.83919821826281	64.02809686432785	89.167028873020797	90.777398323502013	91.0	118.0	114.0	63.0	88.0	90.0	RhTFIso05r01_3AT_24	RhTFIso05r01_3AT_24
5	4	556	453	122	0.045252011011453847	0.25884063718685968	0.046293435516809298	0.00072796119907303286	0.0019796706686776942	-2.9633092044051935e-06	0.0096091160681927353	0.14958027629056778	125.28626149131767	149.18947906026557	135.91751787538306	63.299295460626062	87.302149291001513	88.134040845447245	128.0	152.0	138.0	63.0	87.0	88.0	RhTFIso05r01_3AT_24	RhTFIso05r01_3AT_24
6	4	678	458	122	0.0010354724603023919	0.036552316742679621	0.0017976890098277598	0.00017996612554579237	0.00032115142153751511	-2.7434124163471785e-06	0.011720699864632521	0.050895630907528584	85.786618444846297	110.31645569620254	110.1880650994575	64.104761251372125	88.481682217343575	90.550219538968165	84.0	109.0	109.0	63.0	87.0	90.0	RhTFIso05r01_3AT_24	RhTFIso05r01_3AT_24
7	4	797	453	122	0.00068831722734299364	0.029744199881023201	0.0013400563452602382	0.00017568859782142969	9.5177475474842021e-05	-3.2850317958256557e-06	0.011540544441758423	0.046268755370480537	85.251111111111115	109.36222222222223	108.70888888888889	64.754138565297367	89.413447782546498	92.162000136249063	84.0	109.0	109.0	63.0	87.0	91.0	RhTFIso05r01_3AT_24	RhTFIso05r01_3AT_24
8	4	915	447	122	0.0010340311507308904	0.039460638508824114	0.0017509034220163739	0.00016654726374049436	0.00017486749069676219	-3.7907421456653032e-06	0.016563574548709457	0.044484103377619141	85.814070351758801	109.61474036850922	109.65159128978225	64.690545004128822	89.115331681805671	91.901527663088359	84.0	109.0	109.0	63.0	87.0	91.0	RhTFIso05r01_3AT_24	RhTFIso05r01_3AT_24
9	4	1046	460	122	0.00098942626105411676	0.042501156718884263	0.0018406880384710242	0.00016706424207912947	0.00012068216094239813	-3.4721865989054954e-06	0.016680242405356035	0.046004362482649219	84.615863141524102	109.72161741835147	109.4696734059098	64.133784343504075	88.911017534170924	91.448225873256931	84.0	109.0	109.0	63.0	87.0	91.0	RhTFIso05r01_3AT_24	RhTFIso05r01_3AT_24
10	4	1159	450	122	0.0010978597838973831	0.049375371802498513	0.001991408556827356	0.00015495218282412569	0.00015509363487546402	-3.6013011318122272e-06	0.022633865516681218	0.042567254940842091	85.54618473895583	109.59303882195448	107.89022757697457	64.379293561396196	89.155958837435676	90.61771659018217	85.0	109.0	108.0	63.0	87.0	89.0	RhTFIso05r01_3AT_24	RhTFIso05r01_3AT_24
11	4	1288	448	122	0.02530290564038792	0.17747372595677177	0.026282087548357123	0.00062320037313839255	0.0066869885643700442	-3.0295716873198266e-06	0.0053131621786902204	0.16656751933372993	119.76610800744879	142.61452513966481	132.39068901303537	65.725088396014144	89.635567341690773	90.514304082288646	123.0	147.0	133.0	65.0	89.0	90.0	RhTFIso05r01_3AT_24	RhTFIso05r01_3AT_24
12	4	1410	453	122	0.0024229098023879837	0.086281403354574085	0.00312956000178245	0.00012752360680753599	0.00035315585182591126	-2.6410363831392274e-06	0.041395467007402334	0.043799897458434045	85.785229202037357	111.21731748726656	110.69439728353142	68.01274549098197	93.016272545090175	95.036633266533073	84.0	110.0	110.0	67.0	92.0	94.0	RhTFIso05r01_3AT_24	RhTFIso05r01_3AT_24
1	5	66	574	122	0.0011408372478479581	0.031793244761715911	0.0015055445341344261	0.00015309102684115951	0.00068955277343452136	-2.0900008614601688e-06	0.027246650824269462	0.031132262542137617	88.349272349272354	113.5072765072765	110.82120582120582	65.618514472965586	91.212179137083567	95.161660294920807	85.0	111.0	110.0	65.0	90.0	94.0	RhTFIso05r01_3AT_24	RhTFIso05r01_3AT_24
2	5	189	568	122	0.0029191350458957696	0.087447947650208205	0.0037988941780698849	0.00016306838397805223	0.00041940161632741599	-2.0438912931457093e-06	0.019222231845065538	0.061471346420781281	86.559334845049136	113.05291005291005	112.58881330309902	65.837968998985943	91.131826741996235	94.596479791395041	85.0	112.0	112.0	64.0	89.0	94.0	RhTFIso05r01_3AT_24	RhTFIso05r01_3AT_24
3	5	312	581	122	0.023093406178322364	0.24489391235375768	0.024008504919230598	0.00035707225695933315	0.0024914522972583932	-3.3104263965720091e-06	0.005288871114014721	0.19611342454887964	103.03481781376519	128.78623481781378	123.94035087719298	64.573792016806721	89.534138655462186	92.441351540616253	101.0	128.0	123.0	64.0	89.0	93.0	RhTFIso05r01_3AT_24	RhTFIso05r01_3AT_24
4	5	434	573	122	0.047816917182364721	0.28666798863110582	0.048730547327147621	0.00067041469204344591	0.0015747858286432124	-3.2152761024291754e-06	0.013901731801468149	0.13087447947650208	122.42125893474753	146.65851971408807	134.02559372838368	64.117957746478879	88.726742031134179	90.228224610822835	123.0	148.0	134.0	64.0	88.0	90.0	RhTFIso05r01_3AT_24	RhTFIso05r01_3AT_24
5	5	564	576	122	0.034451554550256343	0.29836737391764162	0.035566934797498367	0.00046001824972446141	0.00045041946632559134	-3.3656944003194888e-06	0.042083027828201579	0.07674003569303986	128.39720868409393	127.22640673460346	101.41914045192733	64.784738577484688	86.879886952425807	87.480734809232217	129.0	128.0	101.0	64.0	87.0	88.0	RhTFIso05r01_3AT_24	RhTFIso05r01_3AT_24
6	5	675	576	122	0.06360678533455702	0.33399431555291165	0.064552054117638077	0.00074719155688226136	0.0016115612420803725	-4.2250331348969693e-06	0.03198432398957976	0.093132394738581536	130.26301207203642	152.50267168018999	138.06055808430636	63.651746724890828	87.264489876935286	88.227173481540291	131.0	153.0	138.0	63.0	87.0	88.0	RhTFIso05r01_3AT_24	RhTFIso05r01_3AT_24
7	5	799	576	122	0.0061084645739174223	0.078260294798069938	0.0072002950499960765	0.00030194697327470382	0.0028900284322093081	-3.8326217066534623e-06	0.0031022253096059842	0.14475510608764625	97.429054054054049	121.59543918918919	121.20185810810811	64.062746504123339	88.667694514162775	90.525206167084974	94.0	118.0	117.0	63.0	87.0	90.0	RhTFIso05r01_3AT_24	RhTFIso05r01_3AT_24
8	5	916	567	122	0.032105266951504938	0.25216471676911889	0.033110534413456023	0.00049902954840650294	0.0024822467330646572	-3.7108383017624572e-06	0.0055501565625678626	0.19426267433406041	109.91952817824378	135.42647444298819	126.90904325032766	62.68605267809793	87.171468976489308	89.26029697719639	110.0	135.0	126.0	62.0	87.0	89.0	RhTFIso05r01_3AT_24	RhTFIso05r01_3AT_24
9	5	1038	576	122	0.0014092188592959693	0.056910569105691054	0.0022948324158681794	0.00015360304335665183	0.0002115061658522885	-2.3904916078898847e-06	0.021283054432829789	0.047128032255932317	85.975609756097555	110.63530778164925	109.01626016260163	64.48324922904402	88.867746005046257	91.336417157275022	85.0	110.0	109.0	63.0	87.0	90.0	RhTFIso05r01_3AT_24	RhTFIso05r01_3AT_24
10	5	1166	574	122	0.025406405968087575	0.25342058298631764	0.026559127253896909	0.0003924887500786121	0.0028853545856872579	-4.1193053497457849e-06	0.0039420227346661195	0.23107938396457137	105.31846635367762	130.67631716223266	122.90088680229525	63.113413014608234	87.743072155821153	88.538556883576803	104.0	130.0	121.0	62.0	87.0	88.0	RhTFIso05r01_3AT_24	RhTFIso05r01_3AT_24
11	5	1288	576	122	0.0002982451703323707	0.0055522506444576642	0.00041277278232060988	0.00026762064268012916	0.00080838296606037413	-2.786778480395668e-07	0.050205713750590748	0.009584242183885254	92.30952380952381	115.66666666666667	112.70238095238095	63.585776005317378	88.206646726487207	89.881090063143901	90.5	115.0	112.0	64.0	88.0	90.0	RhTFIso05r01_3AT_24	RhTFIso05r01_3AT_24
12	5	1410	576	122	0.06167449201001151	0.35625869772211238	0.062018715929686448	0.00068842168855696138	0.001183141226514376	-4.4494071262083184e-06	0.046298121777095316	0.084157328059767084	129.34827302631578	151.40419407894737	134.78947368421052	65.900557515075661	90.454545454545453	91.461144612583908	131.0	153.0	135.0	65.0	90.0	91.0	RhTFIso05r01_3AT_24	RhTFIso05r01_3AT_24
1	6	66	694	122	0.012501460184047491	0.18672747703086787	0.013247731281110117	0.00021724232983306083	0.002756505792567302	-2.5775782698063016e-06	0.010338974817914522	0.12248000528785775	95.71964601769912	121.58053097345133	118.52424778761062	65.789174252275686	90.1100455136541	94.08184330299089	91.0	117.0	114.0	65.0	90.0	94.0	RhTFIso05r01_3AT_24	RhTFIso05r01_3AT_24
2	6	182	699	122	0.00031789617656035138	0.0074030008592768856	0.00041739031992022178	0.00017369174379379648	0.0011131966018405424	-3.9045598324842931e-07	0.10281492503530042	0.0077334919690660317	88.910714285714292	112.9375	111.6875	65.717253779050409	90.399214223879596	93.707464873143763	86.0	110.0	109.0	65.0	90.0	94.0	RhTFIso05r01_3AT_24	RhTFIso05r01_3AT_24
3	6	307	691	122	0.0061935906576026812	0.13821138211382114	0.00702489788109206	0.0001705833347860856	0.0012973998870669996	-2.4078305441637013e-06	0.011899433272510695	0.098221957829334391	89.54088952654233	116.025824964132	114.9402199904352	65.44654088050315	91.097944470010731	93.820064427059364	87.0	113.0	113.0	65.0	90.0	93.0	RhTFIso05r01_3AT_24	RhTFIso05r01_3AT_24
4	6	428	701	122	0.0012140549272301325	0.051226122017317736	0.0020048185446819105	0.00014909451450080508	0.00016401527328776109	-2.3892289051664022e-06	0.021502127764237572	0.044484103377619141	84.765161290322581	109.59354838709677	109.51096774193549	66.598439459384139	91.328061864288699	93.360805350424968	84.0	109.0	109.0	65.0	90.0	92.0	RhTFIso05r01_3AT_24	RhTFIso05r01_3AT_24
5	6	555	699	122	0.0012136967851208715	0.051556613127106882	0.0020048094951211387	0.00014661618716950501	0.000165438167360092	-2.9678083136975178e-06	0.02270773030680056	0.043426531826293871	84.939743589743586	109.65000000000001	109.23076923076923	66.307896020628618	90.995260993797473	93.257927381699076	84.0	109.0	109.0	65.0	89.0	92.0	RhTFIso05r01_3AT_24	RhTFIso05r01_3AT_24
6	6	669	707	122	0.0011763622072547141	0.051027827351444247	0.0020752082476598491	0.00015250492343867788	0.00015355631045643587	-4.0143808876746091e-06	0.024755887357953234	0.041377486945601165	84.909326424870471	110.36658031088083	109.40284974093264	66.307515497666643	90.659260291147177	92.659747858187643	84.0	109.0	109.0	64.0	89.0	91.0	RhTFIso05r01_3AT_24	RhTFIso05r01_3AT_24
7	6	800	706	122	0.065709719561207955	0.3341265119968273	0.066733688192139651	0.00078486807006165503	0.0015619074546416748	-3.7832038518649394e-06	0.026784872430251988	0.10179126181505717	132.59564787339269	154.58120672601385	139.048862512364	64.254417311891999	88.021937661306339	89.036827476672627	134.0	156.0	140.0	64.0	88.0	89.0	RhTFIso05r01_3AT_24	RhTFIso05r01_3AT_24
8	6	925	699	122	0.0010436227787739827	0.04666534470222751	0.0018694893697653496	0.00015316538921573446	0.00012740371672018857	-4.4409688972708926e-06	0.020934017743557885	0.043029942494546898	84.898016997167133	109.18838526912181	109.14447592067988	65.37883935380988	89.759689385010049	91.837273798793589	84.0	109.0	109.0	64.0	88.0	91.0	RhTFIso05r01_3AT_24	RhTFIso05r01_3AT_24
9	6	1035	703	122	0.048584022844535397	0.28065305043294336	0.049551006836623411	0.00069061074165413625	0.0012066980913448336	-3.3699379204363304e-06	0.034423192934674635	0.082292286337497522	126.20207253886011	148.16179934055583	131.36175223739991	63.542681245979971	87.297712027933471	88.63337315078563	128.0	149.0	131.0	63.0	87.0	89.0	RhTFIso05r01_3AT_24	RhTFIso05r01_3AT_24
10	6	1166	691	122	8.5577787489023125e-05	0.0027100271002710027	0.00019695713108217015	0.00022300981075429064	0.0016349286428522657	-1.053552091884195e-06	0.082554269378100634	0.0052217595346685172	92.756097560975604	114.6829268292683	113.09756097560975	62.549045599151647	87.178419936373274	89.014846235418872	89.0	111.0	110.0	62.0	87.0	89.0	RhTFIso05r01_3AT_24	RhTFIso05r01_3AT_24
11	6	1283	703	122	0.036010430842951621	0.24985127900059489	0.037056840973629053	0.00060950342715046415	0.0022737001521818683	-3.8250980618711358e-06	0.0063316601961335558	0.18104302994249455	118.10449735449735	140.87857142857143	128.01878306878308	62.995506212001054	87.167944312274216	88.614855934443568	121.0	144.0	129.0	63.0	87.0	89.0	RhTFIso05r01_3AT_24	RhTFIso05r01_3AT_24
12	6	1410	707	122	0.068411776469033167	0.37508239947264338	0.069131628228082179	0.00072939952259877929	0.0013645137966250974	-4.6714187553453407e-06	0.03715804542417691	0.096389071998828096	131.96172622534661	152.67584456160907	133.7186096465534	64.856071261134559	89.644280356305671	90.255039849976555	134.0	154.0	133.0	64.0	89.0	90.0	RhTFIso05r01_3AT_24	RhTFIso05r01_3AT_24
1	7	68	822	122	0.055372592841702074	0.28250380064776259	0.055982046658724291	0.00079831651373926584	0.0021343405145155987	-2.6138166872477931e-06	0.020694422002430955	0.10648423557406306	134.13523631258775	156.5566214319139	139.82194665418811	67.070290188853065	91.857392906494709	93.938737908797791	137.0	159.0	140.0	67.0	92.0	94.0	RhTFIso05r01_3AT_24	RhTFIso05r01_3AT_24
2	7	187	822	122	0.0028724232940737417	0.097627073831713929	0.0036489975423136247	0.00013967870580379606	0.00042637279593233925	-1.9686055292540016e-06	0.03426373722052313	0.048648291360962388	86.510494245091408	112.11238997968856	111.70209884901828	67.849399355405808	92.596982127160857	95.563287430413126	85.0	111.0	111.0	67.0	91.0	95.0	RhTFIso05r01_3AT_24	RhTFIso05r01_3AT_24
3	7	312	829	122	0.054270461552805613	0.31350386674598452	0.054914170493718183	0.00073012586652257318	0.0022781676735188824	-3.0534587124169331e-06	0.0080620330370883269	0.17972106550333797	124.90470166561248	149.15981446341976	135.62344507695551	66.511939148854225	91.287694974003472	92.647217408049301	128.0	153.0	138.0	66.0	91.0	93.0	RhTFIso05r01_3AT_24	RhTFIso05r01_3AT_24
4	7	426	822	122	0.0025629916877741164	0.09504924317535858	0.0033431699270799935	0.00013314742919161933	0.00035870010815392699	-2.3999790799637091e-06	0.030557376870386264	0.050829532685570757	85.630737134909594	111.23783031988873	110.91237830319889	67.596231100723102	92.647505660652982	95.119640639836391	84.0	110.0	110.0	66.0	91.0	94.0	RhTFIso05r01_3AT_24	RhTFIso05r01_3AT_24
5	7	556	822	122	0.044447501804561015	0.2651860664948113	0.045197906988783294	0.00073033972414649146	0.0033905758822577849	-2.6953151071822634e-06	0.0051560251357707591	0.20668914006213232	124.53414755732801	147.82776669990031	135.31331006979062	65.959161644328503	90.636862462894669	92.39498066025007	129.0	153.0	138.0	66.0	90.0	92.0	RhTFIso05r01_3AT_24	RhTFIso05r01_3AT_24
6	7	674	827	122	0.00033547295776112	0.015466983938132063	0.00059659083709687167	0.00014738576730695253	0.00015972108168939042	-3.070212697338366e-06	0.039454852792336494	0.01804481459448741	86.713675213675216	109.7905982905983	108.02136752136752	66.296878147029204	91.005908022826446	93.753675730110771	86.0	109.0	108.0	66.0	90.0	93.0	RhTFIso05r01_3AT_24	RhTFIso05r01_3AT_24
7	7	795	822	122	0.019580363754377696	0.16220503668451319	0.020448829318725614	0.00044731030164692253	0.0066934684224170754	-3.1942818415544154e-06	0.0044958666938474563	0.17311124330755503	111.20537897310514	136.42746536267319	129.5395273023635	65.972938856015773	90.634792899408282	92.595502958579885	108.0	133.0	125.0	65.0	90.0	92.0	RhTFIso05r01_3AT_24	RhTFIso05r01_3AT_24
8	7	922	822	122	0.0012299006149327665	0.046070460704607047	0.0018799143583765198	0.00015328943541623614	0.00023014522300525075	-3.5286538104408927e-06	0.025681296673298062	0.038601361623372334	86.482065997130562	111.20659971305595	108.37015781922526	66.846313747228379	91.403062638580934	93.967156319290467	85.0	110.0	108.0	65.0	89.0	93.0	RhTFIso05r01_3AT_24	RhTFIso05r01_3AT_24
9	7	1044	816	122	0.00058372536300497471	0.02491902967810166	0.0010294358188056285	0.00015253158938191433	0.00034106565821909245	-2.7548468163848027e-06	0.025741664746515222	0.028356137219908786	85.631299734748012	110.20424403183024	108.11671087533156	65.406114425162684	89.686347613882859	91.880897505422993	84.0	109.0	108.0	64.0	88.0	91.0	RhTFIso05r01_3AT_24	RhTFIso05r01_3AT_24
10	7	1160	821	122	0.0012761336845605567	0.051292220239275564	0.0021090485620102939	0.00016138842510794024	0.00017391097732166009	-3.0265160963221039e-06	0.024725910779196714	0.04150968338951682	85.719072164948457	110.03092783505154	108.77577319587628	64.85612763882115	88.755521493764377	90.629833484288994	85.0	110.0	109.0	63.0	87.0	89.0	RhTFIso05r01_3AT_24	RhTFIso05r01_3AT_24
11	7	1279	817	122	0.0019781335059225486	0.056249586886112764	0.0028206556082511882	0.00018016110940219436	0.00040641110663882122	-2.8050628541792069e-06	0.014492826611363698	0.056778372661775399	88.552291421856637	112.86486486486487	109.6063454759107	64.762081524022975	88.888079562963995	90.462459728253251	86.0	111.0	109.0	63.0	87.0	89.0	RhTFIso05r01_3AT_24	RhTFIso05r01_3AT_24
12	7	1410	820	122	0.00011021762907951185	0.0038819307111990038	0.00018222608218221799	0.00015673318741413368	0.0003943377023339193	-7.8247673733568839e-07	0.12497985411166	0.0053468102248590051	84.226415094339629	109.50943396226415	110.45283018867924	63.828897058823529	88.510661764705887	92.308823529411768	82.0	108.0	109.0	64.0	88.0	92.0	RhTFIso05r01_3AT_24	RhTFIso05r01_3AT_24
1	8	63	946	122	0.0037165320927911136	0.15346576146173832	0.0045813317298069745	0.00010651872735666047	0.00033117516227371667	-2.2638429408036582e-06	0.068397813896824158	0.048612857262593241	84.898416166029492	110.67176406335336	111.98743855816494	69.608613861386132	94.183267326732675	98.646435643564359	84.0	109.0	111.0	68.0	92.0	98.0	RhTFIso05r01_3AT_24	RhTFIso05r01_3AT_24
2	8	197	946	122	0.002047438352565845	0.073170731707317069	0.0027033694350484744	0.00012076747529211867	0.00042426209044987937	-1.8767248401758788e-06	0.08803891810652166	0.029586790713267957	86.39747995418098	111.19816723940436	112.33333333333333	68.94601193705914	93.877826008319772	98.408482546572614	83.0	109.0	111.0	68.0	92.0	97.0	RhTFIso05r01_3AT_24	RhTFIso05r01_3AT_24
3	8	303	946	122	0.0019484859910540461	0.074595591316737916	0.0026389672282354799	0.00013082948794082937	0.00019056131338502551	-2.2173260222581635e-06	0.075453330050798878	0.032268879389824826	84.34719101123595	111.15730337078652	110.78988764044944	68.147178697581737	93.928991939135955	97.290009962865682	83.0	110.0	110.0	67.0	92.0	96.0	RhTFIso05r01_3AT_24	RhTFIso05r01_3AT_24
4	8	428	946	122	0.016190630523550034	0.15924901517056408	0.016861754935743524	0.00033709094688688472	0.0066125970609321209	-3.2388006569420261e-06	0.015280706667060754	0.10476908892800268	108.89947368421052	132.83105263157896	123.48473684210526	68.277340245239756	92.894327584488082	95.47702123417406	105.0	128.0	116.0	67.0	92.0	95.0	RhTFIso05r01_3AT_24	RhTFIso05r01_3AT_24
5	8	549	946	122	0.0021397441578548506	0.079959768669851647	0.0029324176330698505	0.00012844995614005758	0.00031861161110827683	-3.3405911530243042e-06	0.047762031091902628	0.041991450842343472	85.357442348008391	111.59538784067085	111.42033542976939	68.591054022046094	94.000546597430997	96.880932859615555	83.0	110.0	111.0	67.0	92.0	96.0	RhTFIso05r01_3AT_24	RhTFIso05r01_3AT_24
6	8	678	946	122	0.083305945733800749	0.41714860447573548	0.083450239929258915	0.00078906687303218175	0.0018352957368652685	-3.3232442702547046e-06	0.041745980811110042	0.10258989187830023	135.32509543901949	156.63230861965039	138.74984930681134	66.8314639056658	91.257981018119068	92.879350014380208	138.0	158.0	138.0	66.0	90.0	93.0	RhTFIso05r01_3AT_24	RhTFIso05r01_3AT_24
7	8	792	946	122	0.0029631044931880865	0.090017601206939898	0.0038468498420560363	0.00014880719252780098	0.00051806274738956659	-2.8418706059700825e-06	0.030155178936104244	0.056072416394267036	88.029795158286774	112.64432029795158	112.77560521415271	68.00525006907985	92.882656350741456	96.431518835774156	86.0	110.0	112.0	66.0	91.0	95.0	RhTFIso05r01_3AT_24	RhTFIso05r01_3AT_24
8	8	922	946	122	0.0019747471338651297	0.064034867152795244	0.0026645053438293042	0.00014113099749512068	0.00042209113521333682	-3.1431011377142227e-06	0.04478589324655341	0.038806470538932193	85.736910994764401	112.22251308900523	112.16099476439791	67.350855198352292	92.239276439509268	95.970090445061345	83.5	110.0	111.0	66.0	90.0	95.0	RhTFIso05r01_3AT_24	RhTFIso05r01_3AT_24
9	8	1044	946	122	0.0010721813750325672	0.0351185986086665	0.0016976563166549239	0.00017536175250316584	0.00033532664176227255	-3.5546297023268723e-06	0.022852904893300753	0.040231330148353027	87.510739856801905	111.85202863961814	111.73031026252983	65.516417651146625	89.89202571230021	93.02466990965948	85.0	110.0	110.0	64.0	88.0	92.0	RhTFIso05r01_3AT_24	RhTFIso05r01_3AT_24
10	8	1159	946	122	0.0010320037252532714	0.036711088760372143	0.0016785043642124269	0.00017194414636298227	0.00027883341354866041	-4.7018243086969896e-06	0.021412533521193693	0.042494342469197886	88.792237442922371	111.55251141552512	108.6689497716895	65.274340903158446	88.983555207517625	90.916470895327592	87.0	110.0	108.0	63.0	87.0	90.0	RhTFIso05r01_3AT_24	RhTFIso05r01_3AT_24
11	8	1281	946	122	0.05819390783886616	0.37281032604140474	0.059458878455440498	0.0006637335722191409	0.0015816811559707976	-7.0767623407371752e-06	0.012578632518720947	0.17668259156818372	121.41861510791367	144.08857913669064	127.27967625899281	63.53467860483763	87.180275290658827	88.123747160229854	125.0	147.0	129.0	63.0	86.0	88.0	RhTFIso05r01_3AT_24	RhTFIso05r01_3AT_24
12	8	1410	940	122	0.00027897025089410976	0.0056852969474328694	0.00043203352798343829	0.00027981187470984832	0.00070566297712302249	-7.837391559948393e-07	0.049854375606283335	0.011195661681098574	90.369230769230768	116.59999999999999	113.87692307692308	61.863476425052781	86.519176636171707	92.349049964813517	89.0	115.0	113.0	62.0	86.0	92.0	RhTFIso05r01_3AT_24	RhTFIso05r01_3AT_24
