RhTFIso05r01_3AT_49.jpg,96,55,53,1389,894
RhTFIso05r01_3AT_50.jpg,96,35,50,1398,913
RhTFIso05r01_3AT_51.jpg,96,30,72,1394,938
RhTFIso05r01_3AT_52.jpg,96,48,40,1403,889
RhTFIso05r01_3AT_53.jpg,96,55,48,1418,913
RhTFIso05r01_3AT_54.jpg,96,65,67,1419,936
