A01	0	0.017646255042653589	Growth
A02	0	0.014169593827731712	Growth
A03	0	0.01620938585703606	Growth
A04	0	0.013915718375901741	Growth
A05	0	0.012328095949605048	Growth
A06	0	0.020337536944806871	Growth
A07	3	0.037934245860554133	Growth
A08	0	0.018127639319394501	Growth
A09	0	0.013303863601518879	Growth
A10	0	0.018828118713226795	Growth
A11	0	0.01445486172690397	Growth
A12	0	0.017275870345215539	Growth
B01	NA	0.00010304930619184959	Growth
B02	4	0.045733390561519982	Growth
B03	NA	4.3394799461533851e-05	Growth
B04	0	0.01294975772082705	Growth
B05	0	0.01218576872833619	Growth
B06	0	0.013322494796810401	Growth
B07	3	0.039949237158090983	Growth
B08	0	0.012368251689150758	Growth
B09	0	0.011907157697556665	Growth
B10	4	0.060996197354256571	Growth
B11	0	0.014123504923135678	Growth
B12	1	0.019982118264296231	Growth
C01	0	0.018567191331504657	Growth
C02	0	0.016328181644592391	Growth
C03	0	0.00041009430782827405	Growth
C04	0	0.013009129017460657	Growth
C05	0	0.010257672149573179	Growth
C06	0	0.011420516355018541	Growth
C07	0	0.01724569686050606	Growth
C08	0	0.011355881738237582	Growth
C09	0	0.014040376548922536	Growth
C10	4	0.060573542487275603	Growth
C11	0	0.014542983258602366	Growth
C12	0	0.016349277726480253	Growth
D01	0	0.017908953843643775	Growth
D02	0	0.016563528362076852	Growth
D03	4	0.056685336091323875	Growth
D04	0	0.013980371699553618	Growth
D05	0	0.010906002694939246	Growth
D06	0	0.010504969328041371	Growth
D07	0	0.01612631529381971	Growth
D08	0	0.01210872481017926	Growth
D09	0	0.012664903349272427	Growth
D10	3	0.040007673380298786	Growth
D11	0	0.014289834566496141	Growth
D12	0	0.018899147951794749	Growth
E01	4	0.072949911119984626	Growth
E02	0	0.00011158754990716267	Growth
E03	4	0.058117516367217126	Growth
E04	0	0.01339177411251859	Growth
E05	0	0.010273086322448421	Growth
E06	0	0.013325161184091092	Growth
E07	0	0.016493573691803463	Growth
E08	0	0.012166590414046521	Growth
E09	0	0.012182795023856479	Growth
E10	0	0.013978506507271463	Growth
E11	0	0.014290405350207229	Growth
E12	0	0.02649656693368211	Growth
F01	0	0.016111468528694023	Growth
F02	0	0.015958232972725944	Growth
F03	4	0.054218247736737918	Growth
F04	0	0.014254930707725223	Growth
F05	0	0.011416706146980624	Growth
F06	0	0.011450085472880712	Growth
F07	0	0.017468966239213679	Growth
F08	0	0.011604218793251735	Growth
F09	4	0.088640433690951398	Growth
F10	0	0.013509031945949166	Growth
F11	0	0.015190259570919884	Growth
F12	4	0.091453169508010537	Growth
G01	0	0.020878413918358311	Growth
G02	4	0.04748924117082165	Growth
G03	4	0.071974423572228816	Growth
G04	0	0.012838047483662067	Growth
G05	0	0.012068039485280603	Growth
G06	3	0.041705409405238252	Growth
G07	0	0.018717274770535162	Growth
G08	0	0.013239162761028331	Growth
G09	3	0.059871623016067105	Growth
G10	0	0.013196335981254061	Growth
G11	0	0.016401048449906631	Growth
G12	NA	0.0014296670209790797	Growth
H01	0	0.00087312493334044429	Growth
H02	0	0.019095308993227186	Growth
H03	4	0.063314618863613947	Growth
H04	0	0.014200433714326249	Growth
H05	1	0.027115648150266007	Growth
H06	0	0.018503611973056569	Growth
H07	0	0.025852631439638857	Growth
H08	0	0.019982862340123014	Growth
H09	4	0.08150184411955734	Growth
H10	0	0.019028495880958909	Growth
H11	0	0.023345392632707962	Growth
H12	NA	0.00047525934060544051	Growth
