Column	Row	x	y	Diameter	Intensity	Area	Trimmed	FeatureMedian	FeatureVariance	BackgroundMedian	Circularity	Perimeter	redMean	greenMean	blueMean	redMeanBack	greenMeanBack	blueMeanBack	redMedian	greenMedian	blueMedian	redMedianBack	greenMedianBack	blueMedianBack	Barcode	Filename
1	1	62	69	124	0.020745263378543027	0.51136000000000004	0.020948002496121991	6.7564287075705607e-05	0.0018437618580392865	6.6775023198094279e-07	0.11291022110649523	0.060352000000000003	83.864580725907388	110.9523153942428	113.69424280350438	70.918402095612308	97.516044531761622	102.45762933857236	80.0	105.0	110.0	71.0	98.0	103.0	RhTFIso05r01_3AT_45	RhTFIso05r01_3AT_45
2	1	186	76	124	0.019833123112589869	0.26022400000000001	0.01996386209233102	0.00028185442103493907	0.0014089107008472032	7.5845850115047123e-09	0.0555571583168342	0.061376	91.374815543531724	118.02951303492375	117.49016232169208	69.641145427805171	95.880958560429107	100.47789601176572	90.0	117.0	117.0	70.0	96.0	101.0	RhTFIso05r01_3AT_45	RhTFIso05r01_3AT_45
3	1	306	76	124	0.018570786373954078	0.23174400000000001	0.018704521806982378	0.00028103918627330583	0.0013011420988623622	-4.2665141285101989e-07	0.040650608733704643	0.067711999999999994	91.703120684893676	118.57608395470865	117.63601215133941	68.675858047317561	94.184021992669116	98.950016661112969	90.0	116.0	115.0	69.0	94.0	99.0	RhTFIso05r01_3AT_45	RhTFIso05r01_3AT_45
4	1	425	76	124	0.017761617597178116	0.22944000000000001	0.017929744210958203	0.00026851072635051198	0.00124605090311806	-1.8105095893489833e-07	0.045504344488752943	0.06368	91.136401673640165	117.67810320781032	117.32384937238494	68.342358803986713	93.680730897009965	98.982558139534888	88.0	115.0	116.0	69.0	94.0	99.0	RhTFIso05r01_3AT_45	RhTFIso05r01_3AT_45
5	1	554	76	124	0.018123560779518086	0.224	0.018295373686376269	0.00027843101256158729	0.0012761485729986164	-7.7091681049927986e-07	0.040275906824712895	0.066879999999999995	90.114857142857147	118.46314285714286	118.40857142857143	67.292041237113409	93.143505154639172	98.603381443298971	87.0	116.0	116.0	67.0	93.0	99.0	RhTFIso05r01_3AT_45	RhTFIso05r01_3AT_45
6	1	674	81	124	0.016624558383543458	0.22303999999999999	0.016886076857002465	0.00025520770952023935	0.0013759021641833501	-1.3391557025237254e-06	0.034175886818915299	0.072447999999999999	89.175035868005736	116.42467718794835	117.22582496413199	66.102141680395391	92.376359143327846	97.741598023064256	87.0	114.0	115.0	66.0	92.0	98.0	RhTFIso05r01_3AT_45	RhTFIso05r01_3AT_45
7	1	800	73	124	0.017703353224120078	0.226688	0.017928426902005617	0.00027245240272632317	0.0012732854420161182	-4.6579427393292853e-07	0.043375004230356007	0.064832000000000001	88.619424054206661	116.96612083568606	116.85234330886504	66.260365803194574	91.716543904659446	97.282297442688076	86.0	114.0	115.0	66.0	92.0	97.0	RhTFIso05r01_3AT_45	RhTFIso05r01_3AT_45
8	1	927	70	124	0.028419475728946979	0.233792	0.028666111136189661	0.00044575393033661435	0.0027582413373986696	-2.8509703314866557e-07	0.016129814433767216	0.10796799999999999	100.57432247467834	128.59019983575143	124.70325759649603	66.160374206481791	90.972936852656204	95.36936184430337	98.0	127.0	123.0	66.0	91.0	95.0	RhTFIso05r01_3AT_45	RhTFIso05r01_3AT_45
9	1	1054	75	124	0.029864256291267311	0.23660800000000001	0.030073542178466552	0.00045366584955794598	0.0031341335630836907	-9.6434852600662324e-07	0.014275333012523862	0.115456	101.21855558560995	128.66567487151744	124.75682986205031	65.339369550637159	90.747736418511067	94.909708249496987	98.0	126.0	122.0	65.0	91.0	95.0	RhTFIso05r01_3AT_45	RhTFIso05r01_3AT_45
10	1	1178	67	124	0.01790822895011723	0.26342399999999999	0.018278425655609502	0.00023315989927692537	0.0011906103570240177	-1.081785876065432e-06	0.039315010347833093	0.073408000000000001	86.87099125364432	114.40281827016521	113.34815354713314	65.160743765748549	90.283082804761492	94.877834738031112	84.0	112.0	112.0	65.0	90.0	95.0	RhTFIso05r01_3AT_45	RhTFIso05r01_3AT_45
11	1	1300	74	124	0.023768751408876704	0.241984	0.024005069003212684	0.0003424033481805049	0.0018477608666972335	-1.5487044968820282e-06	0.028552038515048391	0.082559999999999995	93.289870404654849	120.80375562020629	117.74266067177996	64.469267139479911	90.137875717662951	93.420128335021957	90.0	118.0	116.0	64.0	90.0	94.0	RhTFIso05r01_3AT_45	RhTFIso05r01_3AT_45
12	1	1424	76	124	0.085182812787394119	0.36909803921568629	0.085672836104106059	0.00092235214523031614	0.0029681007262698355	-4.6573628087274923e-07	0.044253346546956951	0.090666666666666673	132.2039949001275	155.44836379090523	140.30535486612834	64.384137245151663	89.037792143212329	91.228866235703634	134.0	157.0	141.0	64.0	89.0	91.0	RhTFIso05r01_3AT_45	RhTFIso05r01_3AT_45
1	2	62	194	124	0.020597564820282376	0.477184	0.020871702290290142	0.00010842709331551474	0.001915814153593639	-9.1035345940711444e-08	0.12757163438259428	0.054848000000000001	84.416040772532185	111.1931330472103	114.33141094420601	70.948096462235284	96.984208593463094	102.77524788835842	80.0	106.0	111.0	71.0	97.0	103.0	RhTFIso05r01_3AT_45	RhTFIso05r01_3AT_45
2	2	186	191	124	0.051999795116087814	0.28614400000000001	0.052050669296401154	0.00080437143992210158	0.0062966826558653469	4.063923036354714e-07	0.026502801507592617	0.093184000000000003	120.12815924849028	145.37933348244241	136.46208901811676	69.88049130356822	95.633136094674555	99.366863905325445	126.0	152.0	141.0	70.0	96.0	100.0	RhTFIso05r01_3AT_45	RhTFIso05r01_3AT_45
3	2	310	191	124	0.047686828121697562	0.26566400000000001	0.047864439527000507	0.00075123630340551855	0.0027213317455869741	-1.5944604998752083e-06	0.05636538182775503	0.061567999999999998	119.95904601300892	144.65815466152733	132.12406649000241	67.997995468014636	93.567108244727208	97.08480041833711	123.0	148.0	134.0	68.0	93.0	97.0	RhTFIso05r01_3AT_45	RhTFIso05r01_3AT_45
4	2	426	200	124	0.0261683228007548	0.223744	0.026360710129686594	0.00045391480721491262	0.0030199148451182261	-1.2734762302571132e-06	0.0097106054375990757	0.136128	100.97225400457666	128.15846681922196	125.29862700228833	67.45131503009317	92.98746805177673	97.779783988787202	100.0	128.0	125.0	68.0	93.0	98.0	RhTFIso05r01_3AT_45	RhTFIso05r01_3AT_45
5	2	548	205	124	0.068016507120876285	0.29574400000000001	0.068185283921683063	0.00094731116400578361	0.0041810234073730483	-1.4034584714802327e-06	0.042785240920962801	0.074560000000000001	133.34256654403808	156.82774291278943	144.38736204284785	67.600872410032721	92.73418756815704	97.184114867320972	137.0	160.0	146.0	68.0	93.0	98.0	RhTFIso05r01_3AT_45	RhTFIso05r01_3AT_45
6	2	679	203	124	0.063651427665841837	0.27654400000000001	0.063872142141491298	0.00093579372902470191	0.0036226909837622878	-1.757528926411963e-06	0.044631666726652509	0.070592000000000002	132.70261513538532	156.74635501041425	144.36727609349688	66.947275300778486	91.643223637650394	95.994603680113229	135.0	159.0	145.0	67.0	92.0	96.0	RhTFIso05r01_3AT_45	RhTFIso05r01_3AT_45
7	2	797	200	124	0.047587186297581754	0.248256	0.047712855250389159	0.00079193991358846277	0.0037984341075871439	-2.1636091509546858e-07	0.012247398348779023	0.12767999999999999	119.51301881928332	146.54782160350607	137.41943799948442	66.291248084454281	91.812702196492424	96.460582325898173	122.0	150.0	139.0	66.0	92.0	97.0	RhTFIso05r01_3AT_45	RhTFIso05r01_3AT_45
8	2	929	199	124	0.067178294161996444	0.28678399999999998	0.067458426294100524	0.00095455036202368639	0.0034654357219199771	-1.6380268006623258e-06	0.040994876704259407	0.075008000000000005	131.98861861191699	155.89444320464182	143.24637357732649	65.668341708542712	90.792354630294327	94.242103374012927	134.0	158.0	144.0	66.0	91.0	94.0	RhTFIso05r01_3AT_45	RhTFIso05r01_3AT_45
9	2	1045	198	124	0.019108432819274733	0.225664	0.019378727955762908	0.00028538334023324723	0.0014557224362892038	-1.8986412225901901e-06	0.030616878962354745	0.076992000000000005	91.375212705615425	117.80175836642087	117.19398752127056	65.925861641457971	90.815604595421107	95.02801884453261	88.0	114.0	115.0	66.0	91.0	95.0	RhTFIso05r01_3AT_45	RhTFIso05r01_3AT_45
10	2	1167	199	124	0.013888017345791781	0.21651200000000001	0.014195481131293888	0.00021187198198376314	0.0014327090055086898	-1.1831105383949343e-06	0.036787047518336037	0.0688	86.302689920189181	113.01152822938221	112.57788944723617	65.005718019931379	90.207564123509229	95.385639601372318	83.0	110.0	110.0	65.0	90.0	95.0	RhTFIso05r01_3AT_45	RhTFIso05r01_3AT_45
11	2	1300	191	124	0.016500848108484529	0.25548799999999999	0.016911394230682015	0.00022406539140916597	0.0010025403273042873	-1.6208014257747069e-06	0.04692014214251411	0.066175999999999999	86.549849699398791	113.36347695390782	112.88076152304609	65.03825324507865	89.723459124903286	94.16625118198229	84.0	111.0	111.0	65.0	90.0	94.0	RhTFIso05r01_3AT_45	RhTFIso05r01_3AT_45
12	2	1424	192	124	0.020924098422812905	0.28337254901960784	0.021394938864648987	0.00025402938217935822	0.0015586232655005552	-1.5160220944614084e-06	0.034330659379719991	0.090196078431372548	87.644063105452531	115.47163022419042	113.53307500691946	64.539673853562434	89.459669475757906	92.628871620882123	85.0	113.0	111.0	65.0	89.0	93.0	RhTFIso05r01_3AT_45	RhTFIso05r01_3AT_45
1	3	62	324	124	0.0020186767441899736	0.20614399999999999	0.0022567257998581721	2.7274679269587996e-05	0.00036575030269719102	-1.490459321755112e-07	6.1692241653484068	0.0051840000000000002	76.581496429680229	101.91089723688296	107.10090034150885	70.633908416639798	96.426394711383423	102.8847146081909	76.0	101.0	106.0	71.0	97.0	103.0	RhTFIso05r01_3AT_45	RhTFIso05r01_3AT_45
2	3	186	316	124	0.059215873872911509	0.31475199999999998	0.059304105444016042	0.00084514394146445015	0.0071180181259780997	4.2193411109961034e-07	0.032032725856100883	0.088896000000000003	123.74074827165515	147.92903619357463	137.07808052053682	70.29868310451107	95.381993088633607	99.676286541514898	131.0	156.0	142.0	70.0	95.0	100.0	RhTFIso05r01_3AT_45	RhTFIso05r01_3AT_45
3	3	310	324	124	0.012151698877205137	0.23180799999999999	0.012441131400524556	0.00018742664603385673	0.00081119859124261461	-7.182051685313288e-07	0.072196693027062095	0.050816	84.765323025952512	111.9627277747101	112.90944229707344	68.077314004832132	93.840956427559775	99.290177455636098	83.0	111.0	112.0	68.0	94.0	99.0	RhTFIso05r01_3AT_45	RhTFIso05r01_3AT_45
4	3	433	324	124	0.070797806984343042	0.30547200000000002	0.071036638514798869	0.00095748530388143889	0.0044401132999348373	-1.0756391878013559e-06	0.038264200245955567	0.080128000000000005	135.07270060758432	158.40791954745444	143.08778545987849	67.645410984150388	92.712495392554374	97.144213048286034	139.0	162.0	145.0	67.0	93.0	97.0	RhTFIso05r01_3AT_45	RhTFIso05r01_3AT_45
5	3	557	319	124	0.018416972359653873	0.22444800000000001	0.018611854711978813	0.00028186061049279519	0.0014662096521261259	-1.4511216855588767e-06	0.036027603622324406	0.070784	91.465925292272601	118.71143427430853	119.17308240661534	67.32233041756065	92.725449744182214	99.314573361940916	89.0	116.0	117.0	67.0	93.0	99.0	RhTFIso05r01_3AT_45	RhTFIso05r01_3AT_45
6	3	681	320	124	0.057744349334487875	0.264768	0.057848974353576457	0.00088876859842813686	0.0035017099274228833	2.2891652108655511e-07	0.041003280471910424	0.072064000000000003	127.40149867053421	152.66207396664248	142.02199661590524	66.812412952646241	91.745212395543177	96.584697075208908	130.0	155.0	143.0	67.0	92.0	97.0	RhTFIso05r01_3AT_45	RhTFIso05r01_3AT_45
7	3	796	324	124	0.0001479630887069211	0.0087679999999999998	0.00024672157872389339	9.9993202526034737e-05	8.5905516791541498e-05	2.7089462498108657e-08	14.228039455927329	0.00070399999999999998	77.722627737226276	101.88321167883211	105.05839416058394	66.16206095041322	91.45893595041322	97.125322830578511	77.0	101.0	105.0	66.0	91.0	97.0	RhTFIso05r01_3AT_45	RhTFIso05r01_3AT_45
8	3	925	322	124	0.057023385261592272	0.25631999999999999	0.057097037720407834	0.00090060254893519712	0.0033920867919724857	-9.6835921357880205e-07	0.034092576883949594	0.077759999999999996	127.41747815230961	152.61498127340823	140.11335830212235	66.75	91.628399311531837	95.277882960413081	130.0	154.0	141.0	67.0	92.0	96.0	RhTFIso05r01_3AT_45	RhTFIso05r01_3AT_45
9	3	1054	324	124	0.013933791177085791	0.22662399999999999	0.014139357983153564	0.00020651971486733236	0.0010602398152790079	-1.4388930220484177e-07	0.050790687716238667	0.059903999999999999	85.787065800621292	113.28861903417113	112.80570460321943	66.714084740152273	91.352946044356173	95.815375703409472	83.0	111.0	111.0	67.0	91.0	96.0	RhTFIso05r01_3AT_45	RhTFIso05r01_3AT_45
10	3	1171	315	124	0.014124936149502344	0.22592000000000001	0.014515333072192018	0.00021143980436703566	0.0012328630227505172	-1.1946432116883724e-06	0.044359288268687881	0.064000000000000001	85.948441926345609	113.18498583569405	114.29886685552408	65.666225713104595	90.034559735427862	95.716494419181487	83.0	111.0	112.0	66.0	90.0	96.0	RhTFIso05r01_3AT_45	RhTFIso05r01_3AT_45
11	3	1300	326	124	0.046938964263659615	0.251392	0.047171278207455758	0.00073822085035101371	0.0025503592446270858	-7.56890415195258e-07	0.030603697546780849	0.081280000000000005	117.27774949083503	144.11736252545825	135.1807535641548	65.092416859023686	89.964435325297089	93.502607506198174	118.0	145.0	135.0	65.0	90.0	94.0	RhTFIso05r01_3AT_45	RhTFIso05r01_3AT_45
12	3	1424	320	124	0.020192295216822264	0.28376470588235292	0.020688061948090166	0.00024269432076104951	0.0014713009915392229	-2.2546124202311711e-06	0.037987768485198879	0.085803921568627456	87.176616915422883	114.21365395245992	113.76340519624102	64.375492772667542	88.844174332019278	93.649802890932989	84.0	111.0	111.0	64.0	89.0	94.0	RhTFIso05r01_3AT_45	RhTFIso05r01_3AT_45
1	4	62	442	124	0.064224552265760335	0.471744	0.064457077011809097	0.00052293847019194704	0.014035046065189556	-6.2064641259867658e-07	0.0095215033754520988	0.19961599999999999	111.58662325328991	135.22588522588524	130.29046262379595	70.43821177610856	95.699903077295858	100.64187060818996	110.0	133.0	124.0	70.0	96.0	101.0	RhTFIso05r01_3AT_45	RhTFIso05r01_3AT_45
2	4	189	442	124	0.028625754136984014	0.25708799999999998	0.028743237624932732	0.00040831493873615571	0.0031645423275724204	4.0171539978010306e-07	0.018837112735418909	0.104768	100.42444610405775	126.72168284789645	125.25516554642768	69.56400758097864	94.764042039972438	100.98053066850449	99.0	125.0	123.0	70.0	95.0	101.0	RhTFIso05r01_3AT_45	RhTFIso05r01_3AT_45
3	4	310	444	124	0.022344861990397327	0.23974400000000001	0.022471795631482081	0.00033046290576225931	0.0016915645050737389	-2.5435683948269848e-07	0.035532600233083661	0.073663999999999993	93.94714361986118	121.60971703150027	122.45702082221035	68.199343379072317	93.64744507113393	100.23318461149928	91.0	120.0	120.0	68.0	94.0	100.0	RhTFIso05r01_3AT_45	RhTFIso05r01_3AT_45
4	4	430	439	124	0.00034288168873053502	0.010175999999999999	0.00041423779320732309	0.00014740467699040619	0.00026078319434822767	-1.1603379128253417e-07	3.1968846842929737	0.0016000000000000001	80.635220125786162	105.25786163522012	107.67295597484276	67.218220612957452	92.666494245441612	99.900750032328986	81.0	104.0	107.0	68.0	93.0	100.0	RhTFIso05r01_3AT_45	RhTFIso05r01_3AT_45
5	4	551	444	124	0.014631861603951468	0.23583999999999999	0.014846558773144863	0.00022201323044924827	0.00092806160919596818	-1.0622609043759524e-06	0.06117991242424832	0.05568	86.144369063772047	113.66729986431478	115.76770691994572	67.2073701842546	92.84070351758794	100.31591289782244	85.0	112.0	114.0	67.0	93.0	100.0	RhTFIso05r01_3AT_45	RhTFIso05r01_3AT_45
6	4	678	440	124	0.062022847576971352	0.27839999999999998	0.062213509639756588	0.0009163490955757447	0.0039132205123217946	-1.1065777763291485e-06	0.03543691682968253	0.079488000000000003	130.84344827586207	154.64459770114942	143.48712643678161	67.092150776053217	92.077871396895787	97.255609756097556	134.0	157.0	145.0	67.0	92.0	98.0	RhTFIso05r01_3AT_45	RhTFIso05r01_3AT_45
7	4	796	448	124	0.067678718683805275	0.30271999999999999	0.067977848246673508	0.00092172066478841714	0.0032686858775852665	-4.3375729929254986e-07	0.041973683359874926	0.076160000000000005	131.74186046511628	155.13488372093022	143.56575052854123	66.497108765488761	91.482606700321242	95.97246443322625	135.0	158.0	145.0	67.0	91.0	96.0	RhTFIso05r01_3AT_45	RhTFIso05r01_3AT_45
8	4	929	440	124	0.027975064060189347	0.22822400000000001	0.02817451183874602	0.00046137346414822859	0.0020732103576997342	-9.1212608172459145e-07	0.021791789753722025	0.091775999999999996	100.09871003925967	127.12647223780145	125.7024677509815	66.35152168504851	91.637532133676089	96.406667219504101	98.0	126.0	125.0	66.0	92.0	97.0	RhTFIso05r01_3AT_45	RhTFIso05r01_3AT_45
9	4	1052	454	124	0.068844637581026491	0.30956800000000001	0.069103814590039128	0.00091376958747305006	0.0036320133733652648	-1.345120153194966e-06	0.044785156964877094	0.074560000000000001	132.96361381021293	155.65309075873475	142.85094066570187	66.373841305153874	90.13561364479051	94.357804968483507	136.0	159.0	144.0	66.0	90.0	94.0	RhTFIso05r01_3AT_45	RhTFIso05r01_3AT_45
10	4	1176	442	124	0.011740165031578568	0.21702399999999999	0.012184273430478901	0.00017988038632204414	0.0012084173890133023	-1.2964808567383828e-06	0.045570595690134261	0.061887999999999999	84.57003833677382	112.05101739899735	112.64169861397818	65.521415726663392	90.042504495667814	95.76254700016348	82.0	110.0	110.0	66.0	90.0	96.0	RhTFIso05r01_3AT_45	RhTFIso05r01_3AT_45
11	4	1300	441	124	0.017771586866629153	0.23296	0.018203071100615514	0.00026020699482840913	0.001476420515042941	-2.1152820686804051e-06	0.036077336455826427	0.072064000000000003	89.045329670329664	115.76950549450549	115.67747252747253	65.222861910721733	89.61960784313726	94.569879015435959	86.0	113.0	113.0	65.0	89.0	95.0	RhTFIso05r01_3AT_45	RhTFIso05r01_3AT_45
12	4	1424	440	124	0.10347985625549039	0.41850980392156861	0.10389237038305604	0.00099669388026620833	0.0033879903166578163	-2.3093335087492812e-06	0.037850321608017191	0.1043921568627451	135.81859070464768	158.30678410794602	144.22413793103448	64.723900728351765	89.376719719449696	91.777582951173457	138.0	160.0	145.0	64.0	89.0	92.0	RhTFIso05r01_3AT_45	RhTFIso05r01_3AT_45
1	5	62	570	124	0.055459705860021268	0.44703999999999999	0.055690389077458782	0.00065178639932176783	0.010561397000877151	-1.8416594186300673e-07	0.045957901330785318	0.088447999999999999	107.07344309234072	132.4217609162491	128.34931997136721	70.178935185185182	95.648726851851848	101.69328703703704	116.0	143.0	135.0	70.0	96.0	102.0	RhTFIso05r01_3AT_45	RhTFIso05r01_3AT_45
2	5	178	562	124	0.047433175995556791	0.26969599999999999	0.047509847896158468	0.00072223668245699512	0.0052397602213274498	2.5712393881882347e-07	0.013521124349609647	0.12665599999999999	117.60322733744661	143.5716658756526	137.78998576174655	69.41968276224695	94.457716238717026	100.65839978967662	120.0	146.0	140.0	69.0	94.0	101.0	RhTFIso05r01_3AT_45	RhTFIso05r01_3AT_45
3	5	315	572	124	0.013968737869181761	0.23558399999999999	0.014141253609196866	0.00021459191329354111	0.00088569289127619487	-8.1309777469814803e-07	0.061254236158191581	0.055615999999999999	86.186362401521322	113.03776147785928	116.52159739201304	67.669457468184859	93.422220361687877	100.8791862022773	85.0	112.0	116.0	68.0	93.0	101.0	RhTFIso05r01_3AT_45	RhTFIso05r01_3AT_45
4	5	424	569	124	0.02367905147255164	0.23552000000000001	0.023919822001213221	0.00036333842155812895	0.0016123054040546978	-1.1249775700828654e-06	0.036152012030418186	0.072384000000000004	96.06630434782609	123.29266304347826	123.81086956521739	66.883465885307658	92.550104646295523	100.67032231059021	94.0	121.0	121.5	67.0	92.0	101.0	RhTFIso05r01_3AT_45	RhTFIso05r01_3AT_45
5	5	550	566	124	0.020930603953693564	0.22816	0.021055055733373497	0.00033467710885355369	0.0013679494671807141	-1.0980853488449102e-06	0.037984791571440336	0.069503999999999996	92.461711079943896	121.10631136044881	122.17054698457223	67.394859038142627	92.733250414593698	100.82844112769486	91.0	119.0	121.0	67.0	93.0	101.0	RhTFIso05r01_3AT_45	RhTFIso05r01_3AT_45
6	5	678	565	124	0.020993332115339679	0.23008000000000001	0.021182857886858985	0.0003269858697584113	0.0013880976392170738	-3.0394762644985542e-07	0.035885834086874742	0.071807999999999997	93.380250347705143	120.76856745479833	121.38970792767734	66.733499584372396	92.188611803823775	99.479052369077309	91.0	119.0	119.0	67.0	92.0	99.0	RhTFIso05r01_3AT_45	RhTFIso05r01_3AT_45
7	5	796	564	124	0.017141432614283164	0.21440000000000001	0.017321544744059218	0.00029498191650620745	0.001244790057724147	3.3607460398308252e-07	0.049094483761765027	0.059263999999999997	90.657910447761196	117.52089552238806	118.56238805970149	66.714623217922608	91.815478615071285	98.340773930753571	89.0	116.0	118.0	67.0	92.0	98.0	RhTFIso05r01_3AT_45	RhTFIso05r01_3AT_45
8	5	923	569	124	0.015728768346883734	0.218752	0.016029901324924829	0.00024963879682636877	0.0012058838456555842	-1.2425567319984151e-06	0.044631749166767619	0.062784000000000006	88.385605617320067	115.34932709186658	115.85722644821533	66.254853772425662	91.105758990743013	96.853608585237978	86.0	113.0	114.0	66.0	91.0	97.0	RhTFIso05r01_3AT_45	RhTFIso05r01_3AT_45
9	5	1051	575	124	0.0711197215195261	0.30060799999999999	0.071335565620984975	0.00095969397147365007	0.0034316012170106627	-1.0378803628968039e-06	0.045337663561911601	0.073024000000000006	134.27123695976155	156.91143282946561	144.66829891420056	66.204978038067352	90.395223279648604	94.157851390922403	137.0	159.0	146.0	66.0	90.0	94.0	RhTFIso05r01_3AT_45	RhTFIso05r01_3AT_45
10	5	1172	575	124	0.015616452401348777	0.223104	0.0159931220996123	0.00023786962021185077	0.0011751336922605185	-1.2229246344869014e-06	0.041940678805664877	0.065407999999999994	89.324727481353989	114.41566265060241	115.37693631669535	65.428124227695861	89.881126946206436	95.510173819919274	87.0	112.0	113.0	65.0	90.0	96.0	RhTFIso05r01_3AT_45	RhTFIso05r01_3AT_45
11	5	1308	562	124	0.00014514452413439668	0.0083840000000000008	0.00029661433288200023	0.00013442424599038939	0.00010861500729446691	-4.871910573059604e-07	2.0997379470421578	0.001792	78.36641221374046	103.64885496183206	106.54198473282443	65.288627855944242	89.878856331483149	95.886343100555052	78.0	104.0	106.0	65.0	90.0	96.0	RhTFIso05r01_3AT_45	RhTFIso05r01_3AT_45
12	5	1424	579	124	0.02059803565597073	0.27419607843137256	0.021077441646770598	0.00026103234585069624	0.0012958141701535362	-1.247119273881684e-06	0.036639796224265268	0.085882352941176465	88.473970251716253	116.02946224256293	113.82522883295195	64.777393559541821	89.023233196455593	93.79792522152583	86.0	114.0	111.0	65.0	89.0	94.0	RhTFIso05r01_3AT_45	RhTFIso05r01_3AT_45
1	6	62	686	124	0.02182723487787858	0.37542399999999998	0.022023639376239499	0.00026028387632322225	0.0021319326628026162	-1.034405057428287e-06	0.066480638255850114	0.067391999999999994	86.855779065802935	113.73133310603478	116.57671326287078	69.536530382211296	95.625371451993033	102.00276667691362	88.0	115.0	117.0	70.0	96.0	102.0	RhTFIso05r01_3AT_45	RhTFIso05r01_3AT_45
2	6	190	690	124	0.02038123003538355	0.246784	0.020535818994565882	0.00030993127493818853	0.0014670289999479812	-6.1007104481670036e-07	0.039828675514457783	0.070592000000000002	92.058609958506224	119.61229253112033	121.01089211618257	68.972894893363929	94.06330189480839	101.20672954371655	91.0	119.0	120.0	69.0	94.0	101.0	RhTFIso05r01_3AT_45	RhTFIso05r01_3AT_45
3	6	306	694	124	0.023476868434267901	0.241536	0.023626698561631684	0.00034769972456105924	0.00196875868146843	-1.4403573357390796e-07	0.031398434429806603	0.078656000000000004	95.841812400635931	122.09194488606254	122.40567037625861	68.061851320563662	93.096194413973507	100.6928529238039	94.0	120.0	120.0	68.0	93.0	101.0	RhTFIso05r01_3AT_45	RhTFIso05r01_3AT_45
4	6	427	695	124	0.00039517421665870891	0.012031999999999999	0.00051050949967298108	0.00016929002166967506	0.00029940287747831797	-2.0571959518237117e-07	0.94499107019980988	0.0032000000000000002	80.989361702127653	106.31382978723404	108.24468085106383	67.024486623048517	92.433503919155271	100.58431042300965	81.0	106.0	108.0	67.0	92.0	101.0	RhTFIso05r01_3AT_45	RhTFIso05r01_3AT_45
5	6	557	695	124	0.00032589508345793618	0.011136	0.00045617282295631981	0.00015853816747304406	0.0003007060105368118	-3.27468482146252e-07	3.2345391818025089	0.0016639999999999999	79.58620689655173	106.17816091954023	111.11494252873563	67.33764804866999	92.780078959290663	101.25720018121804	79.0	106.0	111.0	68.0	93.0	101.0	RhTFIso05r01_3AT_45	RhTFIso05r01_3AT_45
6	6	681	695	124	0.061201696245937728	0.26963199999999998	0.061298441181977269	0.00094043915297210541	0.004251148476798975	-8.371160438163791e-07	0.04175654354076834	0.072064000000000003	130.19487301210538	155.13220982672681	143.02610966057441	67.763757448300041	92.725464423413953	98.666316158429723	134.0	158.0	145.0	68.0	93.0	99.0	RhTFIso05r01_3AT_45	RhTFIso05r01_3AT_45
7	6	796	695	124	0.018793942696173901	0.22431999999999999	0.018974217323722169	0.00029933383974141436	0.0011507105586391487	-2.0119071939304368e-06	0.043957170704748694	0.064063999999999996	91.347218259629102	118.70156918687589	118.57945791726105	67.111303630363039	92.374339933993397	98.282260726072607	89.0	117.0	117.0	67.0	92.0	98.0	RhTFIso05r01_3AT_45	RhTFIso05r01_3AT_45
8	6	922	695	124	0.064302686834786835	0.27744000000000002	0.064506211550056897	0.00095355094651862807	0.0037051923273606949	-8.8444155876203132e-07	0.036007149589032332	0.078719999999999998	132.9123414071511	156.00761245674741	143.17554786620531	67.12568644818424	91.652258635961033	96.226926483613823	136.0	159.0	145.0	67.0	92.0	97.0	RhTFIso05r01_3AT_45	RhTFIso05r01_3AT_45
9	6	1051	693	124	0.013415395194535272	0.21945600000000001	0.013679289663081767	0.00021747160635447979	0.00099438326697831874	-9.7974750716693958e-07	0.051355433769185374	0.058624000000000002	86.637212015164778	112.14639836687081	113.20997375328083	66.939242374549039	90.560101672679565	96.426123319121018	85.0	110.0	112.0	67.0	90.0	96.0	RhTFIso05r01_3AT_45	RhTFIso05r01_3AT_45
10	6	1176	686	124	0.016160384392549677	0.22579199999999999	0.016498821608453468	0.00024674659239476779	0.0011029079034871186	-1.3444640390019006e-06	0.049020462745462644	0.060864000000000001	89.218820861678012	114.87244897959184	114.88407029478458	66.087707696123005	90.096718194593706	95.248739356865343	87.0	113.0	113.0	66.0	90.0	95.0	RhTFIso05r01_3AT_45	RhTFIso05r01_3AT_45
11	6	1297	699	124	0.022671287144438359	0.23136000000000001	0.022975878313942519	0.00034949077023141477	0.001731394471040347	-1.5686886528575262e-06	0.031285569994255198	0.077119999999999994	94.860580912863071	121.5579529737206	120.41383125864454	65.454621149042467	89.926810990840963	93.575603663613649	92.0	119.0	118.0	65.0	90.0	94.0	RhTFIso05r01_3AT_45	RhTFIso05r01_3AT_45
12	6	1424	695	124	0.076948885942192569	0.34674509803921566	0.077296959448084387	0.0008991928004668993	0.0031203889922382226	-1.1592554746877089e-06	0.031501717233815854	0.10415686274509804	129.53653019678805	153.16693055869712	139.87265324587199	65.449753872013446	89.409052707407852	92.503541841757709	132.0	155.0	141.0	65.0	89.0	93.0	RhTFIso05r01_3AT_45	RhTFIso05r01_3AT_45
1	7	62	813	124	0.022178833164678665	0.37952000000000002	0.022452487174216346	0.00025554608433491145	0.0021772767873614613	-7.5451358390849056e-07	0.071066453688764464	0.065535999999999997	87.409949409780779	113.8266441821248	117.16728499156829	69.694791129448163	94.893965961836003	101.84641567818463	88.0	115.0	117.0	69.0	95.0	102.0	RhTFIso05r01_3AT_45	RhTFIso05r01_3AT_45
2	7	178	826	124	0.021762445115275947	0.245952	0.021867973017487507	0.00030400447411813589	0.0021314935380966757	-4.9069127570772189e-07	0.022748938935827419	0.093247999999999998	93.505854800936774	119.95029924538122	120.3856362217018	68.220166355457479	93.516211169580714	99.444236971651677	91.0	117.0	118.0	68.0	93.0	100.0	RhTFIso05r01_3AT_45	RhTFIso05r01_3AT_45
3	7	311	812	124	0.072719585190503436	0.30220799999999998	0.072953211193172288	0.0010094822064625351	0.0047064063107417975	-1.3759699853729765e-06	0.036160763138797333	0.081984000000000001	136.78271918678527	159.12198221092757	147.30813214739518	67.791525268274782	92.67660276987985	98.296890764009902	141.0	163.0	150.0	68.0	93.0	99.0	RhTFIso05r01_3AT_45	RhTFIso05r01_3AT_45
4	7	433	814	124	0.023145197909402802	0.23974400000000001	0.023357984675472891	0.00035680301344403445	0.0014721512191859596	-7.9389287572926744e-07	0.038692484044906342	0.070592000000000002	95.37720234917245	122.14575547250401	122.38681260010678	68.152369728091585	92.675814462496845	100.15590537924068	94.0	121.0	121.0	68.0	93.0	100.0	RhTFIso05r01_3AT_45	RhTFIso05r01_3AT_45
5	7	554	819	124	0.021846432781410147	0.24371200000000001	0.022024723515257014	0.00033313271809900071	0.0015535984121856949	-2.0899625575877145e-07	0.037475714072738447	0.072319999999999995	94.139180672268907	121.33718487394958	122.07431722689076	68.598967589066604	93.537192180756534	101.42278073961242	93.0	120.0	121.0	69.0	94.0	101.0	RhTFIso05r01_3AT_45	RhTFIso05r01_3AT_45
6	7	684	818	124	0.018296569623627836	0.23519999999999999	0.018459237292178965	0.00028165871723624122	0.0011864069141308458	-7.0373436437943822e-07	0.048880391716805062	0.062207999999999999	90.180680272108845	117.84734693877552	119.0756462585034	68.055230125523011	93.504435146443512	100.17096234309624	88.0	117.0	118.0	68.0	93.0	100.0	RhTFIso05r01_3AT_45	RhTFIso05r01_3AT_45
7	7	804	825	124	0.045936161594285381	0.26156800000000002	0.045991289501870335	0.00069149841864406497	0.0070202529483958769	-1.3881728809566573e-07	0.0051497986657613468	0.20211200000000001	116.55639833618791	141.96231954979203	136.28969904575484	68.391315652626105	93.246489859594391	99.245796498526602	116.0	142.0	136.0	68.0	93.0	99.0	RhTFIso05r01_3AT_45	RhTFIso05r01_3AT_45
8	7	924	819	124	0.00022190189590930447	0.0089599999999999992	0.00027507135055434374	9.8760860082452141e-05	0.0002572991072394762	-4.8198874418733652e-07	2.8148670176164545	0.0016000000000000001	76.914285714285711	104.51428571428572	108.83571428571429	67.906942202131091	92.667742977074582	98.99838553438812	76.0	103.0	107.0	68.0	93.0	99.0	RhTFIso05r01_3AT_45	RhTFIso05r01_3AT_45
9	7	1052	819	124	0.018568920367918591	0.24243200000000001	0.018853611607428034	0.0002720363286206265	0.0011528347378498374	-6.6833289495125105e-07	0.042686642604303465	0.067584000000000005	91.584213305174231	116.68215417106653	117.73917634635691	67.505786939258257	91.410661485173605	96.506969671369433	90.0	115.0	116.0	68.0	91.0	97.0	RhTFIso05r01_3AT_45	RhTFIso05r01_3AT_45
10	7	1178	818	124	0.074913775970921082	0.32191999999999998	0.075201434363218647	0.00095265934034415684	0.0033876481881594117	-1.215875112578425e-06	0.040910575774766131	0.079551999999999998	135.61292246520875	156.58131212723657	143.52266401590458	67.237092968381319	90.716564417177921	93.755828220858902	139.0	159.0	146.0	67.0	91.0	94.0	RhTFIso05r01_3AT_45	RhTFIso05r01_3AT_45
11	7	1303	818	124	0.046452436916460532	0.25331199999999998	0.046664202016827902	0.0006966135784119054	0.0041999829716400511	-3.7009728973715469e-07	0.014706935759774874	0.117696	117.62986356745832	142.52046488125316	134.07377463365336	66.490871689380299	90.243335904688436	94.406188394617303	115.0	141.0	133.0	66.0	90.0	95.0	RhTFIso05r01_3AT_45	RhTFIso05r01_3AT_45
12	7	1429	811	124	0.00021640043640879734	0.0054432989690721646	0.00026320556192100915	0.00018569260739994007	0.00017958823711207095	-1.5275428455448971e-08	2.2974527993011229	0.0015670103092783505	81.590909090909093	105.09090909090909	107.10606060606061	65.880421262127868	89.55908450120242	94.910937888713818	82.0	105.0	107.0	66.0	90.0	95.0	RhTFIso05r01_3AT_45	RhTFIso05r01_3AT_45
1	8	66	943	124	0.041609848683741131	0.40475	0.041850674740618321	0.00043085317814396055	0.0029435756283927271	-5.7846248554860441e-07	0.03918761176468407	0.104	98.004941321803585	125.69404982499485	126.96644018941734	69.877362452750944	95.334453310933782	102.7820243595128	100.0	128.0	128.0	70.0	95.0	103.0	RhTFIso05r01_3AT_45	RhTFIso05r01_3AT_45
2	8	178	943	124	0.119272396307589	0.47349999999999998	0.11933475767973802	0.0010806628247715775	0.0066308233715755092	2.0060103861217577e-07	0.040063470005632748	0.11125	141.34899683210136	161.68743400211193	146.99841605068639	69.890471668249447	94.219214941437158	99.062994618550178	148.0	168.0	151.0	70.0	94.0	99.5	RhTFIso05r01_3AT_45	RhTFIso05r01_3AT_45
3	8	303	943	124	0.10022707170493908	0.42691666666666667	0.10034022608716775	0.0010005378574403268	0.0060061609281087539	-5.7963023079473734e-07	0.034602340804474739	0.11366666666666667	137.00605114190904	158.68397423384735	146.17938707788406	69.728224516504284	93.989094081721674	98.592991129853132	143.0	165.0	150.0	70.0	94.0	99.0	RhTFIso05r01_3AT_45	RhTFIso05r01_3AT_45
4	8	438	943	124	0.092789632918081261	0.41183333333333333	0.092953755247516631	0.00099318141392296436	0.0063940343223179612	-3.2089678752959386e-07	0.032375244601734951	0.11541666666666667	132.94192634560906	156.36503439902873	145.62059894779441	69.548455653159536	94.296542930008499	99.468121280816092	140.0	164.0	151.0	69.0	94.0	100.0	RhTFIso05r01_3AT_45	RhTFIso05r01_3AT_45
5	8	550	943	124	0.02886937465593312	0.33916666666666667	0.028954066162211734	0.00032271768318590832	0.0013564576656779281	6.1245536479402572e-08	0.056314271715477204	0.079416666666666663	92.372235872235876	119.86511056511057	121.4022113022113	69.71866330390921	94.953215636822193	101.79255989911728	91.0	119.0	121.0	70.0	95.0	102.0	RhTFIso05r01_3AT_45	RhTFIso05r01_3AT_45
6	8	681	943	124	0.11556424165763668	0.46425	0.11542967816138482	0.0010589139083195087	0.0060388169993218508	-3.0677220501148454e-07	0.044377593089853389	0.10466666666666667	140.14557530066415	161.43223837731108	145.72608149344822	69.834655467413285	93.850209986000934	98.920360864831238	146.0	167.0	148.0	69.0	94.0	99.0	RhTFIso05r01_3AT_45	RhTFIso05r01_3AT_45
7	8	796	943	124	0.025914645737520628	0.33466666666666667	0.026047656555779966	0.00028716107347238993	0.00091703451346796742	-3.4579323554611593e-07	0.057114694870152152	0.078333333333333338	90.115039840637451	117.79556772908367	119.64990039840637	68.959919839679358	93.924724448897791	100.89316132264528	89.0	117.0	119.0	69.0	94.0	101.0	RhTFIso05r01_3AT_45	RhTFIso05r01_3AT_45
8	8	926	943	124	0.032921483778775885	0.34041666666666665	0.033045670890910837	0.00033033857017332035	0.0027112750906780601	2.4897067183319945e-07	0.023122212494778263	0.12416666666666666	95.737576499387998	122.03133414932681	122.51701346389228	68.585344283006947	93.558938723941878	99.226026531901454	93.0	119.0	120.0	69.0	93.0	99.0	RhTFIso05r01_3AT_45	RhTFIso05r01_3AT_45
9	8	1052	943	124	0.11397220422807269	0.46716666666666667	0.11347803684495765	0.00098688275246142424	0.0036930064492595948	-7.0084444981678859e-07	0.06281610982628999	0.088249999999999995	140.6616125579736	160.94434534427398	144.58669282911166	68.431185486393488	91.784329058492332	94.681732874569903	144.0	163.0	145.0	67.0	91.0	95.0	RhTFIso05r01_3AT_45	RhTFIso05r01_3AT_45
10	8	1169	943	124	0.021921219413896319	0.3145	0.022131070508622338	0.00024784049847277866	0.00090108841221944183	-1.8938925299464754e-07	0.058549978640236436	0.074999999999999997	87.851616322204563	113.2798092209857	114.87254901960785	67.214928276197426	91.240821784585464	95.774252370532452	86.0	111.0	113.0	67.0	91.0	96.0	RhTFIso05r01_3AT_45	RhTFIso05r01_3AT_45
11	8	1297	943	124	0.024403718650472323	0.32350000000000001	0.0248023948063231	0.00027063085636050438	0.0011272862886678072	-2.9408606457047017e-06	0.048880362569719178	0.083250000000000005	89.67156105100463	116.25321998969603	116.19886656362699	66.404902685390496	90.51010101010101	95.315718157181578	88.0	114.0	114.0	66.0	90.0	95.0	RhTFIso05r01_3AT_45	RhTFIso05r01_3AT_45
12	8	1424	934	124	0.00011525339407188824	0.0066293183940242762	0.00023673430190316894	0.00013443040639558214	0.000110564268302574	-7.6398707339206233e-08	55.76326960121883	0.00037348272642390287	79.338028169014081	103.32394366197182	108.56338028169014	65.463859385280571	89.660870382554748	94.99078860795187	79.0	103.0	108.0	65.0	90.0	95.0	RhTFIso05r01_3AT_45	RhTFIso05r01_3AT_45
