Column	Row	x	y	Diameter	Intensity	Area	Trimmed	FeatureMedian	FeatureVariance	BackgroundMedian	Circularity	Perimeter	redMean	greenMean	blueMean	redMeanBack	greenMeanBack	blueMeanBack	redMedian	greenMedian	blueMedian	redMedianBack	greenMedianBack	blueMedianBack	Barcode	Filename
1	1	74	62	122	0.016340434108509366	0.23742481327252296	0.016669100721574848	0.00023542400440722727	0.00104014529562889	-1.9498081502993178e-06	0.05309875641322287	0.060942560645118646	86.048719376391986	112.50501113585746	108.92149220489978	62.355898413799082	88.794920689954054	91.647135303805143	84.0	110.0	107.0	63.0	89.0	92.0	RhTFIso05r01_3AT_47	RhTFIso05r01_3AT_47
2	1	196	62	122	0.019570316949048882	0.22955912485954127	0.01980237342341595	0.00029068734911615393	0.0020395898452940341	-6.0506489290562556e-07	0.028521689528195514	0.081763500561834887	91.430175640656486	117.7633170169882	113.34609847394184	64.873198352779681	90.444749485243648	92.012783115991766	88.0	115.0	110.0	65.0	90.0	92.0	RhTFIso05r01_3AT_47	RhTFIso05r01_3AT_47
3	1	314	62	122	0.013033904170214817	0.22922863374975214	0.013224037679235497	0.00018367977108797449	0.00097798146214643999	-3.4063556800198817e-07	0.070005948860516531	0.052151497124727345	84.627450980392155	110.28546712802768	107.18944636678201	65.378526712974875	90.661006774719155	91.640253837578257	82.0	108.0	105.0	65.0	91.0	92.0	RhTFIso05r01_3AT_47	RhTFIso05r01_3AT_47
4	1	441	70	122	0.0024308728200626165	0.087051358318461239	0.0029129655152142042	0.00011121682300856881	0.00034858065146193141	-1.2191517248856713e-06	0.19678846729026198	0.019168484367770508	77.097190584662115	103.03720577069096	102.70311313591496	65.682739646684041	90.90348971908486	92.04068925571967	76.0	101.0	102.0	65.0	91.0	92.0	RhTFIso05r01_3AT_47	RhTFIso05r01_3AT_47
5	1	555	62	122	0.013390334421597093	0.23048449996695089	0.013638405006692129	0.00018349285067474934	0.0011561775546147966	-7.2768427619889283e-07	0.05088219745405214	0.061339149976865626	84.221967307140815	110.9532549469458	107.24691712073415	65.342896409551628	90.580398556948978	91.191719635801405	81.0	108.0	105.0	65.0	90.0	91.0	RhTFIso05r01_3AT_47	RhTFIso05r01_3AT_47
6	1	685	67	122	0.038256593514757173	0.25791526207945004	0.038505684336478364	0.00058452227483064216	0.0032089985256014363	-8.4666531971406048e-07	0.013511612109927457	0.12591711282966489	109.68503331624808	135.337262942081	124.51512045105075	65.336777411597041	90.650307294914043	89.759508328137528	110.0	136.0	124.0	65.0	91.0	90.0	RhTFIso05r01_3AT_47	RhTFIso05r01_3AT_47
7	1	803	64	122	0.047155850742161984	0.26670632559984137	0.047353886685639439	0.00070381149717726121	0.0028327712718107692	-1.1212178174258184e-06	0.039430046929241173	0.074955383700178471	117.19281288723668	142.45254027261461	126.86939281288724	65.709572742022715	90.811790156841539	90.042455381287184	119.0	143.0	127.0	66.0	91.0	90.0	RhTFIso05r01_3AT_47	RhTFIso05r01_3AT_47
8	1	920	69	122	0.013506860935996715	0.22513054398836671	0.013702277584100199	0.00020380548761793552	0.00085977600915766587	-6.6266469718095183e-07	0.062732762566039754	0.054597131337167031	83.737522019964771	110.79976512037581	105.89019377568997	65.705621427962129	90.35059285165913	90.783161306832724	82.0	109.0	104.0	65.0	90.0	91.0	RhTFIso05r01_3AT_47	RhTFIso05r01_3AT_47
9	1	1049	66	122	0.037829350442871237	0.27662105889351579	0.038175034082292968	0.00055485272014449069	0.00092184215793500435	-1.255203454592006e-06	0.079958312143132329	0.053605658007799588	125.91350059737157	126.84444444444445	99.218399044205498	66.498081140350877	90.450749269005854	88.471856725146196	128.0	128.0	98.0	66.0	90.0	88.0	RhTFIso05r01_3AT_47	RhTFIso05r01_3AT_47
10	1	1168	62	122	0.026880382277778905	0.24172119769978187	0.026990336771521514	0.00040943077147478403	0.0040236244056665966	-3.1172853733747507e-07	0.0087098932844986796	0.15182761583713397	99.026524473612255	124.9712879409352	116.67487011211375	66.819996513249649	91.81799163179916	90.520833333333329	97.0	123.0	114.0	67.0	92.0	90.0	RhTFIso05r01_3AT_47	RhTFIso05r01_3AT_47
11	1	1287	67	122	0.028467445929836039	0.25566792253288384	0.028607495150298083	0.00039664459768143709	0.0028407371626508931	-1.1817268338628669e-07	0.016642256219128786	0.11296186132593034	99.280506721820061	125.58660806618407	117.11840744570837	68.063049462747529	92.922298197318185	91.407423852233379	97.0	123.0	115.0	68.0	93.0	91.0	RhTFIso05r01_3AT_47	RhTFIso05r01_3AT_47
12	1	1418	62	122	0.064238900815030975	0.36672473867595817	0.064329966079593723	0.00075716058198271635	0.0044234269030989665	2.4434076241046797e-07	0.028253349394923518	0.10881242740998838	119.22624703087887	143.77375296912115	127.82660332541568	68.359468133883539	94.471458046767538	93.476157725813849	125.0	149.0	130.0	68.0	94.0	94.0	RhTFIso05r01_3AT_47	RhTFIso05r01_3AT_47
1	2	67	185	122	0.014583031546477006	0.22460175821270409	0.015074244296237884	0.00021909657292158184	0.0014346561215926768	-1.9308574164620117e-06	0.039479037858351024	0.068742150836142504	84.224543849323126	111.7386698057681	109.78546203649205	60.213281050208849	87.130253175347377	91.174921149092143	81.0	109.0	107.0	60.0	87.0	91.0	RhTFIso05r01_3AT_47	RhTFIso05r01_3AT_47
2	2	196	182	122	0.012310758885890869	0.22552713332011368	0.012644742291731188	0.00017538825037767707	0.0012113489725241891	-1.105256126924797e-06	0.049255598331734797	0.061669641086654771	83.549824150058612	110.13686987104337	107.5172919109027	63.027652129384656	89.383118545702828	91.268669454638555	81.0	107.0	105.0	63.0	89.0	91.0	RhTFIso05r01_3AT_47	RhTFIso05r01_3AT_47
3	2	319	185	122	0.011518730880624523	0.22347808843942099	0.011814680365419546	0.00016426284827949367	0.0011290022653073432	-8.665929698466286e-07	0.051989803243143014	0.05975279264987772	82.96391600118308	109.17953268263827	106.27979887607216	64.083844058563159	89.877170582226768	91.262087163772563	80.0	106.0	104.0	64.0	90.0	91.0	RhTFIso05r01_3AT_47	RhTFIso05r01_3AT_47
4	2	437	178	122	0.014293582233566113	0.22658470487143895	0.014568058637864386	0.0001948214097856034	0.0015273845138537062	-9.6111892211886056e-07	0.03527980054955733	0.073038535263401413	84.827596266044338	111.75437572928821	108.08255542590432	64.454149218015559	90.239295786684892	91.001452867276299	81.0	108.0	105.0	64.0	90.0	91.0	RhTFIso05r01_3AT_47	RhTFIso05r01_3AT_47
5	2	563	178	122	0.059123826388974086	0.30874479476502081	0.059464399147973274	0.00076953191293159474	0.002544152163140005	-1.0522836679126738e-06	0.041519873539171942	0.078590785907859076	123.16270605865982	147.95482766002996	132.03767929779491	64.933830560336588	89.897590361445779	89.609198699560139	126.0	149.0	132.0	65.0	90.0	90.0	RhTFIso05r01_3AT_47	RhTFIso05r01_3AT_47
6	2	693	185	122	0.039176574849648309	0.25520523497917907	0.039449127828689527	0.00061083597185100636	0.0025796319546623741	-1.7123336992746316e-06	0.024968020838457484	0.092140921409214094	110.64775964775964	136.4011914011914	124.22429422429423	64.671636492722754	89.730741924032657	89.304756833510822	111.0	137.0	124.0	65.0	90.0	90.0	RhTFIso05r01_3AT_47	RhTFIso05r01_3AT_47
7	2	812	182	122	0.023067445770087677	0.23398770573071584	0.023254378979827482	0.00033752324934962076	0.0020063464453448101	-7.7915499557374211e-07	0.029595943235625789	0.081036420120298769	94.431073446327687	121.99435028248588	114.7322033898305	65.213305720942273	90.506428509793764	91.201139011131247	91.0	119.0	112.0	65.0	90.0	91.0	RhTFIso05r01_3AT_47	RhTFIso05r01_3AT_47
8	2	926	193	122	0.0095986019959323765	0.21455482847511401	0.0099240749273434101	0.00014157198690224954	0.00097818057484764121	-9.1830107373653023e-07	0.063417576716267104	0.053010774010179125	82.521256931608136	108.17898952556993	104.93807763401109	65.276529495918538	90.485146848438944	90.761423882857869	80.0	106.0	103.0	65.0	90.0	91.0	RhTFIso05r01_3AT_47	RhTFIso05r01_3AT_47
9	2	1052	192	122	0.010347409896755625	0.22354418666137882	0.010642801440316299	0.0001537709033342697	0.00075216541043656164	-1.7767607408368171e-06	0.12376226111475593	0.038733558067287989	81.995269071555299	108.74275576581904	104.2956830277942	65.92066059419426	90.776283306376101	90.765727419766748	80.0	107.0	102.0	66.0	91.0	91.0	RhTFIso05r01_3AT_47	RhTFIso05r01_3AT_47
10	2	1173	181	122	0.021244974835769773	0.23339282173309539	0.021406890412968949	0.00029151537087707732	0.0031495119634178453	-1.9086922212383561e-07	0.012448115281871185	0.12479344305638178	92.956103086944211	119.46615689606344	112.90739167374682	66.595361269184338	91.719089498189348	90.310743231591658	89.0	115.0	109.0	67.0	92.0	90.0	RhTFIso05r01_3AT_47	RhTFIso05r01_3AT_47
11	2	1296	177	122	0.013273306180420127	0.24449732302201072	0.013472130377865432	0.0001800148989893816	0.0008268872202113279	-1.1986822616296917e-06	0.093788346022958449	0.046533148258311854	84.393890240605572	110.47850770478507	106.43254933765883	67.915748031496065	92.910411198600173	92.438320209973753	82.0	108.0	104.0	68.0	93.0	93.0	RhTFIso05r01_3AT_47	RhTFIso05r01_3AT_47
12	2	1418	182	122	0.014354612180988031	0.28694831591173053	0.014505024307839606	0.00016164530776932148	0.00088333240638602056	-1.0595105027701871e-06	0.1288111560714805	0.045078397212543551	83.126992157854801	109.7955982797875	107.28687073109032	68.580270793036746	94.352947164817266	95.027486511249109	81.0	108.0	105.0	69.0	94.0	95.0	RhTFIso05r01_3AT_47	RhTFIso05r01_3AT_47
1	3	74	308	122	2.862077462622698e-05	0.0009914733293674401	3.4488981838616729e-05	0.00013064712194356702	2.3632144558181801e-05	3.4751208419161358e-07	188.49555921538757	6.609822195782933e-05	72.666666666666671	98.666666666666671	99.666666666666671	59.059084292708746	85.073574169644033	89.715627894667193	72.0	98.0	99.0	59.0	85.0	90.0	RhTFIso05r01_3AT_47	RhTFIso05r01_3AT_47
2	3	196	308	122	0.020292482884171098	0.23517747372595676	0.020652019477147177	0.00027324905325562754	0.0022231346589893937	-1.565920229277687e-06	0.025699591292073991	0.087183554762376894	89.472456436200119	116.42720629567172	112.06717256885891	61.453288393397287	87.402903811252273	89.882551205600208	85.0	112.0	109.0	62.0	87.0	90.0	RhTFIso05r01_3AT_47	RhTFIso05r01_3AT_47
3	3	323	301	122	0.013559841428359937	0.22407297243704144	0.013982938686715504	0.00019369977354278449	0.0015043258367391983	-1.5259227747948478e-06	0.036590359197689819	0.071319981492497853	84.169616519174042	111.16342182890855	107.52330383480826	63.058608058608058	88.600306670074119	90.134423715819068	81.0	108.0	104.0	63.0	88.0	90.0	RhTFIso05r01_3AT_47	RhTFIso05r01_3AT_47
4	3	433	308	122	0.026126223258487787	0.23398770573071584	0.026418212469752705	0.00040855228446172454	0.0044239870713279139	-7.665364622584592e-07	0.0080074449382635804	0.15579350915460374	98.509604519774015	124.50734463276837	119.26581920903955	64.006644231598926	89.041763741478988	90.328501164897745	96.0	122.0	117.0	64.0	89.0	90.0	RhTFIso05r01_3AT_47	RhTFIso05r01_3AT_47
5	3	560	309	122	0.058423622631912121	0.28171062198426861	0.058669095413681267	0.00081601765883968793	0.0027331913743968528	-1.1306653250217761e-06	0.049327359866783937	0.06887434728005816	125.37728765837635	149.36320976067574	132.23158141717502	64.102880279746017	89.24229318119076	89.155608723658787	126.0	150.0	131.0	64.0	89.0	90.0	RhTFIso05r01_3AT_47	RhTFIso05r01_3AT_47
6	3	683	303	122	0.079202502674451086	0.37213298962257918	0.079526698835451784	0.00084502975350221252	0.0026384812242618203	-1.8408193339612877e-06	0.047223201118454808	0.0809042236763831	127.52007104795737	150.74742451154529	133.54245115452932	64.632171807558692	89.471733866722815	88.869565217391298	129.0	151.0	132.0	64.0	89.0	89.0	RhTFIso05r01_3AT_47	RhTFIso05r01_3AT_47
7	3	804	299	122	0.0092090397927405056	0.23094718752065568	0.0095505211139483674	0.00013409319621192139	0.00065233517746678647	-1.6109155224162223e-06	0.099585614127982447	0.043889219379998679	79.953062392673161	106.18288494562107	103.16342301087579	64.541469703480871	89.830597335625271	90.520326600773529	78.0	104.0	101.0	64.0	90.0	91.0	RhTFIso05r01_3AT_47	RhTFIso05r01_3AT_47
8	3	930	308	122	0.012216968346174414	0.26941635270011238	0.01256734810899272	0.00015276798602021998	0.00072164167264987826	-1.9537649242381696e-06	0.078068170437628398	0.05353955978584176	80.761285574092241	107.50368007850834	104.252208047105	64.868361530806112	90.200940921016922	90.688591332669859	79.0	106.0	102.0	65.0	90.0	91.0	RhTFIso05r01_3AT_47	RhTFIso05r01_3AT_47
9	3	1052	301	122	0.053633824409092472	0.27985987176944938	0.053743943442395296	0.00076362622103444812	0.0028147183167415131	-1.1144306553860948e-06	0.041084328548834433	0.075219776588009782	121.23098724610297	145.46173830892772	128.89726027397259	65.684350619550258	90.451124368976593	89.724368976594775	123.0	147.0	129.0	65.0	90.0	90.0	RhTFIso05r01_3AT_47	RhTFIso05r01_3AT_47
10	3	1174	307	122	0.01188971117730616	0.23557406305770376	0.012170034183814538	0.00016028600087294293	0.0009177334688799055	-9.5147381023786071e-07	0.090622681637882133	0.04646705003635402	82.851010101010104	109.67732884399551	104.9023569023569	66.009079118028538	91.428361435365332	89.475572849113703	80.0	107.0	102.0	66.0	91.0	89.0	RhTFIso05r01_3AT_47	RhTFIso05r01_3AT_47
11	3	1296	310	122	0.042140715621410633	0.27172979046863638	0.042268141848960418	0.0005988600013420571	0.0035935351573193166	-5.8331917889051707e-07	0.017082765403775364	0.11494480798466521	111.57528581853563	137.41644368766723	124.40574069569448	67.543474314757674	92.936104556180794	90.886821564712292	111.0	137.0	123.0	68.0	93.0	91.0	RhTFIso05r01_3AT_47	RhTFIso05r01_3AT_47
12	3	1418	300	122	0.013551846061708199	0.28556910569105692	0.013701234008713406	0.00016049844915875437	0.00068979080619121515	-1.1913603638625254e-07	0.20758911413635858	0.035423925667828107	82.285714285714292	109.20132180986273	106.589476359939	68.467791099370046	94.481711034342609	95.105466368624263	81.0	107.0	105.0	69.0	94.0	95.0	RhTFIso05r01_3AT_47	RhTFIso05r01_3AT_47
1	4	74	429	122	0.055661415126719821	0.27093661180514245	0.056318785354401664	0.00081119744661760688	0.0030750591381628755	-2.9155104766424891e-06	0.041506623025584485	0.073633419261021876	122.02268846060015	146.90949011954135	131.96901683337398	58.609519492293742	84.471260199456026	87.784768812330014	123.0	147.0	131.0	59.0	84.0	88.0	RhTFIso05r01_3AT_47	RhTFIso05r01_3AT_47
2	4	203	432	122	0.058362213216923566	0.28699847974089499	0.05898516561212646	0.00080654154703601222	0.0025139379537825672	-3.6893406656996818e-06	0.039587993411731415	0.077599312578491633	122.61377245508982	147.94288346384155	132.56195301704284	59.500509872995273	84.974135533512566	87.686103643274308	124.0	149.0	132.0	59.0	85.0	88.0	RhTFIso05r01_3AT_47	RhTFIso05r01_3AT_47
3	4	312	432	122	0.06733661675412897	0.30385352634014146	0.067881508192210907	0.00088785667994820551	0.003059465516268396	-2.1395132687364607e-06	0.037874809103056344	0.081631304117919232	127.87339569284316	152.23015009788992	134.51903415270829	60.683061146980627	85.902772502848464	87.601025446259015	129.0	153.0	133.0	61.0	86.0	88.0	RhTFIso05r01_3AT_47	RhTFIso05r01_3AT_47
4	4	441	438	122	0.010287640801952188	0.21058893515764426	0.010752346333557698	0.00014770933744392262	0.0014200146525116554	-1.2282316102754645e-06	0.038331326068516434	0.067552382840901579	82.082862523540484	108.44569993722536	106.74450721908349	62.481034915850287	88.045465963325796	89.642133467303026	79.0	105.0	104.0	62.0	88.0	90.0	RhTFIso05r01_3AT_47	RhTFIso05r01_3AT_47
5	4	563	428	122	0.008170280228456752	0.1969727014343314	0.0087131112006094569	0.00013047218331834615	0.0010297079532179366	-2.4264618818686531e-06	0.046854476563606161	0.059091810430299423	81.337583892617445	107.01409395973154	104.72953020134229	64.015721458556257	89.255823524569919	90.267100172853731	79.0	104.0	102.0	64.0	89.0	90.0	RhTFIso05r01_3AT_47	RhTFIso05r01_3AT_47
6	4	678	429	122	0.025788777245246825	0.23861458126776389	0.026002213964247844	0.00037546565917280587	0.0027705836478428485	-7.0231429737927765e-07	0.020135187653195278	0.099213431158701834	96.406648199445982	122.90304709141274	116.71357340720222	64.198975605521312	89.562114766906845	90.251584338918306	93.0	119.0	114.0	64.0	89.0	90.0	RhTFIso05r01_3AT_47	RhTFIso05r01_3AT_47
7	4	799	430	122	0.011351358406634933	0.2277744728666799	0.011682632521670847	0.00016376751480218698	0.0010453220929795073	-1.0490279466420152e-06	0.05094051074609298	0.060942560645118646	82.514509576320378	108.5821242019733	105.54120719674985	64.380809723529921	89.459642215184459	90.688692972695364	80.0	106.0	103.0	64.0	89.0	91.0	RhTFIso05r01_3AT_47	RhTFIso05r01_3AT_47
8	4	923	432	122	0.041943479197315205	0.26036089629188974	0.042214544321978076	0.00063988638215566832	0.0031213198860038866	-1.589387503467827e-06	0.022537172953517232	0.097957564941503067	111.60573749682661	138.04798172124904	126.17288651942117	64.506881143878459	89.75576407506702	90.015728328865052	112.0	138.0	126.0	64.0	90.0	90.0	RhTFIso05r01_3AT_47	RhTFIso05r01_3AT_47
9	4	1058	431	122	0.01104653536930186	0.23907726882146871	0.011401795430958666	0.00015041098902790191	0.00089423494537637315	-1.1779380361621887e-06	0.054887770211492729	0.060149381981624693	81.710257119159522	107.88941111418302	104.1733480785181	65.140027797081302	90.154534398888117	89.767460041695628	79.0	106.0	102.0	65.0	90.0	90.0	RhTFIso05r01_3AT_47	RhTFIso05r01_3AT_47
10	4	1171	430	122	0.070076690250283055	0.33472139599444772	0.070290866093881424	0.00084898005668709712	0.0030243113902700329	-1.21500869601234e-06	0.045625093325031923	0.078062000132196441	128.28692733017377	151.02053712480253	132.15363349131121	65.912170889220064	90.772280178837562	88.376055638350721	131.0	153.0	132.0	66.0	91.0	88.0	RhTFIso05r01_3AT_47	RhTFIso05r01_3AT_47
11	4	1296	428	122	0.009741705805844228	0.11983607640954458	0.0099995157345115545	0.00020840211533978349	0.0056312351684473776	-1.1286610442015549e-06	0.01266922684710186	0.088637715645449131	91.490347490347489	117.13789299503586	112.24379481522338	67.240387503754874	92.48565635325923	90.424376689696601	84.0	109.0	105.0	67.0	92.0	90.0	RhTFIso05r01_3AT_47	RhTFIso05r01_3AT_47
12	4	1418	424	122	0.0586224977262143	0.34472996515679444	0.058705584139787152	0.00074735986442991628	0.0050942257451156089	-1.8355110599361309e-07	0.017474634461378542	0.13414634146341464	116.25247420509581	141.91661402400504	126.90208464939987	68.72393929323141	94.255788190982614	92.961892101473353	122.0	148.0	130.0	69.0	94.0	92.0	RhTFIso05r01_3AT_47	RhTFIso05r01_3AT_47
1	5	71	550	122	0.022293251515181783	0.25051226122017317	0.023020399752985938	0.00029007683185530378	0.0030043698839405213	-3.1766905794689651e-06	0.021980291818852856	0.097296582721924776	90.353034300791563	116.53034300791556	113.19472295514512	58.57606490872211	84.73013493253373	89.418467236969747	86.0	112.0	109.0	58.0	84.0	89.0	RhTFIso05r01_3AT_47	RhTFIso05r01_3AT_47
2	5	195	561	122	0.011963294716225523	0.2127040782602948	0.012536536083443153	0.00018357318912438905	0.0017408618738679734	-2.6263069421484554e-06	0.03133568847714973	0.075087580144094127	82.587321317588561	108.56339341205718	106.89620882535736	58.500041978003523	84.566787003610102	88.792460750566704	79.0	105.0	104.0	58.0	84.0	89.0	RhTFIso05r01_3AT_47	RhTFIso05r01_3AT_47
3	5	309	547	122	0.014325653324327364	0.22744398175689073	0.01496416970424508	0.00019842787915626235	0.0017455748891222441	-2.4375925852391092e-06	0.031266544961018786	0.077731509022407302	84.257192676547518	111.33275210694566	107.59546643417612	59.168805612594113	85.373887748117724	88.143309377138948	81.0	108.0	104.0	59.0	85.0	88.0	RhTFIso05r01_3AT_47	RhTFIso05r01_3AT_47
4	5	441	546	122	0.026102665279785303	0.24218388525348669	0.026325808092406557	0.00037379704057574511	0.0025453833577400117	-6.3893513137907265e-07	0.020935485027666671	0.098023663163460908	94.873362445414841	121.95005458515284	116.15856986899563	62.486611426079371	87.747928477976444	89.191190580026174	91.0	119.0	113.0	62.0	88.0	89.0	RhTFIso05r01_3AT_47	RhTFIso05r01_3AT_47
5	5	568	555	122	0.0086664048937744355	0.19670830854650009	0.0092020408301069136	0.00014034584065850521	0.001086486346805511	-1.7790631260407947e-06	0.049981648499225359	0.057174961993522372	81.393481182795696	107.65860215053763	105.70094086021506	64.201184892619111	88.629062782851975	90.104089525220104	79.0	105.0	103.0	64.0	88.0	90.0	RhTFIso05r01_3AT_47	RhTFIso05r01_3AT_47
6	5	683	547	122	0.0100934720398626	0.21693436446559589	0.010471951667692755	0.00014014528956007096	0.0011870566547728669	-8.7897043542399079e-07	0.049477401818357934	0.060347676647498183	82.030773918342476	108.01279707495429	105.87538086532602	64.368700936946055	89.150249008187728	90.665231704228916	79.0	105.0	103.0	64.0	89.0	91.0	RhTFIso05r01_3AT_47	RhTFIso05r01_3AT_47
7	5	804	555	122	0.0098404055717958364	0.21785973957300547	0.010242234678950302	0.00014106778107823688	0.0010291802506339396	-1.343967395090036e-06	0.061899973016851628	0.054068345561504395	81.442657766990294	107.97239077669903	105.2691140776699	63.636863010225639	89.292571621735817	90.100059156595961	79.0	105.0	103.0	64.0	89.0	90.0	RhTFIso05r01_3AT_47	RhTFIso05r01_3AT_47
8	5	925	548	122	0.016728807078111627	0.22843545508625818	0.01702971901718554	0.00024922207163616765	0.0015980990102610743	-8.9469545311294804e-07	0.036553637608976765	0.072047061934033971	87.333333333333329	114.10879629629629	109.50723379629629	64.123618607041891	89.21999485993318	90.165081812730236	84.0	111.0	107.0	64.0	89.0	90.0	RhTFIso05r01_3AT_47	RhTFIso05r01_3AT_47
9	5	1050	555	122	0.010085193933830465	0.21534800713860797	0.010494977502924975	0.00015468261035536245	0.00089551454682503971	-8.1531639941847614e-07	0.07517063524353923	0.04878048780487805	82.086249232658076	108.646408839779	104.59269490484959	64.568275629685786	89.622778198972284	89.619324404009774	80.0	106.0	102.0	65.0	89.0	90.0	RhTFIso05r01_3AT_47	RhTFIso05r01_3AT_47
10	5	1174	548	122	0.052138907602065111	0.26617753982417874	0.052322574983223867	0.00078376725626886582	0.002410424722863892	-1.9363154707379586e-07	0.051217541126056532	0.065701632626082362	122.16215545070773	145.50931214303452	127.44176806555748	65.142857142857139	90.310844892812099	87.744370383714653	124.0	146.0	126.0	65.0	90.0	88.0	RhTFIso05r01_3AT_47	RhTFIso05r01_3AT_47
11	5	1301	555	122	0.059170127794723436	0.30299424945468967	0.059312456066961818	0.00080300051175422505	0.0030145915728491653	5.9014820230828962e-07	0.047780401272907558	0.072575847709696606	124.55584642233858	147.82547993019196	129.34424083769633	67.115694642010425	92.104599336178282	89.961593172119493	128.0	150.0	130.0	67.0	92.0	89.0	RhTFIso05r01_3AT_47	RhTFIso05r01_3AT_47
12	5	1418	548	122	0.01377667423093675	0.26596980255516839	0.013938321652432554	0.00017727234797787763	0.0007376537996198649	-4.5632423009569153e-07	0.10965168688798393	0.047038327526132406	83.342248908296938	110.63455240174673	107.36735807860262	68.092761075949369	93.956388449367083	94.604628164556956	82.0	109.0	106.0	68.0	94.0	95.0	RhTFIso05r01_3AT_47	RhTFIso05r01_3AT_47
1	6	65	676	122	0.015584227761232	0.22242051688809572	0.016201940813644452	0.0002277007830466469	0.0018491092147414454	-1.1329731299086373e-06	0.030996256565870867	0.077202723246744667	83.826745913818726	112.28231797919763	109.35720653789005	57.085260115606935	84.552193131587899	89.73784427065624	80.0	109.0	106.0	57.0	84.0	90.0	RhTFIso05r01_3AT_47	RhTFIso05r01_3AT_47
2	6	190	678	122	0.012019073913918574	0.21257188181637915	0.012676708369218736	0.00017873702128462775	0.0017361923952869686	-3.0074971126113415e-06	0.031261151757026276	0.075153678366051954	82.450248756218912	109.50621890547264	107.27985074626865	58.248719885839002	84.68899521531101	88.677746999076632	79.0	106.0	104.0	58.0	84.0	89.0	RhTFIso05r01_3AT_47	RhTFIso05r01_3AT_47
3	6	318	683	122	0.04847715449665338	0.26736730781941964	0.048990378864123482	0.00072828716035552767	0.0026629739171087595	-1.2320016428268175e-06	0.019806300619498275	0.10588935157644259	114.59357231149568	140.99258343634116	128.70754017305316	60.189372067845547	86.138397690364485	87.871526524720323	115.0	142.0	129.0	60.0	86.0	88.0	RhTFIso05r01_3AT_47	RhTFIso05r01_3AT_47
4	6	448	672	122	0.059863780031097331	0.29136096239011172	0.060247341277872186	0.00081180325468413635	0.0025230444943336924	-1.8583917573760999e-06	0.045695855446493801	0.072774142375570103	124.61547186932849	148.9094827586207	130.35911978221415	63.319093368155954	87.367129931909332	88.469265926685949	126.0	149.0	129.0	63.0	87.0	89.0	RhTFIso05r01_3AT_47	RhTFIso05r01_3AT_47
5	6	569	686	122	0.025707062443487517	0.23887897415559523	0.026094782424692271	0.00035900448284582897	0.0041318722832758593	-1.173009255333532e-06	0.010416864705885036	0.13801308744794766	95.582733812949641	122.40398450470393	117.19064748201438	62.61398176291793	87.965783760312632	88.908727746417711	91.0	118.0	113.5	63.0	88.0	89.0	RhTFIso05r01_3AT_47	RhTFIso05r01_3AT_47
6	6	681	671	122	0.036785154479996682	0.25097494877387799	0.037099426005344945	0.00058301438132559531	0.0037749130702577132	-1.7764183020451432e-06	0.010507116841424864	0.1408553109921343	106.35106663155122	132.5420068475112	123.84961811956808	63.859865866572541	88.172432050829514	89.332862689728202	107.0	133.0	124.0	64.0	88.0	90.0	RhTFIso05r01_3AT_47	RhTFIso05r01_3AT_47
7	6	802	673	122	0.0097334703196807221	0.20999405116002379	0.010174784658841069	0.00014608804755244676	0.0011559481319391401	-1.6912486106714262e-06	0.048423411382206002	0.060017185537709038	81.901479383065791	108.37708530059805	105.69279194208373	63.790746318607766	88.899933065595718	89.880354752342697	79.0	105.0	103.0	64.0	89.0	90.0	RhTFIso05r01_3AT_47	RhTFIso05r01_3AT_47
8	6	926	676	122	0.041408850706001553	0.2494546896688479	0.041644203312451944	0.00062052465065541064	0.0026242060728758057	-1.1665751413792049e-06	0.029173691779218153	0.084275232996232408	111.60678325384208	138.27371489136195	124.82140964493905	64.022016732716864	88.836723910171727	89.838485248789084	109.0	136.0	123.0	64.0	89.0	90.0	RhTFIso05r01_3AT_47	RhTFIso05r01_3AT_47
9	6	1050	670	122	0.058700287642883195	0.29281512327318393	0.059055084286841142	0.00083571889636794628	0.003325981849316797	-1.6405519652079309e-06	0.019841932482641527	0.11071452177936414	124.02957110609481	148.35959367945824	134.313769751693	64.543602205813627	89.375549116739876	89.153098420413116	128.0	152.0	136.0	64.0	89.0	90.0	RhTFIso05r01_3AT_47	RhTFIso05r01_3AT_47
10	6	1174	671	122	0.052408851272930025	0.27946328243770241	0.052717012112633362	0.00075414756071684604	0.0024041363344203823	-1.0961600570983124e-06	0.050178086188115666	0.068015070394606386	121.49266792809838	146.19441816461685	128.88789025543991	64.695165581139349	90.025685716906708	88.553435464636266	123.0	148.0	129.0	65.0	90.0	88.0	RhTFIso05r01_3AT_47	RhTFIso05r01_3AT_47
11	6	1296	669	122	0.033586993132228279	0.26664022737788351	0.033771682532094255	0.00038737258408486118	0.0073354369573745398	-9.1923129524865874e-07	0.0090402899902566492	0.15652058959613988	102.8195339613287	128.7416955875062	118.9900842835895	66.615953132041454	91.442361424064899	90.913654799459209	96.0	121.0	112.0	67.0	91.0	91.0	RhTFIso05r01_3AT_47	RhTFIso05r01_3AT_47
12	6	1418	678	122	0.014012080316466001	0.27409988385598144	0.014185404582121077	0.00017111921925393016	0.00081327579454581512	-1.2716539471955199e-06	0.096561902478465106	0.050885598141695701	83.163135593220332	110.51271186440678	107.62764830508475	67.738200000000006	93.492500000000007	94.661699999999996	81.0	108.0	106.0	68.0	93.0	95.0	RhTFIso05r01_3AT_47	RhTFIso05r01_3AT_47
1	7	74	801	122	0.055667353348954611	0.26346751272390773	0.056140609663681527	0.00082781205972912663	0.0034135054014707493	-1.83744919667095e-06	0.026112449409655104	0.091546037411593631	120.77044656297039	147.46111389864527	133.67711991971902	57.967154267252987	85.469981154087762	89.40734093152652	121.0	148.0	133.0	58.0	85.0	90.0	RhTFIso05r01_3AT_47	RhTFIso05r01_3AT_47
2	7	196	801	122	0.040537909263803934	0.2524291096569502	0.041106203840335351	0.00067947713972654755	0.0060272646877328473	-2.4038863141734064e-06	0.0061476158103695054	0.18467843215017515	109.81906258182771	136.88216810683426	127.89499869075674	60.108753315649871	86.407692307692301	89.199381078691417	113.0	140.0	129.0	60.0	86.0	89.0	RhTFIso05r01_3AT_47	RhTFIso05r01_3AT_47
3	7	315	801	122	0.032085397193850736	0.24700905545640822	0.032463633171817163	0.00045631007810061292	0.0034336948184138369	-1.4408589043900278e-06	0.014689192862264784	0.11818362086059885	101.23575060208724	128.76505218089378	122.04549103559005	62.362622893258425	87.759216994382029	89.747981039325836	97.0	125.0	119.0	62.0	88.0	90.0	RhTFIso05r01_3AT_47	RhTFIso05r01_3AT_47
4	7	441	809	122	0.040496598363791915	0.24800052878577566	0.040669034403196441	0.00061133255368550578	0.0030252736611579949	-1.0622692652055137e-06	0.027558603457127868	0.086456474320840776	109.68496801705757	135.6727078891258	125.01252665245202	63.129999121033663	87.888195482113034	89.170695262371453	108.0	134.0	123.0	63.0	88.0	89.0	RhTFIso05r01_3AT_47	RhTFIso05r01_3AT_47
5	7	555	792	122	0.069054410707829181	0.31793244761715911	0.069521422775466177	0.0008628654554062613	0.0032322107958369928	-2.7323665655485483e-06	0.041489710090110654	0.079780553903100002	128.15945945945947	152.27733887733888	136.18336798336799	63.091966275801916	87.72051555383274	88.466130438996032	130.0	153.0	136.0	63.0	87.0	89.0	RhTFIso05r01_3AT_47	RhTFIso05r01_3AT_47
6	7	691	805	122	0.011657647650512056	0.21230748892854781	0.012096849044331885	0.00017236095075397155	0.0014235705746126694	-2.2030781042144178e-06	0.036820699714490271	0.069204838389847312	83.138231631382311	109.56942714819426	106.84402241594023	63.15213560459847	88.191323319627429	89.841570865150629	80.0	106.0	104.0	63.0	88.0	90.0	RhTFIso05r01_3AT_47	RhTFIso05r01_3AT_47
7	7	805	804	122	0.012744151229375725	0.23028620530107741	0.013143889191862053	0.00018194042089867091	0.0012085386249225817	-1.2101815938877438e-06	0.050838421545717702	0.061339149976865626	83.608783008036738	109.8544776119403	107.36337543053961	63.731043366251612	88.31550021468442	90.195534564190638	81.0	107.0	105.0	64.0	88.0	90.0	RhTFIso05r01_3AT_47	RhTFIso05r01_3AT_47
8	7	929	796	122	0.014414244566464986	0.23193866085002313	0.014794120165960207	0.00020482038008916089	0.0012212844884551433	-9.9080141255290535e-07	0.04845030137453505	0.063057703747769187	85.391849529780558	111.54516956397835	108.25591336563123	63.506712564543889	88.748623063683311	89.691996557659209	83.0	109.0	105.0	64.0	89.0	90.0	RhTFIso05r01_3AT_47	RhTFIso05r01_3AT_47
9	7	1051	797	122	0.010172973108975868	0.2160750875801441	0.010477781726334758	0.00015004564259054083	0.0010155679213621313	-1.9565632975435556e-06	0.057125903260641202	0.056051292220239274	80.955643927806662	108.12113796267973	104.91893545426736	63.93204047217538	89.408937605396289	90.315598650927484	78.0	105.0	102.0	64.0	89.0	90.0	RhTFIso05r01_3AT_47	RhTFIso05r01_3AT_47
10	7	1172	800	122	0.011380432167474296	0.22301540088571617	0.011647478325503263	0.00016377981745701169	0.0010001530591008706	-1.3005564684517273e-06	0.060232518212765138	0.055456408222618811	82.093064611736807	108.72258446947244	104.80705394190872	64.727179923436836	89.482773287962573	90.458868566567418	79.0	106.0	102.0	65.0	89.0	91.0	RhTFIso05r01_3AT_47	RhTFIso05r01_3AT_47
11	7	1301	809	122	0.013328513891125512	0.23610284883336638	0.013554382048715315	0.00018810525601819432	0.00087433717821605215	-1.276569136704485e-06	0.079164661997412678	0.049771961134245486	83.888857782754755	110.43421052631579	106.70744680851064	66.275244440598769	90.884226010210256	91.702864065068795	82.0	108.0	104.0	66.0	91.0	92.0	RhTFIso05r01_3AT_47	RhTFIso05r01_3AT_47
12	7	1418	801	122	0.0004613546980346131	0.017494192799070846	0.00055282251146321858	0.00011830167910441474	0.00016385017311084564	-2.9702850612981379e-08	13.45997919138027	0.0010888501742160278	75.340248962655608	103.14107883817428	103.30705394190872	66.963945326930187	92.599852234946439	94.699815293683045	75.0	103.0	103.0	67.0	93.0	94.0	RhTFIso05r01_3AT_47	RhTFIso05r01_3AT_47
1	8	67	925	122	0.020457549445157125	0.25280347631062516	0.020985384009061091	0.0002680192316223278	0.0021982562378252226	-1.753842038359491e-06	0.027069950004654425	0.090692458648724425	88.686997504851675	116.32409204324924	112.775713889659	61.413938654910424	87.445173998686798	91.403620673482791	85.0	113.0	110.0	62.0	87.0	92.0	RhTFIso05r01_3AT_47	RhTFIso05r01_3AT_47
2	8	203	925	122	0.017178868517945874	0.25147182506307819	0.017540896139223501	0.00022050057282247602	0.001673831737485179	-1.026288390672288e-06	0.034877180505040503	0.079688814129520599	85.79905239687848	112.75752508361204	109.98634336677814	62.710767790262175	88.194662921348311	91.053464419475659	82.0	110.0	107.0	63.0	88.0	91.0	RhTFIso05r01_3AT_47	RhTFIso05r01_3AT_47
3	8	317	925	122	0.017870417185153923	0.25238295486403139	0.018232788498570032	0.00022371531019133256	0.0018535425611149901	-1.1593256269617846e-06	0.032279706747559936	0.082982898794505183	86.435712302138299	113.71535684532074	110.5498472646487	63.079872503984248	88.436767601012463	90.499859379394394	83.0	110.0	107.0	63.0	88.0	91.0	RhTFIso05r01_3AT_47	RhTFIso05r01_3AT_47
4	8	443	924	122	-2.0502912792054393e-05	0.0	0.0			-5.3939733263375655e-07	0.0	0.0				62.398999374609133	87.601487040511429	89.476756306024598				62.0	88.0	89.0	RhTFIso05r01_3AT_47	RhTFIso05r01_3AT_47
5	8	563	917	122	0.018061172679898568	0.23676383105294468	0.018444486696937469	0.0002569115227831749	0.0018199873892594106	-1.7831311988382359e-06	0.032327448678996375	0.077995901910238613	87.958123953098834	115.41150195421552	111.964265773311	63.101584827227853	87.959989607690304	89.404693859877028	84.0	113.0	109.0	63.0	88.0	89.0	RhTFIso05r01_3AT_47	RhTFIso05r01_3AT_47
6	8	676	925	122	0.014950961313984943	0.2447434819175778	0.015396551521216949	0.000199546133890079	0.0014044264084868599	-2.2243759448753715e-06	0.042260607038729532	0.071418559013176341	85.183276059564719	111.37027491408935	108.20045819014891	63.049554565701555	87.945991091314028	90.107553823311065	82.0	108.0	105.0	63.0	88.0	90.0	RhTFIso05r01_3AT_47	RhTFIso05r01_3AT_47
7	8	807	931	122	2.037359223434007e-05	0.0004434589800443459	1.339719734830804e-05	0.00012124681107147105	5.1594831449222462e-06	-3.9854246074539196e-07	0.0	0.0	73.666666666666671	97.666666666666671	99.0	62.920733510795621	87.753992901508425	89.649216208222413	74.0	98.0	99.0	63.0	88.0	90.0	RhTFIso05r01_3AT_47	RhTFIso05r01_3AT_47
8	8	929	925	122	0.036399926797465711	0.26766190075693863	0.036741313494828405	0.00050918837162332981	0.0032898113713097973	-1.0923353363035992e-06	0.015599128812019076	0.12293243622091393	102.87247970672951	130.96307934014141	123.12987693113381	63.746195808211311	88.429897597856254	89.426739400899606	101.0	129.0	122.0	64.0	88.0	90.0	RhTFIso05r01_3AT_47	RhTFIso05r01_3AT_47
9	8	1046	925	122	0.014233125488032822	0.24418278665545276	0.014576212354732136	0.00019900072694006924	0.00098447636258316247	-2.361128326768287e-06	0.059058404146688621	0.060344827586206899	83.656142365097594	110.0849598163031	106.42020665901263	63.578820474777451	88.81370548961425	89.729877596439167	82.0	108.0	104.0	63.0	89.0	90.0	RhTFIso05r01_3AT_47	RhTFIso05r01_3AT_47
10	8	1170	925	122	0.033292031134836635	0.26331651247546956	0.033628633735921343	0.00047534077976744136	0.0020179184749578669	-1.3484184717329794e-06	0.0292253659515559	0.089080459770114945	101.56907106734096	127.93984562150652	120.32605802501996	64.233469698411184	88.923128151460375	90.005803444011036	100.0	126.0	119.0	64.0	89.0	90.0	RhTFIso05r01_3AT_47	RhTFIso05r01_3AT_47
11	8	1296	925	122	0.015995914080429056	0.25168208578637513	0.016269495264332801	0.00021703142123181019	0.0010157164318289542	-1.452096279693173e-06	0.065033221273379155	0.058382394168769274	86.534948482316906	112.01225285435812	107.87858535226957	65.750585370422399	90.186194623958045	91.291373981455465	84.0	110.0	106.0	66.0	90.0	91.0	RhTFIso05r01_3AT_47	RhTFIso05r01_3AT_47
12	8	1424	927	122	0.00040120664190589739	0.012909632571996028	0.00046018544885593663	0.00013190302119302371	0.0002149652715207917	2.6884243050698616e-07	16.201271205289512	0.0009102946044356173	78.961538461538467	103.32051282051282	105.60897435897436	66.689721663313208	92.181086519114686	93.376592890677401	79.0	103.0	105.0	67.0	92.0	93.0	RhTFIso05r01_3AT_47	RhTFIso05r01_3AT_47
