A01	0	0.0081570834484470337	Growth
A02	0	0.012706605287126643	Growth
A03	2	0.033483878229429748	Growth
A04	0	0.010425282836915803	Growth
A05	0	0.00937673186812687	Growth
A06	0	0.0083843038890071969	Growth
A07	0	0.0077797769824983097	Growth
A08	1	0.017506487349896991	Growth
A09	0	0.01078773198704734	Growth
A10	0	0.0099171035285252184	Growth
A11	0	0.011673926069566418	Growth
A12	0	0.010535648959976536	Growth
B01	NA	0.0005752181660671461	Growth
B02	0	0.0099986309768157911	Growth
B03	0	0.005773382839718298	Growth
B04	0	0.018641214959545856	Growth
B05	0	0.012668713284002492	Growth
B06	0	0.0091510863520808186	Growth
B07	0	0.010101229752963709	Growth
B08	0	0.014383339746582761	Growth
B09	0	0.011560914759122548	Growth
B10	0	0.01067538776130934	Growth
B11	0	0.012070029787989144	Growth
B12	0	0.013927650845547356	Growth
C01	0	0.016060258829793304	Growth
C02	0	0.013842850898122991	Growth
C03	0	0.013466029825990173	Growth
C04	0	0.016158858232802206	Growth
C05	0	0.014681480529656978	Growth
C06	0	0.013880673983724209	Growth
C07	NA	0.0016723943269877709	Growth
C08	0	0.011386964796566462	Growth
C09	0	0.014931158942430869	Growth
C10	0	0.011786074703147693	Growth
C11	0	0.011182476658804367	Growth
C12	0	0.014079579469703431	Growth
D01	0	0.017548743181508009	Growth
D02	0	0.014656727687565412	Growth
D03	0	0.014202936785570788	Growth
D04	0	0.011821841315499369	Growth
D05	0	0.01490211903428201	Growth
D06	0	0.012586408577785535	Growth
D07	0	0.020058191946825437	Growth
D08	0	0.011261345792283994	Growth
D09	0	0.010304118407865836	Growth
D10	0	0.010156587321867833	Growth
D11	4	0.036723351725723469	Growth
D12	0	0.0042723279967238183	Growth
E01	0	0.019470295923805329	Growth
E02	0	0.01397025510720978	Growth
E03	0	0.014933472516631748	Growth
E04	NA	0.001525382397362704	Growth
E05	0	0.017188886734193002	Growth
E06	0	0.012996806743659857	Growth
E07	0	0.013114494355877769	Growth
E08	0	0.013821086347784464	Growth
E09	0	0.011368076150218565	Growth
E10	0	0.011872332087334493	Growth
E11	0	0.010506220683789933	Growth
E12	0	0.019083901481107789	Growth
F01	0	0.018248132280085934	Growth
F02	0	0.009990765077068451	Growth
F03	0	0.012162151912146283	Growth
F04	0	0.01371563034230285	Growth
F05	0	0.016315111551762036	Growth
F06	0	0.017600164308310358	Growth
F07	0	0.014213572220066974	Growth
F08	0	0.01273453127354603	Growth
F09	0	0.010279271044688442	Growth
F10	0	0.0069268866237893511	Growth
F11	0	0.0099562740302528534	Growth
F12	1	0.012741071874082441	Growth
G01	0	0.015617813241519393	Growth
G02	0	0.012643486385731291	Growth
G03	0	0.011385609710920426	Growth
G04	0	0.011154517445997277	Growth
G05	0	0.010709425072089903	Growth
G06	0	0.011440319352038214	Growth
G07	0	0.012875893917178367	Growth
G08	0	0.012947064725943945	Growth
G09	0	0.011017167066563686	Growth
G10	0	0.011057146262521864	Growth
G11	0	0.011381371980152977	Growth
G12	NA	0.00035034792638151147	Growth
H01	0	0.018527742832520837	Growth
H02	0	0.013269668104602268	Growth
H03	0	0.010535779298570818	Growth
H04	0	0.011235114385296818	Growth
H05	0	0.010582483417734614	Growth
H06	0	0.012309230502718529	Growth
H07	0	0.012900384233532226	Growth
H08	0	0.01142953556543784	Growth
H09	0	0.020018286865484729	Growth
H10	0	0.010485937789642921	Growth
H11	0	0.012547937821313559	Growth
H12	NA	0.00028528644110113185	Growth











I12	NA
