85.0	88.0	64.0	119.0	140.0	117.0	1	0.081565205895961404	0.00064886855892628647	RhTFIso05r01_SCLW_29	186655.7533512401	1	91	27.5	2.5	188266.1389798412	1120398.0963712074	121	126
86.0	90.0	66.0	118.0	139.0	116.0	2	0.080177143234846981	0.00062399852548980679	RhTFIso05r01_SCLW_29	183379.46607588473	1	91	141.5	2.5	184476.2131139854	1143525.5800118977	121	126
86.0	90.0	66.0	115.0	135.0	112.0	3	0.08235838455945535	0.00058558933730306218	RhTFIso05r01_SCLW_29	166848.41156906405	1	91	262.5	6.5	167883.7027612344	1104465.8298631767	121	126
86.0	89.0	66.0	116.0	138.0	114.0	4	0.0759468570295459	0.00059500437450154945	RhTFIso05r01_SCLW_29	175268.14970603705	1	91	383.5	2.5	176852.39576484196	1141726.7757287328	121	126
85.0	89.0	66.0	116.0	138.0	114.0	5	0.078789080573732573	0.00062235046024085273	RhTFIso05r01_SCLW_29	180641.33112377155	1	91	510.5	1.5	182121.40243090643	1129649.0898274838	121	126
85.0	89.0	65.0	117.0	139.0	116.0	6	0.083217661444907137	0.00063917637105938014	RhTFIso05r01_SCLW_29	189919.62535655629	1	91	627.5	6.5	191983.07121982548	1160742.7067221892	121	126
85.0	89.0	66.0	117.0	137.0	116.0	7	0.080970321898340941	0.00062250717137466328	RhTFIso05r01_SCLW_29	183214.20368420929	1	91	752.5	2.5	184594.56818498191	1148665.0208209399	121	126
85.0	88.0	65.0	115.0	135.0	112.0	8	0.077599312578491633	0.00058238145858915253	RhTFIso05r01_SCLW_29	163267.11835613364	1	91	869.5	10.5	165094.25350649713	1081595.3182629386	121	126
85.0	89.0	65.0	117.0	137.0	114.0	9	0.077731509022407302	0.00059408929413011491	RhTFIso05r01_SCLW_29	172429.67398718873	1	91	992.5	5.5	174217.02746712061	1120655.0684116599	121	126
85.0	88.0	65.0	118.0	140.0	118.0	10	0.08196179522770837	0.00065249518070285069	RhTFIso05r01_SCLW_29	192313.33206227436	1	91	1122.5	2.5	193989.82743799002	1156888.1261154076	121	126
85.0	88.0	66.0	118.0	143.0	121.0	11	0.086720867208672087	0.0006913212591078148	RhTFIso05r01_SCLW_29	214338.30839677062	1	91	1241.5	8.5	215931.36395576951	1219589.3039857228	121	126
						12	0.0		RhTFIso05r01_SCLW_29	-148.53117149653096	1	91	1363.5	-3.5	0.0	0.0	121	126
84.0	87.0	62.0				1	0.00039658933174697601		RhTFIso05r01_SCLW_29	113.9457029724655	2	91	29.5	127.5	0.0	0.0	121	126
86.0	89.0	66.0	117.0	137.0	115.0	2	0.077533214356533806	0.00060426411214542085	RhTFIso05r01_SCLW_29	174782.27613431375	2	91	148.5	127.5	176234.65434766369	1121169.012492564	121	126
85.0	89.0	66.0	114.0	135.0	112.0	3	0.079185669905479539	0.00057900663906686786	RhTFIso05r01_SCLW_29	164379.49249126329	2	91	270.5	127.5	165846.48492185242	1110119.2147531232	121	126
85.0	89.0	66.0	117.0	138.0	116.0	4	0.078194196576112096	0.00063158364091777579	RhTFIso05r01_SCLW_29	184561.52860575542	2	91	382.5	119.5	185866.84427482495	1138129.1671624035	121	126
85.0	89.0	65.0	115.0	135.0	113.0	5	0.07779760724436513	0.00055555390011693625	RhTFIso05r01_SCLW_29	159745.44682405714	2	91	508.5	119.5	161607.312573492	1100611.2492563948	121	126
85.0	89.0	65.0	113.0	128.0	104.0	6	0.083614250776654103	0.00047354671627365409	RhTFIso05r01_SCLW_29	128499.65793559597	2	91	632.5	129.5	130246.64669936107	1036368.2391433669	121	126
85.0	89.0	66.0	115.0	136.0	112.0	7	0.078260294798069938	0.00057263848863874686	RhTFIso05r01_SCLW_29	163644.3474271014	2	91	759.5	133.5	165237.69554696223	1097784.5568114219	121	126
85.0	88.0	65.0	114.0	134.0	111.0	8	0.078062000132196441	0.00058074378903001222	RhTFIso05r01_SCLW_29	162207.45621208276	2	91	869.5	127.5	164096.74449441975	1088533.5633551457	121	126
85.0	88.0	66.0	116.0	137.0	115.0	9	0.076938330358913343	0.0006158934460988091	RhTFIso05r01_SCLW_29	178786.42612651657	2	91	992.5	123.5	180305.00613588849	1123224.7888161808	121	126
84.0	88.0	66.0	116.0	139.0	116.0	10	0.077599312578491633	0.00063255986860945193	RhTFIso05r01_SCLW_29	182246.39342216364	2	91	1112.5	125.5	183958.68223992531	1138129.1671624035	121	126
86.0	89.0	66.0				11	0.00059488399762046404		RhTFIso05r01_SCLW_29	171.30696353138035	2	91	1241.5	127.5	0.0	0.0	121	126
87.0	90.0	67.0	121.0	145.0	123.0	12	0.087381849428250377	0.00071358965528453523	RhTFIso05r01_SCLW_29	235357.26252913795	2	91	1355.5	126.5	236330.18548227122	1303619.1612135633	121	126
83.0	86.0	62.0	118.0	141.0	118.0	1	0.081829598783792715	0.00067347399899655893	RhTFIso05r01_SCLW_29	197457.68862917216	3	91	24.5	259.5	199424.7525421601	1140698.8875669243	121	126
85.0	88.0	64.0	118.0	138.0	115.0	2	0.080970321898340941	0.00062164448965790664	RhTFIso05r01_SCLW_29	182525.09860512757	3	91	156.5	248.5	184441.32456123066	1138900.0832837597	121	126
85.0	88.0	65.0	116.0	137.0	114.0	3	0.081168616564214424	0.00060177114601096576	RhTFIso05r01_SCLW_29	177723.00454715005	3	91	262.5	253.5	179719.35013508861	1146866.2165377752	121	126
85.0	89.0	65.0	115.0	136.0	113.0	4	0.079582259237226519	0.00058990942007582645	RhTFIso05r01_SCLW_29	170605.62670297179	3	91	386.5	252.5	171959.68590866754	1106264.6341463414	121	126
85.0	89.0	66.0	115.0	136.0	113.0	5	0.08275497389120233	0.00059028913370071069	RhTFIso05r01_SCLW_29	170142.54484301107	3	91	513.5	246.5	171607.33783539818	1109605.2706722189	121	126
85.0	89.0	66.0	115.0	133.0	109.0	6	0.080044946790931326	0.00054077582605105705	RhTFIso05r01_SCLW_29	152538.93570467969	3	91	628.5	248.5	154176.0500442427	1085192.9268292685	121	126
85.0	89.0	65.0	116.0	137.0	114.0	7	0.076409544583250708	0.0006050387884937961	RhTFIso05r01_SCLW_29	176414.68818784485	3	91	754.5	245.5	178121.70374172402	1135559.4467578824	121	126
85.0	88.0	66.0	116.0	133.0	110.0	8	0.088175028091744337	0.000556017719061322	RhTFIso05r01_SCLW_29	187027.30544538348	3	91	873.5	246.5	188815.6994507862	1291284.5032718622	121	126
85.0	88.0	66.0	115.0	136.0	113.0	9	0.084671822327979374	0.00059057087973047554	RhTFIso05r01_SCLW_29	187241.96918126245	3	91	1005.5	248.5	188772.87317560686	1221645.0803093396	121	126
84.0	88.0	66.0	116.0	139.0	116.0	10	0.080177143234846981	0.00063369047761171332	RhTFIso05r01_SCLW_29	184595.23566726243	3	91	1120.5	244.5	186255.9187083405	1151491.7132659128	121	126
85.0	89.0	67.0	117.0	141.0	118.0	11	0.078524687685901248	0.00065167579580020958	RhTFIso05r01_SCLW_29	192729.97854573964	3	91	1241.5	249.5	194348.22725570417	1168708.8399762048	121	126
87.0	91.0	67.0	122.0	144.0	123.0	12	0.089766848081703959	0.00069299510608216385	RhTFIso05r01_SCLW_29	225412.04508038424	3	91	1363.5	249.5	226762.19061047389	1297477.3170731708	121	126
83.0	86.0	62.0	116.0	137.0	114.0	1	0.082953268557075813	0.00062509224478281245	RhTFIso05r01_SCLW_29	179967.00411512269	4	91	22.5	376.5	182065.06706843834	1109348.2986317668	121	126
84.0	87.0	63.0	117.0	138.0	115.0	2	0.080177143234846981	0.00062173727915534373	RhTFIso05r01_SCLW_29	183546.77717995364	4	91	148.5	379.5	185541.23826371768	1141469.803688281	121	126
84.0	87.0	64.0	116.0	134.0	111.0	3	0.080573732566593961	0.0005586560773168808	RhTFIso05r01_SCLW_29	162850.08353885511	4	91	276.5	379.5	164781.23074591992	1113202.8792385485	121	126
85.0	88.0	65.0	116.0	134.0	112.0	4	0.083085465000991468	0.00056203169313967353	RhTFIso05r01_SCLW_29	164183.74805894375	4	91	398.5	376.5	165934.85663749353	1105236.7459845331	121	126
85.0	88.0	65.0	115.0	136.0	112.0	5	0.077731509022407302	0.00059032800928961171	RhTFIso05r01_SCLW_29	172511.97519840207	4	91	513.5	374.5	174284.15256649698	1128621.201665675	121	126
85.0	88.0	66.0	116.0	137.0	115.0	6	0.080111045012889154	0.00058750673628975368	RhTFIso05r01_SCLW_29	175156.56139068241	4	91	632.5	375.5	177065.91996096488	1147637.1326591314	121	126
85.0	89.0	65.0	115.0	135.0	112.0	7	0.083746447220569772	0.00057668811126344855	RhTFIso05r01_SCLW_29	195133.39311300247	4	91	758.5	384.5	196896.02415647663	1305931.9095776323	121	126
84.0	88.0	65.0	115.0	134.0	111.0	8	0.078260294798069938	0.0005516653930105525	RhTFIso05r01_SCLW_29	157409.45638406591	4	91	869.5	384.5	159374.57708544011	1103951.8857822723	121	126
85.0	89.0	65.0	115.0	136.0	114.0	9	0.074823187256262802	0.00059300096544577399	RhTFIso05r01_SCLW_29	171659.46113967823	4	91	994.5	374.5	173121.66627162541	1122196.9006543725	121	126
84.0	89.0	66.0	115.0	137.0	113.0	10	0.077334919690660323	0.00060408634571266909	RhTFIso05r01_SCLW_29	174795.45182301343	4	91	1115.5	384.5	176451.59847501764	1128364.229625223	121	126
85.0	90.0	67.0	117.0	139.0	117.0	11	0.076409544583250708	0.00062576814922206273	RhTFIso05r01_SCLW_29	179594.24417310386	4	91	1241.5	376.5	181165.74746119042	1147637.1326591314	121	126
87.0	91.0	68.0	119.0	142.0	121.0	12	0.083585298662903984	0.0006851072864379065	RhTFIso05r01_SCLW_29	211650.37834309097	4	91	1363.5	377.5	212356.07682014821	1245233.4146341463	121	126
83.0	86.0	61.0	118.0	138.0	115.0	1	0.083746447220569772	0.00059948135045477134	RhTFIso05r01_SCLW_29	179277.07666950519	5	91	27.5	506.5	181853.63228284969	1194919.9881023201	121	126
83.0	86.0	61.0	118.0	137.0	115.0	2	0.084407429440148063	0.0006283783637525272	RhTFIso05r01_SCLW_29	189054.44795706315	5	91	144.5	497.5	191764.94911443256	1164597.2873289711	121	126
83.0	86.0	62.0	115.0	135.0	111.0	3	0.086720867208672087	0.00058752428008729382	RhTFIso05r01_SCLW_29	171683.47805926116	5	91	270.5	496.5	173962.6937936921	1118856.2641284948	121	126
85.0	88.0	65.0	116.0	137.0	114.0	4	0.092405314297045404	0.00062032815281362185	RhTFIso05r01_SCLW_29	206089.22171461507	5	91	391.5	499.5	207569.01960939571	1281776.5377751337	121	126
85.0	88.0	66.0	115.0	137.0	113.0	5	0.085663295657346816	0.00060009761570046193	RhTFIso05r01_SCLW_29	196275.69944162827	5	91	513.5	502.5	198196.88231656476	1263017.5788221296	121	126
85.0	88.0	66.0	115.0	136.0	113.0	6	0.084804018771895043	0.00059116593715459421	RhTFIso05r01_SCLW_29	196999.53689710569	5	91	628.5	501.5	198536.23988646126	1280491.6775728732	121	126
85.0	88.0	66.0	116.0	137.0	114.0	7	0.077995901910238613	0.0006316615328711702	RhTFIso05r01_SCLW_29	179448.7410874358	5	91	750.5	504.5	180940.27528835449	1101639.1374182035	121	126
85.0	88.0	65.0	115.0	132.0	109.0	8	0.079648357459184346	0.00053202007794770354	RhTFIso05r01_SCLW_29	150647.22615760411	5	91	870.5	504.5	152375.21588083296	1079539.5419393219	121	126
85.0	88.0	66.0	116.0	137.0	114.0	9	0.082953268557075813	0.00061618546927708453	RhTFIso05r01_SCLW_29	172806.92924993328	5	91	991.5	502.5	174325.23209507353	1096756.6686496132	121	126
84.0	89.0	66.0	120.0	143.0	121.0	10	0.089893581862647898	0.00068714971267951606	RhTFIso05r01_SCLW_29	216530.88264457273	5	91	1120.5	495.5	218493.25923764054	1235007.6264128496	121	126
85.0	89.0	67.0	117.0	140.0	118.0	11	0.078590785907859076	0.00065694148211144145	RhTFIso05r01_SCLW_29	196343.00962533458	5	91	1241.5	495.5	197691.75581022745	1188752.6591314692	121	126
87.0	91.0	67.0	121.0	145.0	124.0	12	0.090976281663643077	0.00070420250627735513	RhTFIso05r01_SCLW_29	237681.54040934591	5	91	1363.5	502.5	238847.46377671583	1341884.6341463414	121	126
83.0	86.0	62.0	118.0	139.0	115.0	1	0.083349857888822793	0.00066522089079125749	RhTFIso05r01_SCLW_29	194500.38072560084	6	91	19.5	625.5	196568.81974263492	1140955.8596073769	121	126
83.0	86.0	61.0	117.0	136.0	112.0	2	0.080970321898340941	0.00060013038343185857	RhTFIso05r01_SCLW_29	177988.86826669722	6	91	148.5	623.5	180541.29607225981	1140698.8875669243	121	126
83.0	87.0	62.0	117.0	138.0	115.0	3	0.080705929010509617	0.00061855242980148886	RhTFIso05r01_SCLW_29	184980.27972701841	6	91	277.5	627.5	187132.28723232338	1147894.1046995835	121	126
86.0	89.0	66.0				4	0.00026439288783131732		RhTFIso05r01_SCLW_29	331.51678657640775	6	91	391.5	630.5	0.0	0.0	121	126
85.0	89.0	66.0	117.0	138.0	115.0	5	0.087183554762376894	0.00060617479108011809	RhTFIso05r01_SCLW_29	203700.88730204516	6	91	513.5	634.5	205601.48981158965	1288457.8108268888	121	126
85.0	89.0	66.0	114.0	135.0	112.0	6	0.077334919690660323	0.00055767626541855509	RhTFIso05r01_SCLW_29	166023.41417551981	6	91	633.5	630.5	167791.99533501602	1134788.5306365259	121	126
85.0	88.0	66.0	115.0	133.0	111.0	7	0.079119571683521711	0.00055343910635555302	RhTFIso05r01_SCLW_29	160447.17895680381	6	91	750.5	622.5	161953.18286698067	1111918.0190362879	121	126
85.0	88.0	66.0	116.0	137.0	114.0	8	0.076012955251503728	0.00061978057781707382	RhTFIso05r01_SCLW_29	179053.2599251722	6	91	875.5	633.5	180372.23434422424	1123738.7328970849	121	126
85.0	89.0	66.0	116.0	137.0	115.0	9	0.076872232136955515	0.00060560366885993057	RhTFIso05r01_SCLW_29	175321.18023169786	6	91	989.5	627.5	176947.5021763031	1127593.3135038668	121	126
85.0	89.0	66.0	115.0	137.0	115.0	10	0.079450062793310863	0.00060552203725403508	RhTFIso05r01_SCLW_29	175312.92292188801	6	91	1124.5	622.5	176618.08345986044	1119113.2361689473	121	126
86.0	90.0	67.0	115.0	124.0	100.0	11	0.18533941436975346	0.00043058624533789713	RhTFIso05r01_SCLW_29	69297.270152590849	6	91	1241.5	627.5	71179.678919666665	664272.72456870903	121	126
88.0	91.0	68.0	122.0	145.0	124.0	12	0.087315751206292549	0.00071287818078633167	RhTFIso05r01_SCLW_29	236840.9518527152	6	91	1359.5	628.5	237993.02194836683	1328802.4211778704	121	126
84.0	88.0	62.0	121.0	141.0	117.0	1	0.080970321898340941	0.00067153233586532716	RhTFIso05r01_SCLW_29	201927.70784077529	7	91	27.5	760.5	203763.91890771632	1167167.0077334922	121	126
85.0	88.0	64.0	121.0	144.0	121.0	2	0.092868001850750212	0.00070505372073387446	RhTFIso05r01_SCLW_29	234714.31395604784	7	91	148.5	762.5	236708.48612902762	1271497.6561570494	121	126
86.0	89.0	66.0	118.0	139.0	115.0	3	0.084010840108401083	0.00064198432520474037	RhTFIso05r01_SCLW_29	192477.40281440809	7	91	270.5	755.5	193607.03052785259	1162027.5669244495	121	126
86.0	90.0	66.0	119.0	141.0	118.0	4	0.080177143234846981	0.00064208559114929664	RhTFIso05r01_SCLW_29	199268.4966098218	7	91	384.5	755.5	201231.45429940053	1218047.4717430102	121	126
86.0	89.0	66.0	117.0	139.0	115.0	5	0.079119571683521711	0.00061893173002111428	RhTFIso05r01_SCLW_29	188472.76740618001	7	91	507.5	749.5	189933.13614580498	1189009.6311719215	121	126
85.0	89.0	66.0	116.0	138.0	115.0	6	0.079516161015268691	0.00061778194990247338	RhTFIso05r01_SCLW_29	186762.99653115089	7	91	627.5	760.5	188130.19994168499	1166396.0916121358	121	126
85.0	88.0	66.0	117.0	138.0	115.0	7	0.07740101791261815	0.00061271154556170339	RhTFIso05r01_SCLW_29	183436.84588711523	7	91	755.5	754.5	185340.23826829038	1157916.014277216	121	126
85.0	88.0	66.0	115.0	135.0	112.0	8	0.080111045012889154	0.00057396315045282048	RhTFIso05r01_SCLW_29	167576.44409782343	7	91	870.5	752.5	169280.11423959129	1120912.0404521117	121	126
85.0	89.0	66.0	116.0	135.0	112.0	9	0.075880758807588072	0.0005767112774442936	RhTFIso05r01_SCLW_29	168784.54296023087	7	91	997.5	751.5	170085.73612739396	1124252.6769779893	121	126
84.0	89.0	66.0	120.0	143.0	120.0	10	0.093462885848370675	0.00068963134278266945	RhTFIso05r01_SCLW_29	221637.27640939833	7	91	1120.5	752.5	223496.42871844169	1255308.4176085663	121	126
86.0	90.0	67.0	118.0	143.0	120.0	11	0.084076938330358911	0.00066968391577279485	RhTFIso05r01_SCLW_29	210084.82653981823	7	91	1241.5	754.5	211401.90778241571	1239119.1790600833	121	126
88.0	92.0	67.0	103.0	107.0	81.0	12	0.0024188671638782503	0.0001982427634277448	RhTFIso05r01_SCLW_29	287.30576730048477	7	91	1363.5	758.5	343.22976175357689	7052.9268292682927	121	126
86.0	89.0	64.0	121.0	143.0	119.0	1	0.09111550574965209	0.00067682504798755212	RhTFIso05r01_SCLW_29	227448.43796400493	8	91	27.5	881.5	229271.16068491794	1315842.6961107447	121	126
87.0	90.0	67.0	120.0	141.0	117.0	2	0.087380062989819082	0.0006373557823675253	RhTFIso05r01_SCLW_29	218211.70250669034	8	91	155.5	881.5	219276.1294444649	1324670.032959789	121	126
87.0	91.0	67.0	120.0	142.0	119.0	3	0.090016846114407092	0.00065462405120527019	RhTFIso05r01_SCLW_29	227231.39197761464	8	91	261.5	881.5	228911.19340615536	1355708.0883322346	121	126
87.0	90.0	66.0				4	0.0		RhTFIso05r01_SCLW_29	108.79369247980669	8	91	382.5	888.5	0.0	0.0	121	126
87.0	90.0	66.0	96.5	99.5	74.5	5	0.0010254156595620009	0.00012916532343103582	RhTFIso05r01_SCLW_29	-9.9119254378990185	8	91	510.5	881.5	38.344701345955684	1139.0112063282795	121	126
86.0	89.0	66.0	118.0	140.0	117.0	6	0.086354647330257092	0.0006326472702807848	RhTFIso05r01_SCLW_29	214568.31756474308	8	91	625.5	881.5	216528.76531275953	1318690.2241265655	121	126
85.0	89.0	66.0	117.0	137.0	114.0	7	0.087453306965502089	0.00058478713981396815	RhTFIso05r01_SCLW_29	193810.94504294734	8	91	746.5	881.5	195687.48989508234	1275977.3038892553	121	126
85.0	89.0	66.0	117.0	138.0	115.0	8	0.090749285871237095	0.00062097809519772503	RhTFIso05r01_SCLW_29	206442.61660761171	8	91	872.5	881.5	208293.18994864743	1289075.9327620303	121	126
85.0	89.0	66.0	117.0	138.0	115.0	9	0.092360653336263088	0.00061902295084777963	RhTFIso05r01_SCLW_29	207424.19264051592	8	91	990.5	881.5	209302.48290917318	1299896.5392221489	121	126
85.0	89.0	66.0	117.0	138.0	115.0	10	0.087306819014136089	0.00062267373525272287	RhTFIso05r01_SCLW_29	204530.37929734139	8	91	1119.5	881.5	206521.22353200405	1285658.8991430455	121	126
86.0	90.0	67.0	117.0	140.0	118.0	11	0.090090090090090086	0.00063240355801970534	RhTFIso05r01_SCLW_29	214356.42413671475	8	91	1241.5	881.5	215912.13572183345	1336629.6506262359	121	126
88.0	91.0	67.0	98.0	101.0	76.0	12	0.001303969863807592	0.00012155433397956381	RhTFIso05r01_SCLW_29	88.473642303199384	8	91	1368.5	873.5	192.42303719668902	5632.7586206896549	121	126
