Column	Row	x	y	Diameter	Intensity	Area	Trimmed	FeatureMedian	FeatureVariance	BackgroundMedian	Circularity	Perimeter	redMean	greenMean	blueMean	redMeanBack	greenMeanBack	blueMeanBack	redMedian	greenMedian	blueMedian	redMedianBack	greenMedianBack	blueMedianBack	Barcode	Filename
1	1	62	66	124	0.045533844342982244	0.36089599999999999	0.048982855441574505	0.00063280399307156241	0.0075195983738952999	-5.1348569858429688e-06	0.029043563397648114	0.099968000000000001	131.65259797836495	155.29810250044335	142.09381095938997	80.757460444622467	107.33126376927699	107.64550370518727	134.0	157.0	142.0	79.0	106.0	106.0	RhTFIso05r01_SCLW_27	RhTFIso05r01_SCLW_27
2	1	186	63	124	0.047926018696503182	0.28895999999999999	0.048409509727849458	0.00066447791468375443	0.0015809859330024058	-1.983151195465368e-06	0.035343893419709262	0.081087999999999993	133.55703211517164	156.66223698781837	139.39047619047619	78.490999099909985	104.05058505850585	101.77704770477048	135.0	158.0	139.0	78.0	104.0	101.0	RhTFIso05r01_SCLW_27	RhTFIso05r01_SCLW_27
3	1	310	67	124	0.043374429409501571	0.281472	0.044011883986022488	0.00060935878781931397	0.001264679999668188	-2.7964546265760669e-06	0.041572531825759901	0.073791999999999996	129.68576625738973	152.8105957253297	137.0031832651205	77.264897123007032	101.70615480537988	98.729936759597393	130.0	153.0	136.0	77.0	102.0	99.0	RhTFIso05r01_SCLW_27	RhTFIso05r01_SCLW_27
4	1	439	67	124	0.039835100316319587	0.26675199999999999	0.040517858217579153	0.00057792029749786184	0.0010555032190021827	-2.8299814644486171e-06	0.041903853930838217	0.071552000000000004	126.13795585412667	149.95297504798464	136.19889635316699	75.353757528148734	100.10631055250066	97.132495417648599	126.0	150.0	135.0	75.0	100.0	97.0	RhTFIso05r01_SCLW_27	RhTFIso05r01_SCLW_27
5	1	557	63	124	0.044557526238561858	0.28160000000000002	0.045295423440353783	0.00060548429110852356	0.0011765091011817369	-3.6602330914398778e-06	0.042174657770202982	0.073279999999999998	128.77931818181818	152.13068181818181	136.08977272727273	74.472783964365263	99.267795100222713	96.357951002227168	129.0	151.0	135.0	74.0	99.0	96.0	RhTFIso05r01_SCLW_27	RhTFIso05r01_SCLW_27
6	1	683	68	124	0.037356866937642674	0.26886399999999999	0.038252537054823628	0.00053574809339175858	0.00082228589462854254	-3.6425134799620242e-06	0.04636963813521508	0.068288000000000001	124.57224470364199	148.46726969769102	133.11592477981432	73.446078431372555	98.238707983193279	95.342612044817926	124.0	148.0	132.0	73.0	98.0	95.0	RhTFIso05r01_SCLW_27	RhTFIso05r01_SCLW_27
7	1	807	65	124	0.041170395390267234	0.27718399999999999	0.042040684361611805	0.00056975354913933914	0.00097690768920029401	-3.7282471730867536e-06	0.043078981341096848	0.071936	125.60909720618795	149.07411683214039	131.85268990995152	72.42119709580308	97.210908446962989	93.889941561891263	125.0	148.0	129.0	72.0	97.0	94.0	RhTFIso05r01_SCLW_27	RhTFIso05r01_SCLW_27
8	1	924	66	124	0.040093572650096013	0.28121600000000002	0.040986744747198635	0.00054199602914456165	0.001017593092190414	-4.0044267172134959e-06	0.046304653624339352	0.069888000000000006	122.65270823850706	146.95357305416476	129.24692762858444	71.966788353663972	96.366396580892172	92.882468168462296	122.0	146.0	128.0	72.0	96.0	93.0	RhTFIso05r01_SCLW_27	RhTFIso05r01_SCLW_27
9	1	1061	63	124	0.038347116292029519	0.27494400000000002	0.039538731709258347	0.0005298549341570041	0.00082434275333511124	-4.2614063133202605e-06	0.043268096584394837	0.071487999999999996	124.05702979515829	147.58822160148975	128.7139199255121	70.647629976167352	95.382822844028595	91.644893635801921	124.0	146.0	126.0	70.0	95.0	91.0	RhTFIso05r01_SCLW_27	RhTFIso05r01_SCLW_27
10	1	1172	65	124	0.039869106071840826	0.283136	0.041002676149746724	0.00053110596643838866	0.00092737501896861946	-4.3249997935694421e-06	0.04687801598751095	0.069695999999999994	124.06871609403255	148.13539783001809	128.61188969258589	70.678421569502717	94.914382644406743	91.16561021337381	123.0	147.0	126.0	70.0	95.0	91.0	RhTFIso05r01_SCLW_27	RhTFIso05r01_SCLW_27
11	1	1300	66	124	0.041278105902063877	0.29324800000000001	0.042534614216747701	0.00053503956508557931	0.00088799651755589164	-4.3854169210691097e-06	0.048552230844207775	0.069695999999999994	123.90244434744653	147.39284155390658	127.91248363160192	70.219867789549937	94.15584533188445	90.468532101783936	123.0	146.0	126.0	70.0	94.0	90.0	RhTFIso05r01_SCLW_27	RhTFIso05r01_SCLW_27
12	1	1428	63	124	0.038638298304628692	0.29340350877192983	0.039962454396127611	0.00049317490229620843	0.00088783572535675753	-4.4587282193972544e-06	0.043421483916227854	0.077192982456140355	120.50227218368811	144.23654628079407	124.82611815355177	68.96206177376105	93.217002681497661	89.495977753500839	119.0	143.0	122.0	69.0	93.0	89.0	RhTFIso05r01_SCLW_27	RhTFIso05r01_SCLW_27
1	2	62	182	124	-0.0055061592050897855	0.053952	-0.0023944786671164513	-0.00028002418184745867	0.0028591522037865504	-2.5857943621435962e-06	0.071841433565977539	0.024576000000000001	112.48279952550415	141.41518386714117	133.88612099644129	80.01616831281288	107.09714517656609	109.34744960086591	102.0	131.0	124.0	79.0	106.0	109.0	RhTFIso05r01_SCLW_27	RhTFIso05r01_SCLW_27
2	2	186	185	124	0.00013321510106055053	0.002624	8.2711573961591757e-05	0.00011910860598954053	4.6373202988150571e-05	6.441513528962509e-07	8.0503311748238442	0.00051199999999999998	91.317073170731703	117.09756097560975	118.46341463414635	78.69404517453799	104.62904260780287	104.66869866529774	91.0	117.0	118.0	79.0	105.0	105.0	RhTFIso05r01_SCLW_27	RhTFIso05r01_SCLW_27
3	2	310	181	124	0.043971549197141239	0.27993600000000002	0.044599408904871525	0.00062437069105427258	0.0013441599384735998	-2.8853228929381472e-06	0.035121578240018395	0.080063999999999996	131.36877000457247	154.32510288065845	138.85779606767261	77.178295262643317	101.99146742511776	99.500044440494179	133.0	155.0	138.0	77.0	102.0	99.0	RhTFIso05r01_SCLW_27	RhTFIso05r01_SCLW_27
4	2	435	190	124	0.044076422782514696	0.27635199999999999	0.044732706982832292	0.00062125985838993615	0.0012185785846133407	-1.9149051245646339e-06	0.038317624682439738	0.076160000000000005	130.56808707735061	153.37494210282537	137.45599814729042	75.495179977005392	100.44848324047051	98.280976386309362	131.0	153.0	137.0	75.0	100.0	98.0	RhTFIso05r01_SCLW_27	RhTFIso05r01_SCLW_27
5	2	556	193	124	0.039883976644263609	0.27065600000000001	0.04057210965759174	0.00056532737351934405	0.0011482871578529109	-2.9879689481030776e-06	0.041398797783672635	0.072511999999999993	125.59021045164342	149.81555923386142	136.28351856230788	74.889434889434895	99.772902772902768	97.846788346788344	125.0	149.0	135.0	75.0	100.0	97.0	RhTFIso05r01_SCLW_27	RhTFIso05r01_SCLW_27
6	2	683	188	124	0.035426162033839206	0.26432	0.03627947129343817	0.00051277601560024673	0.00089252181346965596	-3.3230738692746114e-06	0.043048223659927623	0.070272000000000001	122.06368038740921	145.46271186440677	132.39612590799032	73.872205306655061	98.756676816006959	96.068551544149628	121.0	144.0	131.0	74.0	99.0	96.0	RhTFIso05r01_SCLW_27	RhTFIso05r01_SCLW_27
7	2	800	193	124	0.041077166332867801	0.27763199999999999	0.041973349279144735	0.00056730001907199178	0.00096745333926291513	-3.8653028569747412e-06	0.046909617312595381	0.068991999999999998	126.02558782849239	149.53135085292763	133.62194559704932	72.985204217241076	97.923806148666614	95.092052804110921	125.0	148.0	132.0	73.0	98.0	95.0	RhTFIso05r01_SCLW_27	RhTFIso05r01_SCLW_27
8	2	931	184	124	0.040227491300862409	0.279808	0.041171600453090783	0.0005468175902645883	0.00095837165592627951	-3.2460797823645451e-06	0.042798662546752603	0.072511999999999993	124.44350411710887	147.83600182982616	131.41742909423604	72.274237980982846	96.70745578956722	93.395716697769487	124.0	147.0	130.0	72.0	96.0	93.0	RhTFIso05r01_SCLW_27	RhTFIso05r01_SCLW_27
9	2	1054	189	124	0.0408385887699622	0.27699200000000002	0.041833140339683918	0.0005581657032328269	0.0010119077640530839	-3.9872246141369494e-06	0.04586077151761922	0.069695999999999994	124.47204251386322	148.20055452865066	130.25046210720888	71.463839957510842	96.332920244312646	92.912100557670172	124.0	147.0	128.0	71.0	96.0	93.0	RhTFIso05r01_SCLW_27	RhTFIso05r01_SCLW_27
10	2	1180	189	124	0.035026031556711676	0.26534400000000002	0.036080045305071043	0.00049284539975889396	0.00094966610533240995	-4.5872142186536905e-06	0.048542221872748176	0.066304000000000002	121.25470332850941	144.7916063675832	128.19078630004825	71.072741528007668	95.455527484972563	92.099834480355426	120.0	143.0	127.0	71.0	95.0	92.0	RhTFIso05r01_SCLW_27	RhTFIso05r01_SCLW_27
11	2	1312	186	124	0.037147089954721928	0.27526400000000001	0.038284067194876967	0.00050780583943602249	0.00091931219834015141	-4.1732104419667087e-06	0.043866536817108032	0.071040000000000006	120.9781446175308	145.12973727040225	126.23715415019763	70.479070999646765	94.378753090780648	90.918138466972806	120.0	144.0	123.0	70.0	94.0	91.0	RhTFIso05r01_SCLW_27	RhTFIso05r01_SCLW_27
12	2	1428	183	124	0.041836222885174502	0.30084210526315791	0.043094539693759322	0.00051890042564119447	0.00090966259514519321	-4.0836615012041895e-06	0.043645073545502157	0.077964912280701751	121.45276417074878	144.7126195474691	126.22369955679963	69.517213690655424	93.721670179664756	90.154170430593197	120.0	143.0	123.0	69.0	93.0	90.0	RhTFIso05r01_SCLW_27	RhTFIso05r01_SCLW_27
1	3	62	309	124	0.04162531064261784	0.35052800000000001	0.044532408082632244	0.00059464579661706299	0.0066751941867633736	-3.4379178906774405e-06	0.020175244848930511	0.11820799999999999	128.87803542085084	153.70074858499177	142.03249954354573	81.001379582183688	107.14544737879385	107.62800551832873	132.0	156.0	142.0	80.0	106.0	107.0	RhTFIso05r01_SCLW_27	RhTFIso05r01_SCLW_27
2	3	186	315	124	0.05018352578456764	0.29843199999999998	0.050685687930638622	0.00067773850094541091	0.001670238305085676	-2.7564866616471493e-06	0.031311443144234986	0.087552000000000005	134.1653441990135	157.03752948745444	141.6738151404675	78.66046341908411	104.29337712096333	102.47427476737822	136.0	158.0	142.0	78.0	104.0	102.0	RhTFIso05r01_SCLW_27	RhTFIso05r01_SCLW_27
3	3	310	310	124	0.047626339322905484	0.29228799999999999	0.048209460187464151	0.0006428649530848871	0.0014015950042913826	-2.2218484506066152e-06	0.038369660945116624	0.078271999999999994	132.81869936500985	155.30851762645062	139.34311364134004	76.876469524326282	102.04286489419425	99.511937059142696	134.0	156.0	139.0	76.0	102.0	99.0	RhTFIso05r01_SCLW_27	RhTFIso05r01_SCLW_27
4	3	426	322	124	0.044510110450959463	0.27776000000000001	0.04509874687561561	0.00063010877864026218	0.0013906655488271516	-2.2154138432067204e-06	0.031017910991402265	0.084863999999999995	130.5831797235023	154.11820276497696	139.42327188940092	76.008329641116532	101.07089056269385	98.905715551617192	131.0	154.0	139.0	76.0	101.0	98.0	RhTFIso05r01_SCLW_27	RhTFIso05r01_SCLW_27
5	3	558	315	124	-2.1152660645384302e-05	0.0	0.0			1.0768298731624612e-07	0.0	0.0				74.805120000000002	99.855872000000005	100.450176				75.0	100.0	101.0	RhTFIso05r01_SCLW_27	RhTFIso05r01_SCLW_27
6	3	683	317	124	0.050408589133397762	0.29670400000000002	0.051225269333132505	0.00066026443517396103	0.0013702881181567972	-3.3916452095812876e-06	0.039399085499378574	0.077824000000000004	133.16760138050043	155.82161345987922	139.86108714408974	74.703794703794699	99.011375011375009	96.766311766311773	133.0	155.0	139.0	74.0	99.0	96.0	RhTFIso05r01_SCLW_27	RhTFIso05r01_SCLW_27
7	3	814	315	124	0.039699958045623478	0.27443200000000001	0.040526470451570581	0.00055716164261389333	0.0009254804475789251	-4.1281481671726959e-06	0.043033281817890935	0.071615999999999999	125.0888526119403	148.49043843283582	134.44962686567163	73.694716415277412	98.168210284907829	95.553056364117495	125.0	148.0	134.0	73.0	98.0	95.0	RhTFIso05r01_SCLW_27	RhTFIso05r01_SCLW_27
8	3	924	310	124	0.040450040053503639	0.295296	0.041396659122326797	0.00052866071159620245	0.00091339297345153006	-3.5944823978392636e-06	0.043765995054844631	0.073663999999999993	122.90030342436064	146.52275682704811	132.10468140442131	72.901462174189447	97.600581236944876	94.843066024884209	122.0	146.0	131.0	73.0	97.0	95.0	RhTFIso05r01_SCLW_27	RhTFIso05r01_SCLW_27
9	3	1051	315	124	4.9204454287599243e-05	0.0	0.0			-6.161130617058827e-07	0.0	6.3999999999999997e-05				73.012863999999993	97.651904000000002	95.109952000000007				73.0	98.0	95.0	RhTFIso05r01_SCLW_27	RhTFIso05r01_SCLW_27
10	3	1180	309	124	0.041740598546277555	0.28620800000000002	0.042776423600316645	0.00055705470959873152	0.00097722814514192616	-4.5537169222486638e-06	0.041980242309533136	0.074048000000000003	125.31216457960645	148.7162343470483	130.64982110912342	72.196808033712898	96.229534654353088	93.250874204249982	125.0	148.0	128.0	72.0	96.0	93.0	RhTFIso05r01_SCLW_27	RhTFIso05r01_SCLW_27
11	3	1304	314	124	0.039956010309792594	0.28326400000000002	0.041061854170871555	0.00053596887281600551	0.00089683280594164195	-3.9524884710975207e-06	0.043789848384812639	0.072127999999999998	124.3093086308179	146.75146859466787	128.88996836873022	70.843825341548353	95.122957406911326	91.701669791945704	123.0	146.0	127.0	71.0	95.0	92.0	RhTFIso05r01_SCLW_27	RhTFIso05r01_SCLW_27
12	3	1428	315	124	0.043801077880213549	0.30596491228070177	0.044955832847383963	0.0005453520402224826	0.0010012865114198473	-5.0184865343038637e-06	0.04344470381587133	0.078807017543859645	121.58142201834862	145.55573394495414	128.4282110091743	70.044691607684527	94.103640040444887	90.730333670374122	121.0	144.0	126.0	70.0	94.0	91.0	RhTFIso05r01_SCLW_27	RhTFIso05r01_SCLW_27
1	4	62	441	124	0.045637383561513242	0.35059200000000001	0.047647463975969008	0.00060357836833138971	0.0044349220848928202	-4.4031632977611487e-06	0.018673659457861203	0.12288	130.93391748813437	154.97736400146039	143.47681635633444	80.668867645609538	107.28707992510101	107.957031634966	133.0	157.0	143.0	80.0	106.0	107.0	RhTFIso05r01_SCLW_27	RhTFIso05r01_SCLW_27
2	4	186	438	124	0.048090247247098296	0.28767999999999999	0.048529104859927619	0.00066952026784291381	0.0015415916476824889	-2.1059089766802822e-06	0.03541056522007667	0.080832000000000001	134.71457174638488	156.9726362625139	142.04360400444938	78.946271338724173	104.53270440251572	103.3084456424079	136.0	158.0	142.0	79.0	104.0	103.0	RhTFIso05r01_SCLW_27	RhTFIso05r01_SCLW_27
3	4	310	441	124	0.044261430324365199	0.27468799999999999	0.044818118632636357	0.00064479122255729228	0.0014287486528141034	-3.3085513583565648e-06	0.036595880757465463	0.077696000000000001	130.86602982292638	154.06849953401678	138.38280521901211	77.219977058148771	101.91643871878584	100.72019765287214	132.0	154.0	138.0	77.0	102.0	101.0	RhTFIso05r01_SCLW_27	RhTFIso05r01_SCLW_27
4	4	430	441	124	7.9883707492181492e-06	0.0	0.0			3.2753154801333312e-07	0.0	6.3999999999999997e-05				75.263232000000002	100.31052800000001	100.928128				75.0	100.0	101.0	RhTFIso05r01_SCLW_27	RhTFIso05r01_SCLW_27
5	4	565	439	124	0.047178528542006291	0.28307199999999999	0.047951924397164815	0.00065376835349550738	0.0012837642747695716	-3.5714085267844796e-06	0.038278305970841149	0.077119999999999994	131.92018991634637	155.52566131584896	139.54126158715803	75.361364042135335	99.764059989287631	98.729958935904307	132.0	156.0	138.0	75.0	99.0	99.0	RhTFIso05r01_SCLW_27	RhTFIso05r01_SCLW_27
6	4	680	441	124	0.043807197777201733	0.27654400000000001	0.044559237711510352	0.00061943799719529956	0.0011706409216934149	-3.6152179781059282e-06	0.038996902775528572	0.075520000000000004	129.02753992131451	152.32677620921083	136.9451515852812	74.218860580325554	99.164543524416132	96.67250530785563	129.0	152.0	136.0	74.0	99.0	96.0	RhTFIso05r01_SCLW_27	RhTFIso05r01_SCLW_27
7	4	807	437	124	0.041751734760632951	0.27046399999999998	0.042442988442692377	0.00059625415685984917	0.0010104912610595868	-3.9490659432434371e-06	0.043650410457494446	0.070592000000000002	125.58542356838618	149.02792238523426	135.28703265499291	74.172822177383978	98.322045793490659	95.9266602333538	126.0	148.0	134.0	74.0	98.0	96.0	RhTFIso05r01_SCLW_27	RhTFIso05r01_SCLW_27
8	4	922	441	124	0.043111699797169091	0.28428799999999999	0.043973937017941764	0.0005851846847360878	0.0010504848162878834	-3.5828593677059894e-06	0.042207802093749296	0.073599999999999999	127.30706888788833	150.75213867627195	135.22737505628095	73.328892068317984	97.965841008673877	95.263077886077085	128.0	150.0	134.0	73.0	98.0	95.0	RhTFIso05r01_SCLW_27	RhTFIso05r01_SCLW_27
9	4	1060	437	124	0.042653530929771748	0.29215999999999998	0.043534626331228267	0.00056295909775865688	0.00092153200708834117	-4.2732051136651913e-06	0.047237560033192925	0.070527999999999993	126.73012048192771	149.78181818181818	133.95815991237677	74.203345388788421	98.057866184448457	95.131193490054244	127.0	149.0	133.0	74.0	98.0	95.0	RhTFIso05r01_SCLW_27	RhTFIso05r01_SCLW_27
10	4	1180	432	124	0.040332316033967718	0.27865600000000001	0.041293476712630298	0.00055294939982617191	0.00094314263468501787	-3.525411099071135e-06	0.043695641099602875	0.071615999999999999	126.27905374368397	149.03123564538356	132.0316949931098	72.67766835240883	96.64235649010736	93.527903469079945	126.0	148.0	130.0	72.0	96.0	93.0	RhTFIso05r01_SCLW_27	RhTFIso05r01_SCLW_27
11	4	1304	444	124	0.038736000214617643	0.28115200000000001	0.039847786010524917	0.00052635881495037627	0.00085023901698322117	-3.9910233851595963e-06	0.044324380876466007	0.071424000000000001	123.93603460050079	147.14386524015478	130.8397450489415	71.850694444444443	95.853810541310537	92.798878205128204	123.0	146.0	129.0	71.0	96.0	93.0	RhTFIso05r01_SCLW_27	RhTFIso05r01_SCLW_27
12	4	1428	445	124	0.034747365757403427	0.29136842105263155	0.035936826783670599	0.00046313428984796928	0.00099334269874665074	-4.2273796797356753e-06	0.030778343368007204	0.091368421052631585	117.1840077071291	141.30130057803467	127.68280346820809	70.849970291146761	94.917013269954452	91.840265399088935	117.0	141.0	127.0	70.0	95.0	92.0	RhTFIso05r01_SCLW_27	RhTFIso05r01_SCLW_27
1	5	62	566	124	0.045477041007914859	0.34918399999999999	0.046698308856090012	0.00058046749884681551	0.0033379486330383391	-3.916124255614481e-06	0.013999786022238397	0.14163200000000001	128.20601173020529	152.77199413489737	142.77016129032259	80.317041990362867	107.56829580096371	108.54046612252925	131.0	155.0	143.0	80.0	107.0	108.0	RhTFIso05r01_SCLW_27	RhTFIso05r01_SCLW_27
2	5	186	563	124	0.046173484712293926	0.28511999999999998	0.046636750651488673	0.00066077735951278736	0.001662652514526246	-1.8697603226300609e-06	0.028079422978561999	0.090368000000000004	132.5800224466891	155.56632996632996	141.12592592592591	78.586392121754699	104.42166517457476	104.23384064458371	135.0	157.0	142.0	78.0	104.0	105.0	RhTFIso05r01_SCLW_27	RhTFIso05r01_SCLW_27
3	5	302	570	124	0.043813368362460171	0.27456000000000003	0.04436919790474337	0.00063964562381836133	0.0014306631937392874	-2.5255941958705176e-06	0.03234555978954632	0.082624000000000003	131.94172494172494	154.4086247086247	138.91655011655013	77.731363034847817	102.63661226290252	101.3880017644464	134.0	155.0	138.0	78.0	102.0	101.0	RhTFIso05r01_SCLW_27	RhTFIso05r01_SCLW_27
4	5	443	563	124	0.052325784697286097	0.318272	0.053175346600899641	0.000647210957136688	0.0011606304621108916	-3.2109778101443971e-06	0.035703322669742757	0.084671999999999997	131.95636436758497	154.66720289563645	140.61049668208324	75.911847540368001	100.65687194892978	98.680435598948549	132.0	155.0	140.0	76.0	100.0	98.0	RhTFIso05r01_SCLW_27	RhTFIso05r01_SCLW_27
5	5	554	571	124	0.044465570349521942	0.28339199999999998	0.045215315068562169	0.00061561781308613276	0.0012463036371483018	-3.303293696153558e-06	0.035726321781762625	0.079871999999999999	130.22064137308041	153.22402890695574	138.99909665763323	75.593283915334467	99.971599535589888	99.278467446637492	130.0	153.0	138.0	75.0	100.0	99.0	RhTFIso05r01_SCLW_27	RhTFIso05r01_SCLW_27
6	5	680	557	124	0.044615696195852129	0.30668800000000002	0.045488084013624232	0.00056331982013353406	0.0010094019334663919	-3.6740500354317058e-06	0.041887872910501008	0.076735999999999999	127.53547579298831	150.3313856427379	137.37771285475793	74.347549155358621	99.23557647927629	98.053817040524322	127.0	150.0	136.0	74.0	99.0	98.0	RhTFIso05r01_SCLW_27	RhTFIso05r01_SCLW_27
7	5	800	558	124	0.043631854067760795	0.28198400000000001	0.044420788218733284	0.00060288307282762329	0.001107585340371511	-3.3709802804293653e-06	0.038131181575294167	0.077119999999999994	128.41942805265546	150.78665456196097	136.71493418066274	73.998217309920676	98.697388359033781	96.777965950619489	129.0	151.0	136.0	74.0	98.0	96.0	RhTFIso05r01_SCLW_27	RhTFIso05r01_SCLW_27
8	5	925	560	124	0.045211303273982047	0.28748800000000002	0.04599402452893623	0.00060846645354838906	0.0012528524836644089	-2.7952463683983079e-06	0.037069718851675121	0.078976000000000005	128.53918076580587	151.03094390026715	135.93432769367766	73.658043654001617	98.045719931734482	95.458995778316719	128.0	151.0	134.0	73.0	98.0	95.0	RhTFIso05r01_SCLW_27	RhTFIso05r01_SCLW_27
9	5	1048	566	124	-1.7125055349965855e-05	0.0	0.0			-8.158914853026671e-08	0.0	0.0				72.870847999999995	97.343103999999997	95.643392000000006				73.0	97.0	95.0	RhTFIso05r01_SCLW_27	RhTFIso05r01_SCLW_27
10	5	1180	557	124	0.046632164214801944	0.29388799999999998	0.047596588367209078	0.00061857641123006912	0.0011343982453471705	-4.0224025546641369e-06	0.042298606285432097	0.074751999999999999	128.56119337979095	151.1587543554007	134.1295731707317	72.553068068521711	96.611800960754096	93.862322124535481	129.0	151.0	132.0	72.0	96.0	94.0	RhTFIso05r01_SCLW_27	RhTFIso05r01_SCLW_27
11	5	1302	571	124	2.0723223984185184e-05	0.0	0.0			-7.199176178340065e-08	0.0	6.3999999999999997e-05				71.479680000000002	95.827392000000003	93.755392000000001				71.0	96.0	93.0	RhTFIso05r01_SCLW_27	RhTFIso05r01_SCLW_27
12	5	1428	557	124	0.045515628086610915	0.31656140350877193	0.046933309547333747	0.00054396415916813838	0.00097719870038184462	-6.4837496404718379e-06	0.046763612504340642	0.077263157894736839	126.2613611172689	149.24540013300819	131.88849479051208	71.157202998254448	95.115001540199202	92.094260190984699	125.0	148.0	129.0	71.0	95.0	92.0	RhTFIso05r01_SCLW_27	RhTFIso05r01_SCLW_27
1	6	62	692	124	0.055728852720384928	0.37753599999999998	0.056512661464022652	0.00063601462628299667	0.003497178304809521	-3.8433988003343953e-06	0.015315913275641481	0.14080000000000001	130.99627055433123	155.79505000847601	144.51924054924564	79.973267530331071	106.81163890602508	107.39049969154843	134.0	158.0	145.0	79.0	106.0	107.0	RhTFIso05r01_SCLW_27	RhTFIso05r01_SCLW_27
2	6	186	695	124	0.046394922512386284	0.28153600000000001	0.04684761296653072	0.00067722466237096876	0.0017733613578902298	-2.4480812142662798e-06	0.026547960562145066	0.092352000000000004	133.24414639690838	156.44760172766539	142.75198908842918	78.757170853376095	104.19837876358453	103.91386068056298	136.0	159.0	144.0	79.0	104.0	104.0	RhTFIso05r01_SCLW_27	RhTFIso05r01_SCLW_27
3	6	310	693	124	0.037973214514004441	0.27718399999999999	0.038469480122710252	0.00056289785133414394	0.0016055641294251545	-2.0602045733802328e-06	0.018461095011307181	0.109888	123.29485107365504	148.20133918263681	136.62941583929808	77.237648308836555	102.19063219408535	101.63644412962635	126.0	150.0	138.0	77.0	102.0	102.0	RhTFIso05r01_SCLW_27	RhTFIso05r01_SCLW_27
4	6	435	693	124	0.050296745607221069	0.31840000000000002	0.051019453456467828	0.00062063751675014544	0.0011105760274761328	-3.1277631087256658e-06	0.041390358052010558	0.078656000000000004	129.85065326633165	153.45567839195979	140.11216080402011	75.840093896713611	100.94037558685446	99.835399061032859	130.0	153.0	140.0	75.0	101.0	100.0	RhTFIso05r01_SCLW_27	RhTFIso05r01_SCLW_27
5	6	562	686	124	0.040641512943435272	0.27007999999999999	0.041432914639948526	0.00059465175585238347	0.0012554752094450846	-3.2685742253835115e-06	0.033562303442865191	0.080448000000000006	128.49099526066351	152.0760663507109	138.95616113744074	75.52240245506357	100.20210434020167	98.94327049539676	129.0	152.0	139.0	75.0	100.0	99.0	RhTFIso05r01_SCLW_27	RhTFIso05r01_SCLW_27
6	6	683	692	124	0.043784751562201685	0.28070400000000001	0.044527533199171625	0.00060921503478717138	0.0011598648517669578	-3.2881852786219334e-06	0.035105595900774667	0.080191999999999999	128.88531691746465	151.83812129502965	138.5125398996808	74.839487498887806	99.629237476643823	98.332146988166201	129.0	152.0	137.0	75.0	99.0	98.0	RhTFIso05r01_SCLW_27	RhTFIso05r01_SCLW_27
7	6	809	692	124	0.040839551155209111	0.26860800000000001	0.041575773320435834	0.00060514305252733019	0.0012607382717097731	-3.6374106253119241e-06	0.033432553975608445	0.080383999999999997	127.72480343102215	150.62806766738146	136.83654991660711	75.008575428771437	99.21001050052503	97.210710535526772	128.0	151.0	137.0	75.0	99.0	97.0	RhTFIso05r01_SCLW_27	RhTFIso05r01_SCLW_27
8	6	928	692	124	0.042984029434874144	0.274816	0.043632403440242808	0.00061728352303392676	0.0013346089876040646	-2.5517463815097e-06	0.033350141545317062	0.081407999999999994	127.21238938053098	149.93223102002796	136.17745691662785	74.926749624922778	98.557850145618218	96.225928867708063	128.0	150.0	136.0	75.0	98.0	96.0	RhTFIso05r01_SCLW_27	RhTFIso05r01_SCLW_27
9	6	1056	698	124	0.043337821922818424	0.28255999999999998	0.044175529648744681	0.00059711167663397942	0.0011098405225895374	-2.9968597634886028e-06	0.041373613506697979	0.074111999999999997	128.49558323895809	150.88176670441675	135.4251415628539	74.340856378233724	97.823371989295268	95.493577163247096	129.0	150.0	135.0	74.0	97.0	95.0	RhTFIso05r01_SCLW_27	RhTFIso05r01_SCLW_27
10	6	1172	692	124	0.043372004010407833	0.28582400000000002	0.044279632420375761	0.00059212238628064901	0.0010195599979998435	-3.7893838998118186e-06	0.043796129277840955	0.072447999999999999	128.19793999104343	149.87729511867443	133.96148678907301	73.706156465633114	97.021865758580518	94.285778295546194	128.0	149.0	134.0	73.0	97.0	94.0	RhTFIso05r01_SCLW_27	RhTFIso05r01_SCLW_27
11	6	1303	686	124	0.044805622861313191	0.28588799999999998	0.045665985772292098	0.00060479619827426474	0.0010775835020493682	-3.7323851424182862e-06	0.041147185164857401	0.074751999999999999	127.94963062458025	150.21625251846876	133.18065815983883	72.916651729700661	96.161677720021515	93.452052339128869	127.0	150.0	131.0	73.0	96.0	93.0	RhTFIso05r01_SCLW_27	RhTFIso05r01_SCLW_27
12	6	1428	692	124	0.046994175043012454	0.31403508771929822	0.04820606883510898	0.00057513043719294849	0.00094789579223820606	-4.9469127863225997e-06	0.047418427112140941	0.076421052631578945	127.48826815642458	149.28178770949719	132.31463687150838	72.082659846547315	95.831202046035813	92.885524296675186	127.0	148.0	130.0	72.0	96.0	93.0	RhTFIso05r01_SCLW_27	RhTFIso05r01_SCLW_27
1	7	62	820	124	0.059259612220851757	0.38483200000000001	0.060112300391689556	0.00065884799566229963	0.0038303138896216226	-3.4250809724231913e-06	0.015769195765809759	0.140096	134.05903874937636	156.95792449692334	145.74538499916846	79.536933000416141	106.84332084893883	107.92436537661257	138.0	159.0	147.0	79.0	106.0	107.0	RhTFIso05r01_SCLW_27	RhTFIso05r01_SCLW_27
2	7	186	814	124	0.049015483938502018	0.29548799999999997	0.049495190325891898	0.00066957264202470641	0.0015911869724760976	-2.1317725586162324e-06	0.031414548704814388	0.086975999999999998	134.49555988737276	156.85336798787091	142.80073640892354	78.006268168604649	104.11082848837209	103.24863735465117	137.0	158.0	144.0	78.0	104.0	103.0	RhTFIso05r01_SCLW_27	RhTFIso05r01_SCLW_27
3	7	310	818	124	0.050802718827868756	0.29593599999999998	0.051541340073522915	0.00067919152049488449	0.0015066499470066637	-3.1229397734102074e-06	0.037729767278991695	0.079423999999999995	135.64641003460207	157.7923875432526	142.34818339100346	76.20107262976093	101.08726479410963	100.48386510317243	137.0	158.0	142.0	76.0	101.0	101.0	RhTFIso05r01_SCLW_27	RhTFIso05r01_SCLW_27
4	7	432	818	124	0.044562129694098229	0.274752	0.045249395934710043	0.00064498363221815274	0.0013623073490677806	-3.0588876658045785e-06	0.030315106154256415	0.085375999999999994	130.42394595853716	152.81225250407641	139.87491264849754	75.475555947758565	100.24241087186728	99.202523826332509	131.0	153.0	140.0	75.0	100.0	99.0	RhTFIso05r01_SCLW_27	RhTFIso05r01_SCLW_27
5	7	552	813	124	0.047538973649562236	0.29260799999999998	0.048272963444719687	0.00064014895854310166	0.0012350502332588028	-3.0876893582960899e-06	0.039371523212283821	0.077312000000000006	132.18044619422571	154.39435695538057	140.71762904636921	75.248258391386955	100.19361259386592	99.468198679091643	133.0	154.0	140.0	75.0	100.0	100.0	RhTFIso05r01_SCLW_27	RhTFIso05r01_SCLW_27
6	7	678	812	124	0.046496887550703421	0.28864000000000001	0.047258616462252073	0.00063643279860091601	0.001269085746870312	-2.4958552327056533e-06	0.038077352506557291	0.078079999999999997	131.3988913525499	153.68492239467849	139.41951219512194	75.475123706702661	100.28969860548808	98.911111111111111	132.0	154.0	139.0	75.0	100.0	98.0	RhTFIso05r01_SCLW_27	RhTFIso05r01_SCLW_27
7	7	815	813	124	0.044274788759454675	0.28633599999999998	0.045092229660434559	0.00060854739675743124	0.0010805486388835597	-4.227827211856995e-06	0.04784618105744997	0.069375999999999993	130.954179704962	152.77402771569066	137.99441215914172	76.053806833467846	100.40713837324007	98.331450094161966	131.0	153.0	137.0	76.0	100.0	98.0	RhTFIso05r01_SCLW_27	RhTFIso05r01_SCLW_27
8	7	934	817	124	0.043811032068714825	0.28684799999999999	0.04452700348011486	0.00059701444606083192	0.0011216264125921659	-2.5963078898133877e-06	0.045466485756067362	0.071232000000000004	129.98036590807675	152.06916555109325	136.06671128960286	75.829399623081756	99.841873822130481	97.562056896706451	130.0	152.0	135.0	76.0	100.0	97.0	RhTFIso05r01_SCLW_27	RhTFIso05r01_SCLW_27
9	7	1049	818	124	0.0444013601673372	0.28723199999999999	0.045145897399570048	0.00060999513878705878	0.0011467181590439043	-3.1719200590299914e-06	0.03795380317332956	0.078016000000000002	129.57887700534761	151.600935828877	135.3250891265597	75.589566310496537	99.288138636975845	96.648828230223586	130.0	151.0	135.0	75.0	99.0	96.0	RhTFIso05r01_SCLW_27	RhTFIso05r01_SCLW_27
10	7	1184	818	124	0.050221830254258977	0.30604799999999999	0.051259772356918032	0.00063488484940351091	0.0013223881923621807	-4.4877550474715125e-06	0.036449316460113908	0.082175999999999999	133.93517356754495	154.92910915934755	137.32413216227519	74.631467306096098	97.905745642349899	94.824310615143403	134.0	154.0	135.0	74.0	98.0	95.0	RhTFIso05r01_SCLW_27	RhTFIso05r01_SCLW_27
11	7	1295	825	124	0.048500073500213466	0.30713600000000002	0.049436660876269377	0.00061292158907501467	0.0010744286237374555	-3.2669998099673699e-06	0.043605971888383936	0.075263999999999998	130.17211919149824	151.70222963117317	133.29777036882683	73.751062257528176	97.511453907260304	94.501939774616659	130.0	151.0	131.0	73.0	97.0	94.0	RhTFIso05r01_SCLW_27	RhTFIso05r01_SCLW_27
12	7	1434	812	124	2.5470470119003058e-05	0.0	0.0			-9.8571631417192356e-08	0.0	0.0				72.407851851851845	96.429037037037034	95.122148148148142				72.0	96.0	95.0	RhTFIso05r01_SCLW_27	RhTFIso05r01_SCLW_27
1	8	67	952	124	0.068434957000216276	0.39927272727272728	0.068917322387625435	0.00068988399915608976	0.0017044014612500353	-2.5996228412083623e-06	0.050851077746605251	0.089292929292929299	137.6775956284153	159.95668892936652	148.13742157458003	77.099004573580842	104.28396556362658	109.20554210384719	139.0	161.0	148.0	76.0	104.0	109.0	RhTFIso05r01_SCLW_27	RhTFIso05r01_SCLW_27
2	8	186	950	124	0.069693398380464691	0.38320792079207922	0.070176879859738958	0.00072671424445033936	0.0015887579624233609	-2.9950610783776903e-06	0.050427919144486646	0.086970297029702964	138.68850764778836	160.60107482430757	145.10810252170319	77.35135482213947	103.31205855913703	104.46603313214331	140.0	162.0	145.0	77.0	103.0	104.0	RhTFIso05r01_SCLW_27	RhTFIso05r01_SCLW_27
3	8	310	944	124	0.065730189671571473	0.36785046728971965	0.066650260393541744	0.00071280260090107956	0.0014895615354949545	-4.5849336760935392e-06	0.039316956662219731	0.093757009345794395	137.63191056910568	159.25284552845528	141.69959349593495	75.809107037256055	100.27474866942637	99.889769367238316	139.0	160.0	141.0	75.0	100.0	100.0	RhTFIso05r01_SCLW_27	RhTFIso05r01_SCLW_27
4	8	435	944	124	0.063546191533472823	0.35723364485981307	0.064578393824215458	0.00070521991444312028	0.0013943699006199336	-4.7771022222369687e-06	0.035637450288228262	0.09704672897196262	137.11113436584344	158.43511929677689	142.12766848053579	74.998604164243346	99.011631964638823	98.763638478539022	138.0	159.0	142.0	74.0	99.0	99.0	RhTFIso05r01_SCLW_27	RhTFIso05r01_SCLW_27
5	8	559	944	124	0.061331410843333725	0.35162616822429904	0.06227133112985294	0.00069304085359689664	0.0014600913252808237	-5.593836114576561e-06	0.034649621020740179	0.097644859813084114	135.2304911758452	156.70423134169678	140.8250053157559	75.139760147601478	99.513145756457561	99.629497232472332	136.0	157.0	140.0	75.0	99.0	100.0	RhTFIso05r01_SCLW_27	RhTFIso05r01_SCLW_27
6	8	686	944	124	0.061664610597564534	0.35357009345794393	0.062464979087643667	0.00069570926766181012	0.0014321303893810213	-4.0289862809863361e-06	0.041964809431046204	0.088971962616822428	136.18693169803342	157.88390780291817	141.88263903573693	76.643071940781866	101.44529262086515	101.23733518390007	137.0	159.0	142.0	76.0	101.0	102.0	RhTFIso05r01_SCLW_27	RhTFIso05r01_SCLW_27
7	8	803	944	124	0.061698312951688684	0.35685981308411213	0.062454853987157999	0.00068595178164892741	0.0014139695807296505	-3.2493546040957921e-06	0.041238862997296774	0.090168224299065416	136.60402262727845	157.56149172428243	141.6469725539493	76.741106719367593	102.00592885375494	101.5131364798884	138.0	158.0	141.0	76.0	102.0	102.0	RhTFIso05r01_SCLW_27	RhTFIso05r01_SCLW_27
8	8	930	944	124	0.057634542186601696	0.35439252336448596	0.058493913534858638	0.00064392445778803126	0.0014099266662256375	-3.6951709842757727e-06	0.035245323498261823	0.09719626168224299	133.09430379746834	155.89282700421941	140.19767932489452	76.277243775332948	101.31835552982049	101.0501447596989	134.0	156.0	139.0	76.0	101.0	101.0	RhTFIso05r01_SCLW_27	RhTFIso05r01_SCLW_27
9	8	1058	944	124	0.063837573423048341	0.37136448598130839	0.064762689999657883	0.00068020779699877487	0.0013112329484234412	-6.1065125223491802e-06	0.040010976173426818	0.093383177570093456	135.02395812361587	156.97684719146366	139.38594725186229	75.634514747859185	100.1285680304472	99.040913415794478	136.0	157.0	139.0	75.0	100.0	99.0	RhTFIso05r01_SCLW_27	RhTFIso05r01_SCLW_27
10	8	1174	944	124	0.058270656795669153	0.36052336448598132	0.059149566562201529	0.00063303280525400796	0.0012226683929531237	-4.9230347144513335e-06	0.041318903106358468	0.090542056074766356	132.04790543343012	154.02592285358773	136.52986312733304	74.807202151291946	99.364082777972641	97.793990412720689	132.0	154.0	135.0	74.0	99.0	98.0	RhTFIso05r01_SCLW_27	RhTFIso05r01_SCLW_27
11	8	1304	944	124	0.068702279335337998	0.39028037383177572	0.069666025267272211	0.00068887419284130176	0.0013862405088204087	-4.372334842951343e-06	0.039296632891474857	0.096598130841121496	135.32413793103447	156.00038314176246	136.96015325670498	73.839975475168615	97.927038626609445	96.640588595953403	135.0	156.0	136.0	73.0	97.0	97.0	RhTFIso05r01_SCLW_27	RhTFIso05r01_SCLW_27
12	8	1424	950	124	3.7866782565512506e-05	0.0	0.0			4.8620981181067281e-08	0.0	0.0				72.673351233428434	96.827236113441856	97.880349051854338				73.0	97.0	98.0	RhTFIso05r01_SCLW_27	RhTFIso05r01_SCLW_27
